=======================
Unit-Commitment-Problem
MILP
Michael Tunder
=======================

Instanz: res-dem
Planung: 40 Einheiten & 24 Stunden
Abweichung von Nachfrage: moeglich

MIP-Status: Loesung gefunden
Abbruchsgrund: Zeitlimit
Gesamtkosten [GE]: 1582756.3
Ganzzahlige Loesung
Bedarfsabweichungskosten [%]: 0

Optimierungsdauer [s]: 18003.822 (300.064min)
Maximale Dauer: 18000s / 300.000min / 5.00h
Beste Schranke [GE]: 1576337.651
Optimalitaetsluecke [%]: 4.05536154e-05
Nebenbedingungen: 7460
Entscheidungsvariablen (gesamt): 6744
Kontinuierliche Variablen: 1944
Binaervariablen: 4800
Fixierte Binaervariablen: --
Verbleibende Binaervariablen: --
Iterationen: --
Xpress-Version: 8.11.1

Schedule: Commitment-Status
===========================
 Time |    1  |    2  |    3  |    4  |    5  |    6  |    7  |    8  |    9  |   10  |   11  |   12  |   13  |   14  |   15  |   16  |   17  |   18  |   19  |   20  |   21  |   22  |   23  |   24  |
 Unit |       |       |       |       |       |       |       |       |       |       |       |       |       |       |       |       |       |       |       |       |       |       |       |       |
-------------------------------------------------------------------------------------------------------------------------------------------------------------------------------------------------------
    1 |   X   |   X   |   X   |   X   |   X   |   X   |   X   |   X   |   X   |   X   |   X   |   X   |   X   |   X   |   X   |   X   |   X   |   X   |   X   |   X   |   X   |   X   |   X   |   X   |
    2 |   -   |   -   |   -   |   -   |   -   |   -   |   -   |   -   |   -   |   -   |   -   |   -   |   -   |   -   |   -   |   -   |   -   |   -   |   -   |   -   |   -   |   -   |   -   |   -   |
    3 |   -   |   -   |   -   |   -   |   -   |   -   |   -   |   -   |   -   |   -   |   -   |   -   |   -   |   -   |   -   |   -   |   -   |   X   |   X   |   X   |   X   |   X   |   X   |   X   |
    4 |   -   |   X   |   X   |   X   |   X   |   X   |   X   |   X   |   X   |   X   |   X   |   X   |   X   |   X   |   X   |   X   |   X   |   X   |   X   |   X   |   X   |   X   |   X   |   X   |
    5 |   X   |   X   |   X   |   X   |   X   |   X   |   X   |   X   |   X   |   X   |   X   |   X   |   X   |   X   |   X   |   X   |   X   |   X   |   X   |   X   |   X   |   X   |   X   |   X   |
    6 |   -   |   -   |   -   |   -   |   -   |   -   |   -   |   -   |   -   |   -   |   -   |   -   |   -   |   -   |   -   |   -   |   -   |   -   |   -   |   -   |   -   |   -   |   -   |   -   |
    7 |   -   |   -   |   -   |   -   |   -   |   -   |   -   |   -   |   -   |   -   |   -   |   -   |   -   |   -   |   -   |   -   |   -   |   -   |   -   |   -   |   -   |   -   |   -   |   -   |
    8 |   -   |   -   |   -   |   -   |   -   |   -   |   -   |   -   |   -   |   -   |   -   |   -   |   -   |   -   |   -   |   -   |   -   |   -   |   -   |   -   |   -   |   -   |   -   |   -   |
    9 |   -   |   -   |   -   |   -   |   -   |   -   |   -   |   -   |   -   |   -   |   -   |   -   |   -   |   -   |   -   |   -   |   -   |   -   |   -   |   -   |   -   |   -   |   -   |   -   |
   10 |   -   |   -   |   -   |   -   |   -   |   -   |   -   |   -   |   -   |   -   |   -   |   -   |   -   |   -   |   -   |   -   |   -   |   -   |   -   |   -   |   -   |   -   |   -   |   -   |
   11 |   X   |   X   |   X   |   X   |   X   |   X   |   X   |   X   |   X   |   X   |   X   |   X   |   X   |   X   |   X   |   X   |   X   |   X   |   X   |   X   |   X   |   X   |   X   |   -   |
   12 |   X   |   X   |   -   |   -   |   -   |   -   |   -   |   -   |   -   |   -   |   -   |   -   |   -   |   -   |   -   |   -   |   -   |   -   |   -   |   -   |   -   |   -   |   -   |   -   |
   13 |   -   |   -   |   -   |   -   |   -   |   -   |   -   |   -   |   -   |   -   |   -   |   -   |   -   |   -   |   -   |   X   |   X   |   X   |   X   |   X   |   X   |   X   |   X   |   X   |
   14 |   X   |   X   |   X   |   X   |   X   |   X   |   X   |   -   |   -   |   -   |   -   |   -   |   -   |   X   |   X   |   X   |   X   |   X   |   X   |   X   |   X   |   X   |   X   |   X   |
   15 |   X   |   X   |   X   |   X   |   X   |   X   |   X   |   X   |   X   |   X   |   X   |   X   |   X   |   X   |   X   |   X   |   X   |   X   |   X   |   X   |   X   |   -   |   -   |   -   |
   16 |   -   |   -   |   -   |   -   |   -   |   -   |   -   |   -   |   -   |   -   |   -   |   -   |   -   |   -   |   -   |   -   |   -   |   -   |   -   |   -   |   -   |   -   |   -   |   -   |
   17 |   -   |   -   |   -   |   -   |   -   |   -   |   -   |   -   |   -   |   -   |   -   |   -   |   -   |   -   |   -   |   -   |   -   |   -   |   -   |   -   |   -   |   -   |   -   |   -   |
   18 |   -   |   -   |   -   |   -   |   -   |   -   |   -   |   -   |   -   |   -   |   -   |   -   |   -   |   -   |   -   |   -   |   -   |   -   |   -   |   -   |   -   |   -   |   -   |   -   |
   19 |   -   |   -   |   -   |   -   |   -   |   -   |   -   |   -   |   -   |   -   |   -   |   -   |   -   |   -   |   -   |   -   |   -   |   -   |   -   |   -   |   -   |   -   |   -   |   -   |
   20 |   -   |   -   |   -   |   -   |   -   |   -   |   -   |   -   |   -   |   -   |   -   |   -   |   -   |   -   |   -   |   -   |   -   |   -   |   -   |   -   |   -   |   -   |   -   |   -   |
   21 |   X   |   X   |   X   |   X   |   X   |   X   |   X   |   X   |   X   |   X   |   X   |   X   |   X   |   X   |   X   |   X   |   X   |   X   |   X   |   X   |   X   |   X   |   X   |   X   |
   22 |   X   |   X   |   -   |   -   |   -   |   -   |   -   |   -   |   -   |   -   |   X   |   X   |   X   |   X   |   X   |   X   |   X   |   X   |   X   |   X   |   X   |   -   |   -   |   -   |
   23 |   -   |   -   |   -   |   -   |   -   |   -   |   -   |   -   |   -   |   -   |   -   |   -   |   -   |   -   |   -   |   -   |   X   |   X   |   X   |   X   |   X   |   X   |   X   |   X   |
   24 |   -   |   -   |   -   |   -   |   -   |   -   |   -   |   -   |   -   |   -   |   X   |   X   |   X   |   X   |   X   |   X   |   X   |   X   |   X   |   X   |   X   |   X   |   X   |   X   |
   25 |   -   |   -   |   -   |   -   |   -   |   -   |   -   |   -   |   -   |   -   |   -   |   -   |   -   |   -   |   -   |   -   |   X   |   X   |   X   |   X   |   X   |   X   |   X   |   X   |
   26 |   -   |   -   |   -   |   -   |   -   |   -   |   -   |   -   |   -   |   -   |   -   |   -   |   -   |   -   |   -   |   -   |   -   |   -   |   -   |   -   |   -   |   -   |   -   |   -   |
   27 |   -   |   -   |   -   |   -   |   -   |   -   |   -   |   -   |   -   |   -   |   -   |   -   |   -   |   -   |   -   |   -   |   -   |   -   |   -   |   -   |   -   |   -   |   -   |   -   |
   28 |   -   |   -   |   -   |   -   |   -   |   -   |   -   |   -   |   -   |   -   |   -   |   -   |   -   |   -   |   -   |   -   |   -   |   -   |   -   |   -   |   -   |   -   |   -   |   -   |
   29 |   -   |   -   |   -   |   -   |   -   |   -   |   -   |   -   |   -   |   -   |   -   |   -   |   -   |   -   |   -   |   -   |   -   |   -   |   -   |   -   |   -   |   -   |   -   |   -   |
   30 |   -   |   -   |   -   |   -   |   -   |   -   |   -   |   -   |   -   |   -   |   -   |   -   |   -   |   -   |   -   |   -   |   -   |   -   |   -   |   -   |   -   |   -   |   -   |   -   |
   31 |   X   |   X   |   X   |   X   |   X   |   X   |   X   |   X   |   X   |   X   |   X   |   X   |   X   |   X   |   X   |   X   |   X   |   X   |   X   |   X   |   X   |   X   |   X   |   X   |
   32 |   X   |   X   |   X   |   X   |   X   |   -   |   -   |   -   |   -   |   -   |   -   |   -   |   -   |   -   |   -   |   -   |   -   |   -   |   -   |   -   |   -   |   -   |   -   |   -   |
   33 |   -   |   -   |   -   |   -   |   -   |   -   |   -   |   -   |   -   |   -   |   -   |   -   |   -   |   -   |   -   |   -   |   X   |   X   |   X   |   X   |   X   |   X   |   X   |   X   |
   34 |   -   |   -   |   -   |   -   |   -   |   -   |   -   |   -   |   -   |   -   |   -   |   -   |   -   |   -   |   -   |   X   |   X   |   X   |   X   |   X   |   X   |   X   |   X   |   X   |
   35 |   -   |   -   |   -   |   -   |   -   |   -   |   -   |   -   |   -   |   -   |   -   |   -   |   -   |   -   |   -   |   -   |   -   |   -   |   -   |   -   |   -   |   -   |   -   |   -   |
   36 |   -   |   -   |   -   |   -   |   -   |   -   |   -   |   -   |   -   |   -   |   -   |   -   |   -   |   -   |   -   |   -   |   -   |   -   |   -   |   -   |   -   |   -   |   -   |   -   |
   37 |   -   |   -   |   -   |   -   |   -   |   -   |   -   |   -   |   -   |   -   |   -   |   -   |   -   |   -   |   -   |   -   |   -   |   -   |   -   |   -   |   -   |   -   |   -   |   -   |
   38 |   -   |   -   |   -   |   -   |   -   |   -   |   -   |   -   |   -   |   -   |   -   |   -   |   -   |   -   |   -   |   -   |   -   |   -   |   -   |   -   |   -   |   -   |   -   |   -   |
   39 |   -   |   -   |   -   |   -   |   -   |   -   |   -   |   -   |   -   |   -   |   -   |   -   |   -   |   -   |   -   |   -   |   -   |   -   |   -   |   -   |   -   |   -   |   -   |   -   |
   40 |   -   |   -   |   -   |   -   |   -   |   -   |   -   |   -   |   -   |   -   |   -   |   -   |   -   |   -   |   -   |   -   |   -   |   -   |   -   |   -   |   -   |   -   |   -   |   -   |
-------------------------------------------------------------------------------------------------------------------------------------------------------------------------------------------------------
Total |  10   |  11   |   9   |   9   |   9   |   8   |   8   |   7   |   7   |   7   |   9   |   9   |   9   |  10   |  10   |  12   |  15   |  16   |  16   |  16   |  16   |  14   |  14   |  13   |

Schedule: Leistungs-Output [MW]
===============================
 Time |     1   |     2   |     3   |     4   |     5   |     6   |     7   |     8   |     9   |    10   |    11   |    12   |    13   |    14   |    15   |    16   |    17   |    18   |    19   |    20   |    21   |    22   |    23   |    24   |
 Unit |         |         |         |         |         |         |         |         |         |         |         |         |         |         |         |         |         |         |         |         |         |         |         |         |
-------------------------------------------------------------------------------------------------------------------------------------------------------------------------------------------------------------------------------------------------------
    1 |     455 |     455 |     455 |     455 |     455 |     455 |     455 |     455 |     455 |     455 |     455 |     455 |     455 |     455 |     455 |     455 |     455 |     455 |     455 |     455 |     455 |     455 |     455 |     455 |
    2 |       0 |       0 |       0 |       0 |       0 |       0 |       0 |       0 |       0 |       0 |       0 |       0 |       0 |       0 |       0 |       0 |       0 |       0 |       0 |       0 |       0 |       0 |       0 |       0 |
    3 |       0 |       0 |       0 |       0 |       0 |       0 |       0 |       0 |       0 |       0 |       0 |       0 |       0 |       0 |       0 |       0 |       0 |      20 |     130 |     130 |      99 |     121 |     130 |      20 |
    4 |       0 |      20 |     130 |     130 |     130 |     130 |      74 |      94 |     103 |     130 |     130 |     130 |     130 |     130 |     130 |     130 |     130 |     130 |     130 |     130 |     130 |     130 |     130 |     130 |
    5 |      25 |      25 |      25 |      25 |      48 |      75 |      25 |      25 |      25 |      25 |      25 |      25 |      25 |      25 |      25 |      25 |      25 |      25 |      70 |      25 |      25 |      25 |      32 |      25 |
    6 |       0 |       0 |       0 |       0 |       0 |       0 |       0 |       0 |       0 |       0 |       0 |       0 |       0 |       0 |       0 |       0 |       0 |       0 |       0 |       0 |       0 |       0 |       0 |       0 |
    7 |       0 |       0 |       0 |       0 |       0 |       0 |       0 |       0 |       0 |       0 |       0 |       0 |       0 |       0 |       0 |       0 |       0 |       0 |       0 |       0 |       0 |       0 |       0 |       0 |
    8 |       0 |       0 |       0 |       0 |       0 |       0 |       0 |       0 |       0 |       0 |       0 |       0 |       0 |       0 |       0 |       0 |       0 |       0 |       0 |       0 |       0 |       0 |       0 |       0 |
    9 |       0 |       0 |       0 |       0 |       0 |       0 |       0 |       0 |       0 |       0 |       0 |       0 |       0 |       0 |       0 |       0 |       0 |       0 |       0 |       0 |       0 |       0 |       0 |       0 |
   10 |       0 |       0 |       0 |       0 |       0 |       0 |       0 |       0 |       0 |       0 |       0 |       0 |       0 |       0 |       0 |       0 |       0 |       0 |       0 |       0 |       0 |       0 |       0 |       0 |
   11 |     455 |     455 |     455 |     455 |     455 |     455 |     455 |     455 |     455 |     455 |     455 |     455 |     455 |     455 |     455 |     455 |     455 |     455 |     455 |     455 |     455 |     455 |     150 |       0 |
   12 |     161 |     150 |       0 |       0 |       0 |       0 |       0 |       0 |       0 |       0 |       0 |       0 |       0 |       0 |       0 |       0 |       0 |       0 |       0 |       0 |       0 |       0 |       0 |       0 |
   13 |       0 |       0 |       0 |       0 |       0 |       0 |       0 |       0 |       0 |       0 |       0 |       0 |       0 |       0 |       0 |      20 |     130 |     130 |     130 |     130 |     130 |     130 |     130 |      20 |
   14 |      20 |     130 |     130 |     130 |     130 |     130 |      20 |       0 |       0 |       0 |       0 |       0 |       0 |      20 |     130 |     130 |     130 |     130 |     130 |     130 |     130 |     130 |     130 |     130 |
   15 |      25 |      25 |      25 |      25 |      25 |      25 |      25 |      25 |      25 |      79 |      72 |      25 |      25 |      25 |      25 |      25 |      25 |      25 |      25 |      25 |      25 |       0 |       0 |       0 |
   16 |       0 |       0 |       0 |       0 |       0 |       0 |       0 |       0 |       0 |       0 |       0 |       0 |       0 |       0 |       0 |       0 |       0 |       0 |       0 |       0 |       0 |       0 |       0 |       0 |
   17 |       0 |       0 |       0 |       0 |       0 |       0 |       0 |       0 |       0 |       0 |       0 |       0 |       0 |       0 |       0 |       0 |       0 |       0 |       0 |       0 |       0 |       0 |       0 |       0 |
   18 |       0 |       0 |       0 |       0 |       0 |       0 |       0 |       0 |       0 |       0 |       0 |       0 |       0 |       0 |       0 |       0 |       0 |       0 |       0 |       0 |       0 |       0 |       0 |       0 |
   19 |       0 |       0 |       0 |       0 |       0 |       0 |       0 |       0 |       0 |       0 |       0 |       0 |       0 |       0 |       0 |       0 |       0 |       0 |       0 |       0 |       0 |       0 |       0 |       0 |
   20 |       0 |       0 |       0 |       0 |       0 |       0 |       0 |       0 |       0 |       0 |       0 |       0 |       0 |       0 |       0 |       0 |       0 |       0 |       0 |       0 |       0 |       0 |       0 |       0 |
   21 |     455 |     455 |     455 |     455 |     455 |     455 |     455 |     455 |     455 |     455 |     455 |     455 |     455 |     455 |     455 |     455 |     455 |     455 |     455 |     455 |     455 |     455 |     455 |     455 |
   22 |     433 |     150 |       0 |       0 |       0 |       0 |       0 |       0 |       0 |       0 |     150 |     347 |     442 |     439 |     358 |     415 |     415 |     455 |     455 |     380 |     150 |       0 |       0 |       0 |
   23 |       0 |       0 |       0 |       0 |       0 |       0 |       0 |       0 |       0 |       0 |       0 |       0 |       0 |       0 |       0 |       0 |      20 |     130 |     130 |     130 |     130 |     130 |     130 |      87 |
   24 |       0 |       0 |       0 |       0 |       0 |       0 |       0 |       0 |       0 |       0 |      20 |     130 |     130 |     130 |     130 |     130 |     130 |     130 |     130 |     130 |     130 |     130 |     130 |     130 |
   25 |       0 |       0 |       0 |       0 |       0 |       0 |       0 |       0 |       0 |       0 |       0 |       0 |       0 |       0 |       0 |       0 |      25 |      93 |      25 |      25 |      25 |      25 |      25 |      25 |
   26 |       0 |       0 |       0 |       0 |       0 |       0 |       0 |       0 |       0 |       0 |       0 |       0 |       0 |       0 |       0 |       0 |       0 |       0 |       0 |       0 |       0 |       0 |       0 |       0 |
   27 |       0 |       0 |       0 |       0 |       0 |       0 |       0 |       0 |       0 |       0 |       0 |       0 |       0 |       0 |       0 |       0 |       0 |       0 |       0 |       0 |       0 |       0 |       0 |       0 |
   28 |       0 |       0 |       0 |       0 |       0 |       0 |       0 |       0 |       0 |       0 |       0 |       0 |       0 |       0 |       0 |       0 |       0 |       0 |       0 |       0 |       0 |       0 |       0 |       0 |
   29 |       0 |       0 |       0 |       0 |       0 |       0 |       0 |       0 |       0 |       0 |       0 |       0 |       0 |       0 |       0 |       0 |       0 |       0 |       0 |       0 |       0 |       0 |       0 |       0 |
   30 |       0 |       0 |       0 |       0 |       0 |       0 |       0 |       0 |       0 |       0 |       0 |       0 |       0 |       0 |       0 |       0 |       0 |       0 |       0 |       0 |       0 |       0 |       0 |       0 |
   31 |     455 |     455 |     455 |     455 |     455 |     455 |     455 |     455 |     455 |     455 |     455 |     455 |     455 |     455 |     455 |     455 |     455 |     455 |     455 |     455 |     455 |     455 |     455 |     455 |
   32 |     455 |     435 |     428 |     277 |     150 |       0 |       0 |       0 |       0 |       0 |       0 |       0 |       0 |       0 |       0 |       0 |       0 |       0 |       0 |       0 |       0 |       0 |       0 |       0 |
   33 |       0 |       0 |       0 |       0 |       0 |       0 |       0 |       0 |       0 |       0 |       0 |       0 |       0 |       0 |       0 |       0 |      20 |     130 |     130 |     130 |     123 |      60 |     130 |     130 |
   34 |       0 |       0 |       0 |       0 |       0 |       0 |       0 |       0 |       0 |       0 |       0 |       0 |       0 |       0 |       0 |      20 |     130 |     130 |     130 |     130 |     130 |     130 |     130 |     130 |
   35 |       0 |       0 |       0 |       0 |       0 |       0 |       0 |       0 |       0 |       0 |       0 |       0 |       0 |       0 |       0 |       0 |       0 |       0 |       0 |       0 |       0 |       0 |       0 |       0 |
   36 |       0 |       0 |       0 |       0 |       0 |       0 |       0 |       0 |       0 |       0 |       0 |       0 |       0 |       0 |       0 |       0 |       0 |       0 |       0 |       0 |       0 |       0 |       0 |       0 |
   37 |       0 |       0 |       0 |       0 |       0 |       0 |       0 |       0 |       0 |       0 |       0 |       0 |       0 |       0 |       0 |       0 |       0 |       0 |       0 |       0 |       0 |       0 |       0 |       0 |
   38 |       0 |       0 |       0 |       0 |       0 |       0 |       0 |       0 |       0 |       0 |       0 |       0 |       0 |       0 |       0 |       0 |       0 |       0 |       0 |       0 |       0 |       0 |       0 |       0 |
   39 |       0 |       0 |       0 |       0 |       0 |       0 |       0 |       0 |       0 |       0 |       0 |       0 |       0 |       0 |       0 |       0 |       0 |       0 |       0 |       0 |       0 |       0 |       0 |       0 |
   40 |       0 |       0 |       0 |       0 |       0 |       0 |       0 |       0 |       0 |       0 |       0 |       0 |       0 |       0 |       0 |       0 |       0 |       0 |       0 |       0 |       0 |       0 |       0 |       0 |
-------------------------------------------------------------------------------------------------------------------------------------------------------------------------------------------------------------------------------------------------------
Total |    2939 |    2755 |    2558 |    2407 |    2303 |    2180 |    1964 |    1964 |    1973 |    2054 |    2217 |    2477 |    2572 |    2589 |    2618 |    2715 |    3000 |    3348 |    3435 |    3315 |    3047 |    2831 |    2612 |    2192 |
Diff. |       0 |       0 |       0 |       0 |       0 |       0 |       0 |       0 |       0 |       0 |       0 |       0 |       0 |       0 |       0 |       0 |       0 |       0 |       0 |       0 |       0 |       0 |       0 |       0 |

