unit;t;status;output;reserve
1;1;1;375;0
1;2;1;455;0
1;3;1;455;0
1;4;1;455;0
1;5;1;455;0
1;6;1;455;0
1;7;1;455;0
1;8;1;455;0
1;9;1;455;0
1;10;1;455;0
1;11;1;455;0
1;12;1;455;0
1;13;1;455;0
1;14;1;455;0
1;15;1;455;0
1;16;1;455;0
1;17;1;455;0
1;18;1;455;0
1;19;1;455;0
1;20;1;455;0
1;21;1;455;0
1;22;1;455;0
1;23;1;455;0
1;24;1;455;0
1;25;1;455;0
1;26;1;455;0
1;27;1;455;0
1;28;1;455;0
1;29;1;455;0
1;30;1;455;0
1;31;1;455;0
1;32;1;455;0
1;33;1;455;0
1;34;1;455;0
1;35;1;455;0
1;36;1;455;0
1;37;1;455;0
1;38;1;455;0
1;39;1;455;0
1;40;1;455;0
1;41;1;455;0
1;42;1;455;0
1;43;1;455;0
1;44;1;455;0
1;45;1;455;0
1;46;1;455;0
1;47;1;455;0
1;48;1;455;0
2;1;1;375;0
2;2;1;418.448;26.552
2;3;1;455;0
2;4;1;451.2;0
2;5;1;420.16;0
2;6;1;420.16;0
2;7;1;443.256;0
2;8;1;418.672;36.328
2;9;1;455;0
2;10;1;455;0
2;11;1;455;0
2;12;1;455;0
2;13;1;455;0
2;14;1;455;0
2;15;1;453.696;1.304
2;16;1;433.512;21.488
2;17;1;426.16;28.84
2;18;1;455;0
2;19;1;455;0
2;20;1;455;0
2;21;1;455;0
2;22;1;455;0
2;23;1;455;0
2;24;1;455;0
2;25;1;455;0
2;26;1;455;0
2;27;1;455;0
2;28;1;451.2;0
2;29;1;420.16;9.84
2;30;1;420.16;9.84
2;31;1;443.256;11.744
2;32;1;418.672;36.328
2;33;1;444.28;10.72
2;34;1;455;0
2;35;1;455;0
2;36;1;455;0
2;37;1;455;0
2;38;1;455;0
2;39;1;453.696;1.304
2;40;1;433.512;21.488
2;41;1;426.16;28.84
2;42;1;455;0
2;43;1;455;0
2;44;1;455;0
2;45;1;455;0
2;46;1;455;0
2;47;1;437.4;0
2;48;1;408.48;46.52
3;1;1;70;0
3;2;1;20;0
3;3;0;0;0
3;4;0;0;0
3;5;0;0;0
3;6;0;0;0
3;7;0;0;0
3;8;1;20;0
3;9;1;70;0
3;10;1;120;0
3;11;1;130;0
3;12;1;130;0
3;13;1;130;0
3;14;1;130;0
3;15;1;130;0
3;16;1;130;0
3;17;1;130;0
3;18;1;130;0
3;19;1;130;0
3;20;1;130;0
3;21;1;130;0
3;22;1;120;0
3;23;1;70;0
3;24;1;20;0
3;25;0;0;0
3;26;0;0;0
3;27;0;0;0
3;28;0;0;0
3;29;0;0;0
3;30;0;0;0
3;31;0;0;0
3;32;1;20;0
3;33;1;70;0
3;34;1;120;0
3;35;1;130;0
3;36;1;130;0
3;37;1;130;0
3;38;1;130;0
3;39;1;130;0
3;40;1;130;0
3;41;1;130;0
3;42;1;130;0
3;43;1;130;0
3;44;1;130;0
3;45;1;130;0
3;46;1;130;0
3;47;1;130;0
3;48;1;130;0
4;1;1;70;0
4;2;1;20;0
4;3;0;0;0
4;4;0;0;0
4;5;0;0;0
4;6;0;0;0
4;7;0;0;0
4;8;1;20;0
4;9;1;70;0
4;10;1;120;0
4;11;1;130;0
4;12;1;130;0
4;13;1;130;0
4;14;1;130;0
4;15;1;130;0
4;16;1;130;0
4;17;1;130;0
4;18;1;130;0
4;19;1;130;0
4;20;1;130;0
4;21;1;130;0
4;22;1;130;0
4;23;1;130;0
4;24;1;120;10
4;25;1;70;55.096
4;26;1;20;0
4;27;0;0;0
4;28;0;0;0
4;29;0;0;0
4;30;0;0;0
4;31;0;0;0
4;32;1;20;0
4;33;1;70;0
4;34;1;120;0
4;35;1;130;0
4;36;1;130;0
4;37;1;130;0
4;38;1;130;0
4;39;1;130;0
4;40;1;130;0
4;41;1;130;0
4;42;1;130;0
4;43;1;130;0
4;44;1;130;0
4;45;1;130;0
4;46;1;130;0
4;47;1;130;0
4;48;1;130;0
5;1;1;85;0
5;2;1;40.352;23.888
5;3;1;52.24;48.112
5;4;1;25;46.56
5;5;1;25;45.008
5;6;1;25;45.008
5;7;1;32.944;46.56
5;8;1;79.608;13.336
5;9;1;82.96;56.648
5;10;1;71.6;62.08
5;11;1;82.64;48.96
5;12;1;98.16;44.48
5;13;1;82.64;63.632
5;14;1;71.6;62.08
5;15;1;57.384;60
5;16;1;77.568;39.816
5;17;1;102;35.568
5;18;1;162;0
5;19;1;162;0
5;20;1;150.76;8.288
5;21;1;129.2;32.8
5;22;1;123.68;5.184
5;23;1;96.08;61.304
5;24;1;98.48;47.424
5;25;1;121.92;0
5;26;1;78.8;50.44
5;27;1;52.24;48.112
5;28;1;25;46.56
5;29;1;25;35.168
5;30;1;25;35.168
5;31;1;32.944;34.816
5;32;1;79.608;13.336
5;33;1;93.68;45.928
5;34;1;91.6;62.08
5;35;1;82.64;63.632
5;36;1;98.16;41.416
5;37;1;82.64;63.632
5;38;1;71.6;62.08
5;39;1;57.384;60
5;40;1;77.568;39.816
5;41;1;102;35.568
5;42;1;162;0
5;43;1;162;0
5;44;1;150.76;11.24
5;45;1;129.2;32.8
5;46;1;113.68;48.32
5;47;1;53.68;61.304
5;48;1;25;10.904
6;1;1;80;0
6;2;1;20;0
6;3;0;0;0
6;4;0;0;0
6;5;0;0;0
6;6;0;0;0
6;7;0;0;0
6;8;0;0;0
6;9;0;0;0
6;10;1;20;0
6;11;1;20;14.672
6;12;1;20;19.928
6;13;1;20;0
6;14;0;0;0
6;15;0;0;0
6;16;0;0;0
6;17;1;20;0
6;18;1;55.32;24.68
6;19;1;39.8;40.2
6;20;1;20;60
6;21;1;20;33.16
6;22;1;20;60
6;23;1;20;0
6;24;0;0;0
6;25;0;0;0
6;26;0;0;0
6;27;0;0;0
6;28;0;0;0
6;29;0;0;0
6;30;0;0;0
6;31;0;0;0
6;32;0;0;0
6;33;0;0;0
6;34;0;0;0
6;35;1;20;0
6;36;1;20;22.992
6;37;1;20;0
6;38;0;0;0
6;39;0;0;0
6;40;0;0;0
6;41;1;20;0
6;42;1;55.32;24.68
6;43;1;39.8;40.2
6;44;1;20;60
6;45;1;20;33.16
6;46;1;20;16.864
6;47;1;20;0
6;48;0;0;0
7;1;1;25;55.096
7;2;1;25;0
7;3;0;0;0
7;4;0;0;0
7;5;0;0;0
7;6;0;0;0
7;7;0;0;0
7;8;0;0;0
7;9;0;0;0
7;10;0;0;0
7;11;0;0;0
7;12;0;0;0
7;13;0;0;0
7;14;0;0;0
7;15;0;0;0
7;16;0;0;0
7;17;1;25;0
7;18;1;25;60
7;19;1;25;29.64
7;20;1;25;0
7;21;0;0;0
7;22;0;0;0
7;23;0;0;0
7;24;0;0;0
7;25;0;0;0
7;26;0;0;0
7;27;0;0;0
7;28;0;0;0
7;29;0;0;0
7;30;0;0;0
7;31;0;0;0
7;32;0;0;0
7;33;0;0;0
7;34;0;0;0
7;35;0;0;0
7;36;0;0;0
7;37;0;0;0
7;38;0;0;0
7;39;0;0;0
7;40;0;0;0
7;41;1;25;0
7;42;1;25;60
7;43;1;25;29.64
7;44;1;25;0
7;45;0;0;0
7;46;0;0;0
7;47;0;0;0
7;48;0;0;0
8;1;1;21.92;0
8;2;1;10;0
8;3;0;0;0
8;4;0;0;0
8;5;0;0;0
8;6;0;0;0
8;7;0;0;0
8;8;0;0;0
8;9;0;0;0
8;10;0;0;0
8;11;0;0;0
8;12;0;0;0
8;13;0;0;0
8;14;0;0;0
8;15;0;0;0
8;16;0;0;0
8;17;0;0;0
8;18;0;0;0
8;19;0;0;0
8;20;0;0;0
8;21;0;0;0
8;22;0;0;0
8;23;0;0;0
8;24;0;0;0
8;25;0;0;0
8;26;0;0;0
8;27;0;0;0
8;28;0;0;0
8;29;0;0;0
8;30;0;0;0
8;31;0;0;0
8;32;0;0;0
8;33;0;0;0
8;34;0;0;0
8;35;0;0;0
8;36;0;0;0
8;37;0;0;0
8;38;0;0;0
8;39;0;0;0
8;40;0;0;0
8;41;0;0;0
8;42;0;0;0
8;43;0;0;0
8;44;0;0;0
8;45;0;0;0
8;46;0;0;0
8;47;0;0;0
8;48;0;0;0
