unit;t;status;output;reserve
1;1;1;375;0
1;2;1;455;0
1;3;1;455;0
1;4;1;455;0
1;5;1;455;0
1;6;1;455;0
1;7;1;455;0
1;8;1;455;0
1;9;1;455;0
1;10;1;455;0
1;11;1;455;0
1;12;1;455;0
1;13;1;455;0
1;14;1;455;0
1;15;1;455;0
1;16;1;455;0
1;17;1;455;0
1;18;1;455;0
1;19;1;455;0
1;20;1;455;0
1;21;1;455;0
1;22;1;455;0
1;23;1;455;0
1;24;1;455;0
2;1;1;375;0
2;2;1;418.448;36.552
2;3;1;455;0
2;4;1;451.2;0
2;5;1;420.16;0
2;6;1;420.16;0
2;7;1;443.256;0
2;8;1;418.672;36.328
2;9;1;455;0
2;10;1;455;0
2;11;1;455;0
2;12;1;455;0
2;13;1;455;0
2;14;1;455;0
2;15;1;453.696;1.304
2;16;1;433.512;21.488
2;17;1;426.16;28.84
2;18;1;455;0
2;19;1;455;0
2;20;1;455;0
2;21;1;455;0
2;22;1;455;0
2;23;1;437.4;0
2;24;1;408.48;46.52
3;1;1;70;0
3;2;1;20;0
3;3;0;0;0
3;4;0;0;0
3;5;0;0;0
3;6;0;0;0
3;7;0;0;0
3;8;1;20;0
3;9;1;70;0
3;10;1;120;0
3;11;1;130;0
3;12;1;130;0
3;13;1;130;0
3;14;1;130;0
3;15;1;130;0
3;16;1;130;0
3;17;1;130;0
3;18;1;130;0
3;19;1;130;0
3;20;1;130;0
3;21;1;130;0
3;22;1;130;0
3;23;1;130;0
3;24;1;130;0
4;1;1;70;0
4;2;1;20;0
4;3;0;0;0
4;4;0;0;0
4;5;0;0;0
4;6;0;0;0
4;7;0;0;0
4;8;1;20;0
4;9;1;70;0
4;10;1;120;0
4;11;1;130;0
4;12;1;130;0
4;13;1;130;0
4;14;1;130;0
4;15;1;130;0
4;16;1;130;0
4;17;1;130;0
4;18;1;130;0
4;19;1;130;0
4;20;1;130;0
4;21;1;130;0
4;22;1;130;0
4;23;1;130;0
4;24;1;130;0
5;1;1;85;0
5;2;1;40.352;13.888
5;3;1;52.24;48.112
5;4;1;25;46.56
5;5;1;25;45.008
5;6;1;25;45.008
5;7;1;32.944;46.56
5;8;1;79.608;13.336
5;9;1;82.96;56.648
5;10;1;71.6;62.08
5;11;1;82.64;3.632
5;12;1;98.16;44.48
5;13;1;82.64;63.632
5;14;1;71.6;62.08
5;15;1;57.384;60
5;16;1;77.568;39.816
5;17;1;102;35.568
5;18;1;162;0
5;19;1;162;0
5;20;1;150.76;11.24
5;21;1;129.2;32.8
5;22;1;113.68;48.32
5;23;1;53.68;61.304
5;24;1;25;10.904
6;1;1;80;0
6;2;1;20;0
6;3;0;0;0
6;4;0;0;0
6;5;0;0;0
6;6;0;0;0
6;7;0;0;0
6;8;0;0;0
6;9;0;0;0
6;10;1;20;0
6;11;1;20;60
6;12;1;20;19.928
6;13;1;20;0
6;14;0;0;0
6;15;0;0;0
6;16;0;0;0
6;17;1;20;0
6;18;1;55.32;24.68
6;19;1;39.8;40.2
6;20;1;20;60
6;21;1;20;33.16
6;22;1;20;16.864
6;23;1;20;0
6;24;0;0;0
7;1;1;25;55.096
7;2;1;25;0
7;3;0;0;0
7;4;0;0;0
7;5;0;0;0
7;6;0;0;0
7;7;0;0;0
7;8;0;0;0
7;9;0;0;0
7;10;0;0;0
7;11;0;0;0
7;12;0;0;0
7;13;0;0;0
7;14;0;0;0
7;15;0;0;0
7;16;0;0;0
7;17;1;25;0
7;18;1;25;60
7;19;1;25;29.64
7;20;1;25;0
7;21;0;0;0
7;22;0;0;0
7;23;0;0;0
7;24;0;0;0
8;1;1;21.92;0
8;2;1;10;0
8;3;0;0;0
8;4;0;0;0
8;5;0;0;0
8;6;0;0;0
8;7;0;0;0
8;8;0;0;0
8;9;0;0;0
8;10;0;0;0
8;11;0;0;0
8;12;0;0;0
8;13;0;0;0
8;14;0;0;0
8;15;0;0;0
8;16;0;0;0
8;17;0;0;0
8;18;0;0;0
8;19;0;0;0
8;20;0;0;0
8;21;0;0;0
8;22;0;0;0
8;23;0;0;0
8;24;0;0;0
