=======================
Unit-Commitment-Problem
Fix-and-Optimize (weaktimewindow)
Michael Tunder
=======================

Instanz: 8-gen (Case 1)
Planung: 8 Einheiten & 24 Stunden
Reserve: 5 Prozent
Abweichung von Nachfrage: nicht moeglich

Abbruchsgrund: Vollstaendige Loesung
Gesamtkosten [GE]: 573855.6982
Ganzzahlige Loesung
Bedarfsabweichungskosten [%]: --

Optimierungsdauer [s]: 0.922 (0.015min)
Maximale Dauer: 18000s / 300.000min / 5.00h
Optimalitaetsluecke [%]: --
Beste Schranke [GE]: --
Nebenbedingungen: 1471
Entscheidungsvariablen (gesamt): 1344
Kontinuierliche Variablen: 384
Binaervariablen: 960
Fixierte Binaervariablen: 874
Verbleibende Binaervariablen: 86
Iterationen: 11
Ganzzahligkeitstoleranz: 0.01
Xpress-Version: 8.11.1

Schedule: Commitment-Status
===========================
 Time |    1  |    2  |    3  |    4  |    5  |    6  |    7  |    8  |    9  |   10  |   11  |   12  |   13  |   14  |   15  |   16  |   17  |   18  |   19  |   20  |   21  |   22  |   23  |   24  |
 Unit |       |       |       |       |       |       |       |       |       |       |       |       |       |       |       |       |       |       |       |       |       |       |       |       |
-------------------------------------------------------------------------------------------------------------------------------------------------------------------------------------------------------
    1 |   X   |   X   |   X   |   X   |   X   |   X   |   X   |   X   |   X   |   X   |   X   |   X   |   X   |   X   |   X   |   X   |   X   |   X   |   X   |   X   |   X   |   X   |   X   |   X   |
    2 |   X   |   X   |   X   |   X   |   X   |   X   |   X   |   X   |   X   |   X   |   X   |   X   |   X   |   X   |   X   |   X   |   X   |   X   |   X   |   X   |   X   |   X   |   X   |   X   |
    3 |   X   |   X   |   -   |   -   |   -   |   -   |   -   |   X   |   X   |   X   |   X   |   X   |   X   |   X   |   X   |   X   |   X   |   X   |   X   |   X   |   X   |   X   |   X   |   X   |
    4 |   X   |   X   |   -   |   -   |   -   |   -   |   -   |   X   |   X   |   X   |   X   |   X   |   X   |   X   |   X   |   X   |   X   |   X   |   X   |   X   |   X   |   X   |   X   |   X   |
    5 |   X   |   X   |   X   |   X   |   X   |   X   |   X   |   X   |   X   |   X   |   X   |   X   |   X   |   X   |   X   |   X   |   X   |   X   |   X   |   X   |   X   |   X   |   X   |   X   |
    6 |   X   |   X   |   -   |   -   |   -   |   -   |   -   |   -   |   -   |   X   |   X   |   X   |   X   |   -   |   -   |   -   |   X   |   X   |   X   |   X   |   X   |   X   |   X   |   -   |
    7 |   X   |   X   |   -   |   -   |   -   |   -   |   -   |   -   |   -   |   -   |   -   |   -   |   -   |   -   |   -   |   -   |   X   |   X   |   X   |   X   |   -   |   -   |   -   |   -   |
    8 |   X   |   X   |   -   |   -   |   -   |   -   |   -   |   -   |   -   |   -   |   -   |   -   |   -   |   -   |   -   |   -   |   -   |   -   |   -   |   -   |   -   |   -   |   -   |   -   |
-------------------------------------------------------------------------------------------------------------------------------------------------------------------------------------------------------
Total |   8   |   8   |   3   |   3   |   3   |   3   |   3   |   5   |   5   |   6   |   6   |   6   |   6   |   5   |   5   |   5   |   7   |   7   |   7   |   7   |   6   |   6   |   6   |   5   |

Schedule: Leistungs-Output [MW]
===============================
 Time |     1   |     2   |     3   |     4   |     5   |     6   |     7   |     8   |     9   |    10   |    11   |    12   |    13   |    14   |    15   |    16   |    17   |    18   |    19   |    20   |    21   |    22   |    23   |    24   |
 Unit |         |         |         |         |         |         |         |         |         |         |         |         |         |         |         |         |         |         |         |         |         |         |         |         |
-------------------------------------------------------------------------------------------------------------------------------------------------------------------------------------------------------------------------------------------------------
    1 |     375 |     455 |     455 |     455 |     455 |     455 |     455 |     455 |     455 |     455 |     455 |     455 |     455 |     455 |     455 |     455 |     455 |     455 |     455 |     455 |     455 |     455 |     455 |     455 |
    2 |     375 | 418.448 |     455 |   451.2 |  420.16 |  420.16 | 443.256 | 418.672 |     455 |     455 |     455 |     455 |     455 |     455 | 453.696 | 433.512 |  426.16 |     455 |     455 |     455 |     455 |     455 |   437.4 |  408.48 |
    3 |      70 |      20 |       0 |       0 |       0 |       0 |       0 |      20 |      70 |     120 |     130 |     130 |     130 |     130 |     130 |     130 |     130 |     130 |     130 |     130 |     130 |     130 |     130 |     130 |
    4 |      70 |      20 |       0 |       0 |       0 |       0 |       0 |      20 |      70 |     120 |     130 |     130 |     130 |     130 |     130 |     130 |     130 |     130 |     130 |     130 |     130 |     130 |     130 |     130 |
    5 |      85 |  40.352 |   52.24 |      25 |      25 |      25 |  32.944 |  79.608 |   82.96 |    71.6 |   82.64 |   98.16 |   82.64 |    71.6 |  57.384 |  77.568 |     102 |     162 |     162 |  150.76 |   129.2 |  113.68 |   53.68 |      25 |
    6 |      80 |      20 |       0 |       0 |       0 |       0 |       0 |       0 |       0 |      20 |      20 |      20 |      20 |       0 |       0 |       0 |      20 |   55.32 |    39.8 |      20 |      20 |      20 |      20 |       0 |
    7 |      25 |      25 |       0 |       0 |       0 |       0 |       0 |       0 |       0 |       0 |       0 |       0 |       0 |       0 |       0 |       0 |      25 |      25 |      25 |      25 |       0 |       0 |       0 |       0 |
    8 |   21.92 |      10 |       0 |       0 |       0 |       0 |       0 |       0 |       0 |       0 |       0 |       0 |       0 |       0 |       0 |       0 |       0 |       0 |       0 |       0 |       0 |       0 |       0 |       0 |
-------------------------------------------------------------------------------------------------------------------------------------------------------------------------------------------------------------------------------------------------------
Total | 1101.92 |  1008.8 |  962.24 |   931.2 |  900.16 |  900.16 |   931.2 |  993.28 | 1132.96 |  1241.6 | 1272.64 | 1288.16 | 1272.64 |  1241.6 | 1226.08 | 1226.08 | 1288.16 | 1412.32 |  1396.8 | 1365.76 |  1319.2 | 1303.68 | 1226.08 | 1148.48 |
Diff. |       0 |       0 |       0 |       0 |       0 |       0 |       0 |       0 |       0 |       0 |       0 |       0 |       0 |       0 |       0 |       0 |       0 |       0 |       0 |       0 |       0 |       0 |       0 |       0 |

