id;P_max;P_min;P_rampup;P_rampdown;P_startup;P_shutdown;P_past;T_past;T_onmin;T_offmin;T_cooling;C_fix;C_var;C_starthot;C_startcold
1;455;150;305;305;150;150;150;8;8;8;14;3428.5;16.19;4500;9000
2;455;150;305;305;150;150;150;8;8;8;14;3559;17.26;5000;10000
3;130;20;110;110;20;20;0;-5;5;5;10;1032;16.6;550;1100
4;130;20;110;110;20;20;0;-5;5;5;10;1010;16.5;560;1120
5;162;25;137;137;25;25;0;-6;6;6;11;942.5;19.7;900;1800
6;80;20;60;60;20;20;0;-3;3;3;6;815.2;22.26;170;340
7;85;25;60;60;25;25;0;-3;3;3;6;1173.5;27.74;260;520
8;55;10;45;45;10;10;0;-1;1;1;2;919.2;25.92;30;60
9;55;10;45;45;10;10;0;-1;1;1;2;937.7;27.27;30;60
10;55;10;45;45;10;10;0;-1;1;1;2;947.9;27.79;30;60
11;455;150;305;305;150;150;150;8;8;8;14;3428.5;16.19;4500;9000
12;455;150;305;305;150;150;150;8;8;8;14;3559;17.26;5000;10000
13;130;20;110;110;20;20;0;-5;5;5;10;1032;16.6;550;1100
14;130;20;110;110;20;20;0;-5;5;5;10;1010;16.5;560;1120
15;162;25;137;137;25;25;0;-6;6;6;11;942.5;19.7;900;1800
16;80;20;60;60;20;20;0;-3;3;3;6;815.2;22.26;170;340
17;85;25;60;60;25;25;0;-3;3;3;6;1173.5;27.74;260;520
18;55;10;45;45;10;10;0;-1;1;1;2;919.2;25.92;30;60
19;55;10;45;45;10;10;0;-1;1;1;2;937.7;27.27;30;60
20;55;10;45;45;10;10;0;-1;1;1;2;947.9;27.79;30;60
21;455;150;305;305;150;150;150;8;8;8;14;3428.5;16.19;4500;9000
22;455;150;305;305;150;150;150;8;8;8;14;3559;17.26;5000;10000
23;130;20;110;110;20;20;0;-5;5;5;10;1032;16.6;550;1100
24;130;20;110;110;20;20;0;-5;5;5;10;1010;16.5;560;1120
25;162;25;137;137;25;25;0;-6;6;6;11;942.5;19.7;900;1800
26;80;20;60;60;20;20;0;-3;3;3;6;815.2;22.26;170;340
27;85;25;60;60;25;25;0;-3;3;3;6;1173.5;27.74;260;520
28;55;10;45;45;10;10;0;-1;1;1;2;919.2;25.92;30;60
29;55;10;45;45;10;10;0;-1;1;1;2;937.7;27.27;30;60
30;55;10;45;45;10;10;0;-1;1;1;2;947.9;27.79;30;60
31;455;150;305;305;150;150;150;8;8;8;14;3428.5;16.19;4500;9000
32;455;150;305;305;150;150;150;8;8;8;14;3559;17.26;5000;10000
33;130;20;110;110;20;20;0;-5;5;5;10;1032;16.6;550;1100
34;130;20;110;110;20;20;0;-5;5;5;10;1010;16.5;560;1120
35;162;25;137;137;25;25;0;-6;6;6;11;942.5;19.7;900;1800
36;80;20;60;60;20;20;0;-3;3;3;6;815.2;22.26;170;340
37;85;25;60;60;25;25;0;-3;3;3;6;1173.5;27.74;260;520
38;55;10;45;45;10;10;0;-1;1;1;2;919.2;25.92;30;60
39;55;10;45;45;10;10;0;-1;1;1;2;937.7;27.27;30;60
40;55;10;45;45;10;10;0;-1;1;1;2;947.9;27.79;30;60
41;455;150;305;305;150;150;150;8;8;8;14;3428.5;16.19;4500;9000
42;455;150;305;305;150;150;150;8;8;8;14;3559;17.26;5000;10000
43;130;20;110;110;20;20;0;-5;5;5;10;1032;16.6;550;1100
44;130;20;110;110;20;20;0;-5;5;5;10;1010;16.5;560;1120
45;162;25;137;137;25;25;0;-6;6;6;11;942.5;19.7;900;1800
46;80;20;60;60;20;20;0;-3;3;3;6;815.2;22.26;170;340
47;85;25;60;60;25;25;0;-3;3;3;6;1173.5;27.74;260;520
48;55;10;45;45;10;10;0;-1;1;1;2;919.2;25.92;30;60
49;55;10;45;45;10;10;0;-1;1;1;2;937.7;27.27;30;60
50;55;10;45;45;10;10;0;-1;1;1;2;947.9;27.79;30;60
51;455;150;305;305;150;150;150;8;8;8;14;3428.5;16.19;4500;9000
52;455;150;305;305;150;150;150;8;8;8;14;3559;17.26;5000;10000
53;130;20;110;110;20;20;0;-5;5;5;10;1032;16.6;550;1100
54;130;20;110;110;20;20;0;-5;5;5;10;1010;16.5;560;1120
55;162;25;137;137;25;25;0;-6;6;6;11;942.5;19.7;900;1800
56;80;20;60;60;20;20;0;-3;3;3;6;815.2;22.26;170;340
57;85;25;60;60;25;25;0;-3;3;3;6;1173.5;27.74;260;520
58;55;10;45;45;10;10;0;-1;1;1;2;919.2;25.92;30;60
59;55;10;45;45;10;10;0;-1;1;1;2;937.7;27.27;30;60
60;55;10;45;45;10;10;0;-1;1;1;2;947.9;27.79;30;60
61;455;150;305;305;150;150;150;8;8;8;14;3428.5;16.19;4500;9000
62;455;150;305;305;150;150;150;8;8;8;14;3559;17.26;5000;10000
63;130;20;110;110;20;20;0;-5;5;5;10;1032;16.6;550;1100
64;130;20;110;110;20;20;0;-5;5;5;10;1010;16.5;560;1120
65;162;25;137;137;25;25;0;-6;6;6;11;942.5;19.7;900;1800
66;80;20;60;60;20;20;0;-3;3;3;6;815.2;22.26;170;340
67;85;25;60;60;25;25;0;-3;3;3;6;1173.5;27.74;260;520
68;55;10;45;45;10;10;0;-1;1;1;2;919.2;25.92;30;60
69;55;10;45;45;10;10;0;-1;1;1;2;937.7;27.27;30;60
70;55;10;45;45;10;10;0;-1;1;1;2;947.9;27.79;30;60
