case;units;timespan;cost_total;optimal;integer;duration;opt_gap;constrains;variables_total;variables_reell;variables_bin;variables_bin_fixed;iterations;tolerance
1;280;24;39331084.35;1;1;118.156;7.793398698e-05;46678;47064;13464;33600;0;0;999999
2;350;24;49517643.42;1;1;542.312;6.261480127e-05;58428;58824;16824;42000;0;0;999999
3;440;24;52846393.16;1;1;129.578;9.458118528e-05;75058;73944;21144;52800;0;0;999999
4;450;24;49458913.84;1;1;66.797;7.866334629e-05;77608;75624;21624;54000;0;0;999999
5;490;24;55684810.13;1;1;90.75;8.738892898e-05;83098;82344;23544;58800;0;0;999999
6;500;24;46042907.56;1;1;74.953;6.618951491e-05;87618;84024;24024;60000;0;0;999999
7;510;24;60125451.39;1;1;75.172;6.046221722e-05;87638;85704;24504;61200;0;0;999999
8;510;24;53536337.09;1;1;114.25;9.618360217e-05;89128;85704;24504;61200;0;0;999999
9;520;24;58136154.94;1;1;137.672;9.88315328e-05;89598;87384;24984;62400;0;0;999999
10;540;24;52505159.68;1;1;138.125;9.595298386e-05;94468;90744;25944;64800;0;0;999999
11;1320;24;163138544.4;1;1;570.312;8.098907334e-05;227838;221784;63384;158400;0;0;999999
12;1560;24;177803432.7;1;1;801.609;9.126737193e-05;268818;262104;74904;187200;0;0;999999
13;1560;24;174554971.8;1;1;983.312;7.143721049e-05;269468;262104;74904;187200;0;0;999999
14;1650;24;207846079.8;1;1;1397.484;9.249213359e-05;276388;277224;79224;198000;0;0;999999
15;1670;24;179429982.4;1;1;1179.64;6.170334039e-05;287518;280584;80184;200400;0;0;999999
16;1720;24;201281412.1;1;1;996.64;9.83419366e-05;296598;288984;82584;206400;0;0;999999
17;1820;24;203354492;1;1;1338.796;5.458039934e-05;312168;305784;87384;218400;0;0;999999
18;1820;24;202400582.5;1;1;1691.218;5.421333918e-05;311898;305784;87384;218400;0;0;999999
19;1830;24;207637091.7;1;1;1058.952;3.685720421e-05;313628;307464;87864;219600;0;0;999999
20;1870;24;203614753.9;1;1;1238.624;5.417490158e-05;321208;314184;89784;224400;0;0;999999
