unit;t;status;output;reserve
1;1;1;455;0
1;2;1;455;0
1;3;1;455;0
1;4;1;455;0
1;5;1;455;0
1;6;1;455;0
1;7;1;455;0
1;8;1;455;0
1;9;1;455;0
1;10;1;455;0
1;11;1;455;0
1;12;1;455;0
1;13;1;455;0
1;14;1;455;0
1;15;1;455;0
1;16;1;455;0
1;17;1;455;0
1;18;1;455;0
1;19;1;455;0
1;20;1;455;0
1;21;1;455;0
1;22;1;455;0
1;23;1;455;0
1;24;1;455;0
2;1;1;245;70
2;2;1;286.6666667;75
2;3;1;371.6666667;39.333
2;4;1;428.3333333;3.667
2;5;1;426.6666667;8.667
2;6;1;455;0
2;7;1;455;0
2;8;1;455;0
2;9;1;455;0
2;10;1;455;0
2;11;1;455;0
2;12;1;455;0
2;13;1;455;0
2;14;1;455;0
2;15;1;410;45
2;16;1;150;305
2;17;1;260;0
2;18;1;170;285
2;19;1;455;0
2;20;1;455;0
2;21;1;455;0
2;22;1;150;0
2;23;0;0;0
2;24;0;0;0
3;1;0;0;0
3;2;0;0;0
3;3;0;0;0
3;4;0;0;0
3;5;0;0;0
3;6;1;20;0
3;7;1;130;0
3;8;1;130;0
3;9;1;130;0
3;10;1;130;0
3;11;1;130;0
3;12;1;130;0
3;13;1;130;0
3;14;1;130;0
3;15;1;130;0
3;16;1;130;0
3;17;1;130;0
3;18;1;130;0
3;19;1;130;0
3;20;1;130;0
3;21;1;130;0
3;22;1;130;0
3;23;1;130;0
3;24;1;130;0
4;1;0;0;0
4;2;0;0;0
4;3;0;0;0
4;4;1;20;0
4;5;1;130;0
4;6;1;130;0
4;7;1;130;0
4;8;1;130;0
4;9;1;130;0
4;10;1;130;0
4;11;1;130;0
4;12;1;130;0
4;13;1;130;0
4;14;1;130;0
4;15;1;130;0
4;16;1;130;0
4;17;1;130;0
4;18;1;130;0
4;19;1;130;0
4;20;1;130;0
4;21;1;130;0
4;22;1;130;0
4;23;1;130;0
4;24;1;130;0
5;1;0;0;0
5;2;0;0;0
5;3;0;0;0
5;4;0;0;0
5;5;1;25;0
5;6;1;25;137
5;7;1;25;137
5;8;1;25;137
5;9;1;48;114
5;10;1;162;0
5;11;1;162;0
5;12;1;162;0
5;13;1;162;0
5;14;1;25;137
5;15;1;25;137
5;16;1;25;137
5;17;1;25;137
5;18;1;25;137
5;19;1;25;137
5;20;1;162;0
5;21;1;38;124
5;22;1;25;137
5;23;1;25;137
5;24;1;25;137
6;1;0;0;0
6;2;0;0;0
6;3;0;0;0
6;4;0;0;0
6;5;0;0;0
6;6;0;0;0
6;7;0;0;0
6;8;1;20;0
6;9;1;20;60
6;10;1;39;41
6;11;1;80;0
6;12;1;80;0
6;13;1;20;60
6;14;1;20;60
6;15;1;20;0
6;16;0;0;0
6;17;0;0;0
6;18;0;0;0
6;19;1;20;0
6;20;1;20;60
6;21;1;20;60
6;22;1;20;0
6;23;0;0;0
6;24;0;0;0
7;1;0;0;0
7;2;0;0;0
7;3;0;0;0
7;4;0;0;0
7;5;0;0;0
7;6;0;0;0
7;7;0;0;0
7;8;0;0;0
7;9;1;25;0
7;10;1;25;60
7;11;1;25;60
7;12;1;25;60
7;13;1;25;60
7;14;1;25;0
7;15;0;0;0
7;16;0;0;0
7;17;0;0;0
7;18;0;0;0
7;19;1;25;0
7;20;1;25;60
7;21;1;25;0
7;22;0;0;0
7;23;0;0;0
7;24;0;0;0
8;1;0;0;0
8;2;0;0;0
8;3;0;0;0
8;4;0;0;0
8;5;0;0;0
8;6;0;0;0
8;7;0;0;0
8;8;0;0;0
8;9;0;0;0
8;10;1;10;0
8;11;1;10;45
8;12;1;55;0
8;13;1;10;0
8;14;0;0;0
8;15;0;0;0
8;16;0;0;0
8;17;0;0;0
8;18;0;0;0
8;19;1;10;0
8;20;1;10;45
8;21;1;10;0
8;22;0;0;0
8;23;0;0;0
8;24;0;0;0
9;1;0;0;0
9;2;0;0;0
9;3;0;0;0
9;4;0;0;0
9;5;0;0;0
9;6;0;0;0
9;7;0;0;0
9;8;0;0;0
9;9;0;0;0
9;10;0;0;0
9;11;1;10;0
9;12;1;10;45
9;13;1;10;0
9;14;0;0;0
9;15;0;0;0
9;16;0;0;0
9;17;0;0;0
9;18;0;0;0
9;19;0;0;0
9;20;0;0;0
9;21;0;0;0
9;22;0;0;0
9;23;0;0;0
9;24;0;0;0
10;1;0;0;0
10;2;0;0;0
10;3;0;0;0
10;4;0;0;0
10;5;0;0;0
10;6;0;0;0
10;7;0;0;0
10;8;0;0;0
10;9;0;0;0
10;10;0;0;0
10;11;1;10;0
10;12;1;10;45
10;13;1;10;0
10;14;0;0;0
10;15;0;0;0
10;16;0;0;0
10;17;0;0;0
10;18;0;0;0
10;19;0;0;0
10;20;0;0;0
10;21;0;0;0
10;22;0;0;0
10;23;0;0;0
10;24;0;0;0
11;1;1;455;0
11;2;1;455;0
11;3;1;455;0
11;4;1;455;0
11;5;1;455;0
11;6;1;455;0
11;7;1;455;0
11;8;1;455;0
11;9;1;455;0
11;10;1;455;0
11;11;1;455;0
11;12;1;455;0
11;13;1;455;0
11;14;1;455;0
11;15;1;455;0
11;16;1;455;0
11;17;1;455;0
11;18;1;455;0
11;19;1;455;0
11;20;1;455;0
11;21;1;455;0
11;22;1;455;0
11;23;1;455;0
11;24;1;455;0
12;1;1;245;70
12;2;1;286.6666667;75
12;3;1;371.6666667;39.333
12;4;1;428.3333333;3.667
12;5;1;426.6666667;8.667
12;6;1;455;0
12;7;1;430;25
12;8;1;455;0
12;9;1;455;0
12;10;1;455;0
12;11;1;455;0
12;12;1;455;0
12;13;1;455;0
12;14;1;455;0
12;15;1;455;0
12;16;1;325;130
12;17;1;260;0
12;18;1;455;0
12;19;1;305;150
12;20;1;455;0
12;21;1;455;0
12;22;1;415;0
12;23;1;330;0
12;24;1;180;0
13;1;0;0;0
13;2;0;0;0
13;3;0;0;0
13;4;0;0;0
13;5;0;0;0
13;6;0;0;0
13;7;1;20;0
13;8;1;130;0
13;9;1;130;0
13;10;1;130;0
13;11;1;130;0
13;12;1;130;0
13;13;1;130;0
13;14;1;130;0
13;15;1;130;0
13;16;1;130;0
13;17;1;130;0
13;18;1;130;0
13;19;1;130;0
13;20;1;130;0
13;21;1;130;0
13;22;1;130;0
13;23;1;130;0
13;24;1;130;0
14;1;0;0;0
14;2;0;0;0
14;3;1;20;0
14;4;1;130;0
14;5;1;130;0
14;6;1;130;0
14;7;1;130;0
14;8;1;130;0
14;9;1;130;0
14;10;1;130;0
14;11;1;130;0
14;12;1;130;0
14;13;1;130;0
14;14;1;130;0
14;15;1;130;0
14;16;1;130;0
14;17;1;130;0
14;18;1;130;0
14;19;1;130;0
14;20;1;130;0
14;21;1;130;0
14;22;1;130;0
14;23;1;130;0
14;24;1;130;0
15;1;0;0;0
15;2;1;25;0
15;3;1;25;137
15;4;1;25;137
15;5;1;25;137
15;6;1;90;72
15;7;1;25;137
15;8;1;25;137
15;9;1;162;0
15;10;1;162;0
15;11;1;162;0
15;12;1;162;0
15;13;1;162;0
15;14;1;162;0
15;15;1;25;137
15;16;1;25;137
15;17;1;25;137
15;18;1;25;137
15;19;1;25;137
15;20;1;162;0
15;21;1;162;0
15;22;1;25;56
15;23;1;25;0
15;24;1;25;0
16;1;0;0;0
16;2;0;0;0
16;3;0;0;0
16;4;0;0;0
16;5;0;0;0
16;6;0;0;0
16;7;0;0;0
16;8;1;20;0
16;9;1;20;60
16;10;1;20;60
16;11;1;29;51
16;12;1;80;0
16;13;1;20;60
16;14;1;20;60
16;15;1;20;0
16;16;0;0;0
16;17;0;0;0
16;18;0;0;0
16;19;1;20;0
16;20;1;20;60
16;21;1;20;9
16;22;1;20;0
16;23;0;0;0
16;24;0;0;0
17;1;0;0;0
17;2;0;0;0
17;3;0;0;0
17;4;0;0;0
17;5;0;0;0
17;6;0;0;0
17;7;0;0;0
17;8;0;0;0
17;9;1;25;0
17;10;1;25;60
17;11;1;25;60
17;12;1;25;60
17;13;1;25;60
17;14;1;25;0
17;15;0;0;0
17;16;0;0;0
17;17;0;0;0
17;18;0;0;0
17;19;1;25;0
17;20;1;25;60
17;21;1;25;0
17;22;0;0;0
17;23;0;0;0
17;24;0;0;0
18;1;0;0;0
18;2;0;0;0
18;3;0;0;0
18;4;0;0;0
18;5;0;0;0
18;6;0;0;0
18;7;0;0;0
18;8;0;0;0
18;9;1;10;0
18;10;1;10;45
18;11;1;10;45
18;12;1;19;36
18;13;1;10;0
18;14;0;0;0
18;15;0;0;0
18;16;0;0;0
18;17;0;0;0
18;18;0;0;0
18;19;1;10;0
18;20;1;10;45
18;21;1;10;0
18;22;0;0;0
18;23;0;0;0
18;24;0;0;0
19;1;0;0;0
19;2;0;0;0
19;3;0;0;0
19;4;0;0;0
19;5;0;0;0
19;6;0;0;0
19;7;0;0;0
19;8;0;0;0
19;9;0;0;0
19;10;1;10;0
19;11;1;10;45
19;12;1;10;45
19;13;1;10;0
19;14;0;0;0
19;15;0;0;0
19;16;0;0;0
19;17;0;0;0
19;18;0;0;0
19;19;0;0;0
19;20;0;0;0
19;21;0;0;0
19;22;0;0;0
19;23;0;0;0
19;24;0;0;0
20;1;0;0;0
20;2;0;0;0
20;3;0;0;0
20;4;0;0;0
20;5;0;0;0
20;6;0;0;0
20;7;0;0;0
20;8;0;0;0
20;9;0;0;0
20;10;0;0;0
20;11;1;10;0
20;12;1;10;45
20;13;1;10;0
20;14;0;0;0
20;15;0;0;0
20;16;0;0;0
20;17;0;0;0
20;18;0;0;0
20;19;0;0;0
20;20;0;0;0
20;21;0;0;0
20;22;0;0;0
20;23;0;0;0
20;24;0;0;0
21;1;1;455;0
21;2;1;455;0
21;3;1;455;0
21;4;1;455;0
21;5;1;455;0
21;6;1;455;0
21;7;1;455;0
21;8;1;455;0
21;9;1;455;0
21;10;1;455;0
21;11;1;455;0
21;12;1;455;0
21;13;1;455;0
21;14;1;455;0
21;15;1;455;0
21;16;1;455;0
21;17;1;455;0
21;18;1;455;0
21;19;1;455;0
21;20;1;455;0
21;21;1;455;0
21;22;1;455;0
21;23;1;455;0
21;24;1;455;0
22;1;1;245;70
22;2;1;286.6666667;75
22;3;1;371.6666667;39.333
22;4;1;428.3333333;3.667
22;5;1;426.6666667;8.667
22;6;1;455;0
22;7;1;455;0
22;8;1;410;45
22;9;1;455;0
22;10;1;455;0
22;11;1;455;0
22;12;1;455;0
22;13;1;455;0
22;14;1;455;0
22;15;1;455;0
22;16;1;455;0
22;17;1;260;0
22;18;1;455;0
22;19;1;455;0
22;20;1;455;0
22;21;1;455;0
22;22;1;455;0
22;23;1;150;0
22;24;0;0;0
23;1;0;0;0
23;2;0;0;0
23;3;0;0;0
23;4;0;0;0
23;5;0;0;0
23;6;1;20;0
23;7;1;130;0
23;8;1;130;0
23;9;1;130;0
23;10;1;130;0
23;11;1;130;0
23;12;1;130;0
23;13;1;130;0
23;14;1;130;0
23;15;1;130;0
23;16;1;130;0
23;17;1;130;0
23;18;1;130;0
23;19;1;130;0
23;20;1;130;0
23;21;1;130;0
23;22;1;130;0
23;23;1;130;0
23;24;1;130;0
24;1;0;0;0
24;2;0;0;0
24;3;0;0;0
24;4;0;0;0
24;5;1;20;0
24;6;1;130;0
24;7;1;130;0
24;8;1;130;0
24;9;1;130;0
24;10;1;130;0
24;11;1;130;0
24;12;1;130;0
24;13;1;130;0
24;14;1;130;0
24;15;1;130;0
24;16;1;130;0
24;17;1;130;0
24;18;1;130;0
24;19;1;130;0
24;20;1;130;0
24;21;1;130;0
24;22;1;130;0
24;23;1;130;0
24;24;1;130;0
25;1;0;0;0
25;2;0;0;0
25;3;1;25;0
25;4;1;25;137
25;5;1;25;137
25;6;1;25;137
25;7;1;25;137
25;8;1;25;137
25;9;1;25;137
25;10;1;162;0
25;11;1;162;0
25;12;1;162;0
25;13;1;141;21
25;14;1;58;104
25;15;1;25;137
25;16;1;25;137
25;17;1;25;137
25;18;1;25;137
25;19;1;25;137
25;20;1;162;0
25;21;1;25;137
25;22;1;25;137
25;23;1;25;137
25;24;1;25;137
26;1;0;0;0
26;2;0;0;0
26;3;0;0;0
26;4;0;0;0
26;5;0;0;0
26;6;0;0;0
26;7;0;0;0
26;8;1;20;0
26;9;1;20;60
26;10;1;20;60
26;11;1;80;0
26;12;1;80;0
26;13;1;20;60
26;14;1;20;60
26;15;1;20;0
26;16;0;0;0
26;17;0;0;0
26;18;0;0;0
26;19;1;20;0
26;20;1;59;21
26;21;1;20;60
26;22;1;20;0
26;23;0;0;0
26;24;0;0;0
27;1;0;0;0
27;2;0;0;0
27;3;0;0;0
27;4;0;0;0
27;5;0;0;0
27;6;0;0;0
27;7;0;0;0
27;8;0;0;0
27;9;1;25;0
27;10;1;25;60
27;11;1;25;60
27;12;1;25;60
27;13;1;25;60
27;14;1;25;0
27;15;0;0;0
27;16;0;0;0
27;17;0;0;0
27;18;0;0;0
27;19;1;25;0
27;20;1;25;60
27;21;1;25;0
27;22;0;0;0
27;23;0;0;0
27;24;0;0;0
28;1;0;0;0
28;2;0;0;0
28;3;0;0;0
28;4;0;0;0
28;5;0;0;0
28;6;0;0;0
28;7;0;0;0
28;8;0;0;0
28;9;1;10;0
28;10;1;10;45
28;11;1;10;45
28;12;1;55;0
28;13;1;10;45
28;14;1;10;0
28;15;0;0;0
28;16;0;0;0
28;17;0;0;0
28;18;0;0;0
28;19;1;10;0
28;20;1;10;45
28;21;1;10;0
28;22;0;0;0
28;23;0;0;0
28;24;0;0;0
29;1;0;0;0
29;2;0;0;0
29;3;0;0;0
29;4;0;0;0
29;5;0;0;0
29;6;0;0;0
29;7;0;0;0
29;8;0;0;0
29;9;0;0;0
29;10;1;10;0
29;11;1;10;45
29;12;1;10;45
29;13;1;10;0
29;14;0;0;0
29;15;0;0;0
29;16;0;0;0
29;17;0;0;0
29;18;0;0;0
29;19;0;0;0
29;20;0;0;0
29;21;0;0;0
29;22;0;0;0
29;23;0;0;0
29;24;0;0;0
30;1;0;0;0
30;2;0;0;0
30;3;0;0;0
30;4;0;0;0
30;5;0;0;0
30;6;0;0;0
30;7;0;0;0
30;8;0;0;0
30;9;0;0;0
30;10;0;0;0
30;11;1;10;0
30;12;1;10;45
30;13;1;10;0
30;14;0;0;0
30;15;0;0;0
30;16;0;0;0
30;17;0;0;0
30;18;0;0;0
30;19;0;0;0
30;20;0;0;0
30;21;0;0;0
30;22;0;0;0
30;23;0;0;0
30;24;0;0;0
