unit;t;status;output;reserve
1;1;1;455;0
1;2;1;455;0
1;3;1;455;0
1;4;1;455;0
1;5;1;455;0
1;6;1;455;0
1;7;1;455;0
1;8;1;455;0
1;9;1;455;0
1;10;1;455;0
1;11;1;455;0
1;12;1;455;0
1;13;1;455;0
1;14;1;455;0
1;15;1;455;0
1;16;1;455;0
1;17;1;455;0
1;18;1;455;0
1;19;1;455;0
1;20;1;455;0
1;21;1;455;0
1;22;1;455;0
1;23;1;455;0
1;24;1;455;0
2;1;1;455;0
2;2;1;150;305
2;3;1;455;0
2;4;1;455;0
2;5;1;455;0
2;6;1;455;0
2;7;1;295;160
2;8;1;455;0
2;9;1;455;0
2;10;1;455;0
2;11;1;455;0
2;12;1;455;0
2;13;1;455;0
2;14;1;455;0
2;15;1;455;0
2;16;1;455;0
2;17;1;150;305
2;18;1;455;0
2;19;1;455;0
2;20;1;455;0
2;21;1;455;0
2;22;1;455;0
2;23;1;150;0
2;24;0;0;0
3;1;0;0;0
3;2;0;0;0
3;3;0;0;0
3;4;0;0;0
3;5;0;0;0
3;6;1;20;0
3;7;1;130;0
3;8;1;130;0
3;9;1;130;0
3;10;1;130;0
3;11;1;130;0
3;12;1;130;0
3;13;1;130;0
3;14;1;130;0
3;15;1;130;0
3;16;1;130;0
3;17;1;130;0
3;18;1;130;0
3;19;1;130;0
3;20;1;130;0
3;21;1;130;0
3;22;1;130;0
3;23;1;130;0
3;24;1;130;0
4;1;0;0;0
4;2;0;0;0
4;3;0;0;0
4;4;0;0;0
4;5;1;20;0
4;6;1;130;0
4;7;1;130;0
4;8;1;130;0
4;9;1;130;0
4;10;1;130;0
4;11;1;130;0
4;12;1;130;0
4;13;1;130;0
4;14;1;130;0
4;15;1;130;0
4;16;1;130;0
4;17;1;130;0
4;18;1;130;0
4;19;1;130;0
4;20;1;130;0
4;21;1;130;0
4;22;1;130;0
4;23;1;130;0
4;24;1;130;0
5;1;0;0;0
5;2;0;0;0
5;3;1;25;0
5;4;1;25;137
5;5;1;25;137
5;6;1;25;137
5;7;1;25;137
5;8;1;25;137
5;9;1;162;0
5;10;1;162;0
5;11;1;162;0
5;12;1;162;0
5;13;1;162;0
5;14;1;162;0
5;15;1;25;137
5;16;1;25;137
5;17;1;25;137
5;18;1;25;137
5;19;1;25;137
5;20;1;162;0
5;21;1;162;0
5;22;1;25;137
5;23;1;148;14
5;24;1;135;27
6;1;0;0;0
6;2;0;0;0
6;3;0;0;0
6;4;0;0;0
6;5;0;0;0
6;6;0;0;0
6;7;0;0;0
6;8;1;20;0
6;9;1;20;60
6;10;1;27;53
6;11;1;20;60
6;12;1;80;0
6;13;1;20;60
6;14;1;20;60
6;15;1;20;0
6;16;0;0;0
6;17;0;0;0
6;18;0;0;0
6;19;1;20;0
6;20;1;20;60
6;21;1;20;0
6;22;0;0;0
6;23;0;0;0
6;24;0;0;0
7;1;0;0;0
7;2;0;0;0
7;3;0;0;0
7;4;0;0;0
7;5;0;0;0
7;6;0;0;0
7;7;0;0;0
7;8;0;0;0
7;9;1;25;0
7;10;1;25;60
7;11;1;25;60
7;12;1;25;60
7;13;1;25;60
7;14;1;25;0
7;15;0;0;0
7;16;0;0;0
7;17;0;0;0
7;18;0;0;0
7;19;1;25;0
7;20;1;25;60
7;21;1;25;0
7;22;0;0;0
7;23;0;0;0
7;24;0;0;0
8;1;0;0;0
8;2;0;0;0
8;3;0;0;0
8;4;0;0;0
8;5;0;0;0
8;6;0;0;0
8;7;0;0;0
8;8;0;0;0
8;9;0;0;0
8;10;1;10;0
8;11;1;10;45
8;12;1;55;0
8;13;1;10;0
8;14;0;0;0
8;15;0;0;0
8;16;0;0;0
8;17;0;0;0
8;18;0;0;0
8;19;1;10;0
8;20;1;10;45
8;21;1;10;0
8;22;0;0;0
8;23;0;0;0
8;24;0;0;0
9;1;0;0;0
9;2;0;0;0
9;3;0;0;0
9;4;0;0;0
9;5;0;0;0
9;6;0;0;0
9;7;0;0;0
9;8;0;0;0
9;9;0;0;0
9;10;1;10;0
9;11;1;10;45
9;12;1;10;45
9;13;1;10;0
9;14;0;0;0
9;15;0;0;0
9;16;0;0;0
9;17;0;0;0
9;18;0;0;0
9;19;0;0;0
9;20;0;0;0
9;21;0;0;0
9;22;0;0;0
9;23;0;0;0
9;24;0;0;0
10;1;0;0;0
10;2;0;0;0
10;3;0;0;0
10;4;0;0;0
10;5;0;0;0
10;6;0;0;0
10;7;0;0;0
10;8;0;0;0
10;9;0;0;0
10;10;0;0;0
10;11;1;10;0
10;12;1;10;45
10;13;1;10;0
10;14;0;0;0
10;15;0;0;0
10;16;0;0;0
10;17;0;0;0
10;18;0;0;0
10;19;0;0;0
10;20;0;0;0
10;21;0;0;0
10;22;0;0;0
10;23;0;0;0
10;24;0;0;0
11;1;1;455;0
11;2;1;455;0
11;3;1;455;0
11;4;1;455;0
11;5;1;455;0
11;6;1;455;0
11;7;1;455;0
11;8;1;455;0
11;9;1;455;0
11;10;1;455;0
11;11;1;455;0
11;12;1;455;0
11;13;1;455;0
11;14;1;455;0
11;15;1;455;0
11;16;1;455;0
11;17;1;455;0
11;18;1;455;0
11;19;1;455;0
11;20;1;455;0
11;21;1;455;0
11;22;1;455;0
11;23;1;455;0
11;24;1;455;0
12;1;1;150;305
12;2;1;455;0
12;3;1;455;0
12;4;1;455;0
12;5;1;455;0
12;6;1;350;105
12;7;1;455;0
12;8;1;455;0
12;9;1;455;0
12;10;1;455;0
12;11;1;455;0
12;12;1;455;0
12;13;1;455;0
12;14;1;455;0
12;15;1;340;115
12;16;1;455;0
12;17;1;225;230
12;18;1;455;0
12;19;1;320;135
12;20;1;455;0
12;21;1;455;0
12;22;1;455;0
12;23;1;455;0
12;24;1;455;0
13;1;0;0;0
13;2;0;0;0
13;3;0;0;0
13;4;0;0;0
13;5;0;0;0
13;6;0;0;0
13;7;1;20;0
13;8;1;130;0
13;9;1;130;0
13;10;1;130;0
13;11;1;130;0
13;12;1;130;0
13;13;1;130;0
13;14;1;130;0
13;15;1;130;0
13;16;1;130;0
13;17;1;130;0
13;18;1;130;0
13;19;1;130;0
13;20;1;130;0
13;21;1;130;0
13;22;1;130;0
13;23;1;130;0
13;24;1;130;0
14;1;0;0;0
14;2;0;0;0
14;3;1;20;0
14;4;1;130;0
14;5;1;130;0
14;6;1;130;0
14;7;1;130;0
14;8;1;130;0
14;9;1;130;0
14;10;1;130;0
14;11;1;130;0
14;12;1;130;0
14;13;1;130;0
14;14;1;130;0
14;15;1;130;0
14;16;1;130;0
14;17;1;130;0
14;18;1;130;0
14;19;1;130;0
14;20;1;130;0
14;21;1;130;0
14;22;1;130;0
14;23;1;130;0
14;24;1;130;0
15;1;0;0;0
15;2;0;0;0
15;3;0;0;0
15;4;0;0;0
15;5;0;0;0
15;6;0;0;0
15;7;1;25;0
15;8;1;25;137
15;9;1;25;137
15;10;1;162;0
15;11;1;162;0
15;12;1;162;0
15;13;1;162;0
15;14;1;25;137
15;15;1;25;137
15;16;1;25;137
15;17;1;25;137
15;18;1;25;137
15;19;1;25;137
15;20;1;162;0
15;21;1;25;137
15;22;1;25;31
15;23;1;25;137
15;24;1;25;0
16;1;0;0;0
16;2;0;0;0
16;3;0;0;0
16;4;0;0;0
16;5;0;0;0
16;6;0;0;0
16;7;0;0;0
16;8;1;20;0
16;9;1;20;60
16;10;1;20;60
16;11;1;80;0
16;12;1;80;0
16;13;1;20;60
16;14;1;20;60
16;15;1;20;0
16;16;0;0;0
16;17;0;0;0
16;18;0;0;0
16;19;1;20;0
16;20;1;20;60
16;21;1;20;60
16;22;1;20;0
16;23;0;0;0
16;24;0;0;0
17;1;0;0;0
17;2;0;0;0
17;3;0;0;0
17;4;0;0;0
17;5;0;0;0
17;6;0;0;0
17;7;0;0;0
17;8;0;0;0
17;9;1;25;0
17;10;1;25;60
17;11;1;25;60
17;12;1;25;60
17;13;1;25;60
17;14;1;25;0
17;15;0;0;0
17;16;0;0;0
17;17;0;0;0
17;18;0;0;0
17;19;1;25;0
17;20;1;25;60
17;21;1;25;0
17;22;0;0;0
17;23;0;0;0
17;24;0;0;0
18;1;0;0;0
18;2;0;0;0
18;3;0;0;0
18;4;0;0;0
18;5;0;0;0
18;6;0;0;0
18;7;0;0;0
18;8;0;0;0
18;9;1;10;0
18;10;1;10;45
18;11;1;10;45
18;12;1;55;0
18;13;1;10;45
18;14;1;10;0
18;15;0;0;0
18;16;0;0;0
18;17;0;0;0
18;18;0;0;0
18;19;1;10;0
18;20;1;10;45
18;21;1;10;0
18;22;0;0;0
18;23;0;0;0
18;24;0;0;0
19;1;0;0;0
19;2;0;0;0
19;3;0;0;0
19;4;0;0;0
19;5;0;0;0
19;6;0;0;0
19;7;0;0;0
19;8;0;0;0
19;9;0;0;0
19;10;0;0;0
19;11;1;10;0
19;12;1;10;45
19;13;1;10;0
19;14;0;0;0
19;15;0;0;0
19;16;0;0;0
19;17;0;0;0
19;18;0;0;0
19;19;0;0;0
19;20;0;0;0
19;21;0;0;0
19;22;0;0;0
19;23;0;0;0
19;24;0;0;0
20;1;0;0;0
20;2;0;0;0
20;3;0;0;0
20;4;0;0;0
20;5;0;0;0
20;6;0;0;0
20;7;0;0;0
20;8;0;0;0
20;9;0;0;0
20;10;0;0;0
20;11;1;10;0
20;12;1;10;45
20;13;1;10;0
20;14;0;0;0
20;15;0;0;0
20;16;0;0;0
20;17;0;0;0
20;18;0;0;0
20;19;0;0;0
20;20;0;0;0
20;21;0;0;0
20;22;0;0;0
20;23;0;0;0
20;24;0;0;0
21;1;1;455;0
21;2;1;455;0
21;3;1;455;0
21;4;1;455;0
21;5;1;455;0
21;6;1;455;0
21;7;1;455;0
21;8;1;455;0
21;9;1;455;0
21;10;1;455;0
21;11;1;455;0
21;12;1;455;0
21;13;1;455;0
21;14;1;455;0
21;15;1;455;0
21;16;1;455;0
21;17;1;455;0
21;18;1;455;0
21;19;1;455;0
21;20;1;455;0
21;21;1;455;0
21;22;1;455;0
21;23;1;455;0
21;24;1;455;0
22;1;1;150;305
22;2;1;150;305
22;3;1;455;0
22;4;1;455;0
22;5;1;455;0
22;6;1;455;0
22;7;1;455;0
22;8;1;455;0
22;9;1;455;0
22;10;1;455;0
22;11;1;455;0
22;12;1;455;0
22;13;1;455;0
22;14;1;455;0
22;15;1;455;0
22;16;1;150;305
22;17;1;455;0
22;18;1;455;0
22;19;1;455;0
22;20;1;455;0
22;21;1;455;0
22;22;1;455;0
22;23;1;150;0
22;24;0;0;0
23;1;0;0;0
23;2;0;0;0
23;3;0;0;0
23;4;0;0;0
23;5;1;20;0
23;6;1;130;0
23;7;1;130;0
23;8;1;130;0
23;9;1;130;0
23;10;1;130;0
23;11;1;130;0
23;12;1;130;0
23;13;1;130;0
23;14;1;130;0
23;15;1;130;0
23;16;1;130;0
23;17;1;130;0
23;18;1;130;0
23;19;1;130;0
23;20;1;130;0
23;21;1;130;0
23;22;1;130;0
23;23;1;130;0
23;24;1;130;0
24;1;0;0;0
24;2;0;0;0
24;3;0;0;0
24;4;0;0;0
24;5;1;20;0
24;6;1;130;0
24;7;1;130;0
24;8;1;130;0
24;9;1;130;0
24;10;1;130;0
24;11;1;130;0
24;12;1;130;0
24;13;1;130;0
24;14;1;130;0
24;15;1;130;0
24;16;1;130;0
24;17;1;130;0
24;18;1;130;0
24;19;1;130;0
24;20;1;130;0
24;21;1;130;0
24;22;1;130;0
24;23;1;130;0
24;24;1;130;0
25;1;0;0;0
25;2;0;0;0
25;3;1;25;0
25;4;1;25;137
25;5;1;25;137
25;6;1;25;137
25;7;1;25;137
25;8;1;25;137
25;9;1;25;137
25;10;1;162;0
25;11;1;162;0
25;12;1;162;0
25;13;1;162;0
25;14;1;25;137
25;15;1;25;137
25;16;1;25;137
25;17;1;25;137
25;18;1;25;137
25;19;1;25;137
25;20;1;162;0
25;21;1;162;0
25;22;1;25;0
25;23;0;0;0
25;24;0;0;0
26;1;0;0;0
26;2;0;0;0
26;3;0;0;0
26;4;0;0;0
26;5;0;0;0
26;6;0;0;0
26;7;0;0;0
26;8;1;20;0
26;9;1;20;60
26;10;1;20;60
26;11;1;57;23
26;12;1;80;0
26;13;1;20;60
26;14;1;20;60
26;15;1;20;0
26;16;0;0;0
26;17;0;0;0
26;18;0;0;0
26;19;1;20;0
26;20;1;80;0
26;21;1;20;0
26;22;0;0;0
26;23;0;0;0
26;24;0;0;0
27;1;0;0;0
27;2;0;0;0
27;3;0;0;0
27;4;0;0;0
27;5;0;0;0
27;6;0;0;0
27;7;0;0;0
27;8;0;0;0
27;9;1;25;0
27;10;1;25;60
27;11;1;25;60
27;12;1;25;60
27;13;1;25;60
27;14;1;25;0
27;15;0;0;0
27;16;0;0;0
27;17;0;0;0
27;18;0;0;0
27;19;1;25;0
27;20;1;25;60
27;21;1;25;0
27;22;0;0;0
27;23;0;0;0
27;24;0;0;0
28;1;0;0;0
28;2;0;0;0
28;3;0;0;0
28;4;0;0;0
28;5;0;0;0
28;6;0;0;0
28;7;0;0;0
28;8;0;0;0
28;9;0;0;0
28;10;1;10;0
28;11;1;10;45
28;12;1;47;8
28;13;1;10;0
28;14;0;0;0
28;15;0;0;0
28;16;0;0;0
28;17;0;0;0
28;18;0;0;0
28;19;1;10;0
28;20;1;10;45
28;21;1;10;0
28;22;0;0;0
28;23;0;0;0
28;24;0;0;0
29;1;0;0;0
29;2;0;0;0
29;3;0;0;0
29;4;0;0;0
29;5;0;0;0
29;6;0;0;0
29;7;0;0;0
29;8;0;0;0
29;9;0;0;0
29;10;1;10;0
29;11;1;10;45
29;12;1;10;45
29;13;1;10;0
29;14;0;0;0
29;15;0;0;0
29;16;0;0;0
29;17;0;0;0
29;18;0;0;0
29;19;0;0;0
29;20;0;0;0
29;21;0;0;0
29;22;0;0;0
29;23;0;0;0
29;24;0;0;0
30;1;0;0;0
30;2;0;0;0
30;3;0;0;0
30;4;0;0;0
30;5;0;0;0
30;6;0;0;0
30;7;0;0;0
30;8;0;0;0
30;9;0;0;0
30;10;0;0;0
30;11;1;10;0
30;12;1;10;45
30;13;1;10;0
30;14;0;0;0
30;15;0;0;0
30;16;0;0;0
30;17;0;0;0
30;18;0;0;0
30;19;0;0;0
30;20;0;0;0
30;21;0;0;0
30;22;0;0;0
30;23;0;0;0
30;24;0;0;0
31;1;1;455;0
31;2;1;455;0
31;3;1;455;0
31;4;1;455;0
31;5;1;455;0
31;6;1;455;0
31;7;1;455;0
31;8;1;455;0
31;9;1;455;0
31;10;1;455;0
31;11;1;455;0
31;12;1;455;0
31;13;1;455;0
31;14;1;455;0
31;15;1;455;0
31;16;1;455;0
31;17;1;455;0
31;18;1;455;0
31;19;1;455;0
31;20;1;455;0
31;21;1;455;0
31;22;1;455;0
31;23;1;455;0
31;24;1;455;0
32;1;1;150;305
32;2;1;455;0
32;3;1;150;305
32;4;1;455;0
32;5;1;455;0
32;6;1;455;0
32;7;1;455;0
32;8;1;320;135
32;9;1;455;0
32;10;1;455;0
32;11;1;455;0
32;12;1;455;0
32;13;1;455;0
32;14;1;455;0
32;15;1;455;0
32;16;1;150;305
32;17;1;455;0
32;18;1;455;0
32;19;1;455;0
32;20;1;455;0
32;21;1;455;0
32;22;1;375;0
32;23;1;150;0
32;24;0;0;0
33;1;0;0;0
33;2;0;0;0
33;3;0;0;0
33;4;0;0;0
33;5;0;0;0
33;6;1;20;0
33;7;1;130;0
33;8;1;130;0
33;9;1;130;0
33;10;1;130;0
33;11;1;130;0
33;12;1;130;0
33;13;1;130;0
33;14;1;130;0
33;15;1;130;0
33;16;1;130;0
33;17;1;130;0
33;18;1;130;0
33;19;1;130;0
33;20;1;130;0
33;21;1;130;0
33;22;1;130;0
33;23;1;130;0
33;24;1;130;0
34;1;0;0;0
34;2;0;0;0
34;3;0;0;0
34;4;0;0;0
34;5;1;20;0
34;6;1;130;0
34;7;1;130;0
34;8;1;130;0
34;9;1;130;0
34;10;1;130;0
34;11;1;130;0
34;12;1;130;0
34;13;1;130;0
34;14;1;130;0
34;15;1;130;0
34;16;1;130;0
34;17;1;130;0
34;18;1;130;0
34;19;1;130;0
34;20;1;130;0
34;21;1;130;0
34;22;1;130;0
34;23;1;130;0
34;24;1;130;0
35;1;0;0;0
35;2;0;0;0
35;3;0;0;0
35;4;1;25;0
35;5;1;25;137
35;6;1;25;137
35;7;1;25;137
35;8;1;25;137
35;9;1;25;137
35;10;1;162;0
35;11;1;162;0
35;12;1;162;0
35;13;1;109;53
35;14;1;25;137
35;15;1;25;137
35;16;1;25;137
35;17;1;25;137
35;18;1;25;137
35;19;1;25;137
35;20;1;162;0
35;21;1;162;0
35;22;1;25;137
35;23;1;25;137
35;24;1;25;137
36;1;0;0;0
36;2;0;0;0
36;3;0;0;0
36;4;0;0;0
36;5;0;0;0
36;6;0;0;0
36;7;0;0;0
36;8;1;20;0
36;9;1;20;60
36;10;1;20;60
36;11;1;80;0
36;12;1;80;0
36;13;1;20;60
36;14;1;20;60
36;15;1;20;0
36;16;0;0;0
36;17;0;0;0
36;18;0;0;0
36;19;1;20;0
36;20;1;80;0
36;21;1;20;37
36;22;1;20;0
36;23;0;0;0
36;24;0;0;0
37;1;0;0;0
37;2;0;0;0
37;3;0;0;0
37;4;0;0;0
37;5;0;0;0
37;6;0;0;0
37;7;0;0;0
37;8;0;0;0
37;9;1;25;0
37;10;1;25;60
37;11;1;25;60
37;12;1;25;60
37;13;1;25;60
37;14;1;25;0
37;15;0;0;0
37;16;0;0;0
37;17;0;0;0
37;18;0;0;0
37;19;1;25;0
37;20;1;25;60
37;21;1;25;0
37;22;0;0;0
37;23;0;0;0
37;24;0;0;0
38;1;0;0;0
38;2;0;0;0
38;3;0;0;0
38;4;0;0;0
38;5;0;0;0
38;6;0;0;0
38;7;0;0;0
38;8;0;0;0
38;9;1;10;0
38;10;1;10;45
38;11;1;10;45
38;12;1;55;0
38;13;1;10;0
38;14;0;0;0
38;15;0;0;0
38;16;0;0;0
38;17;0;0;0
38;18;0;0;0
38;19;1;10;0
38;20;1;10;45
38;21;1;10;0
38;22;0;0;0
38;23;0;0;0
38;24;0;0;0
39;1;0;0;0
39;2;0;0;0
39;3;0;0;0
39;4;0;0;0
39;5;0;0;0
39;6;0;0;0
39;7;0;0;0
39;8;0;0;0
39;9;0;0;0
39;10;1;10;0
39;11;1;10;45
39;12;1;10;45
39;13;1;10;0
39;14;0;0;0
39;15;0;0;0
39;16;0;0;0
39;17;0;0;0
39;18;0;0;0
39;19;0;0;0
39;20;0;0;0
39;21;0;0;0
39;22;0;0;0
39;23;0;0;0
39;24;0;0;0
40;1;0;0;0
40;2;0;0;0
40;3;0;0;0
40;4;0;0;0
40;5;0;0;0
40;6;0;0;0
40;7;0;0;0
40;8;0;0;0
40;9;0;0;0
40;10;0;0;0
40;11;1;10;0
40;12;1;10;45
40;13;1;10;0
40;14;0;0;0
40;15;0;0;0
40;16;0;0;0
40;17;0;0;0
40;18;0;0;0
40;19;0;0;0
40;20;0;0;0
40;21;0;0;0
40;22;0;0;0
40;23;0;0;0
40;24;0;0;0
41;1;1;455;0
41;2;1;455;0
41;3;1;455;0
41;4;1;455;0
41;5;1;455;0
41;6;1;455;0
41;7;1;455;0
41;8;1;455;0
41;9;1;455;0
41;10;1;455;0
41;11;1;455;0
41;12;1;455;0
41;13;1;455;0
41;14;1;455;0
41;15;1;455;0
41;16;1;455;0
41;17;1;455;0
41;18;1;455;0
41;19;1;455;0
41;20;1;455;0
41;21;1;455;0
41;22;1;455;0
41;23;1;455;0
41;24;1;455;0
42;1;1;150;305
42;2;1;150;305
42;3;1;335;120
42;4;1;455;0
42;5;1;455;0
42;6;1;455;0
42;7;1;455;0
42;8;1;455;0
42;9;1;455;0
42;10;1;455;0
42;11;1;455;0
42;12;1;455;0
42;13;1;455;0
42;14;1;455;0
42;15;1;455;0
42;16;1;150;305
42;17;1;150;305
42;18;1;150;305
42;19;1;455;0
42;20;1;455;0
42;21;1;455;0
42;22;1;150;0
42;23;0;0;0
42;24;0;0;0
43;1;0;0;0
43;2;0;0;0
43;3;0;0;0
43;4;0;0;0
43;5;1;20;0
43;6;1;130;0
43;7;1;130;0
43;8;1;130;0
43;9;1;130;0
43;10;1;130;0
43;11;1;130;0
43;12;1;130;0
43;13;1;130;0
43;14;1;130;0
43;15;1;130;0
43;16;1;130;0
43;17;1;130;0
43;18;1;130;0
43;19;1;130;0
43;20;1;130;0
43;21;1;130;0
43;22;1;130;0
43;23;1;130;0
43;24;1;130;0
44;1;0;0;0
44;2;0;0;0
44;3;0;0;0
44;4;1;20;0
44;5;1;130;0
44;6;1;130;0
44;7;1;130;0
44;8;1;130;0
44;9;1;130;0
44;10;1;130;0
44;11;1;130;0
44;12;1;130;0
44;13;1;130;0
44;14;1;130;0
44;15;1;130;0
44;16;1;130;0
44;17;1;130;0
44;18;1;130;0
44;19;1;130;0
44;20;1;130;0
44;21;1;130;0
44;22;1;130;0
44;23;1;130;0
44;24;1;130;0
45;1;0;0;0
45;2;0;0;0
45;3;0;0;0
45;4;0;0;0
45;5;0;0;0
45;6;0;0;0
45;7;0;0;0
45;8;1;25;0
45;9;1;94;68
45;10;1;162;0
45;11;1;162;0
45;12;1;162;0
45;13;1;162;0
45;14;1;162;0
45;15;1;25;137
45;16;1;25;137
45;17;1;25;137
45;18;1;25;137
45;19;1;25;137
45;20;1;162;0
45;21;1;25;137
45;22;1;25;137
45;23;1;25;137
45;24;1;25;137
46;1;0;0;0
46;2;0;0;0
46;3;0;0;0
46;4;0;0;0
46;5;0;0;0
46;6;0;0;0
46;7;0;0;0
46;8;1;20;0
46;9;1;20;60
46;10;1;20;60
46;11;1;80;0
46;12;1;80;0
46;13;1;20;60
46;14;1;20;60
46;15;1;20;0
46;16;0;0;0
46;17;0;0;0
46;18;0;0;0
46;19;1;20;0
46;20;1;20;60
46;21;1;20;60
46;22;1;20;0
46;23;0;0;0
46;24;0;0;0
47;1;0;0;0
47;2;0;0;0
47;3;0;0;0
47;4;0;0;0
47;5;0;0;0
47;6;0;0;0
47;7;0;0;0
47;8;0;0;0
47;9;1;25;0
47;10;1;25;60
47;11;1;25;60
47;12;1;25;60
47;13;1;25;60
47;14;1;25;0
47;15;0;0;0
47;16;0;0;0
47;17;0;0;0
47;18;0;0;0
47;19;1;25;0
47;20;1;25;60
47;21;1;25;0
47;22;0;0;0
47;23;0;0;0
47;24;0;0;0
48;1;0;0;0
48;2;0;0;0
48;3;0;0;0
48;4;0;0;0
48;5;0;0;0
48;6;0;0;0
48;7;0;0;0
48;8;0;0;0
48;9;1;10;0
48;10;1;10;45
48;11;1;10;45
48;12;1;10;45
48;13;1;10;0
48;14;0;0;0
48;15;0;0;0
48;16;0;0;0
48;17;0;0;0
48;18;0;0;0
48;19;1;10;0
48;20;1;10;45
48;21;1;10;0
48;22;0;0;0
48;23;0;0;0
48;24;0;0;0
49;1;0;0;0
49;2;0;0;0
49;3;0;0;0
49;4;0;0;0
49;5;0;0;0
49;6;0;0;0
49;7;0;0;0
49;8;0;0;0
49;9;0;0;0
49;10;0;0;0
49;11;1;10;0
49;12;1;10;45
49;13;1;10;0
49;14;0;0;0
49;15;0;0;0
49;16;0;0;0
49;17;0;0;0
49;18;0;0;0
49;19;0;0;0
49;20;0;0;0
49;21;0;0;0
49;22;0;0;0
49;23;0;0;0
49;24;0;0;0
50;1;0;0;0
50;2;0;0;0
50;3;0;0;0
50;4;0;0;0
50;5;0;0;0
50;6;0;0;0
50;7;0;0;0
50;8;0;0;0
50;9;0;0;0
50;10;0;0;0
50;11;1;10;0
50;12;1;10;45
50;13;1;10;0
50;14;0;0;0
50;15;0;0;0
50;16;0;0;0
50;17;0;0;0
50;18;0;0;0
50;19;0;0;0
50;20;0;0;0
50;21;0;0;0
50;22;0;0;0
50;23;0;0;0
50;24;0;0;0
51;1;1;455;0
51;2;1;455;0
51;3;1;455;0
51;4;1;455;0
51;5;1;455;0
51;6;1;455;0
51;7;1;455;0
51;8;1;455;0
51;9;1;455;0
51;10;1;455;0
51;11;1;455;0
51;12;1;455;0
51;13;1;455;0
51;14;1;455;0
51;15;1;455;0
51;16;1;455;0
51;17;1;455;0
51;18;1;455;0
51;19;1;455;0
51;20;1;455;0
51;21;1;455;0
51;22;1;455;0
51;23;1;455;0
51;24;1;455;0
52;1;1;150;305
52;2;1;150;305
52;3;1;455;0
52;4;1;455;0
52;5;1;455;0
52;6;1;455;0
52;7;1;455;0
52;8;1;455;0
52;9;1;455;0
52;10;1;455;0
52;11;1;455;0
52;12;1;455;0
52;13;1;455;0
52;14;1;455;0
52;15;1;455;0
52;16;1;370;85
52;17;1;455;0
52;18;1;455;0
52;19;1;150;305
52;20;1;455;0
52;21;1;455;0
52;22;1;150;0
52;23;0;0;0
52;24;0;0;0
53;1;0;0;0
53;2;0;0;0
53;3;0;0;0
53;4;0;0;0
53;5;0;0;0
53;6;0;0;0
53;7;1;20;0
53;8;1;130;0
53;9;1;130;0
53;10;1;130;0
53;11;1;130;0
53;12;1;130;0
53;13;1;130;0
53;14;1;130;0
53;15;1;130;0
53;16;1;130;0
53;17;1;130;0
53;18;1;130;0
53;19;1;130;0
53;20;1;130;0
53;21;1;130;0
53;22;1;130;0
53;23;1;130;0
53;24;1;130;0
54;1;0;0;0
54;2;0;0;0
54;3;1;20;0
54;4;1;130;0
54;5;1;130;0
54;6;1;130;0
54;7;1;130;0
54;8;1;130;0
54;9;1;130;0
54;10;1;130;0
54;11;1;130;0
54;12;1;130;0
54;13;1;130;0
54;14;1;130;0
54;15;1;130;0
54;16;1;130;0
54;17;1;130;0
54;18;1;130;0
54;19;1;130;0
54;20;1;130;0
54;21;1;130;0
54;22;1;130;0
54;23;1;130;0
54;24;1;130;0
55;1;0;0;0
55;2;1;25;0
55;3;1;25;137
55;4;1;25;137
55;5;1;25;137
55;6;1;25;137
55;7;1;25;137
55;8;1;25;137
55;9;1;162;0
55;10;1;162;0
55;11;1;162;0
55;12;1;162;0
55;13;1;162;0
55;14;1;124;38
55;15;1;25;137
55;16;1;25;137
55;17;1;25;137
55;18;1;25;137
55;19;1;25;137
55;20;1;162;0
55;21;1;25;137
55;22;1;25;137
55;23;1;162;0
55;24;1;25;137
56;1;0;0;0
56;2;0;0;0
56;3;0;0;0
56;4;0;0;0
56;5;0;0;0
56;6;0;0;0
56;7;0;0;0
56;8;1;20;0
56;9;1;20;60
56;10;1;20;60
56;11;1;80;0
56;12;1;80;0
56;13;1;20;60
56;14;1;20;0
56;15;0;0;0
56;16;0;0;0
56;17;0;0;0
56;18;0;0;0
56;19;1;20;0
56;20;1;20;60
56;21;1;20;60
56;22;1;20;0
56;23;0;0;0
56;24;0;0;0
57;1;0;0;0
57;2;0;0;0
57;3;0;0;0
57;4;0;0;0
57;5;0;0;0
57;6;0;0;0
57;7;0;0;0
57;8;0;0;0
57;9;1;25;0
57;10;1;25;60
57;11;1;25;60
57;12;1;25;60
57;13;1;25;60
57;14;1;25;0
57;15;0;0;0
57;16;0;0;0
57;17;0;0;0
57;18;0;0;0
57;19;1;25;0
57;20;1;25;60
57;21;1;25;0
57;22;0;0;0
57;23;0;0;0
57;24;0;0;0
58;1;0;0;0
58;2;0;0;0
58;3;0;0;0
58;4;0;0;0
58;5;0;0;0
58;6;0;0;0
58;7;0;0;0
58;8;0;0;0
58;9;1;10;0
58;10;1;10;45
58;11;1;10;45
58;12;1;55;0
58;13;1;10;0
58;14;0;0;0
58;15;0;0;0
58;16;0;0;0
58;17;0;0;0
58;18;0;0;0
58;19;0;0;0
58;20;0;0;0
58;21;0;0;0
58;22;0;0;0
58;23;0;0;0
58;24;0;0;0
59;1;0;0;0
59;2;0;0;0
59;3;0;0;0
59;4;0;0;0
59;5;0;0;0
59;6;0;0;0
59;7;0;0;0
59;8;0;0;0
59;9;0;0;0
59;10;0;0;0
59;11;1;10;0
59;12;1;10;45
59;13;1;10;0
59;14;0;0;0
59;15;0;0;0
59;16;0;0;0
59;17;0;0;0
59;18;0;0;0
59;19;0;0;0
59;20;0;0;0
59;21;0;0;0
59;22;0;0;0
59;23;0;0;0
59;24;0;0;0
60;1;0;0;0
60;2;0;0;0
60;3;0;0;0
60;4;0;0;0
60;5;0;0;0
60;6;0;0;0
60;7;0;0;0
60;8;0;0;0
60;9;0;0;0
60;10;0;0;0
60;11;0;0;0
60;12;0;0;0
60;13;0;0;0
60;14;0;0;0
60;15;0;0;0
60;16;0;0;0
60;17;0;0;0
60;18;0;0;0
60;19;0;0;0
60;20;0;0;0
60;21;0;0;0
60;22;0;0;0
60;23;0;0;0
60;24;0;0;0
61;1;1;455;0
61;2;1;455;0
61;3;1;455;0
61;4;1;455;0
61;5;1;455;0
61;6;1;455;0
61;7;1;455;0
61;8;1;455;0
61;9;1;455;0
61;10;1;455;0
61;11;1;455;0
61;12;1;455;0
61;13;1;455;0
61;14;1;455;0
61;15;1;455;0
61;16;1;455;0
61;17;1;455;0
61;18;1;455;0
61;19;1;455;0
61;20;1;455;0
61;21;1;455;0
61;22;1;455;0
61;23;1;455;0
61;24;1;455;0
62;1;1;150;305
62;2;1;210;245
62;3;1;455;0
62;4;1;455;0
62;5;1;455;0
62;6;1;455;0
62;7;1;455;0
62;8;1;455;0
62;9;1;455;0
62;10;1;455;0
62;11;1;455;0
62;12;1;455;0
62;13;1;455;0
62;14;1;455;0
62;15;1;455;0
62;16;1;455;0
62;17;1;150;305
62;18;1;210;245
62;19;1;455;0
62;20;1;455;0
62;21;1;455;0
62;22;1;455;0
62;23;1;150;0
62;24;0;0;0
63;1;0;0;0
63;2;0;0;0
63;3;0;0;0
63;4;0;0;0
63;5;0;0;0
63;6;1;20;0
63;7;1;130;0
63;8;1;130;0
63;9;1;130;0
63;10;1;130;0
63;11;1;130;0
63;12;1;130;0
63;13;1;130;0
63;14;1;130;0
63;15;1;130;0
63;16;1;130;0
63;17;1;130;0
63;18;1;130;0
63;19;1;130;0
63;20;1;130;0
63;21;1;130;0
63;22;1;130;0
63;23;1;130;0
63;24;1;130;0
64;1;0;0;0
64;2;0;0;0
64;3;0;0;0
64;4;0;0;0
64;5;1;20;0
64;6;1;130;0
64;7;1;130;0
64;8;1;130;0
64;9;1;130;0
64;10;1;130;0
64;11;1;130;0
64;12;1;130;0
64;13;1;130;0
64;14;1;130;0
64;15;1;130;0
64;16;1;130;0
64;17;1;130;0
64;18;1;130;0
64;19;1;130;0
64;20;1;130;0
64;21;1;130;0
64;22;1;130;0
64;23;1;130;0
64;24;1;130;0
65;1;0;0;0
65;2;0;0;0
65;3;1;25;0
65;4;1;25;137
65;5;1;25;137
65;6;1;25;137
65;7;1;25;137
65;8;1;25;137
65;9;1;25;137
65;10;1;162;0
65;11;1;162;0
65;12;1;162;0
65;13;1;162;0
65;14;1;25;137
65;15;1;25;137
65;16;1;25;137
65;17;1;25;137
65;18;1;25;137
65;19;1;25;137
65;20;1;162;0
65;21;1;25;137
65;22;1;25;137
65;23;1;25;137
65;24;1;25;137
66;1;0;0;0
66;2;0;0;0
66;3;0;0;0
66;4;0;0;0
66;5;0;0;0
66;6;0;0;0
66;7;0;0;0
66;8;1;20;0
66;9;1;20;60
66;10;1;20;60
66;11;1;80;0
66;12;1;80;0
66;13;1;20;60
66;14;1;20;60
66;15;1;20;0
66;16;0;0;0
66;17;0;0;0
66;18;0;0;0
66;19;1;20;0
66;20;1;27;53
66;21;1;20;60
66;22;1;20;0
66;23;0;0;0
66;24;0;0;0
67;1;0;0;0
67;2;0;0;0
67;3;0;0;0
67;4;0;0;0
67;5;0;0;0
67;6;0;0;0
67;7;0;0;0
67;8;0;0;0
67;9;1;25;0
67;10;1;25;60
67;11;1;25;60
67;12;1;25;60
67;13;1;25;60
67;14;1;25;0
67;15;0;0;0
67;16;0;0;0
67;17;0;0;0
67;18;0;0;0
67;19;1;25;0
67;20;1;25;60
67;21;1;25;0
67;22;0;0;0
67;23;0;0;0
67;24;0;0;0
68;1;0;0;0
68;2;0;0;0
68;3;0;0;0
68;4;0;0;0
68;5;0;0;0
68;6;0;0;0
68;7;0;0;0
68;8;0;0;0
68;9;1;10;0
68;10;1;10;45
68;11;1;10;45
68;12;1;55;0
68;13;1;10;45
68;14;1;10;0
68;15;0;0;0
68;16;0;0;0
68;17;0;0;0
68;18;0;0;0
68;19;1;10;0
68;20;1;10;45
68;21;1;10;0
68;22;0;0;0
68;23;0;0;0
68;24;0;0;0
69;1;0;0;0
69;2;0;0;0
69;3;0;0;0
69;4;0;0;0
69;5;0;0;0
69;6;0;0;0
69;7;0;0;0
69;8;0;0;0
69;9;0;0;0
69;10;1;10;0
69;11;1;10;45
69;12;1;10;45
69;13;1;10;0
69;14;0;0;0
69;15;0;0;0
69;16;0;0;0
69;17;0;0;0
69;18;0;0;0
69;19;0;0;0
69;20;0;0;0
69;21;0;0;0
69;22;0;0;0
69;23;0;0;0
69;24;0;0;0
70;1;0;0;0
70;2;0;0;0
70;3;0;0;0
70;4;0;0;0
70;5;0;0;0
70;6;0;0;0
70;7;0;0;0
70;8;0;0;0
70;9;0;0;0
70;10;0;0;0
70;11;1;10;0
70;12;1;10;45
70;13;1;10;0
70;14;0;0;0
70;15;0;0;0
70;16;0;0;0
70;17;0;0;0
70;18;0;0;0
70;19;0;0;0
70;20;0;0;0
70;21;0;0;0
70;22;0;0;0
70;23;0;0;0
70;24;0;0;0
71;1;1;455;0
71;2;1;455;0
71;3;1;455;0
71;4;1;455;0
71;5;1;455;0
71;6;1;455;0
71;7;1;455;0
71;8;1;455;0
71;9;1;455;0
71;10;1;455;0
71;11;1;455;0
71;12;1;455;0
71;13;1;455;0
71;14;1;455;0
71;15;1;455;0
71;16;1;455;0
71;17;1;455;0
71;18;1;455;0
71;19;1;455;0
71;20;1;455;0
71;21;1;455;0
71;22;1;455;0
71;23;1;455;0
71;24;1;455;0
72;1;1;395;60
72;2;1;455;0
72;3;1;150;305
72;4;1;340;115
72;5;1;455;0
72;6;1;455;0
72;7;1;455;0
72;8;1;455;0
72;9;1;455;0
72;10;1;455;0
72;11;1;455;0
72;12;1;455;0
72;13;1;455;0
72;14;1;455;0
72;15;1;455;0
72;16;1;150;305
72;17;1;150;305
72;18;1;150;305
72;19;1;455;0
72;20;1;455;0
72;21;1;455;0
72;22;1;150;0
72;23;0;0;0
72;24;0;0;0
73;1;0;0;0
73;2;0;0;0
73;3;0;0;0
73;4;0;0;0
73;5;1;20;0
73;6;1;130;0
73;7;1;130;0
73;8;1;130;0
73;9;1;130;0
73;10;1;130;0
73;11;1;130;0
73;12;1;130;0
73;13;1;130;0
73;14;1;130;0
73;15;1;130;0
73;16;1;130;0
73;17;1;130;0
73;18;1;130;0
73;19;1;130;0
73;20;1;130;0
73;21;1;130;0
73;22;1;130;0
73;23;1;130;0
73;24;1;130;0
74;1;0;0;0
74;2;0;0;0
74;3;0;0;0
74;4;0;0;0
74;5;1;20;0
74;6;1;130;0
74;7;1;130;0
74;8;1;130;0
74;9;1;130;0
74;10;1;130;0
74;11;1;130;0
74;12;1;130;0
74;13;1;130;0
74;14;1;130;0
74;15;1;130;0
74;16;1;130;0
74;17;1;130;0
74;18;1;130;0
74;19;1;130;0
74;20;1;130;0
74;21;1;130;0
74;22;1;130;0
74;23;1;130;0
74;24;1;130;0
75;1;0;0;0
75;2;0;0;0
75;3;1;25;0
75;4;1;25;137
75;5;1;25;137
75;6;1;25;137
75;7;1;25;137
75;8;1;25;137
75;9;1;25;137
75;10;1;162;0
75;11;1;162;0
75;12;1;162;0
75;13;1;162;0
75;14;1;162;0
75;15;1;25;137
75;16;1;25;137
75;17;1;25;137
75;18;1;25;137
75;19;1;25;137
75;20;1;162;0
75;21;1;25;137
75;22;1;25;137
75;23;1;25;137
75;24;1;25;137
76;1;0;0;0
76;2;0;0;0
76;3;0;0;0
76;4;0;0;0
76;5;0;0;0
76;6;0;0;0
76;7;0;0;0
76;8;1;20;0
76;9;1;20;60
76;10;1;80;0
76;11;1;80;0
76;12;1;80;0
76;13;1;20;60
76;14;1;20;60
76;15;1;20;0
76;16;0;0;0
76;17;0;0;0
76;18;0;0;0
76;19;1;20;0
76;20;1;20;60
76;21;1;20;60
76;22;1;20;0
76;23;0;0;0
76;24;0;0;0
77;1;0;0;0
77;2;0;0;0
77;3;0;0;0
77;4;0;0;0
77;5;0;0;0
77;6;0;0;0
77;7;0;0;0
77;8;0;0;0
77;9;1;25;0
77;10;1;25;60
77;11;1;25;60
77;12;1;25;60
77;13;1;25;60
77;14;1;25;0
77;15;0;0;0
77;16;0;0;0
77;17;0;0;0
77;18;0;0;0
77;19;1;25;0
77;20;1;25;60
77;21;1;25;0
77;22;0;0;0
77;23;0;0;0
77;24;0;0;0
78;1;0;0;0
78;2;0;0;0
78;3;0;0;0
78;4;0;0;0
78;5;0;0;0
78;6;0;0;0
78;7;0;0;0
78;8;0;0;0
78;9;1;10;0
78;10;1;10;45
78;11;1;10;45
78;12;1;55;0
78;13;1;10;0
78;14;0;0;0
78;15;0;0;0
78;16;0;0;0
78;17;0;0;0
78;18;0;0;0
78;19;1;10;0
78;20;1;10;45
78;21;1;10;0
78;22;0;0;0
78;23;0;0;0
78;24;0;0;0
79;1;0;0;0
79;2;0;0;0
79;3;0;0;0
79;4;0;0;0
79;5;0;0;0
79;6;0;0;0
79;7;0;0;0
79;8;0;0;0
79;9;0;0;0
79;10;1;10;0
79;11;1;10;45
79;12;1;10;45
79;13;1;10;0
79;14;0;0;0
79;15;0;0;0
79;16;0;0;0
79;17;0;0;0
79;18;0;0;0
79;19;0;0;0
79;20;0;0;0
79;21;0;0;0
79;22;0;0;0
79;23;0;0;0
79;24;0;0;0
80;1;0;0;0
80;2;0;0;0
80;3;0;0;0
80;4;0;0;0
80;5;0;0;0
80;6;0;0;0
80;7;0;0;0
80;8;0;0;0
80;9;0;0;0
80;10;0;0;0
80;11;1;10;0
80;12;1;10;45
80;13;1;10;0
80;14;0;0;0
80;15;0;0;0
80;16;0;0;0
80;17;0;0;0
80;18;0;0;0
80;19;0;0;0
80;20;0;0;0
80;21;0;0;0
80;22;0;0;0
80;23;0;0;0
80;24;0;0;0
81;1;1;455;0
81;2;1;455;0
81;3;1;455;0
81;4;1;455;0
81;5;1;455;0
81;6;1;455;0
81;7;1;455;0
81;8;1;455;0
81;9;1;455;0
81;10;1;455;0
81;11;1;455;0
81;12;1;455;0
81;13;1;455;0
81;14;1;455;0
81;15;1;455;0
81;16;1;455;0
81;17;1;455;0
81;18;1;455;0
81;19;1;455;0
81;20;1;455;0
81;21;1;455;0
81;22;1;455;0
81;23;1;455;0
81;24;1;455;0
82;1;1;455;0
82;2;1;455;0
82;3;1;455;0
82;4;1;455;0
82;5;1;410;45
82;6;1;455;0
82;7;1;455;0
82;8;1;455;0
82;9;1;455;0
82;10;1;455;0
82;11;1;455;0
82;12;1;455;0
82;13;1;455;0
82;14;1;455;0
82;15;1;455;0
82;16;1;455;0
82;17;1;150;305
82;18;1;455;0
82;19;1;455;0
82;20;1;455;0
82;21;1;455;0
82;22;1;455;0
82;23;1;150;0
82;24;0;0;0
83;1;0;0;0
83;2;0;0;0
83;3;0;0;0
83;4;0;0;0
83;5;0;0;0
83;6;1;20;0
83;7;1;130;0
83;8;1;130;0
83;9;1;130;0
83;10;1;130;0
83;11;1;130;0
83;12;1;130;0
83;13;1;130;0
83;14;1;130;0
83;15;1;130;0
83;16;1;130;0
83;17;1;130;0
83;18;1;130;0
83;19;1;130;0
83;20;1;130;0
83;21;1;130;0
83;22;1;130;0
83;23;1;130;0
83;24;1;130;0
84;1;0;0;0
84;2;0;0;0
84;3;0;0;0
84;4;1;20;0
84;5;1;130;0
84;6;1;130;0
84;7;1;130;0
84;8;1;130;0
84;9;1;130;0
84;10;1;130;0
84;11;1;130;0
84;12;1;130;0
84;13;1;130;0
84;14;1;130;0
84;15;1;130;0
84;16;1;130;0
84;17;1;130;0
84;18;1;130;0
84;19;1;130;0
84;20;1;130;0
84;21;1;130;0
84;22;1;130;0
84;23;1;130;0
84;24;1;130;0
85;1;0;0;0
85;2;0;0;0
85;3;1;25;0
85;4;1;25;137
85;5;1;25;137
85;6;1;25;137
85;7;1;25;137
85;8;1;25;137
85;9;1;162;0
85;10;1;162;0
85;11;1;162;0
85;12;1;162;0
85;13;1;162;0
85;14;1;25;137
85;15;1;25;137
85;16;1;25;137
85;17;1;25;137
85;18;1;25;137
85;19;1;25;137
85;20;1;162;0
85;21;1;74;88
85;22;1;25;137
85;23;1;25;137
85;24;1;25;137
86;1;0;0;0
86;2;0;0;0
86;3;0;0;0
86;4;0;0;0
86;5;0;0;0
86;6;0;0;0
86;7;0;0;0
86;8;1;20;0
86;9;1;20;60
86;10;1;20;60
86;11;1;20;60
86;12;1;80;0
86;13;1;20;60
86;14;1;20;60
86;15;1;20;0
86;16;0;0;0
86;17;0;0;0
86;18;0;0;0
86;19;1;20;0
86;20;1;20;60
86;21;1;20;60
86;22;1;20;0
86;23;0;0;0
86;24;0;0;0
87;1;0;0;0
87;2;0;0;0
87;3;0;0;0
87;4;0;0;0
87;5;0;0;0
87;6;0;0;0
87;7;0;0;0
87;8;0;0;0
87;9;1;25;0
87;10;1;25;60
87;11;1;25;60
87;12;1;25;60
87;13;1;25;60
87;14;1;25;0
87;15;0;0;0
87;16;0;0;0
87;17;0;0;0
87;18;0;0;0
87;19;1;25;0
87;20;1;25;60
87;21;1;25;0
87;22;0;0;0
87;23;0;0;0
87;24;0;0;0
88;1;0;0;0
88;2;0;0;0
88;3;0;0;0
88;4;0;0;0
88;5;0;0;0
88;6;0;0;0
88;7;0;0;0
88;8;0;0;0
88;9;0;0;0
88;10;1;10;0
88;11;1;10;45
88;12;1;10;45
88;13;1;10;45
88;14;1;10;0
88;15;0;0;0
88;16;0;0;0
88;17;0;0;0
88;18;0;0;0
88;19;1;10;0
88;20;1;10;45
88;21;1;10;0
88;22;0;0;0
88;23;0;0;0
88;24;0;0;0
89;1;0;0;0
89;2;0;0;0
89;3;0;0;0
89;4;0;0;0
89;5;0;0;0
89;6;0;0;0
89;7;0;0;0
89;8;0;0;0
89;9;0;0;0
89;10;0;0;0
89;11;1;10;0
89;12;1;10;45
89;13;1;10;0
89;14;0;0;0
89;15;0;0;0
89;16;0;0;0
89;17;0;0;0
89;18;0;0;0
89;19;0;0;0
89;20;0;0;0
89;21;0;0;0
89;22;0;0;0
89;23;0;0;0
89;24;0;0;0
90;1;0;0;0
90;2;0;0;0
90;3;0;0;0
90;4;0;0;0
90;5;0;0;0
90;6;0;0;0
90;7;0;0;0
90;8;0;0;0
90;9;0;0;0
90;10;0;0;0
90;11;1;10;0
90;12;1;10;45
90;13;1;10;0
90;14;0;0;0
90;15;0;0;0
90;16;0;0;0
90;17;0;0;0
90;18;0;0;0
90;19;0;0;0
90;20;0;0;0
90;21;0;0;0
90;22;0;0;0
90;23;0;0;0
90;24;0;0;0
