id;P_max;P_min;P_rampup;P_rampdown;P_startup;P_shutdown;P_past;T_past;T_onmin;T_offmin;T_cooling;C_fix;C_var;C_starthot;C_startcold
1;455;150;225;225;150;150;455;8;8;8;14;1000;16.19;4500;9000
2;455;150;225;225;150;150;455;8;8;8;14;1000;16.19;4500;9000
3;455;150;225;225;150;150;455;8;8;8;14;1000;16.19;4500;9000
4;455;150;225;225;150;150;455;8;8;8;14;1000;16.19;4500;9000
5;455;150;225;225;150;150;455;8;8;8;14;1000;16.19;4500;9000
6;455;150;225;225;150;150;455;8;8;8;14;1000;16.19;4500;9000
7;455;150;225;225;150;150;455;8;8;8;14;1000;16.19;4500;9000
8;455;150;225;225;150;150;455;8;8;8;14;1000;16.19;4500;9000
9;455;150;225;225;150;150;455;8;8;8;14;1000;16.19;4500;9000
10;455;150;225;225;150;150;455;8;8;8;14;1000;16.19;4500;9000
11;455;150;225;225;150;150;455;8;8;8;14;1000;16.19;4500;9000
12;455;150;225;225;150;150;455;8;8;8;14;1000;16.19;4500;9000
13;455;150;225;225;150;150;455;8;8;8;14;1000;16.19;4500;9000
14;455;150;225;225;150;150;455;8;8;8;14;1000;16.19;4500;9000
15;455;150;225;225;150;150;455;8;8;8;14;1000;16.19;4500;9000
16;455;150;225;225;150;150;455;8;8;8;14;1000;16.19;4500;9000
17;455;150;225;225;150;150;455;8;8;8;14;1000;16.19;4500;9000
18;455;150;225;225;150;150;455;8;8;8;14;1000;16.19;4500;9000
19;455;150;225;225;150;150;455;8;8;8;14;1000;16.19;4500;9000
20;455;150;225;225;150;150;455;8;8;8;14;1000;16.19;4500;9000
21;455;150;225;225;150;150;455;8;8;8;14;1000;16.19;4500;9000
22;455;150;225;225;150;150;455;8;8;8;14;1000;16.19;4500;9000
23;455;150;225;225;150;150;455;8;8;8;14;1000;16.19;4500;9000
24;455;150;225;225;150;150;455;8;8;8;14;1000;16.19;4500;9000
25;455;150;225;225;150;150;455;8;8;8;14;1000;16.19;4500;9000
26;455;150;225;225;150;150;455;8;8;8;14;1000;16.19;4500;9000
27;455;150;225;225;150;150;455;8;8;8;14;1000;16.19;4500;9000
28;455;150;225;225;150;150;455;8;8;8;14;1000;16.19;4500;9000
29;455;150;225;225;150;150;455;8;8;8;14;1000;16.19;4500;9000
30;455;150;225;225;150;150;455;8;8;8;14;1000;16.19;4500;9000
31;455;150;225;225;150;150;455;8;8;8;14;1000;16.19;4500;9000
32;455;150;225;225;150;150;455;8;8;8;14;1000;16.19;4500;9000
33;455;150;225;225;150;150;455;8;8;8;14;1000;16.19;4500;9000
34;455;150;225;225;150;150;455;8;8;8;14;1000;16.19;4500;9000
35;455;150;225;225;150;150;455;8;8;8;14;1000;16.19;4500;9000
36;455;150;225;225;150;150;455;8;8;8;14;1000;16.19;4500;9000
37;455;150;225;225;150;150;455;8;8;8;14;1000;16.19;4500;9000
38;455;150;225;225;150;150;455;8;8;8;14;1000;16.19;4500;9000
39;455;150;225;225;150;150;455;8;8;8;14;1000;16.19;4500;9000
40;455;150;225;225;150;150;455;8;8;8;14;1000;16.19;4500;9000
41;455;150;225;225;150;150;455;8;8;8;14;1000;16.19;4500;9000
42;455;150;225;225;150;150;455;8;8;8;14;1000;16.19;4500;9000
43;455;150;225;225;150;150;455;8;8;8;14;1000;16.19;4500;9000
44;455;150;225;225;150;150;455;8;8;8;14;1000;16.19;4500;9000
45;455;150;225;225;150;150;455;8;8;8;14;1000;16.19;4500;9000
46;455;150;225;225;150;150;455;8;8;8;14;1000;16.19;4500;9000
47;455;150;225;225;150;150;455;8;8;8;14;1000;16.19;4500;9000
48;455;150;225;225;150;150;455;8;8;8;14;1000;16.19;4500;9000
49;455;150;225;225;150;150;455;8;8;8;14;1000;16.19;4500;9000
50;455;150;225;225;150;150;455;8;8;8;14;1000;16.19;4500;9000
51;455;150;225;225;150;150;455;8;8;8;14;1000;16.19;4500;9000
52;455;150;225;225;150;150;455;8;8;8;14;1000;16.19;4500;9000
53;455;150;225;225;150;150;455;8;8;8;14;1000;16.19;4500;9000
54;455;150;225;225;150;150;455;8;8;8;14;1000;16.19;4500;9000
55;455;150;225;225;150;150;455;8;8;8;14;1000;16.19;4500;9000
56;455;150;225;225;150;150;455;8;8;8;14;1000;16.19;4500;9000
57;455;150;225;225;150;150;455;8;8;8;14;1000;16.19;4500;9000
58;455;150;225;225;150;150;455;8;8;8;14;1000;16.19;4500;9000
59;455;150;225;225;150;150;455;8;8;8;14;1000;16.19;4500;9000
60;455;150;225;225;150;150;455;8;8;8;14;1000;16.19;4500;9000
61;455;150;225;225;150;150;455;8;8;8;14;1000;16.19;4500;9000
62;455;150;225;225;150;150;455;8;8;8;14;1000;16.19;4500;9000
63;455;150;225;225;150;150;455;8;8;8;14;1000;16.19;4500;9000
64;455;150;225;225;150;150;455;8;8;8;14;1000;16.19;4500;9000
65;455;150;225;225;150;150;455;8;8;8;14;1000;16.19;4500;9000
66;455;150;225;225;150;150;455;8;8;8;14;1000;16.19;4500;9000
67;455;150;225;225;150;150;455;8;8;8;14;1000;16.19;4500;9000
68;455;150;225;225;150;150;455;8;8;8;14;1000;16.19;4500;9000
69;455;150;225;225;150;150;455;8;8;8;14;1000;16.19;4500;9000
70;455;150;225;225;150;150;455;8;8;8;14;1000;16.19;4500;9000
71;455;150;225;225;150;150;455;8;8;8;14;1000;16.19;4500;9000
72;455;150;225;225;150;150;455;8;8;8;14;1000;16.19;4500;9000
73;455;150;225;225;150;150;455;8;8;8;14;1000;16.19;4500;9000
74;455;150;225;225;150;150;455;8;8;8;14;1000;16.19;4500;9000
75;455;150;225;225;150;150;455;8;8;8;14;1000;16.19;4500;9000
76;455;150;225;225;150;150;455;8;8;8;14;1000;16.19;4500;9000
77;455;150;225;225;150;150;455;8;8;8;14;1000;16.19;4500;9000
78;455;150;225;225;150;150;455;8;8;8;14;1000;16.19;4500;9000
79;455;150;225;225;150;150;455;8;8;8;14;1000;16.19;4500;9000
80;455;150;225;225;150;150;455;8;8;8;14;1000;16.19;4500;9000
81;455;150;225;225;150;150;455;8;8;8;14;1000;16.19;4500;9000
82;455;150;225;225;150;150;455;8;8;8;14;1000;16.19;4500;9000
83;455;150;225;225;150;150;455;8;8;8;14;1000;16.19;4500;9000
84;455;150;225;225;150;150;455;8;8;8;14;1000;16.19;4500;9000
85;455;150;225;225;150;150;455;8;8;8;14;1000;16.19;4500;9000
86;455;150;225;225;150;150;455;8;8;8;14;1000;16.19;4500;9000
87;455;150;225;225;150;150;455;8;8;8;14;1000;16.19;4500;9000
88;455;150;225;225;150;150;455;8;8;8;14;1000;16.19;4500;9000
89;455;150;225;225;150;150;455;8;8;8;14;1000;16.19;4500;9000
90;455;150;225;225;150;150;455;8;8;8;14;1000;16.19;4500;9000
91;455;150;225;225;150;150;455;8;8;8;14;1000;16.19;4500;9000
92;455;150;225;225;150;150;455;8;8;8;14;1000;16.19;4500;9000
93;455;150;225;225;150;150;455;8;8;8;14;1000;16.19;4500;9000
94;455;150;225;225;150;150;455;8;8;8;14;1000;16.19;4500;9000
95;455;150;225;225;150;150;455;8;8;8;14;1000;16.19;4500;9000
96;455;150;225;225;150;150;455;8;8;8;14;1000;16.19;4500;9000
97;455;150;225;225;150;150;455;8;8;8;14;1000;16.19;4500;9000
98;455;150;225;225;150;150;455;8;8;8;14;1000;16.19;4500;9000
99;455;150;225;225;150;150;455;8;8;8;14;1000;16.19;4500;9000
100;455;150;225;225;150;150;455;8;8;8;14;1000;16.19;4500;9000
101;455;150;225;225;150;150;455;8;8;8;14;1000;16.19;4500;9000
102;455;150;225;225;150;150;455;8;8;8;14;1000;16.19;4500;9000
103;455;150;225;225;150;150;455;8;8;8;14;1000;16.19;4500;9000
104;455;150;225;225;150;150;455;8;8;8;14;1000;16.19;4500;9000
105;455;150;225;225;150;150;455;8;8;8;14;1000;16.19;4500;9000
106;455;150;225;225;150;150;455;8;8;8;14;1000;16.19;4500;9000
107;455;150;225;225;150;150;455;8;8;8;14;1000;16.19;4500;9000
108;455;150;225;225;150;150;455;8;8;8;14;1000;16.19;4500;9000
109;455;150;225;225;150;150;455;8;8;8;14;1000;16.19;4500;9000
110;455;150;225;225;150;150;455;8;8;8;14;1000;16.19;4500;9000
111;455;150;225;225;150;150;455;8;8;8;14;1000;16.19;4500;9000
112;455;150;225;225;150;150;455;8;8;8;14;1000;16.19;4500;9000
113;455;150;225;225;150;150;455;8;8;8;14;1000;16.19;4500;9000
114;455;150;225;225;150;150;455;8;8;8;14;1000;16.19;4500;9000
115;455;150;225;225;150;150;455;8;8;8;14;1000;16.19;4500;9000
116;455;150;225;225;150;150;455;8;8;8;14;1000;16.19;4500;9000
117;455;150;225;225;150;150;455;8;8;8;14;1000;16.19;4500;9000
118;455;150;225;225;150;150;455;8;8;8;14;1000;16.19;4500;9000
119;455;150;225;225;150;150;455;8;8;8;14;1000;16.19;4500;9000
120;455;150;225;225;150;150;455;8;8;8;14;1000;16.19;4500;9000
121;455;150;225;225;150;150;455;8;8;8;14;1000;16.19;4500;9000
122;455;150;225;225;150;150;455;8;8;8;14;1000;16.19;4500;9000
123;455;150;225;225;150;150;455;8;8;8;14;1000;16.19;4500;9000
124;455;150;225;225;150;150;455;8;8;8;14;1000;16.19;4500;9000
125;455;150;225;225;150;150;455;8;8;8;14;1000;16.19;4500;9000
126;455;150;225;225;150;150;455;8;8;8;14;1000;16.19;4500;9000
127;455;150;225;225;150;150;455;8;8;8;14;1000;16.19;4500;9000
128;455;150;225;225;150;150;455;8;8;8;14;1000;16.19;4500;9000
129;455;150;225;225;150;150;455;8;8;8;14;1000;16.19;4500;9000
130;455;150;225;225;150;150;455;8;8;8;14;1000;16.19;4500;9000
131;455;150;225;225;150;150;245;8;8;8;14;970;17.26;5000;10000
132;455;150;225;225;150;150;245;8;8;8;14;970;17.26;5000;10000
133;455;150;225;225;150;150;245;8;8;8;14;970;17.26;5000;10000
134;455;150;225;225;150;150;245;8;8;8;14;970;17.26;5000;10000
135;455;150;225;225;150;150;245;8;8;8;14;970;17.26;5000;10000
136;455;150;225;225;150;150;245;8;8;8;14;970;17.26;5000;10000
137;455;150;225;225;150;150;245;8;8;8;14;970;17.26;5000;10000
138;455;150;225;225;150;150;245;8;8;8;14;970;17.26;5000;10000
139;455;150;225;225;150;150;245;8;8;8;14;970;17.26;5000;10000
140;455;150;225;225;150;150;245;8;8;8;14;970;17.26;5000;10000
141;455;150;225;225;150;150;245;8;8;8;14;970;17.26;5000;10000
142;455;150;225;225;150;150;245;8;8;8;14;970;17.26;5000;10000
143;455;150;225;225;150;150;245;8;8;8;14;970;17.26;5000;10000
144;455;150;225;225;150;150;245;8;8;8;14;970;17.26;5000;10000
145;455;150;225;225;150;150;245;8;8;8;14;970;17.26;5000;10000
146;455;150;225;225;150;150;245;8;8;8;14;970;17.26;5000;10000
147;455;150;225;225;150;150;245;8;8;8;14;970;17.26;5000;10000
148;455;150;225;225;150;150;245;8;8;8;14;970;17.26;5000;10000
149;455;150;225;225;150;150;245;8;8;8;14;970;17.26;5000;10000
150;455;150;225;225;150;150;245;8;8;8;14;970;17.26;5000;10000
151;455;150;225;225;150;150;245;8;8;8;14;970;17.26;5000;10000
152;455;150;225;225;150;150;245;8;8;8;14;970;17.26;5000;10000
153;455;150;225;225;150;150;245;8;8;8;14;970;17.26;5000;10000
154;455;150;225;225;150;150;245;8;8;8;14;970;17.26;5000;10000
155;455;150;225;225;150;150;245;8;8;8;14;970;17.26;5000;10000
156;455;150;225;225;150;150;245;8;8;8;14;970;17.26;5000;10000
157;455;150;225;225;150;150;245;8;8;8;14;970;17.26;5000;10000
158;455;150;225;225;150;150;245;8;8;8;14;970;17.26;5000;10000
159;455;150;225;225;150;150;245;8;8;8;14;970;17.26;5000;10000
160;455;150;225;225;150;150;245;8;8;8;14;970;17.26;5000;10000
161;455;150;225;225;150;150;245;8;8;8;14;970;17.26;5000;10000
162;455;150;225;225;150;150;245;8;8;8;14;970;17.26;5000;10000
163;455;150;225;225;150;150;245;8;8;8;14;970;17.26;5000;10000
164;455;150;225;225;150;150;245;8;8;8;14;970;17.26;5000;10000
165;455;150;225;225;150;150;245;8;8;8;14;970;17.26;5000;10000
166;455;150;225;225;150;150;245;8;8;8;14;970;17.26;5000;10000
167;455;150;225;225;150;150;245;8;8;8;14;970;17.26;5000;10000
168;455;150;225;225;150;150;245;8;8;8;14;970;17.26;5000;10000
169;455;150;225;225;150;150;245;8;8;8;14;970;17.26;5000;10000
170;455;150;225;225;150;150;245;8;8;8;14;970;17.26;5000;10000
171;455;150;225;225;150;150;245;8;8;8;14;970;17.26;5000;10000
172;455;150;225;225;150;150;245;8;8;8;14;970;17.26;5000;10000
173;455;150;225;225;150;150;245;8;8;8;14;970;17.26;5000;10000
174;455;150;225;225;150;150;245;8;8;8;14;970;17.26;5000;10000
175;455;150;225;225;150;150;245;8;8;8;14;970;17.26;5000;10000
176;455;150;225;225;150;150;245;8;8;8;14;970;17.26;5000;10000
177;455;150;225;225;150;150;245;8;8;8;14;970;17.26;5000;10000
178;455;150;225;225;150;150;245;8;8;8;14;970;17.26;5000;10000
179;455;150;225;225;150;150;245;8;8;8;14;970;17.26;5000;10000
180;455;150;225;225;150;150;245;8;8;8;14;970;17.26;5000;10000
181;455;150;225;225;150;150;245;8;8;8;14;970;17.26;5000;10000
182;455;150;225;225;150;150;245;8;8;8;14;970;17.26;5000;10000
183;455;150;225;225;150;150;245;8;8;8;14;970;17.26;5000;10000
184;455;150;225;225;150;150;245;8;8;8;14;970;17.26;5000;10000
185;455;150;225;225;150;150;245;8;8;8;14;970;17.26;5000;10000
186;455;150;225;225;150;150;245;8;8;8;14;970;17.26;5000;10000
187;455;150;225;225;150;150;245;8;8;8;14;970;17.26;5000;10000
188;455;150;225;225;150;150;245;8;8;8;14;970;17.26;5000;10000
189;455;150;225;225;150;150;245;8;8;8;14;970;17.26;5000;10000
190;455;150;225;225;150;150;245;8;8;8;14;970;17.26;5000;10000
191;455;150;225;225;150;150;245;8;8;8;14;970;17.26;5000;10000
192;455;150;225;225;150;150;245;8;8;8;14;970;17.26;5000;10000
193;455;150;225;225;150;150;245;8;8;8;14;970;17.26;5000;10000
194;455;150;225;225;150;150;245;8;8;8;14;970;17.26;5000;10000
195;455;150;225;225;150;150;245;8;8;8;14;970;17.26;5000;10000
196;455;150;225;225;150;150;245;8;8;8;14;970;17.26;5000;10000
197;455;150;225;225;150;150;245;8;8;8;14;970;17.26;5000;10000
198;455;150;225;225;150;150;245;8;8;8;14;970;17.26;5000;10000
199;455;150;225;225;150;150;245;8;8;8;14;970;17.26;5000;10000
200;455;150;225;225;150;150;245;8;8;8;14;970;17.26;5000;10000
201;455;150;225;225;150;150;245;8;8;8;14;970;17.26;5000;10000
202;455;150;225;225;150;150;245;8;8;8;14;970;17.26;5000;10000
203;455;150;225;225;150;150;245;8;8;8;14;970;17.26;5000;10000
204;455;150;225;225;150;150;245;8;8;8;14;970;17.26;5000;10000
205;455;150;225;225;150;150;245;8;8;8;14;970;17.26;5000;10000
206;455;150;225;225;150;150;245;8;8;8;14;970;17.26;5000;10000
207;455;150;225;225;150;150;245;8;8;8;14;970;17.26;5000;10000
208;455;150;225;225;150;150;245;8;8;8;14;970;17.26;5000;10000
209;455;150;225;225;150;150;245;8;8;8;14;970;17.26;5000;10000
210;455;150;225;225;150;150;245;8;8;8;14;970;17.26;5000;10000
211;455;150;225;225;150;150;245;8;8;8;14;970;17.26;5000;10000
212;455;150;225;225;150;150;245;8;8;8;14;970;17.26;5000;10000
213;455;150;225;225;150;150;245;8;8;8;14;970;17.26;5000;10000
214;455;150;225;225;150;150;245;8;8;8;14;970;17.26;5000;10000
215;455;150;225;225;150;150;245;8;8;8;14;970;17.26;5000;10000
216;455;150;225;225;150;150;245;8;8;8;14;970;17.26;5000;10000
217;455;150;225;225;150;150;245;8;8;8;14;970;17.26;5000;10000
218;455;150;225;225;150;150;245;8;8;8;14;970;17.26;5000;10000
219;455;150;225;225;150;150;245;8;8;8;14;970;17.26;5000;10000
220;455;150;225;225;150;150;245;8;8;8;14;970;17.26;5000;10000
221;455;150;225;225;150;150;245;8;8;8;14;970;17.26;5000;10000
222;455;150;225;225;150;150;245;8;8;8;14;970;17.26;5000;10000
223;455;150;225;225;150;150;245;8;8;8;14;970;17.26;5000;10000
224;455;150;225;225;150;150;245;8;8;8;14;970;17.26;5000;10000
225;455;150;225;225;150;150;245;8;8;8;14;970;17.26;5000;10000
226;455;150;225;225;150;150;245;8;8;8;14;970;17.26;5000;10000
227;455;150;225;225;150;150;245;8;8;8;14;970;17.26;5000;10000
228;455;150;225;225;150;150;245;8;8;8;14;970;17.26;5000;10000
229;455;150;225;225;150;150;245;8;8;8;14;970;17.26;5000;10000
230;455;150;225;225;150;150;245;8;8;8;14;970;17.26;5000;10000
231;455;150;225;225;150;150;245;8;8;8;14;970;17.26;5000;10000
232;455;150;225;225;150;150;245;8;8;8;14;970;17.26;5000;10000
233;455;150;225;225;150;150;245;8;8;8;14;970;17.26;5000;10000
234;455;150;225;225;150;150;245;8;8;8;14;970;17.26;5000;10000
235;455;150;225;225;150;150;245;8;8;8;14;970;17.26;5000;10000
236;455;150;225;225;150;150;245;8;8;8;14;970;17.26;5000;10000
237;455;150;225;225;150;150;245;8;8;8;14;970;17.26;5000;10000
238;455;150;225;225;150;150;245;8;8;8;14;970;17.26;5000;10000
239;455;150;225;225;150;150;245;8;8;8;14;970;17.26;5000;10000
240;455;150;225;225;150;150;245;8;8;8;14;970;17.26;5000;10000
241;455;150;225;225;150;150;245;8;8;8;14;970;17.26;5000;10000
242;455;150;225;225;150;150;245;8;8;8;14;970;17.26;5000;10000
243;455;150;225;225;150;150;245;8;8;8;14;970;17.26;5000;10000
244;455;150;225;225;150;150;245;8;8;8;14;970;17.26;5000;10000
245;455;150;225;225;150;150;245;8;8;8;14;970;17.26;5000;10000
246;455;150;225;225;150;150;245;8;8;8;14;970;17.26;5000;10000
247;455;150;225;225;150;150;245;8;8;8;14;970;17.26;5000;10000
248;455;150;225;225;150;150;245;8;8;8;14;970;17.26;5000;10000
249;455;150;225;225;150;150;245;8;8;8;14;970;17.26;5000;10000
250;455;150;225;225;150;150;245;8;8;8;14;970;17.26;5000;10000
251;130;20;50;50;20;20;0;-5;5;5;10;700;16.6;550;1100
252;130;20;50;50;20;20;0;-5;5;5;10;700;16.6;550;1100
253;130;20;50;50;20;20;0;-5;5;5;10;700;16.6;550;1100
254;130;20;50;50;20;20;0;-5;5;5;10;700;16.6;550;1100
255;130;20;50;50;20;20;0;-5;5;5;10;700;16.6;550;1100
256;130;20;50;50;20;20;0;-5;5;5;10;700;16.6;550;1100
257;130;20;50;50;20;20;0;-5;5;5;10;700;16.6;550;1100
258;130;20;50;50;20;20;0;-5;5;5;10;700;16.6;550;1100
259;130;20;50;50;20;20;0;-5;5;5;10;700;16.6;550;1100
260;130;20;50;50;20;20;0;-5;5;5;10;700;16.6;550;1100
261;130;20;50;50;20;20;0;-5;5;5;10;700;16.6;550;1100
262;130;20;50;50;20;20;0;-5;5;5;10;700;16.6;550;1100
263;130;20;50;50;20;20;0;-5;5;5;10;700;16.6;550;1100
264;130;20;50;50;20;20;0;-5;5;5;10;700;16.6;550;1100
265;130;20;50;50;20;20;0;-5;5;5;10;700;16.6;550;1100
266;130;20;50;50;20;20;0;-5;5;5;10;700;16.6;550;1100
267;130;20;50;50;20;20;0;-5;5;5;10;700;16.6;550;1100
268;130;20;50;50;20;20;0;-5;5;5;10;700;16.6;550;1100
269;130;20;50;50;20;20;0;-5;5;5;10;700;16.6;550;1100
270;130;20;50;50;20;20;0;-5;5;5;10;700;16.6;550;1100
271;130;20;50;50;20;20;0;-5;5;5;10;700;16.6;550;1100
272;130;20;50;50;20;20;0;-5;5;5;10;700;16.6;550;1100
273;130;20;50;50;20;20;0;-5;5;5;10;700;16.6;550;1100
274;130;20;50;50;20;20;0;-5;5;5;10;700;16.6;550;1100
275;130;20;50;50;20;20;0;-5;5;5;10;700;16.6;550;1100
276;130;20;50;50;20;20;0;-5;5;5;10;700;16.6;550;1100
277;130;20;50;50;20;20;0;-5;5;5;10;700;16.6;550;1100
278;130;20;50;50;20;20;0;-5;5;5;10;700;16.6;550;1100
279;130;20;50;50;20;20;0;-5;5;5;10;700;16.6;550;1100
280;130;20;50;50;20;20;0;-5;5;5;10;700;16.6;550;1100
281;130;20;50;50;20;20;0;-5;5;5;10;700;16.6;550;1100
282;130;20;50;50;20;20;0;-5;5;5;10;700;16.6;550;1100
283;130;20;50;50;20;20;0;-5;5;5;10;700;16.6;550;1100
284;130;20;50;50;20;20;0;-5;5;5;10;700;16.6;550;1100
285;130;20;50;50;20;20;0;-5;5;5;10;700;16.6;550;1100
286;130;20;50;50;20;20;0;-5;5;5;10;700;16.6;550;1100
287;130;20;50;50;20;20;0;-5;5;5;10;700;16.6;550;1100
288;130;20;50;50;20;20;0;-5;5;5;10;700;16.6;550;1100
289;130;20;50;50;20;20;0;-5;5;5;10;700;16.6;550;1100
290;130;20;50;50;20;20;0;-5;5;5;10;700;16.6;550;1100
291;130;20;50;50;20;20;0;-5;5;5;10;700;16.6;550;1100
292;130;20;50;50;20;20;0;-5;5;5;10;700;16.6;550;1100
293;130;20;50;50;20;20;0;-5;5;5;10;700;16.6;550;1100
294;130;20;50;50;20;20;0;-5;5;5;10;700;16.6;550;1100
295;130;20;50;50;20;20;0;-5;5;5;10;700;16.6;550;1100
296;130;20;50;50;20;20;0;-5;5;5;10;700;16.6;550;1100
297;130;20;50;50;20;20;0;-5;5;5;10;700;16.6;550;1100
298;130;20;50;50;20;20;0;-5;5;5;10;700;16.6;550;1100
299;130;20;50;50;20;20;0;-5;5;5;10;700;16.6;550;1100
300;130;20;50;50;20;20;0;-5;5;5;10;700;16.6;550;1100
301;130;20;50;50;20;20;0;-5;5;5;10;680;16.5;560;1120
302;130;20;50;50;20;20;0;-5;5;5;10;680;16.5;560;1120
303;130;20;50;50;20;20;0;-5;5;5;10;680;16.5;560;1120
304;130;20;50;50;20;20;0;-5;5;5;10;680;16.5;560;1120
305;130;20;50;50;20;20;0;-5;5;5;10;680;16.5;560;1120
306;130;20;50;50;20;20;0;-5;5;5;10;680;16.5;560;1120
307;130;20;50;50;20;20;0;-5;5;5;10;680;16.5;560;1120
308;130;20;50;50;20;20;0;-5;5;5;10;680;16.5;560;1120
309;130;20;50;50;20;20;0;-5;5;5;10;680;16.5;560;1120
310;130;20;50;50;20;20;0;-5;5;5;10;680;16.5;560;1120
311;130;20;50;50;20;20;0;-5;5;5;10;680;16.5;560;1120
312;130;20;50;50;20;20;0;-5;5;5;10;680;16.5;560;1120
313;130;20;50;50;20;20;0;-5;5;5;10;680;16.5;560;1120
314;130;20;50;50;20;20;0;-5;5;5;10;680;16.5;560;1120
315;130;20;50;50;20;20;0;-5;5;5;10;680;16.5;560;1120
316;130;20;50;50;20;20;0;-5;5;5;10;680;16.5;560;1120
317;130;20;50;50;20;20;0;-5;5;5;10;680;16.5;560;1120
318;130;20;50;50;20;20;0;-5;5;5;10;680;16.5;560;1120
319;130;20;50;50;20;20;0;-5;5;5;10;680;16.5;560;1120
320;130;20;50;50;20;20;0;-5;5;5;10;680;16.5;560;1120
321;130;20;50;50;20;20;0;-5;5;5;10;680;16.5;560;1120
322;130;20;50;50;20;20;0;-5;5;5;10;680;16.5;560;1120
323;130;20;50;50;20;20;0;-5;5;5;10;680;16.5;560;1120
324;130;20;50;50;20;20;0;-5;5;5;10;680;16.5;560;1120
325;130;20;50;50;20;20;0;-5;5;5;10;680;16.5;560;1120
326;130;20;50;50;20;20;0;-5;5;5;10;680;16.5;560;1120
327;130;20;50;50;20;20;0;-5;5;5;10;680;16.5;560;1120
328;130;20;50;50;20;20;0;-5;5;5;10;680;16.5;560;1120
329;130;20;50;50;20;20;0;-5;5;5;10;680;16.5;560;1120
330;130;20;50;50;20;20;0;-5;5;5;10;680;16.5;560;1120
331;130;20;50;50;20;20;0;-5;5;5;10;680;16.5;560;1120
332;130;20;50;50;20;20;0;-5;5;5;10;680;16.5;560;1120
333;130;20;50;50;20;20;0;-5;5;5;10;680;16.5;560;1120
334;130;20;50;50;20;20;0;-5;5;5;10;680;16.5;560;1120
335;130;20;50;50;20;20;0;-5;5;5;10;680;16.5;560;1120
336;130;20;50;50;20;20;0;-5;5;5;10;680;16.5;560;1120
337;130;20;50;50;20;20;0;-5;5;5;10;680;16.5;560;1120
338;130;20;50;50;20;20;0;-5;5;5;10;680;16.5;560;1120
339;130;20;50;50;20;20;0;-5;5;5;10;680;16.5;560;1120
340;130;20;50;50;20;20;0;-5;5;5;10;680;16.5;560;1120
341;130;20;50;50;20;20;0;-5;5;5;10;680;16.5;560;1120
342;130;20;50;50;20;20;0;-5;5;5;10;680;16.5;560;1120
343;130;20;50;50;20;20;0;-5;5;5;10;680;16.5;560;1120
344;130;20;50;50;20;20;0;-5;5;5;10;680;16.5;560;1120
345;130;20;50;50;20;20;0;-5;5;5;10;680;16.5;560;1120
346;130;20;50;50;20;20;0;-5;5;5;10;680;16.5;560;1120
347;130;20;50;50;20;20;0;-5;5;5;10;680;16.5;560;1120
348;130;20;50;50;20;20;0;-5;5;5;10;680;16.5;560;1120
349;130;20;50;50;20;20;0;-5;5;5;10;680;16.5;560;1120
350;130;20;50;50;20;20;0;-5;5;5;10;680;16.5;560;1120
351;130;20;50;50;20;20;0;-5;5;5;10;680;16.5;560;1120
352;130;20;50;50;20;20;0;-5;5;5;10;680;16.5;560;1120
353;130;20;50;50;20;20;0;-5;5;5;10;680;16.5;560;1120
354;130;20;50;50;20;20;0;-5;5;5;10;680;16.5;560;1120
355;130;20;50;50;20;20;0;-5;5;5;10;680;16.5;560;1120
356;130;20;50;50;20;20;0;-5;5;5;10;680;16.5;560;1120
357;130;20;50;50;20;20;0;-5;5;5;10;680;16.5;560;1120
358;130;20;50;50;20;20;0;-5;5;5;10;680;16.5;560;1120
359;130;20;50;50;20;20;0;-5;5;5;10;680;16.5;560;1120
360;130;20;50;50;20;20;0;-5;5;5;10;680;16.5;560;1120
361;130;20;50;50;20;20;0;-5;5;5;10;680;16.5;560;1120
362;130;20;50;50;20;20;0;-5;5;5;10;680;16.5;560;1120
363;130;20;50;50;20;20;0;-5;5;5;10;680;16.5;560;1120
364;130;20;50;50;20;20;0;-5;5;5;10;680;16.5;560;1120
365;130;20;50;50;20;20;0;-5;5;5;10;680;16.5;560;1120
366;130;20;50;50;20;20;0;-5;5;5;10;680;16.5;560;1120
367;130;20;50;50;20;20;0;-5;5;5;10;680;16.5;560;1120
368;130;20;50;50;20;20;0;-5;5;5;10;680;16.5;560;1120
369;130;20;50;50;20;20;0;-5;5;5;10;680;16.5;560;1120
370;130;20;50;50;20;20;0;-5;5;5;10;680;16.5;560;1120
371;162;25;60;60;25;25;0;-6;6;6;11;450;19.7;900;1800
372;162;25;60;60;25;25;0;-6;6;6;11;450;19.7;900;1800
373;162;25;60;60;25;25;0;-6;6;6;11;450;19.7;900;1800
374;162;25;60;60;25;25;0;-6;6;6;11;450;19.7;900;1800
375;162;25;60;60;25;25;0;-6;6;6;11;450;19.7;900;1800
376;162;25;60;60;25;25;0;-6;6;6;11;450;19.7;900;1800
377;162;25;60;60;25;25;0;-6;6;6;11;450;19.7;900;1800
378;162;25;60;60;25;25;0;-6;6;6;11;450;19.7;900;1800
379;162;25;60;60;25;25;0;-6;6;6;11;450;19.7;900;1800
380;162;25;60;60;25;25;0;-6;6;6;11;450;19.7;900;1800
381;162;25;60;60;25;25;0;-6;6;6;11;450;19.7;900;1800
382;162;25;60;60;25;25;0;-6;6;6;11;450;19.7;900;1800
383;162;25;60;60;25;25;0;-6;6;6;11;450;19.7;900;1800
384;162;25;60;60;25;25;0;-6;6;6;11;450;19.7;900;1800
385;162;25;60;60;25;25;0;-6;6;6;11;450;19.7;900;1800
386;162;25;60;60;25;25;0;-6;6;6;11;450;19.7;900;1800
387;162;25;60;60;25;25;0;-6;6;6;11;450;19.7;900;1800
388;162;25;60;60;25;25;0;-6;6;6;11;450;19.7;900;1800
389;162;25;60;60;25;25;0;-6;6;6;11;450;19.7;900;1800
390;162;25;60;60;25;25;0;-6;6;6;11;450;19.7;900;1800
391;80;20;60;60;20;20;0;-3;3;3;8;370;22.26;170;340
392;80;20;60;60;20;20;0;-3;3;3;8;370;22.26;170;340
393;80;20;60;60;20;20;0;-3;3;3;8;370;22.26;170;340
394;80;20;60;60;20;20;0;-3;3;3;8;370;22.26;170;340
395;80;20;60;60;20;20;0;-3;3;3;8;370;22.26;170;340
396;80;20;60;60;20;20;0;-3;3;3;8;370;22.26;170;340
397;80;20;60;60;20;20;0;-3;3;3;8;370;22.26;170;340
398;80;20;60;60;20;20;0;-3;3;3;8;370;22.26;170;340
399;80;20;60;60;20;20;0;-3;3;3;8;370;22.26;170;340
400;80;20;60;60;20;20;0;-3;3;3;8;370;22.26;170;340
401;80;20;60;60;20;20;0;-3;3;3;8;370;22.26;170;340
402;80;20;60;60;20;20;0;-3;3;3;8;370;22.26;170;340
403;80;20;60;60;20;20;0;-3;3;3;8;370;22.26;170;340
404;80;20;60;60;20;20;0;-3;3;3;8;370;22.26;170;340
405;80;20;60;60;20;20;0;-3;3;3;8;370;22.26;170;340
406;80;20;60;60;20;20;0;-3;3;3;8;370;22.26;170;340
407;80;20;60;60;20;20;0;-3;3;3;8;370;22.26;170;340
408;80;20;60;60;20;20;0;-3;3;3;8;370;22.26;170;340
409;80;20;60;60;20;20;0;-3;3;3;8;370;22.26;170;340
410;80;20;60;60;20;20;0;-3;3;3;8;370;22.26;170;340
411;80;20;60;60;20;20;0;-3;3;3;8;370;22.26;170;340
412;80;20;60;60;20;20;0;-3;3;3;8;370;22.26;170;340
413;80;20;60;60;20;20;0;-3;3;3;8;370;22.26;170;340
414;80;20;60;60;20;20;0;-3;3;3;8;370;22.26;170;340
415;80;20;60;60;20;20;0;-3;3;3;8;370;22.26;170;340
416;80;20;60;60;20;20;0;-3;3;3;8;370;22.26;170;340
417;80;20;60;60;20;20;0;-3;3;3;8;370;22.26;170;340
418;80;20;60;60;20;20;0;-3;3;3;8;370;22.26;170;340
419;80;20;60;60;20;20;0;-3;3;3;8;370;22.26;170;340
420;80;20;60;60;20;20;0;-3;3;3;8;370;22.26;170;340
421;80;20;60;60;20;20;0;-3;3;3;8;370;22.26;170;340
422;80;20;60;60;20;20;0;-3;3;3;8;370;22.26;170;340
423;80;20;60;60;20;20;0;-3;3;3;8;370;22.26;170;340
424;80;20;60;60;20;20;0;-3;3;3;8;370;22.26;170;340
425;80;20;60;60;20;20;0;-3;3;3;8;370;22.26;170;340
426;80;20;60;60;20;20;0;-3;3;3;8;370;22.26;170;340
427;80;20;60;60;20;20;0;-3;3;3;8;370;22.26;170;340
428;80;20;60;60;20;20;0;-3;3;3;8;370;22.26;170;340
429;80;20;60;60;20;20;0;-3;3;3;8;370;22.26;170;340
430;80;20;60;60;20;20;0;-3;3;3;8;370;22.26;170;340
431;80;20;60;60;20;20;0;-3;3;3;8;370;22.26;170;340
432;80;20;60;60;20;20;0;-3;3;3;8;370;22.26;170;340
433;80;20;60;60;20;20;0;-3;3;3;8;370;22.26;170;340
434;80;20;60;60;20;20;0;-3;3;3;8;370;22.26;170;340
435;80;20;60;60;20;20;0;-3;3;3;8;370;22.26;170;340
436;80;20;60;60;20;20;0;-3;3;3;8;370;22.26;170;340
437;80;20;60;60;20;20;0;-3;3;3;8;370;22.26;170;340
438;80;20;60;60;20;20;0;-3;3;3;8;370;22.26;170;340
439;80;20;60;60;20;20;0;-3;3;3;8;370;22.26;170;340
440;80;20;60;60;20;20;0;-3;3;3;8;370;22.26;170;340
441;85;25;60;60;25;25;0;-3;3;3;6;480;27.74;260;520
442;85;25;60;60;25;25;0;-3;3;3;6;480;27.74;260;520
443;85;25;60;60;25;25;0;-3;3;3;6;480;27.74;260;520
444;85;25;60;60;25;25;0;-3;3;3;6;480;27.74;260;520
445;85;25;60;60;25;25;0;-3;3;3;6;480;27.74;260;520
446;85;25;60;60;25;25;0;-3;3;3;6;480;27.74;260;520
447;85;25;60;60;25;25;0;-3;3;3;6;480;27.74;260;520
448;85;25;60;60;25;25;0;-3;3;3;6;480;27.74;260;520
449;85;25;60;60;25;25;0;-3;3;3;6;480;27.74;260;520
450;85;25;60;60;25;25;0;-3;3;3;6;480;27.74;260;520
451;85;25;60;60;25;25;0;-3;3;3;6;480;27.74;260;520
452;85;25;60;60;25;25;0;-3;3;3;6;480;27.74;260;520
453;85;25;60;60;25;25;0;-3;3;3;6;480;27.74;260;520
454;85;25;60;60;25;25;0;-3;3;3;6;480;27.74;260;520
455;85;25;60;60;25;25;0;-3;3;3;6;480;27.74;260;520
456;85;25;60;60;25;25;0;-3;3;3;6;480;27.74;260;520
457;85;25;60;60;25;25;0;-3;3;3;6;480;27.74;260;520
458;85;25;60;60;25;25;0;-3;3;3;6;480;27.74;260;520
459;85;25;60;60;25;25;0;-3;3;3;6;480;27.74;260;520
460;85;25;60;60;25;25;0;-3;3;3;6;480;27.74;260;520
461;85;25;60;60;25;25;0;-3;3;3;6;480;27.74;260;520
462;85;25;60;60;25;25;0;-3;3;3;6;480;27.74;260;520
463;85;25;60;60;25;25;0;-3;3;3;6;480;27.74;260;520
464;85;25;60;60;25;25;0;-3;3;3;6;480;27.74;260;520
465;85;25;60;60;25;25;0;-3;3;3;6;480;27.74;260;520
466;85;25;60;60;25;25;0;-3;3;3;6;480;27.74;260;520
467;85;25;60;60;25;25;0;-3;3;3;6;480;27.74;260;520
468;85;25;60;60;25;25;0;-3;3;3;6;480;27.74;260;520
469;85;25;60;60;25;25;0;-3;3;3;6;480;27.74;260;520
470;85;25;60;60;25;25;0;-3;3;3;6;480;27.74;260;520
471;85;25;60;60;25;25;0;-3;3;3;6;480;27.74;260;520
472;85;25;60;60;25;25;0;-3;3;3;6;480;27.74;260;520
473;85;25;60;60;25;25;0;-3;3;3;6;480;27.74;260;520
474;85;25;60;60;25;25;0;-3;3;3;6;480;27.74;260;520
475;85;25;60;60;25;25;0;-3;3;3;6;480;27.74;260;520
476;85;25;60;60;25;25;0;-3;3;3;6;480;27.74;260;520
477;85;25;60;60;25;25;0;-3;3;3;6;480;27.74;260;520
478;85;25;60;60;25;25;0;-3;3;3;6;480;27.74;260;520
479;85;25;60;60;25;25;0;-3;3;3;6;480;27.74;260;520
480;85;25;60;60;25;25;0;-3;3;3;6;480;27.74;260;520
481;55;10;135;135;10;10;0;-1;1;1;2;660;25.92;30;60
482;55;10;135;135;10;10;0;-1;1;1;2;660;25.92;30;60
483;55;10;135;135;10;10;0;-1;1;1;2;660;25.92;30;60
484;55;10;135;135;10;10;0;-1;1;1;2;660;25.92;30;60
485;55;10;135;135;10;10;0;-1;1;1;2;660;25.92;30;60
486;55;10;135;135;10;10;0;-1;1;1;2;660;25.92;30;60
487;55;10;135;135;10;10;0;-1;1;1;2;660;25.92;30;60
488;55;10;135;135;10;10;0;-1;1;1;2;660;25.92;30;60
489;55;10;135;135;10;10;0;-1;1;1;2;660;25.92;30;60
490;55;10;135;135;10;10;0;-1;1;1;2;660;25.92;30;60
491;55;10;135;135;10;10;0;-1;1;1;2;660;25.92;30;60
492;55;10;135;135;10;10;0;-1;1;1;2;660;25.92;30;60
493;55;10;135;135;10;10;0;-1;1;1;2;660;25.92;30;60
494;55;10;135;135;10;10;0;-1;1;1;2;660;25.92;30;60
495;55;10;135;135;10;10;0;-1;1;1;2;660;25.92;30;60
496;55;10;135;135;10;10;0;-1;1;1;2;660;25.92;30;60
497;55;10;135;135;10;10;0;-1;1;1;2;660;25.92;30;60
498;55;10;135;135;10;10;0;-1;1;1;2;660;25.92;30;60
499;55;10;135;135;10;10;0;-1;1;1;2;660;25.92;30;60
500;55;10;135;135;10;10;0;-1;1;1;2;660;25.92;30;60
501;55;10;135;135;10;10;0;-1;1;1;2;660;25.92;30;60
502;55;10;135;135;10;10;0;-1;1;1;2;660;25.92;30;60
503;55;10;135;135;10;10;0;-1;1;1;2;660;25.92;30;60
504;55;10;135;135;10;10;0;-1;1;1;2;660;25.92;30;60
505;55;10;135;135;10;10;0;-1;1;1;2;660;25.92;30;60
506;55;10;135;135;10;10;0;-1;1;1;2;660;25.92;30;60
507;55;10;135;135;10;10;0;-1;1;1;2;660;25.92;30;60
508;55;10;135;135;10;10;0;-1;1;1;2;660;25.92;30;60
509;55;10;135;135;10;10;0;-1;1;1;2;660;25.92;30;60
510;55;10;135;135;10;10;0;-1;1;1;2;660;25.92;30;60
511;55;10;135;135;10;10;0;-1;1;1;2;660;25.92;30;60
512;55;10;135;135;10;10;0;-1;1;1;2;660;25.92;30;60
513;55;10;135;135;10;10;0;-1;1;1;2;660;25.92;30;60
514;55;10;135;135;10;10;0;-1;1;1;2;660;25.92;30;60
515;55;10;135;135;10;10;0;-1;1;1;2;660;25.92;30;60
516;55;10;135;135;10;10;0;-1;1;1;2;660;25.92;30;60
517;55;10;135;135;10;10;0;-1;1;1;2;660;25.92;30;60
518;55;10;135;135;10;10;0;-1;1;1;2;660;25.92;30;60
519;55;10;135;135;10;10;0;-1;1;1;2;660;25.92;30;60
520;55;10;135;135;10;10;0;-1;1;1;2;660;25.92;30;60
521;55;10;135;135;10;10;0;-1;1;1;2;660;25.92;30;60
522;55;10;135;135;10;10;0;-1;1;1;2;660;25.92;30;60
523;55;10;135;135;10;10;0;-1;1;1;2;660;25.92;30;60
524;55;10;135;135;10;10;0;-1;1;1;2;660;25.92;30;60
525;55;10;135;135;10;10;0;-1;1;1;2;660;25.92;30;60
526;55;10;135;135;10;10;0;-1;1;1;2;660;25.92;30;60
527;55;10;135;135;10;10;0;-1;1;1;2;660;25.92;30;60
528;55;10;135;135;10;10;0;-1;1;1;2;660;25.92;30;60
529;55;10;135;135;10;10;0;-1;1;1;2;660;25.92;30;60
530;55;10;135;135;10;10;0;-1;1;1;2;660;25.92;30;60
531;55;10;135;135;10;10;0;-1;1;1;2;660;25.92;30;60
532;55;10;135;135;10;10;0;-1;1;1;2;660;25.92;30;60
533;55;10;135;135;10;10;0;-1;1;1;2;660;25.92;30;60
534;55;10;135;135;10;10;0;-1;1;1;2;660;25.92;30;60
535;55;10;135;135;10;10;0;-1;1;1;2;660;25.92;30;60
536;55;10;135;135;10;10;0;-1;1;1;2;660;25.92;30;60
537;55;10;135;135;10;10;0;-1;1;1;2;660;25.92;30;60
538;55;10;135;135;10;10;0;-1;1;1;2;660;25.92;30;60
539;55;10;135;135;10;10;0;-1;1;1;2;660;25.92;30;60
540;55;10;135;135;10;10;0;-1;1;1;2;660;25.92;30;60
