id;P_max;P_min;P_rampup;P_rampdown;P_startup;P_shutdown;P_past;T_past;T_onmin;T_offmin;T_cooling;C_fix;C_var;C_starthot;C_startcold
1;455;150;225;225;150;150;455;8;8;8;14;1000;16.19;4500;9000
2;455;150;225;225;150;150;455;8;8;8;14;1000;16.19;4500;9000
3;455;150;225;225;150;150;455;8;8;8;14;1000;16.19;4500;9000
4;455;150;225;225;150;150;455;8;8;8;14;1000;16.19;4500;9000
5;455;150;225;225;150;150;455;8;8;8;14;1000;16.19;4500;9000
6;455;150;225;225;150;150;455;8;8;8;14;1000;16.19;4500;9000
7;455;150;225;225;150;150;455;8;8;8;14;1000;16.19;4500;9000
8;455;150;225;225;150;150;455;8;8;8;14;1000;16.19;4500;9000
9;455;150;225;225;150;150;455;8;8;8;14;1000;16.19;4500;9000
10;455;150;225;225;150;150;455;8;8;8;14;1000;16.19;4500;9000
11;455;150;225;225;150;150;455;8;8;8;14;1000;16.19;4500;9000
12;455;150;225;225;150;150;455;8;8;8;14;1000;16.19;4500;9000
13;455;150;225;225;150;150;455;8;8;8;14;1000;16.19;4500;9000
14;455;150;225;225;150;150;455;8;8;8;14;1000;16.19;4500;9000
15;455;150;225;225;150;150;455;8;8;8;14;1000;16.19;4500;9000
16;455;150;225;225;150;150;455;8;8;8;14;1000;16.19;4500;9000
17;455;150;225;225;150;150;455;8;8;8;14;1000;16.19;4500;9000
18;455;150;225;225;150;150;455;8;8;8;14;1000;16.19;4500;9000
19;455;150;225;225;150;150;455;8;8;8;14;1000;16.19;4500;9000
20;455;150;225;225;150;150;455;8;8;8;14;1000;16.19;4500;9000
21;455;150;225;225;150;150;455;8;8;8;14;1000;16.19;4500;9000
22;455;150;225;225;150;150;455;8;8;8;14;1000;16.19;4500;9000
23;455;150;225;225;150;150;455;8;8;8;14;1000;16.19;4500;9000
24;455;150;225;225;150;150;455;8;8;8;14;1000;16.19;4500;9000
25;455;150;225;225;150;150;455;8;8;8;14;1000;16.19;4500;9000
26;455;150;225;225;150;150;455;8;8;8;14;1000;16.19;4500;9000
27;455;150;225;225;150;150;455;8;8;8;14;1000;16.19;4500;9000
28;455;150;225;225;150;150;455;8;8;8;14;1000;16.19;4500;9000
29;455;150;225;225;150;150;455;8;8;8;14;1000;16.19;4500;9000
30;455;150;225;225;150;150;455;8;8;8;14;1000;16.19;4500;9000
31;455;150;225;225;150;150;455;8;8;8;14;1000;16.19;4500;9000
32;455;150;225;225;150;150;455;8;8;8;14;1000;16.19;4500;9000
33;455;150;225;225;150;150;455;8;8;8;14;1000;16.19;4500;9000
34;455;150;225;225;150;150;455;8;8;8;14;1000;16.19;4500;9000
35;455;150;225;225;150;150;455;8;8;8;14;1000;16.19;4500;9000
36;455;150;225;225;150;150;455;8;8;8;14;1000;16.19;4500;9000
37;455;150;225;225;150;150;455;8;8;8;14;1000;16.19;4500;9000
38;455;150;225;225;150;150;455;8;8;8;14;1000;16.19;4500;9000
39;455;150;225;225;150;150;455;8;8;8;14;1000;16.19;4500;9000
40;455;150;225;225;150;150;455;8;8;8;14;1000;16.19;4500;9000
41;455;150;225;225;150;150;455;8;8;8;14;1000;16.19;4500;9000
42;455;150;225;225;150;150;455;8;8;8;14;1000;16.19;4500;9000
43;455;150;225;225;150;150;455;8;8;8;14;1000;16.19;4500;9000
44;455;150;225;225;150;150;455;8;8;8;14;1000;16.19;4500;9000
45;455;150;225;225;150;150;455;8;8;8;14;1000;16.19;4500;9000
46;455;150;225;225;150;150;455;8;8;8;14;1000;16.19;4500;9000
47;455;150;225;225;150;150;455;8;8;8;14;1000;16.19;4500;9000
48;455;150;225;225;150;150;455;8;8;8;14;1000;16.19;4500;9000
49;455;150;225;225;150;150;455;8;8;8;14;1000;16.19;4500;9000
50;455;150;225;225;150;150;455;8;8;8;14;1000;16.19;4500;9000
51;455;150;225;225;150;150;455;8;8;8;14;1000;16.19;4500;9000
52;455;150;225;225;150;150;455;8;8;8;14;1000;16.19;4500;9000
53;455;150;225;225;150;150;455;8;8;8;14;1000;16.19;4500;9000
54;455;150;225;225;150;150;455;8;8;8;14;1000;16.19;4500;9000
55;455;150;225;225;150;150;455;8;8;8;14;1000;16.19;4500;9000
56;455;150;225;225;150;150;455;8;8;8;14;1000;16.19;4500;9000
57;455;150;225;225;150;150;455;8;8;8;14;1000;16.19;4500;9000
58;455;150;225;225;150;150;455;8;8;8;14;1000;16.19;4500;9000
59;455;150;225;225;150;150;455;8;8;8;14;1000;16.19;4500;9000
60;455;150;225;225;150;150;455;8;8;8;14;1000;16.19;4500;9000
61;455;150;225;225;150;150;455;8;8;8;14;1000;16.19;4500;9000
62;455;150;225;225;150;150;455;8;8;8;14;1000;16.19;4500;9000
63;455;150;225;225;150;150;455;8;8;8;14;1000;16.19;4500;9000
64;455;150;225;225;150;150;455;8;8;8;14;1000;16.19;4500;9000
65;455;150;225;225;150;150;455;8;8;8;14;1000;16.19;4500;9000
66;455;150;225;225;150;150;455;8;8;8;14;1000;16.19;4500;9000
67;455;150;225;225;150;150;455;8;8;8;14;1000;16.19;4500;9000
68;455;150;225;225;150;150;455;8;8;8;14;1000;16.19;4500;9000
69;455;150;225;225;150;150;455;8;8;8;14;1000;16.19;4500;9000
70;455;150;225;225;150;150;455;8;8;8;14;1000;16.19;4500;9000
71;455;150;225;225;150;150;455;8;8;8;14;1000;16.19;4500;9000
72;455;150;225;225;150;150;455;8;8;8;14;1000;16.19;4500;9000
73;455;150;225;225;150;150;455;8;8;8;14;1000;16.19;4500;9000
74;455;150;225;225;150;150;455;8;8;8;14;1000;16.19;4500;9000
75;455;150;225;225;150;150;455;8;8;8;14;1000;16.19;4500;9000
76;455;150;225;225;150;150;455;8;8;8;14;1000;16.19;4500;9000
77;455;150;225;225;150;150;455;8;8;8;14;1000;16.19;4500;9000
78;455;150;225;225;150;150;455;8;8;8;14;1000;16.19;4500;9000
79;455;150;225;225;150;150;455;8;8;8;14;1000;16.19;4500;9000
80;455;150;225;225;150;150;455;8;8;8;14;1000;16.19;4500;9000
81;455;150;225;225;150;150;455;8;8;8;14;1000;16.19;4500;9000
82;455;150;225;225;150;150;455;8;8;8;14;1000;16.19;4500;9000
83;455;150;225;225;150;150;455;8;8;8;14;1000;16.19;4500;9000
84;455;150;225;225;150;150;455;8;8;8;14;1000;16.19;4500;9000
85;455;150;225;225;150;150;455;8;8;8;14;1000;16.19;4500;9000
86;455;150;225;225;150;150;455;8;8;8;14;1000;16.19;4500;9000
87;455;150;225;225;150;150;455;8;8;8;14;1000;16.19;4500;9000
88;455;150;225;225;150;150;455;8;8;8;14;1000;16.19;4500;9000
89;455;150;225;225;150;150;455;8;8;8;14;1000;16.19;4500;9000
90;455;150;225;225;150;150;455;8;8;8;14;1000;16.19;4500;9000
91;455;150;225;225;150;150;455;8;8;8;14;1000;16.19;4500;9000
92;455;150;225;225;150;150;455;8;8;8;14;1000;16.19;4500;9000
93;455;150;225;225;150;150;455;8;8;8;14;1000;16.19;4500;9000
94;455;150;225;225;150;150;455;8;8;8;14;1000;16.19;4500;9000
95;455;150;225;225;150;150;455;8;8;8;14;1000;16.19;4500;9000
96;455;150;225;225;150;150;455;8;8;8;14;1000;16.19;4500;9000
97;455;150;225;225;150;150;455;8;8;8;14;1000;16.19;4500;9000
98;455;150;225;225;150;150;455;8;8;8;14;1000;16.19;4500;9000
99;455;150;225;225;150;150;455;8;8;8;14;1000;16.19;4500;9000
100;455;150;225;225;150;150;455;8;8;8;14;1000;16.19;4500;9000
101;455;150;225;225;150;150;455;8;8;8;14;1000;16.19;4500;9000
102;455;150;225;225;150;150;455;8;8;8;14;1000;16.19;4500;9000
103;455;150;225;225;150;150;455;8;8;8;14;1000;16.19;4500;9000
104;455;150;225;225;150;150;455;8;8;8;14;1000;16.19;4500;9000
105;455;150;225;225;150;150;455;8;8;8;14;1000;16.19;4500;9000
106;455;150;225;225;150;150;455;8;8;8;14;1000;16.19;4500;9000
107;455;150;225;225;150;150;455;8;8;8;14;1000;16.19;4500;9000
108;455;150;225;225;150;150;455;8;8;8;14;1000;16.19;4500;9000
109;455;150;225;225;150;150;455;8;8;8;14;1000;16.19;4500;9000
110;455;150;225;225;150;150;455;8;8;8;14;1000;16.19;4500;9000
111;455;150;225;225;150;150;455;8;8;8;14;1000;16.19;4500;9000
112;455;150;225;225;150;150;455;8;8;8;14;1000;16.19;4500;9000
113;455;150;225;225;150;150;455;8;8;8;14;1000;16.19;4500;9000
114;455;150;225;225;150;150;455;8;8;8;14;1000;16.19;4500;9000
115;455;150;225;225;150;150;455;8;8;8;14;1000;16.19;4500;9000
116;455;150;225;225;150;150;455;8;8;8;14;1000;16.19;4500;9000
117;455;150;225;225;150;150;455;8;8;8;14;1000;16.19;4500;9000
118;455;150;225;225;150;150;455;8;8;8;14;1000;16.19;4500;9000
119;455;150;225;225;150;150;455;8;8;8;14;1000;16.19;4500;9000
120;455;150;225;225;150;150;455;8;8;8;14;1000;16.19;4500;9000
121;455;150;225;225;150;150;455;8;8;8;14;1000;16.19;4500;9000
122;455;150;225;225;150;150;455;8;8;8;14;1000;16.19;4500;9000
123;455;150;225;225;150;150;455;8;8;8;14;1000;16.19;4500;9000
124;455;150;225;225;150;150;455;8;8;8;14;1000;16.19;4500;9000
125;455;150;225;225;150;150;455;8;8;8;14;1000;16.19;4500;9000
126;455;150;225;225;150;150;455;8;8;8;14;1000;16.19;4500;9000
127;455;150;225;225;150;150;455;8;8;8;14;1000;16.19;4500;9000
128;455;150;225;225;150;150;455;8;8;8;14;1000;16.19;4500;9000
129;455;150;225;225;150;150;455;8;8;8;14;1000;16.19;4500;9000
130;455;150;225;225;150;150;455;8;8;8;14;1000;16.19;4500;9000
131;455;150;225;225;150;150;455;8;8;8;14;1000;16.19;4500;9000
132;455;150;225;225;150;150;455;8;8;8;14;1000;16.19;4500;9000
133;455;150;225;225;150;150;455;8;8;8;14;1000;16.19;4500;9000
134;455;150;225;225;150;150;455;8;8;8;14;1000;16.19;4500;9000
135;455;150;225;225;150;150;455;8;8;8;14;1000;16.19;4500;9000
136;455;150;225;225;150;150;455;8;8;8;14;1000;16.19;4500;9000
137;455;150;225;225;150;150;455;8;8;8;14;1000;16.19;4500;9000
138;455;150;225;225;150;150;455;8;8;8;14;1000;16.19;4500;9000
139;455;150;225;225;150;150;455;8;8;8;14;1000;16.19;4500;9000
140;455;150;225;225;150;150;455;8;8;8;14;1000;16.19;4500;9000
141;455;150;225;225;150;150;455;8;8;8;14;1000;16.19;4500;9000
142;455;150;225;225;150;150;455;8;8;8;14;1000;16.19;4500;9000
143;455;150;225;225;150;150;455;8;8;8;14;1000;16.19;4500;9000
144;455;150;225;225;150;150;455;8;8;8;14;1000;16.19;4500;9000
145;455;150;225;225;150;150;455;8;8;8;14;1000;16.19;4500;9000
146;455;150;225;225;150;150;455;8;8;8;14;1000;16.19;4500;9000
147;455;150;225;225;150;150;455;8;8;8;14;1000;16.19;4500;9000
148;455;150;225;225;150;150;455;8;8;8;14;1000;16.19;4500;9000
149;455;150;225;225;150;150;455;8;8;8;14;1000;16.19;4500;9000
150;455;150;225;225;150;150;455;8;8;8;14;1000;16.19;4500;9000
151;455;150;225;225;150;150;245;8;8;8;14;970;17.26;5000;10000
152;455;150;225;225;150;150;245;8;8;8;14;970;17.26;5000;10000
153;455;150;225;225;150;150;245;8;8;8;14;970;17.26;5000;10000
154;455;150;225;225;150;150;245;8;8;8;14;970;17.26;5000;10000
155;455;150;225;225;150;150;245;8;8;8;14;970;17.26;5000;10000
156;455;150;225;225;150;150;245;8;8;8;14;970;17.26;5000;10000
157;455;150;225;225;150;150;245;8;8;8;14;970;17.26;5000;10000
158;455;150;225;225;150;150;245;8;8;8;14;970;17.26;5000;10000
159;455;150;225;225;150;150;245;8;8;8;14;970;17.26;5000;10000
160;455;150;225;225;150;150;245;8;8;8;14;970;17.26;5000;10000
161;455;150;225;225;150;150;245;8;8;8;14;970;17.26;5000;10000
162;455;150;225;225;150;150;245;8;8;8;14;970;17.26;5000;10000
163;455;150;225;225;150;150;245;8;8;8;14;970;17.26;5000;10000
164;455;150;225;225;150;150;245;8;8;8;14;970;17.26;5000;10000
165;455;150;225;225;150;150;245;8;8;8;14;970;17.26;5000;10000
166;455;150;225;225;150;150;245;8;8;8;14;970;17.26;5000;10000
167;455;150;225;225;150;150;245;8;8;8;14;970;17.26;5000;10000
168;455;150;225;225;150;150;245;8;8;8;14;970;17.26;5000;10000
169;455;150;225;225;150;150;245;8;8;8;14;970;17.26;5000;10000
170;455;150;225;225;150;150;245;8;8;8;14;970;17.26;5000;10000
171;455;150;225;225;150;150;245;8;8;8;14;970;17.26;5000;10000
172;455;150;225;225;150;150;245;8;8;8;14;970;17.26;5000;10000
173;455;150;225;225;150;150;245;8;8;8;14;970;17.26;5000;10000
174;455;150;225;225;150;150;245;8;8;8;14;970;17.26;5000;10000
175;455;150;225;225;150;150;245;8;8;8;14;970;17.26;5000;10000
176;455;150;225;225;150;150;245;8;8;8;14;970;17.26;5000;10000
177;455;150;225;225;150;150;245;8;8;8;14;970;17.26;5000;10000
178;455;150;225;225;150;150;245;8;8;8;14;970;17.26;5000;10000
179;455;150;225;225;150;150;245;8;8;8;14;970;17.26;5000;10000
180;455;150;225;225;150;150;245;8;8;8;14;970;17.26;5000;10000
181;455;150;225;225;150;150;245;8;8;8;14;970;17.26;5000;10000
182;455;150;225;225;150;150;245;8;8;8;14;970;17.26;5000;10000
183;455;150;225;225;150;150;245;8;8;8;14;970;17.26;5000;10000
184;455;150;225;225;150;150;245;8;8;8;14;970;17.26;5000;10000
185;455;150;225;225;150;150;245;8;8;8;14;970;17.26;5000;10000
186;455;150;225;225;150;150;245;8;8;8;14;970;17.26;5000;10000
187;455;150;225;225;150;150;245;8;8;8;14;970;17.26;5000;10000
188;455;150;225;225;150;150;245;8;8;8;14;970;17.26;5000;10000
189;455;150;225;225;150;150;245;8;8;8;14;970;17.26;5000;10000
190;455;150;225;225;150;150;245;8;8;8;14;970;17.26;5000;10000
191;455;150;225;225;150;150;245;8;8;8;14;970;17.26;5000;10000
192;455;150;225;225;150;150;245;8;8;8;14;970;17.26;5000;10000
193;455;150;225;225;150;150;245;8;8;8;14;970;17.26;5000;10000
194;455;150;225;225;150;150;245;8;8;8;14;970;17.26;5000;10000
195;455;150;225;225;150;150;245;8;8;8;14;970;17.26;5000;10000
196;455;150;225;225;150;150;245;8;8;8;14;970;17.26;5000;10000
197;455;150;225;225;150;150;245;8;8;8;14;970;17.26;5000;10000
198;455;150;225;225;150;150;245;8;8;8;14;970;17.26;5000;10000
199;455;150;225;225;150;150;245;8;8;8;14;970;17.26;5000;10000
200;455;150;225;225;150;150;245;8;8;8;14;970;17.26;5000;10000
201;455;150;225;225;150;150;245;8;8;8;14;970;17.26;5000;10000
202;455;150;225;225;150;150;245;8;8;8;14;970;17.26;5000;10000
203;455;150;225;225;150;150;245;8;8;8;14;970;17.26;5000;10000
204;455;150;225;225;150;150;245;8;8;8;14;970;17.26;5000;10000
205;455;150;225;225;150;150;245;8;8;8;14;970;17.26;5000;10000
206;455;150;225;225;150;150;245;8;8;8;14;970;17.26;5000;10000
207;455;150;225;225;150;150;245;8;8;8;14;970;17.26;5000;10000
208;455;150;225;225;150;150;245;8;8;8;14;970;17.26;5000;10000
209;455;150;225;225;150;150;245;8;8;8;14;970;17.26;5000;10000
210;455;150;225;225;150;150;245;8;8;8;14;970;17.26;5000;10000
211;455;150;225;225;150;150;245;8;8;8;14;970;17.26;5000;10000
212;455;150;225;225;150;150;245;8;8;8;14;970;17.26;5000;10000
213;455;150;225;225;150;150;245;8;8;8;14;970;17.26;5000;10000
214;455;150;225;225;150;150;245;8;8;8;14;970;17.26;5000;10000
215;455;150;225;225;150;150;245;8;8;8;14;970;17.26;5000;10000
216;455;150;225;225;150;150;245;8;8;8;14;970;17.26;5000;10000
217;455;150;225;225;150;150;245;8;8;8;14;970;17.26;5000;10000
218;455;150;225;225;150;150;245;8;8;8;14;970;17.26;5000;10000
219;455;150;225;225;150;150;245;8;8;8;14;970;17.26;5000;10000
220;455;150;225;225;150;150;245;8;8;8;14;970;17.26;5000;10000
221;455;150;225;225;150;150;245;8;8;8;14;970;17.26;5000;10000
222;455;150;225;225;150;150;245;8;8;8;14;970;17.26;5000;10000
223;455;150;225;225;150;150;245;8;8;8;14;970;17.26;5000;10000
224;455;150;225;225;150;150;245;8;8;8;14;970;17.26;5000;10000
225;455;150;225;225;150;150;245;8;8;8;14;970;17.26;5000;10000
226;455;150;225;225;150;150;245;8;8;8;14;970;17.26;5000;10000
227;455;150;225;225;150;150;245;8;8;8;14;970;17.26;5000;10000
228;455;150;225;225;150;150;245;8;8;8;14;970;17.26;5000;10000
229;455;150;225;225;150;150;245;8;8;8;14;970;17.26;5000;10000
230;455;150;225;225;150;150;245;8;8;8;14;970;17.26;5000;10000
231;455;150;225;225;150;150;245;8;8;8;14;970;17.26;5000;10000
232;455;150;225;225;150;150;245;8;8;8;14;970;17.26;5000;10000
233;455;150;225;225;150;150;245;8;8;8;14;970;17.26;5000;10000
234;455;150;225;225;150;150;245;8;8;8;14;970;17.26;5000;10000
235;455;150;225;225;150;150;245;8;8;8;14;970;17.26;5000;10000
236;455;150;225;225;150;150;245;8;8;8;14;970;17.26;5000;10000
237;455;150;225;225;150;150;245;8;8;8;14;970;17.26;5000;10000
238;455;150;225;225;150;150;245;8;8;8;14;970;17.26;5000;10000
239;455;150;225;225;150;150;245;8;8;8;14;970;17.26;5000;10000
240;455;150;225;225;150;150;245;8;8;8;14;970;17.26;5000;10000
241;455;150;225;225;150;150;245;8;8;8;14;970;17.26;5000;10000
242;455;150;225;225;150;150;245;8;8;8;14;970;17.26;5000;10000
243;455;150;225;225;150;150;245;8;8;8;14;970;17.26;5000;10000
244;455;150;225;225;150;150;245;8;8;8;14;970;17.26;5000;10000
245;455;150;225;225;150;150;245;8;8;8;14;970;17.26;5000;10000
246;455;150;225;225;150;150;245;8;8;8;14;970;17.26;5000;10000
247;455;150;225;225;150;150;245;8;8;8;14;970;17.26;5000;10000
248;455;150;225;225;150;150;245;8;8;8;14;970;17.26;5000;10000
249;455;150;225;225;150;150;245;8;8;8;14;970;17.26;5000;10000
250;455;150;225;225;150;150;245;8;8;8;14;970;17.26;5000;10000
251;455;150;225;225;150;150;245;8;8;8;14;970;17.26;5000;10000
252;455;150;225;225;150;150;245;8;8;8;14;970;17.26;5000;10000
253;455;150;225;225;150;150;245;8;8;8;14;970;17.26;5000;10000
254;455;150;225;225;150;150;245;8;8;8;14;970;17.26;5000;10000
255;455;150;225;225;150;150;245;8;8;8;14;970;17.26;5000;10000
256;455;150;225;225;150;150;245;8;8;8;14;970;17.26;5000;10000
257;455;150;225;225;150;150;245;8;8;8;14;970;17.26;5000;10000
258;455;150;225;225;150;150;245;8;8;8;14;970;17.26;5000;10000
259;455;150;225;225;150;150;245;8;8;8;14;970;17.26;5000;10000
260;455;150;225;225;150;150;245;8;8;8;14;970;17.26;5000;10000
261;455;150;225;225;150;150;245;8;8;8;14;970;17.26;5000;10000
262;455;150;225;225;150;150;245;8;8;8;14;970;17.26;5000;10000
263;455;150;225;225;150;150;245;8;8;8;14;970;17.26;5000;10000
264;455;150;225;225;150;150;245;8;8;8;14;970;17.26;5000;10000
265;455;150;225;225;150;150;245;8;8;8;14;970;17.26;5000;10000
266;455;150;225;225;150;150;245;8;8;8;14;970;17.26;5000;10000
267;455;150;225;225;150;150;245;8;8;8;14;970;17.26;5000;10000
268;455;150;225;225;150;150;245;8;8;8;14;970;17.26;5000;10000
269;455;150;225;225;150;150;245;8;8;8;14;970;17.26;5000;10000
270;455;150;225;225;150;150;245;8;8;8;14;970;17.26;5000;10000
271;455;150;225;225;150;150;245;8;8;8;14;970;17.26;5000;10000
272;455;150;225;225;150;150;245;8;8;8;14;970;17.26;5000;10000
273;455;150;225;225;150;150;245;8;8;8;14;970;17.26;5000;10000
274;455;150;225;225;150;150;245;8;8;8;14;970;17.26;5000;10000
275;455;150;225;225;150;150;245;8;8;8;14;970;17.26;5000;10000
276;455;150;225;225;150;150;245;8;8;8;14;970;17.26;5000;10000
277;455;150;225;225;150;150;245;8;8;8;14;970;17.26;5000;10000
278;455;150;225;225;150;150;245;8;8;8;14;970;17.26;5000;10000
279;455;150;225;225;150;150;245;8;8;8;14;970;17.26;5000;10000
280;455;150;225;225;150;150;245;8;8;8;14;970;17.26;5000;10000
281;130;20;50;50;20;20;0;-5;5;5;10;700;16.6;550;1100
282;130;20;50;50;20;20;0;-5;5;5;10;700;16.6;550;1100
283;130;20;50;50;20;20;0;-5;5;5;10;700;16.6;550;1100
284;130;20;50;50;20;20;0;-5;5;5;10;700;16.6;550;1100
285;130;20;50;50;20;20;0;-5;5;5;10;700;16.6;550;1100
286;130;20;50;50;20;20;0;-5;5;5;10;700;16.6;550;1100
287;130;20;50;50;20;20;0;-5;5;5;10;700;16.6;550;1100
288;130;20;50;50;20;20;0;-5;5;5;10;700;16.6;550;1100
289;130;20;50;50;20;20;0;-5;5;5;10;700;16.6;550;1100
290;130;20;50;50;20;20;0;-5;5;5;10;700;16.6;550;1100
291;130;20;50;50;20;20;0;-5;5;5;10;700;16.6;550;1100
292;130;20;50;50;20;20;0;-5;5;5;10;700;16.6;550;1100
293;130;20;50;50;20;20;0;-5;5;5;10;700;16.6;550;1100
294;130;20;50;50;20;20;0;-5;5;5;10;700;16.6;550;1100
295;130;20;50;50;20;20;0;-5;5;5;10;700;16.6;550;1100
296;130;20;50;50;20;20;0;-5;5;5;10;700;16.6;550;1100
297;130;20;50;50;20;20;0;-5;5;5;10;700;16.6;550;1100
298;130;20;50;50;20;20;0;-5;5;5;10;700;16.6;550;1100
299;130;20;50;50;20;20;0;-5;5;5;10;700;16.6;550;1100
300;130;20;50;50;20;20;0;-5;5;5;10;700;16.6;550;1100
301;130;20;50;50;20;20;0;-5;5;5;10;680;16.5;560;1120
302;130;20;50;50;20;20;0;-5;5;5;10;680;16.5;560;1120
303;130;20;50;50;20;20;0;-5;5;5;10;680;16.5;560;1120
304;130;20;50;50;20;20;0;-5;5;5;10;680;16.5;560;1120
305;130;20;50;50;20;20;0;-5;5;5;10;680;16.5;560;1120
306;130;20;50;50;20;20;0;-5;5;5;10;680;16.5;560;1120
307;130;20;50;50;20;20;0;-5;5;5;10;680;16.5;560;1120
308;130;20;50;50;20;20;0;-5;5;5;10;680;16.5;560;1120
309;130;20;50;50;20;20;0;-5;5;5;10;680;16.5;560;1120
310;130;20;50;50;20;20;0;-5;5;5;10;680;16.5;560;1120
311;130;20;50;50;20;20;0;-5;5;5;10;680;16.5;560;1120
312;130;20;50;50;20;20;0;-5;5;5;10;680;16.5;560;1120
313;130;20;50;50;20;20;0;-5;5;5;10;680;16.5;560;1120
314;130;20;50;50;20;20;0;-5;5;5;10;680;16.5;560;1120
315;130;20;50;50;20;20;0;-5;5;5;10;680;16.5;560;1120
316;130;20;50;50;20;20;0;-5;5;5;10;680;16.5;560;1120
317;130;20;50;50;20;20;0;-5;5;5;10;680;16.5;560;1120
318;130;20;50;50;20;20;0;-5;5;5;10;680;16.5;560;1120
319;130;20;50;50;20;20;0;-5;5;5;10;680;16.5;560;1120
320;130;20;50;50;20;20;0;-5;5;5;10;680;16.5;560;1120
321;130;20;50;50;20;20;0;-5;5;5;10;680;16.5;560;1120
322;130;20;50;50;20;20;0;-5;5;5;10;680;16.5;560;1120
323;130;20;50;50;20;20;0;-5;5;5;10;680;16.5;560;1120
324;130;20;50;50;20;20;0;-5;5;5;10;680;16.5;560;1120
325;130;20;50;50;20;20;0;-5;5;5;10;680;16.5;560;1120
326;130;20;50;50;20;20;0;-5;5;5;10;680;16.5;560;1120
327;130;20;50;50;20;20;0;-5;5;5;10;680;16.5;560;1120
328;130;20;50;50;20;20;0;-5;5;5;10;680;16.5;560;1120
329;130;20;50;50;20;20;0;-5;5;5;10;680;16.5;560;1120
330;130;20;50;50;20;20;0;-5;5;5;10;680;16.5;560;1120
331;130;20;50;50;20;20;0;-5;5;5;10;680;16.5;560;1120
332;130;20;50;50;20;20;0;-5;5;5;10;680;16.5;560;1120
333;130;20;50;50;20;20;0;-5;5;5;10;680;16.5;560;1120
334;130;20;50;50;20;20;0;-5;5;5;10;680;16.5;560;1120
335;130;20;50;50;20;20;0;-5;5;5;10;680;16.5;560;1120
336;130;20;50;50;20;20;0;-5;5;5;10;680;16.5;560;1120
337;130;20;50;50;20;20;0;-5;5;5;10;680;16.5;560;1120
338;130;20;50;50;20;20;0;-5;5;5;10;680;16.5;560;1120
339;130;20;50;50;20;20;0;-5;5;5;10;680;16.5;560;1120
340;130;20;50;50;20;20;0;-5;5;5;10;680;16.5;560;1120
341;130;20;50;50;20;20;0;-5;5;5;10;680;16.5;560;1120
342;130;20;50;50;20;20;0;-5;5;5;10;680;16.5;560;1120
343;130;20;50;50;20;20;0;-5;5;5;10;680;16.5;560;1120
344;130;20;50;50;20;20;0;-5;5;5;10;680;16.5;560;1120
345;130;20;50;50;20;20;0;-5;5;5;10;680;16.5;560;1120
346;130;20;50;50;20;20;0;-5;5;5;10;680;16.5;560;1120
347;130;20;50;50;20;20;0;-5;5;5;10;680;16.5;560;1120
348;130;20;50;50;20;20;0;-5;5;5;10;680;16.5;560;1120
349;130;20;50;50;20;20;0;-5;5;5;10;680;16.5;560;1120
350;130;20;50;50;20;20;0;-5;5;5;10;680;16.5;560;1120
351;130;20;50;50;20;20;0;-5;5;5;10;680;16.5;560;1120
352;130;20;50;50;20;20;0;-5;5;5;10;680;16.5;560;1120
353;130;20;50;50;20;20;0;-5;5;5;10;680;16.5;560;1120
354;130;20;50;50;20;20;0;-5;5;5;10;680;16.5;560;1120
355;130;20;50;50;20;20;0;-5;5;5;10;680;16.5;560;1120
356;130;20;50;50;20;20;0;-5;5;5;10;680;16.5;560;1120
357;130;20;50;50;20;20;0;-5;5;5;10;680;16.5;560;1120
358;130;20;50;50;20;20;0;-5;5;5;10;680;16.5;560;1120
359;130;20;50;50;20;20;0;-5;5;5;10;680;16.5;560;1120
360;130;20;50;50;20;20;0;-5;5;5;10;680;16.5;560;1120
361;162;25;60;60;25;25;0;-6;6;6;11;450;19.7;900;1800
362;162;25;60;60;25;25;0;-6;6;6;11;450;19.7;900;1800
363;162;25;60;60;25;25;0;-6;6;6;11;450;19.7;900;1800
364;162;25;60;60;25;25;0;-6;6;6;11;450;19.7;900;1800
365;162;25;60;60;25;25;0;-6;6;6;11;450;19.7;900;1800
366;162;25;60;60;25;25;0;-6;6;6;11;450;19.7;900;1800
367;162;25;60;60;25;25;0;-6;6;6;11;450;19.7;900;1800
368;162;25;60;60;25;25;0;-6;6;6;11;450;19.7;900;1800
369;162;25;60;60;25;25;0;-6;6;6;11;450;19.7;900;1800
370;162;25;60;60;25;25;0;-6;6;6;11;450;19.7;900;1800
371;162;25;60;60;25;25;0;-6;6;6;11;450;19.7;900;1800
372;162;25;60;60;25;25;0;-6;6;6;11;450;19.7;900;1800
373;162;25;60;60;25;25;0;-6;6;6;11;450;19.7;900;1800
374;162;25;60;60;25;25;0;-6;6;6;11;450;19.7;900;1800
375;162;25;60;60;25;25;0;-6;6;6;11;450;19.7;900;1800
376;162;25;60;60;25;25;0;-6;6;6;11;450;19.7;900;1800
377;162;25;60;60;25;25;0;-6;6;6;11;450;19.7;900;1800
378;162;25;60;60;25;25;0;-6;6;6;11;450;19.7;900;1800
379;162;25;60;60;25;25;0;-6;6;6;11;450;19.7;900;1800
380;162;25;60;60;25;25;0;-6;6;6;11;450;19.7;900;1800
381;162;25;60;60;25;25;0;-6;6;6;11;450;19.7;900;1800
382;162;25;60;60;25;25;0;-6;6;6;11;450;19.7;900;1800
383;162;25;60;60;25;25;0;-6;6;6;11;450;19.7;900;1800
384;162;25;60;60;25;25;0;-6;6;6;11;450;19.7;900;1800
385;162;25;60;60;25;25;0;-6;6;6;11;450;19.7;900;1800
386;162;25;60;60;25;25;0;-6;6;6;11;450;19.7;900;1800
387;162;25;60;60;25;25;0;-6;6;6;11;450;19.7;900;1800
388;162;25;60;60;25;25;0;-6;6;6;11;450;19.7;900;1800
389;162;25;60;60;25;25;0;-6;6;6;11;450;19.7;900;1800
390;162;25;60;60;25;25;0;-6;6;6;11;450;19.7;900;1800
391;80;20;60;60;20;20;0;-3;3;3;8;370;22.26;170;340
392;80;20;60;60;20;20;0;-3;3;3;8;370;22.26;170;340
393;80;20;60;60;20;20;0;-3;3;3;8;370;22.26;170;340
394;80;20;60;60;20;20;0;-3;3;3;8;370;22.26;170;340
395;80;20;60;60;20;20;0;-3;3;3;8;370;22.26;170;340
396;80;20;60;60;20;20;0;-3;3;3;8;370;22.26;170;340
397;80;20;60;60;20;20;0;-3;3;3;8;370;22.26;170;340
398;80;20;60;60;20;20;0;-3;3;3;8;370;22.26;170;340
399;80;20;60;60;20;20;0;-3;3;3;8;370;22.26;170;340
400;80;20;60;60;20;20;0;-3;3;3;8;370;22.26;170;340
401;85;25;60;60;25;25;0;-3;3;3;6;480;27.74;260;520
402;85;25;60;60;25;25;0;-3;3;3;6;480;27.74;260;520
403;85;25;60;60;25;25;0;-3;3;3;6;480;27.74;260;520
404;85;25;60;60;25;25;0;-3;3;3;6;480;27.74;260;520
405;85;25;60;60;25;25;0;-3;3;3;6;480;27.74;260;520
406;85;25;60;60;25;25;0;-3;3;3;6;480;27.74;260;520
407;85;25;60;60;25;25;0;-3;3;3;6;480;27.74;260;520
408;85;25;60;60;25;25;0;-3;3;3;6;480;27.74;260;520
409;85;25;60;60;25;25;0;-3;3;3;6;480;27.74;260;520
410;85;25;60;60;25;25;0;-3;3;3;6;480;27.74;260;520
411;55;10;135;135;10;10;0;-1;1;1;2;660;25.92;30;60
412;55;10;135;135;10;10;0;-1;1;1;2;660;25.92;30;60
413;55;10;135;135;10;10;0;-1;1;1;2;660;25.92;30;60
414;55;10;135;135;10;10;0;-1;1;1;2;660;25.92;30;60
415;55;10;135;135;10;10;0;-1;1;1;2;660;25.92;30;60
416;55;10;135;135;10;10;0;-1;1;1;2;660;25.92;30;60
417;55;10;135;135;10;10;0;-1;1;1;2;660;25.92;30;60
418;55;10;135;135;10;10;0;-1;1;1;2;660;25.92;30;60
419;55;10;135;135;10;10;0;-1;1;1;2;660;25.92;30;60
420;55;10;135;135;10;10;0;-1;1;1;2;660;25.92;30;60
421;55;10;135;135;10;10;0;-1;1;1;2;660;25.92;30;60
422;55;10;135;135;10;10;0;-1;1;1;2;660;25.92;30;60
423;55;10;135;135;10;10;0;-1;1;1;2;660;25.92;30;60
424;55;10;135;135;10;10;0;-1;1;1;2;660;25.92;30;60
425;55;10;135;135;10;10;0;-1;1;1;2;660;25.92;30;60
426;55;10;135;135;10;10;0;-1;1;1;2;660;25.92;30;60
427;55;10;135;135;10;10;0;-1;1;1;2;660;25.92;30;60
428;55;10;135;135;10;10;0;-1;1;1;2;660;25.92;30;60
429;55;10;135;135;10;10;0;-1;1;1;2;660;25.92;30;60
430;55;10;135;135;10;10;0;-1;1;1;2;660;25.92;30;60
431;55;10;135;135;10;10;0;-1;1;1;2;660;25.92;30;60
432;55;10;135;135;10;10;0;-1;1;1;2;660;25.92;30;60
433;55;10;135;135;10;10;0;-1;1;1;2;660;25.92;30;60
434;55;10;135;135;10;10;0;-1;1;1;2;660;25.92;30;60
435;55;10;135;135;10;10;0;-1;1;1;2;660;25.92;30;60
436;55;10;135;135;10;10;0;-1;1;1;2;660;25.92;30;60
437;55;10;135;135;10;10;0;-1;1;1;2;660;25.92;30;60
438;55;10;135;135;10;10;0;-1;1;1;2;660;25.92;30;60
439;55;10;135;135;10;10;0;-1;1;1;2;660;25.92;30;60
440;55;10;135;135;10;10;0;-1;1;1;2;660;25.92;30;60
