t;demand;reserve
1;103631.6;10363.16
2;94874;9487.4
3;90495.2;9049.52
4;87576;8757.6
5;84656.8;8465.68
6;84656.8;8465.68
7;87576;8757.6
8;93414.4;9341.44
9;106550.8;10655.08
10;116768;11676.8
11;119687.2;11968.72
12;121146.8;12114.68
13;119687.2;11968.72
14;116768;11676.8
15;115308.4;11530.84
16;115308.4;11530.84
17;121146.8;12114.68
18;132823.6;13282.36
19;131364;13136.4
20;128444.8;12844.48
21;124066;12406.6
22;122606.4;12260.64
23;115308.4;11530.84
24;108010.4;10801.04
