case;units;timespan;cost_total;optimal;integer;duration;opt_gap;constrains;variables_total;variables_reell;variables_bin;variables_bin_fixed;iterations;tolerance
10;10;24;727982.3;999999;1;0.563;999999;1901;1704;504;1200;895;4;0.01
20;20;24;1452521.3;999999;1;1.109;999999;3754;3384;984;2400;2025;6;0.01
30;30;24;2173179.7;999999;1;1.578;999999;5607;5064;1464;3600;3160;5;0.01
40;40;24;2893900.9;999999;1;2.844;999999;7460;6744;1944;4800;4315;8;0.01
50;50;24;3610571.3;999999;1;2.75;999999;9313;8424;2424;6000;5460;6;0.01
60;60;24;4331658.6;999999;1;3.688;999999;11166;10104;2904;7200;6610;7;0.01
70;70;24;5055566.7;999999;1;3.813;999999;13019;11784;3384;8400;7740;6;0.01
80;80;24;5779578.3;999999;1;3.437;999999;14872;13464;3864;9600;8895;5;0.01
90;90;24;6498526.5;999999;1;5.39;999999;16725;15144;4344;10800;10035;7;0.01
100;100;24;7217123.6;999999;1;5.312;999999;18578;16824;4824;12000;11195;6;0.01
