unit;t;status;output;reserve
1;1;1;455;0
1;2;1;455;0
1;3;1;455;0
1;4;1;455;0
1;5;1;455;0
1;6;1;455;0
1;7;1;455;0
1;8;1;455;0
1;9;1;455;0
1;10;1;455;0
1;11;1;455;0
1;12;1;455;0
1;13;1;455;0
1;14;1;455;0
1;15;1;455;0
1;16;1;455;0
1;17;1;455;0
1;18;1;455;0
1;19;1;455;0
1;20;1;455;0
1;21;1;455;0
1;22;1;455;0
1;23;1;455;0
1;24;1;455;0
2;1;1;245;70
2;2;1;295;75
2;3;1;370;85
2;4;1;455;0
2;5;1;455;0
2;6;1;360;0
2;7;1;410;45
2;8;1;440;0
2;9;1;455;0
2;10;1;455;0
2;11;1;455;0
2;12;1;455;0
2;13;1;455;0
2;14;1;455;0
2;15;1;440;15
2;16;1;310;0
2;17;1;260;0
2;18;1;360;0
2;19;1;405;0
2;20;1;455;0
2;21;1;455;0
2;22;1;340;110
2;23;1;185;90
2;24;1;150;80
3;1;0;0;0
3;2;0;0;0
3;3;0;0;0
3;4;0;0;0
3;5;1;20;0
3;6;1;130;0
3;7;1;130;0
3;8;1;130;0
3;9;1;130;0
3;10;1;130;0
3;11;1;130;0
3;12;1;130;0
3;13;1;130;0
3;14;1;130;0
3;15;1;130;0
3;16;1;130;0
3;17;1;130;0
3;18;1;130;0
3;19;1;130;0
3;20;1;130;0
3;21;1;130;0
3;22;1;130;0
3;23;1;130;0
3;24;1;65;0
4;1;0;0;0
4;2;0;0;0
4;3;0;0;0
4;4;0;0;0
4;5;1;20;0
4;6;1;130;0
4;7;1;130;0
4;8;1;130;0
4;9;1;130;0
4;10;1;130;0
4;11;1;130;0
4;12;1;130;0
4;13;1;130;0
4;14;1;130;0
4;15;1;130;0
4;16;1;130;0
4;17;1;130;0
4;18;1;130;0
4;19;1;130;0
4;20;1;130;0
4;21;1;130;0
4;22;1;130;0
4;23;1;130;0
4;24;1;130;0
5;1;0;0;0
5;2;0;0;0
5;3;1;25;0
5;4;1;40;95
5;5;1;50;100
5;6;1;25;110
5;7;1;25;70
5;8;1;25;120
5;9;1;75;87
5;10;1;162;0
5;11;1;162;0
5;12;1;162;0
5;13;1;155;7
5;14;1;75;87
5;15;1;25;120
5;16;1;25;105
5;17;1;25;100
5;18;1;25;110
5;19;1;25;120
5;20;1;162;0
5;21;1;75;87
5;22;1;25;0
5;23;0;0;0
5;24;0;0;0
6;1;0;0;0
6;2;0;0;0
6;3;0;0;0
6;4;0;0;0
6;5;0;0;0
6;6;0;0;0
6;7;0;0;0
6;8;1;20;0
6;9;1;20;60
6;10;1;23;57
6;11;1;63;17
6;12;1;80;0
6;13;1;20;60
6;14;1;20;60
6;15;1;20;0
6;16;0;0;0
6;17;0;0;0
6;18;0;0;0
6;19;1;20;0
6;20;1;33;47
6;21;1;20;60
6;22;1;20;0
6;23;0;0;0
6;24;0;0;0
7;1;0;0;0
7;2;0;0;0
7;3;0;0;0
7;4;0;0;0
7;5;0;0;0
7;6;0;0;0
7;7;0;0;0
7;8;0;0;0
7;9;1;25;0
7;10;1;25;60
7;11;1;25;60
7;12;1;25;60
7;13;1;25;60
7;14;1;25;0
7;15;0;0;0
7;16;0;0;0
7;17;0;0;0
7;18;0;0;0
7;19;1;25;0
7;20;1;25;60
7;21;1;25;0
7;22;0;0;0
7;23;0;0;0
7;24;0;0;0
8;1;0;0;0
8;2;0;0;0
8;3;0;0;0
8;4;0;0;0
8;5;0;0;0
8;6;0;0;0
8;7;0;0;0
8;8;0;0;0
8;9;1;10;0
8;10;1;10;45
8;11;1;10;45
8;12;1;43;12
8;13;1;10;45
8;14;1;10;0
8;15;0;0;0
8;16;0;0;0
8;17;0;0;0
8;18;0;0;0
8;19;1;10;0
8;20;1;10;45
8;21;1;10;0
8;22;0;0;0
8;23;0;0;0
8;24;0;0;0
9;1;0;0;0
9;2;0;0;0
9;3;0;0;0
9;4;0;0;0
9;5;0;0;0
9;6;0;0;0
9;7;0;0;0
9;8;0;0;0
9;9;0;0;0
9;10;1;10;0
9;11;1;10;23
9;12;1;10;45
9;13;1;10;0
9;14;0;0;0
9;15;0;0;0
9;16;0;0;0
9;17;0;0;0
9;18;0;0;0
9;19;0;0;0
9;20;0;0;0
9;21;0;0;0
9;22;0;0;0
9;23;0;0;0
9;24;0;0;0
10;1;0;0;0
10;2;0;0;0
10;3;0;0;0
10;4;0;0;0
10;5;0;0;0
10;6;0;0;0
10;7;0;0;0
10;8;0;0;0
10;9;0;0;0
10;10;0;0;0
10;11;1;10;0
10;12;1;10;45
10;13;1;10;0
10;14;0;0;0
10;15;0;0;0
10;16;0;0;0
10;17;0;0;0
10;18;0;0;0
10;19;0;0;0
10;20;0;0;0
10;21;0;0;0
10;22;0;0;0
10;23;0;0;0
10;24;0;0;0
