=======================
Unit-Commitment-Problem
MILP
Michael Tunder
=======================

Instanz: sym-dem
Planung: 20 Einheiten & 24 Stunden
Abweichung von Nachfrage: moeglich

MIP-Status: Loesung gefunden
Abbruchsgrund: Zeitlimit
Gesamtkosten [GE]: 1448264
Ganzzahlige Loesung
Bedarfsabweichungskosten [%]: 0

Optimierungsdauer [s]: 18001.848 (300.031min)
Maximale Dauer: 18000s / 300.000min / 5.00h
Beste Schranke [GE]: 1446670.23
Optimalitaetsluecke [%]: 1.100469304e-05
Nebenbedingungen: 3754
Entscheidungsvariablen (gesamt): 3384
Kontinuierliche Variablen: 984
Binaervariablen: 2400
Fixierte Binaervariablen: --
Verbleibende Binaervariablen: --
Iterationen: --
Xpress-Version: 8.11.1

Schedule: Commitment-Status
===========================
 Time |    1  |    2  |    3  |    4  |    5  |    6  |    7  |    8  |    9  |   10  |   11  |   12  |   13  |   14  |   15  |   16  |   17  |   18  |   19  |   20  |   21  |   22  |   23  |   24  |
 Unit |       |       |       |       |       |       |       |       |       |       |       |       |       |       |       |       |       |       |       |       |       |       |       |       |
-------------------------------------------------------------------------------------------------------------------------------------------------------------------------------------------------------
    1 |   X   |   X   |   X   |   X   |   X   |   X   |   X   |   X   |   X   |   X   |   X   |   X   |   X   |   X   |   X   |   X   |   X   |   X   |   X   |   X   |   X   |   X   |   X   |   X   |
    2 |   X   |   X   |   X   |   X   |   X   |   X   |   X   |   X   |   X   |   X   |   X   |   X   |   X   |   X   |   X   |   X   |   X   |   X   |   X   |   X   |   X   |   X   |   X   |   -   |
    3 |   -   |   -   |   -   |   -   |   X   |   X   |   X   |   X   |   X   |   X   |   X   |   X   |   X   |   X   |   X   |   X   |   X   |   X   |   X   |   X   |   X   |   X   |   X   |   X   |
    4 |   -   |   -   |   -   |   -   |   X   |   X   |   X   |   X   |   X   |   X   |   X   |   X   |   X   |   X   |   X   |   X   |   X   |   X   |   X   |   X   |   X   |   X   |   X   |   X   |
    5 |   -   |   -   |   X   |   X   |   X   |   X   |   X   |   X   |   X   |   X   |   X   |   X   |   X   |   X   |   X   |   X   |   X   |   X   |   X   |   X   |   X   |   X   |   X   |   X   |
    6 |   -   |   -   |   -   |   -   |   -   |   -   |   -   |   X   |   X   |   X   |   X   |   X   |   X   |   X   |   X   |   -   |   -   |   -   |   X   |   X   |   X   |   X   |   X   |   X   |
    7 |   -   |   -   |   -   |   -   |   -   |   -   |   -   |   -   |   -   |   X   |   X   |   X   |   X   |   X   |   -   |   -   |   -   |   -   |   -   |   -   |   -   |   -   |   -   |   -   |
    8 |   -   |   -   |   -   |   -   |   -   |   -   |   -   |   -   |   X   |   X   |   X   |   X   |   X   |   X   |   -   |   -   |   -   |   -   |   X   |   X   |   X   |   -   |   -   |   -   |
    9 |   -   |   -   |   -   |   -   |   -   |   -   |   -   |   -   |   X   |   X   |   X   |   X   |   X   |   -   |   -   |   -   |   -   |   -   |   X   |   X   |   X   |   -   |   -   |   -   |
   10 |   -   |   -   |   -   |   -   |   -   |   -   |   -   |   -   |   -   |   -   |   X   |   X   |   X   |   -   |   -   |   -   |   -   |   -   |   -   |   -   |   -   |   -   |   -   |   -   |
   11 |   X   |   X   |   X   |   X   |   X   |   X   |   X   |   X   |   X   |   X   |   X   |   X   |   X   |   X   |   X   |   X   |   X   |   X   |   X   |   X   |   X   |   X   |   X   |   X   |
   12 |   X   |   X   |   X   |   X   |   X   |   X   |   X   |   X   |   X   |   X   |   X   |   X   |   X   |   X   |   X   |   X   |   X   |   X   |   X   |   X   |   X   |   X   |   -   |   -   |
   13 |   -   |   -   |   -   |   -   |   -   |   -   |   X   |   X   |   X   |   X   |   X   |   X   |   X   |   X   |   X   |   X   |   X   |   X   |   X   |   X   |   X   |   X   |   X   |   X   |
   14 |   -   |   -   |   -   |   -   |   X   |   X   |   X   |   X   |   X   |   X   |   X   |   X   |   X   |   X   |   X   |   X   |   X   |   X   |   X   |   X   |   X   |   X   |   X   |   X   |
   15 |   -   |   -   |   X   |   X   |   X   |   X   |   X   |   X   |   X   |   X   |   X   |   X   |   X   |   X   |   X   |   X   |   X   |   X   |   X   |   X   |   X   |   X   |   X   |   X   |
   16 |   -   |   -   |   -   |   -   |   -   |   -   |   -   |   X   |   X   |   X   |   X   |   X   |   X   |   X   |   X   |   -   |   -   |   -   |   X   |   X   |   X   |   X   |   -   |   -   |
   17 |   -   |   -   |   -   |   -   |   -   |   -   |   -   |   -   |   -   |   X   |   X   |   X   |   X   |   -   |   -   |   -   |   -   |   -   |   X   |   X   |   X   |   -   |   -   |   -   |
   18 |   -   |   -   |   -   |   -   |   -   |   -   |   -   |   -   |   X   |   X   |   X   |   X   |   X   |   X   |   -   |   -   |   -   |   -   |   X   |   X   |   X   |   -   |   -   |   -   |
   19 |   -   |   -   |   -   |   -   |   -   |   -   |   -   |   -   |   X   |   X   |   X   |   X   |   X   |   -   |   -   |   -   |   -   |   -   |   -   |   X   |   -   |   -   |   -   |   -   |
   20 |   -   |   -   |   -   |   -   |   -   |   -   |   -   |   -   |   -   |   -   |   X   |   X   |   X   |   -   |   -   |   -   |   -   |   -   |   -   |   -   |   -   |   -   |   -   |   -   |
-------------------------------------------------------------------------------------------------------------------------------------------------------------------------------------------------------
Total |   4   |   4   |   6   |   6   |   9   |   9   |  10   |  12   |  16   |  18   |  20   |  20   |  20   |  15   |  12   |  10   |  10   |  10   |  16   |  17   |  16   |  12   |  10   |   9   |

Schedule: Leistungs-Output [MW]
===============================
 Time |     1   |     2   |     3   |     4   |     5   |     6   |     7   |     8   |     9   |    10   |    11   |    12   |    13   |    14   |    15   |    16   |    17   |    18   |    19   |    20   |    21   |    22   |    23   |    24   |
 Unit |         |         |         |         |         |         |         |         |         |         |         |         |         |         |         |         |         |         |         |         |         |         |         |         |
-------------------------------------------------------------------------------------------------------------------------------------------------------------------------------------------------------------------------------------------------------
    1 |     455 |     455 |     455 |     455 |     455 |     455 |     455 |     455 |     455 |     455 |     455 |     455 |     455 |     455 |     455 |     455 |     455 |     455 |     455 |     455 |     455 |     455 |     455 |     455 |
    2 |     175 |     150 |     455 |     455 |     455 |     455 |     455 |     425 |     455 |     455 |     455 |     455 |     455 |     455 |     440 |     310 |     260 |     360 |   412.5 |     455 |     455 |     455 |     150 |       0 |
    3 |       0 |       0 |       0 |       0 |      20 |     130 |     130 |     130 |     130 |     130 |     130 |     130 |     130 |     130 |     130 |     130 |     130 |     130 |     130 |     130 |     130 |     130 |     130 |     130 |
    4 |       0 |       0 |       0 |       0 |      20 |     130 |     130 |     130 |     130 |     130 |     130 |     130 |     130 |     130 |     130 |     130 |     130 |     130 |     130 |     130 |     130 |     130 |     130 |     130 |
    5 |       0 |       0 |      25 |      25 |      25 |      25 |      45 |      25 |      25 |     162 |     162 |     162 |     162 |     150 |      25 |      25 |      25 |      25 |      25 |     162 |     140 |      25 |      42 |      25 |
    6 |       0 |       0 |       0 |       0 |       0 |       0 |       0 |      20 |      20 |      26 |      80 |      80 |      20 |      20 |      20 |       0 |       0 |       0 |      20 |      51 |      20 |      20 |      20 |      20 |
    7 |       0 |       0 |       0 |       0 |       0 |       0 |       0 |       0 |       0 |      25 |      25 |      25 |      25 |      25 |       0 |       0 |       0 |       0 |       0 |       0 |       0 |       0 |       0 |       0 |
    8 |       0 |       0 |       0 |       0 |       0 |       0 |       0 |       0 |      10 |      10 |      10 |      55 |      10 |      10 |       0 |       0 |       0 |       0 |      10 |      10 |      10 |       0 |       0 |       0 |
    9 |       0 |       0 |       0 |       0 |       0 |       0 |       0 |       0 |      10 |      10 |      10 |      10 |      10 |       0 |       0 |       0 |       0 |       0 |      10 |      10 |      10 |       0 |       0 |       0 |
   10 |       0 |       0 |       0 |       0 |       0 |       0 |       0 |       0 |       0 |       0 |      10 |      10 |      10 |       0 |       0 |       0 |       0 |       0 |       0 |       0 |       0 |       0 |       0 |       0 |
   11 |     455 |     455 |     455 |     455 |     455 |     455 |     455 |     455 |     455 |     455 |     455 |     455 |     455 |     455 |     455 |     455 |     455 |     455 |     455 |     455 |     455 |     455 |     455 |     455 |
   12 |     315 |     440 |     285 |     455 |     455 |     395 |     455 |     455 |     455 |     455 |     455 |     455 |     455 |     455 |     440 |     310 |     260 |     360 |   412.5 |     455 |     455 |     150 |       0 |       0 |
   13 |       0 |       0 |       0 |       0 |       0 |       0 |      20 |     130 |     130 |     130 |     130 |     130 |     130 |     130 |     130 |     130 |     130 |     130 |     130 |     130 |     130 |     130 |     130 |     130 |
   14 |       0 |       0 |       0 |       0 |      20 |     130 |     130 |     130 |     130 |     130 |     130 |     130 |     130 |     130 |     130 |     130 |     130 |     130 |     130 |     130 |     130 |     130 |     130 |     130 |
   15 |       0 |       0 |      25 |      55 |      95 |      25 |      25 |      25 |     155 |     162 |     162 |     162 |     148 |      25 |      25 |      25 |      25 |      25 |      25 |     162 |      25 |     100 |     158 |     125 |
   16 |       0 |       0 |       0 |       0 |       0 |       0 |       0 |      20 |      20 |      20 |      46 |      80 |      20 |      20 |      20 |       0 |       0 |       0 |      20 |      20 |      20 |      20 |       0 |       0 |
   17 |       0 |       0 |       0 |       0 |       0 |       0 |       0 |       0 |       0 |      25 |      25 |      25 |      25 |       0 |       0 |       0 |       0 |       0 |      25 |      25 |      25 |       0 |       0 |       0 |
   18 |       0 |       0 |       0 |       0 |       0 |       0 |       0 |       0 |      10 |      10 |      10 |      31 |      10 |      10 |       0 |       0 |       0 |       0 |      10 |      10 |      10 |       0 |       0 |       0 |
   19 |       0 |       0 |       0 |       0 |       0 |       0 |       0 |       0 |      10 |      10 |      10 |      10 |      10 |       0 |       0 |       0 |       0 |       0 |       0 |      10 |       0 |       0 |       0 |       0 |
   20 |       0 |       0 |       0 |       0 |       0 |       0 |       0 |       0 |       0 |       0 |      10 |      10 |      10 |       0 |       0 |       0 |       0 |       0 |       0 |       0 |       0 |       0 |       0 |       0 |
-------------------------------------------------------------------------------------------------------------------------------------------------------------------------------------------------------------------------------------------------------
Total |    1400 |    1500 |    1700 |    1900 |    2000 |    2200 |    2300 |    2400 |    2600 |    2800 |    2900 |    3000 |    2800 |    2600 |    2400 |    2100 |    2000 |    2200 |    2400 |    2800 |    2600 |    2200 |    1800 |    1600 |
Diff. |       0 |       0 |       0 |       0 |       0 |       0 |       0 |       0 |       0 |       0 |       0 |       0 |       0 |       0 |       0 |       0 |       0 |       0 |       0 |       0 |       0 |       0 |       0 |       0 |

