=======================
Unit-Commitment-Problem
MILP
Michael Tunder
=======================

Instanz: sym-dem
Planung: 90 Einheiten & 24 Stunden
Abweichung von Nachfrage: moeglich

MIP-Status: Loesung gefunden
Abbruchsgrund: Zeitlimit
Gesamtkosten [GE]: 6494265.3
Ganzzahlige Loesung
Bedarfsabweichungskosten [%]: 0

Optimierungsdauer [s]: 18007.875 (300.131min)
Maximale Dauer: 18000s / 300.000min / 5.00h
Beste Schranke [GE]: 6487398.752
Optimalitaetsluecke [%]: 1.057324898e-05
Nebenbedingungen: 16725
Entscheidungsvariablen (gesamt): 15144
Kontinuierliche Variablen: 4344
Binaervariablen: 10800
Fixierte Binaervariablen: --
Verbleibende Binaervariablen: --
Iterationen: --
Xpress-Version: 8.11.1

Schedule: Commitment-Status
===========================
 Time |    1  |    2  |    3  |    4  |    5  |    6  |    7  |    8  |    9  |   10  |   11  |   12  |   13  |   14  |   15  |   16  |   17  |   18  |   19  |   20  |   21  |   22  |   23  |   24  |
 Unit |       |       |       |       |       |       |       |       |       |       |       |       |       |       |       |       |       |       |       |       |       |       |       |       |
-------------------------------------------------------------------------------------------------------------------------------------------------------------------------------------------------------
    1 |   X   |   X   |   X   |   X   |   X   |   X   |   X   |   X   |   X   |   X   |   X   |   X   |   X   |   X   |   X   |   X   |   X   |   X   |   X   |   X   |   X   |   X   |   X   |   X   |
    2 |   X   |   X   |   X   |   X   |   X   |   X   |   X   |   X   |   X   |   X   |   X   |   X   |   X   |   X   |   X   |   X   |   X   |   X   |   X   |   X   |   X   |   X   |   X   |   -   |
    3 |   -   |   -   |   -   |   -   |   -   |   X   |   X   |   X   |   X   |   X   |   X   |   X   |   X   |   X   |   X   |   X   |   X   |   X   |   X   |   X   |   X   |   X   |   X   |   X   |
    4 |   -   |   -   |   -   |   -   |   X   |   X   |   X   |   X   |   X   |   X   |   X   |   X   |   X   |   X   |   X   |   X   |   X   |   X   |   X   |   X   |   X   |   X   |   X   |   X   |
    5 |   -   |   -   |   -   |   -   |   X   |   X   |   X   |   X   |   X   |   X   |   X   |   X   |   X   |   X   |   X   |   X   |   X   |   X   |   X   |   X   |   X   |   X   |   X   |   X   |
    6 |   -   |   -   |   -   |   -   |   -   |   -   |   -   |   X   |   X   |   X   |   X   |   X   |   X   |   X   |   X   |   -   |   -   |   -   |   X   |   X   |   X   |   X   |   -   |   -   |
    7 |   -   |   -   |   -   |   -   |   -   |   -   |   -   |   -   |   X   |   X   |   X   |   X   |   X   |   X   |   -   |   -   |   -   |   -   |   X   |   X   |   X   |   -   |   -   |   -   |
    8 |   -   |   -   |   -   |   -   |   -   |   -   |   -   |   -   |   X   |   X   |   X   |   X   |   X   |   X   |   -   |   -   |   -   |   -   |   -   |   -   |   -   |   -   |   -   |   -   |
    9 |   -   |   -   |   -   |   -   |   -   |   -   |   -   |   -   |   -   |   X   |   X   |   X   |   X   |   -   |   -   |   -   |   -   |   -   |   -   |   -   |   -   |   -   |   -   |   -   |
   10 |   -   |   -   |   -   |   -   |   -   |   -   |   -   |   -   |   -   |   -   |   X   |   -   |   -   |   -   |   -   |   -   |   -   |   -   |   -   |   -   |   -   |   -   |   -   |   -   |
   11 |   X   |   X   |   X   |   X   |   X   |   X   |   X   |   X   |   X   |   X   |   X   |   X   |   X   |   X   |   X   |   X   |   X   |   X   |   X   |   X   |   X   |   X   |   X   |   X   |
   12 |   X   |   X   |   X   |   X   |   X   |   X   |   X   |   X   |   X   |   X   |   X   |   X   |   X   |   X   |   X   |   X   |   X   |   X   |   X   |   X   |   X   |   X   |   -   |   -   |
   13 |   -   |   X   |   X   |   X   |   X   |   X   |   X   |   X   |   X   |   X   |   X   |   X   |   X   |   X   |   X   |   X   |   X   |   X   |   X   |   X   |   X   |   X   |   X   |   X   |
   14 |   -   |   -   |   -   |   -   |   -   |   X   |   X   |   X   |   X   |   X   |   X   |   X   |   X   |   X   |   X   |   X   |   X   |   X   |   X   |   X   |   X   |   X   |   X   |   X   |
   15 |   -   |   -   |   -   |   -   |   -   |   -   |   -   |   X   |   X   |   X   |   X   |   X   |   X   |   X   |   X   |   X   |   X   |   X   |   X   |   X   |   X   |   X   |   X   |   X   |
   16 |   -   |   -   |   -   |   -   |   -   |   -   |   -   |   X   |   X   |   X   |   X   |   X   |   X   |   X   |   X   |   -   |   -   |   -   |   X   |   X   |   X   |   X   |   -   |   -   |
   17 |   -   |   -   |   -   |   -   |   -   |   -   |   -   |   -   |   X   |   X   |   X   |   X   |   X   |   X   |   -   |   -   |   -   |   -   |   X   |   X   |   X   |   -   |   -   |   -   |
   18 |   -   |   -   |   -   |   -   |   -   |   -   |   -   |   -   |   X   |   X   |   X   |   X   |   X   |   X   |   -   |   -   |   -   |   -   |   X   |   X   |   X   |   -   |   -   |   -   |
   19 |   -   |   -   |   -   |   -   |   -   |   -   |   -   |   -   |   -   |   X   |   X   |   X   |   X   |   -   |   -   |   -   |   -   |   -   |   -   |   -   |   -   |   -   |   -   |   -   |
   20 |   -   |   -   |   -   |   -   |   -   |   -   |   -   |   -   |   -   |   -   |   X   |   X   |   X   |   -   |   -   |   -   |   -   |   -   |   -   |   -   |   -   |   -   |   -   |   -   |
   21 |   X   |   X   |   X   |   X   |   X   |   X   |   X   |   X   |   X   |   X   |   X   |   X   |   X   |   X   |   X   |   X   |   X   |   X   |   X   |   X   |   X   |   X   |   X   |   X   |
   22 |   X   |   X   |   X   |   X   |   X   |   X   |   X   |   X   |   X   |   X   |   X   |   X   |   X   |   X   |   X   |   X   |   X   |   X   |   X   |   X   |   X   |   X   |   -   |   -   |
   23 |   -   |   -   |   -   |   X   |   X   |   X   |   X   |   X   |   X   |   X   |   X   |   X   |   X   |   X   |   X   |   X   |   X   |   X   |   X   |   X   |   X   |   X   |   X   |   X   |
   24 |   -   |   -   |   X   |   X   |   X   |   X   |   X   |   X   |   X   |   X   |   X   |   X   |   X   |   X   |   X   |   X   |   X   |   X   |   X   |   X   |   X   |   X   |   X   |   X   |
   25 |   -   |   -   |   -   |   -   |   X   |   X   |   X   |   X   |   X   |   X   |   X   |   X   |   X   |   X   |   X   |   X   |   X   |   X   |   X   |   X   |   X   |   X   |   X   |   X   |
   26 |   -   |   -   |   -   |   -   |   -   |   -   |   -   |   X   |   X   |   X   |   X   |   X   |   X   |   X   |   X   |   -   |   -   |   -   |   X   |   X   |   X   |   X   |   -   |   -   |
   27 |   -   |   -   |   -   |   -   |   -   |   -   |   -   |   -   |   X   |   X   |   X   |   X   |   X   |   X   |   -   |   -   |   -   |   -   |   X   |   X   |   X   |   -   |   -   |   -   |
   28 |   -   |   -   |   -   |   -   |   -   |   -   |   -   |   -   |   X   |   X   |   X   |   X   |   X   |   X   |   -   |   -   |   -   |   -   |   X   |   X   |   X   |   -   |   -   |   -   |
   29 |   -   |   -   |   -   |   -   |   -   |   -   |   -   |   -   |   -   |   -   |   X   |   X   |   X   |   -   |   -   |   -   |   -   |   -   |   -   |   -   |   -   |   -   |   -   |   -   |
   30 |   -   |   -   |   -   |   -   |   -   |   -   |   -   |   -   |   -   |   -   |   -   |   X   |   -   |   -   |   -   |   -   |   -   |   -   |   -   |   -   |   -   |   -   |   -   |   -   |
   31 |   X   |   X   |   X   |   X   |   X   |   X   |   X   |   X   |   X   |   X   |   X   |   X   |   X   |   X   |   X   |   X   |   X   |   X   |   X   |   X   |   X   |   X   |   X   |   X   |
   32 |   X   |   X   |   X   |   X   |   X   |   X   |   X   |   X   |   X   |   X   |   X   |   X   |   X   |   X   |   X   |   X   |   X   |   X   |   X   |   X   |   X   |   X   |   X   |   X   |
   33 |   -   |   -   |   -   |   -   |   -   |   X   |   X   |   X   |   X   |   X   |   X   |   X   |   X   |   X   |   X   |   X   |   X   |   X   |   X   |   X   |   X   |   X   |   X   |   X   |
   34 |   -   |   -   |   -   |   -   |   X   |   X   |   X   |   X   |   X   |   X   |   X   |   X   |   X   |   X   |   X   |   X   |   X   |   X   |   X   |   X   |   X   |   X   |   X   |   X   |
   35 |   -   |   -   |   X   |   X   |   X   |   X   |   X   |   X   |   X   |   X   |   X   |   X   |   X   |   X   |   X   |   X   |   X   |   X   |   X   |   X   |   X   |   X   |   X   |   X   |
   36 |   -   |   -   |   -   |   -   |   -   |   -   |   -   |   X   |   X   |   X   |   X   |   X   |   X   |   X   |   X   |   -   |   -   |   -   |   X   |   X   |   X   |   X   |   -   |   -   |
   37 |   -   |   -   |   -   |   -   |   -   |   -   |   -   |   -   |   X   |   X   |   X   |   X   |   X   |   X   |   -   |   -   |   -   |   -   |   X   |   X   |   X   |   -   |   -   |   -   |
   38 |   -   |   -   |   -   |   -   |   -   |   -   |   -   |   -   |   -   |   X   |   X   |   X   |   X   |   X   |   -   |   -   |   -   |   -   |   X   |   X   |   X   |   -   |   -   |   -   |
   39 |   -   |   -   |   -   |   -   |   -   |   -   |   -   |   -   |   -   |   -   |   X   |   X   |   X   |   -   |   -   |   -   |   -   |   -   |   -   |   -   |   -   |   -   |   -   |   -   |
   40 |   -   |   -   |   -   |   -   |   -   |   -   |   -   |   -   |   -   |   -   |   X   |   X   |   X   |   -   |   -   |   -   |   -   |   -   |   -   |   -   |   -   |   -   |   -   |   -   |
   41 |   X   |   X   |   X   |   X   |   X   |   X   |   X   |   X   |   X   |   X   |   X   |   X   |   X   |   X   |   X   |   X   |   X   |   X   |   X   |   X   |   X   |   X   |   X   |   X   |
   42 |   X   |   X   |   X   |   X   |   X   |   X   |   X   |   X   |   X   |   X   |   X   |   X   |   X   |   X   |   X   |   X   |   X   |   X   |   X   |   X   |   X   |   X   |   -   |   -   |
   43 |   -   |   -   |   -   |   -   |   X   |   X   |   X   |   X   |   X   |   X   |   X   |   X   |   X   |   X   |   X   |   X   |   X   |   X   |   X   |   X   |   X   |   X   |   X   |   X   |
   44 |   -   |   -   |   X   |   X   |   X   |   X   |   X   |   X   |   X   |   X   |   X   |   X   |   X   |   X   |   X   |   X   |   X   |   X   |   X   |   X   |   X   |   X   |   X   |   X   |
   45 |   -   |   -   |   X   |   X   |   X   |   X   |   X   |   X   |   X   |   X   |   X   |   X   |   X   |   X   |   X   |   X   |   X   |   X   |   X   |   X   |   X   |   X   |   X   |   X   |
   46 |   -   |   -   |   -   |   -   |   -   |   -   |   -   |   -   |   X   |   X   |   X   |   X   |   X   |   X   |   X   |   -   |   -   |   -   |   X   |   X   |   X   |   X   |   -   |   -   |
   47 |   -   |   -   |   -   |   -   |   -   |   -   |   -   |   -   |   X   |   X   |   X   |   X   |   X   |   X   |   -   |   -   |   -   |   -   |   X   |   X   |   X   |   -   |   -   |   -   |
   48 |   -   |   -   |   -   |   -   |   -   |   -   |   -   |   -   |   -   |   X   |   X   |   X   |   X   |   -   |   -   |   -   |   -   |   -   |   X   |   X   |   X   |   -   |   -   |   -   |
   49 |   -   |   -   |   -   |   -   |   -   |   -   |   -   |   -   |   -   |   -   |   X   |   X   |   X   |   -   |   -   |   -   |   -   |   -   |   -   |   X   |   -   |   -   |   -   |   -   |
   50 |   -   |   -   |   -   |   -   |   -   |   -   |   -   |   -   |   -   |   -   |   X   |   X   |   X   |   -   |   -   |   -   |   -   |   -   |   -   |   -   |   -   |   -   |   -   |   -   |
   51 |   X   |   X   |   X   |   X   |   X   |   X   |   X   |   X   |   X   |   X   |   X   |   X   |   X   |   X   |   X   |   X   |   X   |   X   |   X   |   X   |   X   |   X   |   X   |   X   |
   52 |   X   |   X   |   X   |   X   |   X   |   X   |   X   |   X   |   X   |   X   |   X   |   X   |   X   |   X   |   X   |   X   |   X   |   X   |   X   |   X   |   X   |   X   |   -   |   -   |
   53 |   -   |   -   |   -   |   -   |   -   |   -   |   -   |   X   |   X   |   X   |   X   |   X   |   X   |   X   |   X   |   X   |   X   |   X   |   X   |   X   |   X   |   X   |   X   |   X   |
   54 |   -   |   -   |   -   |   X   |   X   |   X   |   X   |   X   |   X   |   X   |   X   |   X   |   X   |   X   |   X   |   X   |   X   |   X   |   X   |   X   |   X   |   X   |   X   |   X   |
   55 |   -   |   -   |   X   |   X   |   X   |   X   |   X   |   X   |   X   |   X   |   X   |   X   |   X   |   X   |   X   |   X   |   X   |   X   |   X   |   X   |   X   |   X   |   X   |   X   |
   56 |   -   |   -   |   -   |   -   |   -   |   -   |   -   |   X   |   X   |   X   |   X   |   X   |   X   |   X   |   X   |   -   |   -   |   -   |   X   |   X   |   X   |   -   |   -   |   -   |
   57 |   -   |   -   |   -   |   -   |   -   |   -   |   -   |   -   |   X   |   X   |   X   |   X   |   X   |   -   |   -   |   -   |   -   |   -   |   X   |   X   |   X   |   -   |   -   |   -   |
   58 |   -   |   -   |   -   |   -   |   -   |   -   |   -   |   -   |   -   |   X   |   X   |   X   |   X   |   -   |   -   |   -   |   -   |   -   |   X   |   X   |   X   |   -   |   -   |   -   |
   59 |   -   |   -   |   -   |   -   |   -   |   -   |   -   |   -   |   -   |   -   |   X   |   X   |   X   |   -   |   -   |   -   |   -   |   -   |   -   |   -   |   -   |   -   |   -   |   -   |
   60 |   -   |   -   |   -   |   -   |   -   |   -   |   -   |   -   |   -   |   -   |   X   |   X   |   X   |   -   |   -   |   -   |   -   |   -   |   -   |   -   |   -   |   -   |   -   |   -   |
   61 |   X   |   X   |   X   |   X   |   X   |   X   |   X   |   X   |   X   |   X   |   X   |   X   |   X   |   X   |   X   |   X   |   X   |   X   |   X   |   X   |   X   |   X   |   X   |   X   |
   62 |   X   |   X   |   X   |   X   |   X   |   X   |   X   |   X   |   X   |   X   |   X   |   X   |   X   |   X   |   X   |   X   |   X   |   X   |   X   |   X   |   X   |   X   |   X   |   -   |
   63 |   -   |   -   |   -   |   -   |   -   |   -   |   X   |   X   |   X   |   X   |   X   |   X   |   X   |   X   |   X   |   X   |   X   |   X   |   X   |   X   |   X   |   X   |   X   |   X   |
   64 |   -   |   -   |   -   |   -   |   X   |   X   |   X   |   X   |   X   |   X   |   X   |   X   |   X   |   X   |   X   |   X   |   X   |   X   |   X   |   X   |   X   |   X   |   X   |   X   |
   65 |   -   |   -   |   X   |   X   |   X   |   X   |   X   |   X   |   X   |   X   |   X   |   X   |   X   |   X   |   X   |   X   |   X   |   X   |   X   |   X   |   X   |   X   |   X   |   X   |
   66 |   -   |   -   |   -   |   -   |   -   |   -   |   -   |   X   |   X   |   X   |   X   |   X   |   X   |   X   |   X   |   -   |   -   |   -   |   X   |   X   |   X   |   X   |   -   |   -   |
   67 |   -   |   -   |   -   |   -   |   -   |   -   |   -   |   -   |   X   |   X   |   X   |   X   |   X   |   X   |   -   |   -   |   -   |   -   |   X   |   X   |   X   |   -   |   -   |   -   |
   68 |   -   |   -   |   -   |   -   |   -   |   -   |   -   |   -   |   X   |   X   |   X   |   X   |   X   |   X   |   -   |   -   |   -   |   -   |   -   |   -   |   -   |   -   |   -   |   -   |
   69 |   -   |   -   |   -   |   -   |   -   |   -   |   -   |   -   |   -   |   X   |   X   |   X   |   X   |   -   |   -   |   -   |   -   |   -   |   -   |   -   |   -   |   -   |   -   |   -   |
   70 |   -   |   -   |   -   |   -   |   -   |   -   |   -   |   -   |   -   |   -   |   X   |   X   |   X   |   -   |   -   |   -   |   -   |   -   |   -   |   -   |   -   |   -   |   -   |   -   |
   71 |   X   |   X   |   X   |   X   |   X   |   X   |   X   |   X   |   X   |   X   |   X   |   X   |   X   |   X   |   X   |   X   |   X   |   X   |   X   |   X   |   X   |   X   |   X   |   X   |
   72 |   X   |   X   |   X   |   X   |   X   |   X   |   X   |   X   |   X   |   X   |   X   |   X   |   X   |   X   |   X   |   X   |   X   |   X   |   X   |   X   |   X   |   X   |   X   |   -   |
   73 |   -   |   -   |   X   |   X   |   X   |   X   |   X   |   X   |   X   |   X   |   X   |   X   |   X   |   X   |   X   |   X   |   X   |   X   |   X   |   X   |   X   |   X   |   X   |   X   |
   74 |   -   |   -   |   -   |   -   |   X   |   X   |   X   |   X   |   X   |   X   |   X   |   X   |   X   |   X   |   X   |   X   |   X   |   X   |   X   |   X   |   X   |   X   |   X   |   X   |
   75 |   -   |   -   |   -   |   -   |   -   |   -   |   X   |   X   |   X   |   X   |   X   |   X   |   X   |   X   |   X   |   X   |   X   |   X   |   X   |   X   |   X   |   X   |   X   |   X   |
   76 |   -   |   -   |   -   |   -   |   -   |   -   |   -   |   X   |   X   |   X   |   X   |   X   |   X   |   X   |   -   |   -   |   -   |   -   |   X   |   X   |   X   |   -   |   -   |   -   |
   77 |   -   |   -   |   -   |   -   |   -   |   -   |   -   |   -   |   X   |   X   |   X   |   X   |   X   |   -   |   -   |   -   |   -   |   -   |   X   |   X   |   X   |   -   |   -   |   -   |
   78 |   -   |   -   |   -   |   -   |   -   |   -   |   -   |   -   |   X   |   X   |   X   |   X   |   X   |   -   |   -   |   -   |   -   |   -   |   X   |   X   |   X   |   -   |   -   |   -   |
   79 |   -   |   -   |   -   |   -   |   -   |   -   |   -   |   -   |   -   |   -   |   X   |   X   |   X   |   -   |   -   |   -   |   -   |   -   |   -   |   -   |   -   |   -   |   -   |   -   |
   80 |   -   |   -   |   -   |   -   |   -   |   -   |   -   |   -   |   -   |   X   |   X   |   X   |   X   |   -   |   -   |   -   |   -   |   -   |   -   |   -   |   -   |   -   |   -   |   -   |
   81 |   X   |   X   |   X   |   X   |   X   |   X   |   X   |   X   |   X   |   X   |   X   |   X   |   X   |   X   |   X   |   X   |   X   |   X   |   X   |   X   |   X   |   X   |   X   |   X   |
   82 |   X   |   X   |   X   |   X   |   X   |   X   |   X   |   X   |   X   |   X   |   X   |   X   |   X   |   X   |   X   |   X   |   X   |   X   |   X   |   X   |   X   |   X   |   X   |   -   |
   83 |   -   |   -   |   -   |   -   |   -   |   X   |   X   |   X   |   X   |   X   |   X   |   X   |   X   |   X   |   X   |   X   |   X   |   X   |   X   |   X   |   X   |   X   |   X   |   X   |
   84 |   -   |   -   |   -   |   X   |   X   |   X   |   X   |   X   |   X   |   X   |   X   |   X   |   X   |   X   |   X   |   X   |   X   |   X   |   X   |   X   |   X   |   X   |   X   |   X   |
   85 |   -   |   -   |   -   |   -   |   X   |   X   |   X   |   X   |   X   |   X   |   X   |   X   |   X   |   X   |   X   |   X   |   X   |   X   |   X   |   X   |   X   |   X   |   X   |   X   |
   86 |   -   |   -   |   -   |   -   |   -   |   -   |   -   |   -   |   X   |   X   |   X   |   X   |   X   |   X   |   X   |   -   |   -   |   -   |   X   |   X   |   X   |   X   |   -   |   -   |
   87 |   -   |   -   |   -   |   -   |   -   |   -   |   -   |   -   |   X   |   X   |   X   |   X   |   X   |   X   |   -   |   -   |   -   |   -   |   X   |   X   |   X   |   -   |   -   |   -   |
   88 |   -   |   -   |   -   |   -   |   -   |   -   |   -   |   -   |   X   |   X   |   X   |   X   |   X   |   X   |   -   |   -   |   -   |   -   |   X   |   X   |   X   |   -   |   -   |   -   |
   89 |   -   |   -   |   -   |   -   |   -   |   -   |   -   |   -   |   -   |   -   |   X   |   X   |   X   |   -   |   -   |   -   |   -   |   -   |   -   |   -   |   -   |   -   |   -   |   -   |
   90 |   -   |   -   |   -   |   -   |   -   |   -   |   -   |   -   |   -   |   X   |   X   |   X   |   X   |   -   |   -   |   -   |   -   |   -   |   -   |   -   |   -   |   -   |   -   |   -   |
-------------------------------------------------------------------------------------------------------------------------------------------------------------------------------------------------------
Total |  18   |  19   |  26   |  29   |  37   |  41   |  43   |  52   |  69   |  77   |  89   |  89   |  88   |  67   |  53   |  45   |  45   |  45   |  70   |  71   |  70   |  52   |  41   |  37   |

Schedule: Leistungs-Output [MW]
===============================
 Time |     1   |     2   |     3   |     4   |     5   |     6   |     7   |     8   |     9   |    10   |    11   |    12   |    13   |    14   |    15   |    16   |    17   |    18   |    19   |    20   |    21   |    22   |    23   |    24   |
 Unit |         |         |         |         |         |         |         |         |         |         |         |         |         |         |         |         |         |         |         |         |         |         |         |         |
-------------------------------------------------------------------------------------------------------------------------------------------------------------------------------------------------------------------------------------------------------
    1 |     455 |     455 |     455 |     455 |     455 |     455 |     455 |     455 |     455 |     455 |     455 |     455 |     455 |     455 |     455 |     455 |     455 |     455 |     455 |     455 |     455 |     455 |     455 |     455 |
    2 |     395 |     455 |     455 |     455 |     455 |     350 |     455 |     455 |     455 |     455 |     455 |     455 |     455 |     455 |     340 |     455 |     150 |     455 |     455 |     455 |     455 |     455 |     150 |       0 |
    3 |       0 |       0 |       0 |       0 |       0 |      20 |     130 |     130 |     130 |     130 |     130 |     130 |     130 |     130 |     130 |     130 |     130 |     130 |     130 |     130 |     130 |     130 |     130 |     130 |
    4 |       0 |       0 |       0 |       0 |      20 |     130 |     130 |     130 |     130 |     130 |     130 |     130 |     130 |     130 |     130 |     130 |     130 |     130 |     130 |     130 |     130 |     130 |     130 |     130 |
    5 |       0 |       0 |       0 |       0 |      25 |      25 |      25 |      25 |     159 |     162 |     162 |     162 |     162 |     162 |      25 |      25 |      25 |      25 |      25 |     162 |      25 |      25 |      25 |      25 |
    6 |       0 |       0 |       0 |       0 |       0 |       0 |       0 |      20 |      20 |      20 |      20 |      80 |      20 |      20 |      20 |       0 |       0 |       0 |      20 |      20 |      20 |      20 |       0 |       0 |
    7 |       0 |       0 |       0 |       0 |       0 |       0 |       0 |       0 |      25 |      25 |      25 |      25 |      25 |      25 |       0 |       0 |       0 |       0 |      25 |      25 |      25 |       0 |       0 |       0 |
    8 |       0 |       0 |       0 |       0 |       0 |       0 |       0 |       0 |      10 |      10 |      10 |      10 |      10 |      10 |       0 |       0 |       0 |       0 |       0 |       0 |       0 |       0 |       0 |       0 |
    9 |       0 |       0 |       0 |       0 |       0 |       0 |       0 |       0 |       0 |      10 |      10 |      10 |      10 |       0 |       0 |       0 |       0 |       0 |       0 |       0 |       0 |       0 |       0 |       0 |
   10 |       0 |       0 |       0 |       0 |       0 |       0 |       0 |       0 |       0 |       0 |      10 |       0 |       0 |       0 |       0 |       0 |       0 |       0 |       0 |       0 |       0 |       0 |       0 |       0 |
   11 |     455 |     455 |     455 |     455 |     455 |     455 |     455 |     455 |     455 |     455 |     455 |     455 |     455 |     455 |     455 |     455 |     455 |     455 |     455 |     455 |     455 |     455 |     455 |     455 |
   12 |     150 |     455 |     455 |     455 |     455 |     455 |     455 |     455 |     455 |     455 |     455 |     455 |     455 |     455 |     455 |     150 |     455 |     455 |     455 |     455 |     455 |     150 |       0 |       0 |
   13 |       0 |      20 |     130 |     130 |     130 |     130 |     130 |     130 |     130 |     130 |     130 |     130 |     130 |     130 |     130 |     130 |     130 |     130 |     130 |     130 |     130 |     130 |     130 |     130 |
   14 |       0 |       0 |       0 |       0 |       0 |      20 |     130 |     130 |     130 |     130 |     130 |     130 |     130 |     130 |     130 |     130 |     130 |     130 |     130 |     130 |     130 |     130 |     130 |     130 |
   15 |       0 |       0 |       0 |       0 |       0 |       0 |       0 |      25 |     162 |     162 |     162 |     162 |     162 |      25 |      25 |      25 |      25 |      25 |      25 |     162 |     162 |      25 |      25 |      25 |
   16 |       0 |       0 |       0 |       0 |       0 |       0 |       0 |      20 |      20 |      20 |      80 |      80 |      20 |      20 |      20 |       0 |       0 |       0 |      20 |      20 |      20 |      20 |       0 |       0 |
   17 |       0 |       0 |       0 |       0 |       0 |       0 |       0 |       0 |      25 |      25 |      25 |      25 |      25 |      25 |       0 |       0 |       0 |       0 |      25 |      25 |      25 |       0 |       0 |       0 |
   18 |       0 |       0 |       0 |       0 |       0 |       0 |       0 |       0 |      10 |      10 |      10 |      55 |      10 |      10 |       0 |       0 |       0 |       0 |      10 |      10 |      10 |       0 |       0 |       0 |
   19 |       0 |       0 |       0 |       0 |       0 |       0 |       0 |       0 |       0 |      10 |      10 |      10 |      10 |       0 |       0 |       0 |       0 |       0 |       0 |       0 |       0 |       0 |       0 |       0 |
   20 |       0 |       0 |       0 |       0 |       0 |       0 |       0 |       0 |       0 |       0 |      10 |      10 |      10 |       0 |       0 |       0 |       0 |       0 |       0 |       0 |       0 |       0 |       0 |       0 |
   21 |     455 |     455 |     455 |     455 |     455 |     455 |     455 |     455 |     455 |     455 |     455 |     455 |     455 |     455 |     455 |     455 |     455 |     455 |     455 |     455 |     455 |     455 |     455 |     455 |
   22 |     150 |     150 |     455 |     455 |     455 |     455 |     455 |     455 |     455 |     455 |     455 |     455 |     455 |     455 |     455 |     150 |     455 |     150 |     455 |     455 |     455 |     150 |       0 |       0 |
   23 |       0 |       0 |       0 |      20 |     130 |     130 |     130 |     130 |     130 |     130 |     130 |     130 |     130 |     130 |     130 |     130 |     130 |     130 |     130 |     130 |     130 |     130 |     130 |     130 |
   24 |       0 |       0 |      20 |     130 |     130 |     130 |     130 |     130 |     130 |     130 |     130 |     130 |     130 |     130 |     130 |     130 |     130 |     130 |     130 |     130 |     130 |     130 |     130 |     130 |
   25 |       0 |       0 |       0 |       0 |      25 |      25 |      25 |      25 |      25 |     162 |     162 |     162 |     162 |      25 |      25 |      25 |      25 |      25 |      25 |     162 |     162 |      25 |     162 |      25 |
   26 |       0 |       0 |       0 |       0 |       0 |       0 |       0 |      20 |      20 |      20 |      80 |      80 |      20 |      20 |      20 |       0 |       0 |       0 |      20 |      20 |      20 |      20 |       0 |       0 |
   27 |       0 |       0 |       0 |       0 |       0 |       0 |       0 |       0 |      25 |      25 |      25 |      25 |      25 |      25 |       0 |       0 |       0 |       0 |      25 |      25 |      25 |       0 |       0 |       0 |
   28 |       0 |       0 |       0 |       0 |       0 |       0 |       0 |       0 |      10 |      10 |      10 |      55 |      10 |      10 |       0 |       0 |       0 |       0 |      10 |      10 |      10 |       0 |       0 |       0 |
   29 |       0 |       0 |       0 |       0 |       0 |       0 |       0 |       0 |       0 |       0 |      10 |      10 |      10 |       0 |       0 |       0 |       0 |       0 |       0 |       0 |       0 |       0 |       0 |       0 |
   30 |       0 |       0 |       0 |       0 |       0 |       0 |       0 |       0 |       0 |       0 |       0 |      10 |       0 |       0 |       0 |       0 |       0 |       0 |       0 |       0 |       0 |       0 |       0 |       0 |
   31 |     455 |     455 |     455 |     455 |     455 |     455 |     455 |     455 |     455 |     455 |     455 |     455 |     455 |     455 |     455 |     455 |     455 |     455 |     455 |     455 |     455 |     455 |     455 |     455 |
   32 |     455 |     150 |     455 |     455 |     455 |     455 |     455 |     455 |     455 |     455 |     455 |     455 |     455 |     455 |     455 |     370 |     150 |     455 |     150 |     455 |     455 |     455 |     455 |     455 |
   33 |       0 |       0 |       0 |       0 |       0 |      20 |     130 |     130 |     130 |     130 |     130 |     130 |     130 |     130 |     130 |     130 |     130 |     130 |     130 |     130 |     130 |     130 |     130 |     130 |
   34 |       0 |       0 |       0 |       0 |      20 |     130 |     130 |     130 |     130 |     130 |     130 |     130 |     130 |     130 |     130 |     130 |     130 |     130 |     130 |     130 |     130 |     130 |     130 |     130 |
   35 |       0 |       0 |      25 |      25 |      25 |      25 |      25 |      25 |      25 |     162 |     162 |     162 |     162 |     162 |      25 |      25 |      25 |      25 |      25 |     162 |      25 |      25 |      25 |      25 |
   36 |       0 |       0 |       0 |       0 |       0 |       0 |       0 |      20 |      20 |      20 |      80 |      80 |      20 |      20 |      20 |       0 |       0 |       0 |      20 |      80 |      20 |      20 |       0 |       0 |
   37 |       0 |       0 |       0 |       0 |       0 |       0 |       0 |       0 |      25 |      25 |      25 |      25 |      25 |      25 |       0 |       0 |       0 |       0 |      25 |      25 |      25 |       0 |       0 |       0 |
   38 |       0 |       0 |       0 |       0 |       0 |       0 |       0 |       0 |       0 |      10 |      10 |      55 |      10 |      10 |       0 |       0 |       0 |       0 |      10 |      10 |      10 |       0 |       0 |       0 |
   39 |       0 |       0 |       0 |       0 |       0 |       0 |       0 |       0 |       0 |       0 |      10 |      10 |      10 |       0 |       0 |       0 |       0 |       0 |       0 |       0 |       0 |       0 |       0 |       0 |
   40 |       0 |       0 |       0 |       0 |       0 |       0 |       0 |       0 |       0 |       0 |      10 |      10 |      10 |       0 |       0 |       0 |       0 |       0 |       0 |       0 |       0 |       0 |       0 |       0 |
   41 |     455 |     455 |     455 |     455 |     455 |     455 |     455 |     455 |     455 |     455 |     455 |     455 |     455 |     455 |     455 |     455 |     455 |     455 |     455 |     455 |     455 |     455 |     455 |     455 |
   42 |     150 |     150 |     150 |     455 |     455 |     455 |     455 |     455 |     455 |     455 |     455 |     455 |     455 |     455 |     455 |     455 |     455 |     455 |     365 |     455 |     455 |     150 |       0 |       0 |
   43 |       0 |       0 |       0 |       0 |      20 |     130 |     130 |     130 |     130 |     130 |     130 |     130 |     130 |     130 |     130 |     130 |     130 |     130 |     130 |     130 |     130 |     130 |     130 |     130 |
   44 |       0 |       0 |      20 |     130 |     130 |     130 |     130 |     130 |     130 |     130 |     130 |     130 |     130 |     130 |     130 |     130 |     130 |     130 |     130 |     130 |     130 |     130 |     130 |     130 |
   45 |       0 |       0 |      25 |      25 |      25 |      25 |      25 |      25 |      25 |     162 |     162 |     162 |     162 |      25 |      25 |      25 |      25 |      25 |      25 |     162 |      25 |      25 |      25 |      25 |
   46 |       0 |       0 |       0 |       0 |       0 |       0 |       0 |       0 |      20 |      20 |      80 |      80 |      20 |      20 |      20 |       0 |       0 |       0 |      20 |      80 |      20 |      20 |       0 |       0 |
   47 |       0 |       0 |       0 |       0 |       0 |       0 |       0 |       0 |      25 |      25 |      25 |      25 |      25 |      25 |       0 |       0 |       0 |       0 |      25 |      25 |      25 |       0 |       0 |       0 |
   48 |       0 |       0 |       0 |       0 |       0 |       0 |       0 |       0 |       0 |      10 |      10 |      10 |      10 |       0 |       0 |       0 |       0 |       0 |      10 |      10 |      10 |       0 |       0 |       0 |
   49 |       0 |       0 |       0 |       0 |       0 |       0 |       0 |       0 |       0 |       0 |      10 |      10 |      10 |       0 |       0 |       0 |       0 |       0 |       0 |      10 |       0 |       0 |       0 |       0 |
   50 |       0 |       0 |       0 |       0 |       0 |       0 |       0 |       0 |       0 |       0 |      10 |      10 |      10 |       0 |       0 |       0 |       0 |       0 |       0 |       0 |       0 |       0 |       0 |       0 |
   51 |     455 |     455 |     455 |     455 |     455 |     455 |     455 |     455 |     455 |     455 |     455 |     455 |     455 |     455 |     455 |     455 |     455 |     455 |     455 |     455 |     455 |     455 |     455 |     455 |
   52 |     150 |     455 |     455 |     455 |     150 |     455 |     455 |     455 |     455 |     455 |     455 |     455 |     455 |     455 |     455 |     455 |     225 |     455 |     455 |     455 |     455 |     150 |       0 |       0 |
   53 |       0 |       0 |       0 |       0 |       0 |       0 |       0 |      20 |     130 |     130 |     130 |     130 |     130 |     130 |     130 |     130 |     130 |     130 |     130 |     130 |     130 |     130 |     130 |     130 |
   54 |       0 |       0 |       0 |      20 |     130 |     130 |     130 |     130 |     130 |     130 |     130 |     130 |     130 |     130 |     130 |     130 |     130 |     130 |     130 |     130 |     130 |     130 |     130 |     130 |
   55 |       0 |       0 |      25 |      25 |      25 |      25 |      25 |      40 |      97 |     162 |     162 |     162 |     119 |     162 |      25 |      25 |      25 |      25 |      25 |     162 |     162 |      25 |     162 |     110 |
   56 |       0 |       0 |       0 |       0 |       0 |       0 |       0 |      20 |      20 |      20 |      80 |      80 |      20 |      20 |      20 |       0 |       0 |       0 |      20 |      20 |      20 |       0 |       0 |       0 |
   57 |       0 |       0 |       0 |       0 |       0 |       0 |       0 |       0 |      25 |      25 |      25 |      25 |      25 |       0 |       0 |       0 |       0 |       0 |      25 |      25 |      25 |       0 |       0 |       0 |
   58 |       0 |       0 |       0 |       0 |       0 |       0 |       0 |       0 |       0 |      10 |      10 |      55 |      10 |       0 |       0 |       0 |       0 |       0 |      10 |      10 |      10 |       0 |       0 |       0 |
   59 |       0 |       0 |       0 |       0 |       0 |       0 |       0 |       0 |       0 |       0 |      10 |      10 |      10 |       0 |       0 |       0 |       0 |       0 |       0 |       0 |       0 |       0 |       0 |       0 |
   60 |       0 |       0 |       0 |       0 |       0 |       0 |       0 |       0 |       0 |       0 |      10 |      10 |      10 |       0 |       0 |       0 |       0 |       0 |       0 |       0 |       0 |       0 |       0 |       0 |
   61 |     455 |     455 |     455 |     455 |     455 |     455 |     455 |     455 |     455 |     455 |     455 |     455 |     455 |     455 |     455 |     455 |     455 |     455 |     455 |     455 |     455 |     455 |     455 |     455 |
   62 |     455 |     455 |     455 |     455 |     455 |     455 |     455 |     455 |     455 |     455 |     455 |     455 |     455 |     455 |     455 |     150 |     150 |     316 |     420 |     455 |     455 |     455 |     150 |       0 |
   63 |       0 |       0 |       0 |       0 |       0 |       0 |      20 |     130 |     130 |     130 |     130 |     130 |     130 |     130 |     130 |     130 |     130 |     130 |     130 |     130 |     130 |     130 |     130 |     130 |
   64 |       0 |       0 |       0 |       0 |      20 |     130 |     130 |     130 |     130 |     130 |     130 |     130 |     130 |     130 |     130 |     130 |     130 |     130 |     130 |     130 |     130 |     130 |     130 |     130 |
   65 |       0 |       0 |      25 |      25 |      25 |      25 |      25 |      25 |      25 |     162 |     162 |     162 |     162 |      25 |      25 |      25 |      25 |      25 |      25 |     162 |      25 |     162 |      25 |      25 |
   66 |       0 |       0 |       0 |       0 |       0 |       0 |       0 |      20 |      20 |      57 |      80 |      80 |      20 |      20 |      20 |       0 |       0 |       0 |      20 |      20 |      20 |      20 |       0 |       0 |
   67 |       0 |       0 |       0 |       0 |       0 |       0 |       0 |       0 |      25 |      25 |      25 |      25 |      25 |      25 |       0 |       0 |       0 |       0 |      25 |      25 |      25 |       0 |       0 |       0 |
   68 |       0 |       0 |       0 |       0 |       0 |       0 |       0 |       0 |      10 |      10 |      10 |      55 |      10 |      10 |       0 |       0 |       0 |       0 |       0 |       0 |       0 |       0 |       0 |       0 |
   69 |       0 |       0 |       0 |       0 |       0 |       0 |       0 |       0 |       0 |      10 |      10 |      10 |      10 |       0 |       0 |       0 |       0 |       0 |       0 |       0 |       0 |       0 |       0 |       0 |
   70 |       0 |       0 |       0 |       0 |       0 |       0 |       0 |       0 |       0 |       0 |      10 |      10 |      10 |       0 |       0 |       0 |       0 |       0 |       0 |       0 |       0 |       0 |       0 |       0 |
   71 |     455 |     455 |     455 |     455 |     455 |     455 |     455 |     455 |     455 |     455 |     455 |     455 |     455 |     455 |     455 |     455 |     455 |     455 |     455 |     455 |     455 |     455 |     455 |     455 |
   72 |     150 |     150 |     235 |     440 |     455 |     455 |     455 |     455 |     455 |     455 |     455 |     455 |     455 |     455 |     455 |     455 |     150 |     349 |     455 |     455 |     455 |     455 |     150 |       0 |
   73 |       0 |       0 |      20 |     130 |     130 |     130 |     130 |     130 |     130 |     130 |     130 |     130 |     130 |     130 |     130 |     130 |     130 |     130 |     130 |     130 |     130 |     130 |     130 |     130 |
   74 |       0 |       0 |       0 |       0 |      20 |     130 |     130 |     130 |     130 |     130 |     130 |     130 |     130 |     130 |     130 |     130 |     130 |     130 |     130 |     130 |     130 |     130 |     130 |     130 |
   75 |       0 |       0 |       0 |       0 |       0 |       0 |      25 |      25 |      25 |     162 |     162 |     162 |     162 |     144 |      25 |      25 |      25 |      25 |      25 |     162 |      84 |     113 |      25 |      25 |
   76 |       0 |       0 |       0 |       0 |       0 |       0 |       0 |      20 |      20 |      20 |      20 |      80 |      20 |      20 |       0 |       0 |       0 |       0 |      20 |      27 |      20 |       0 |       0 |       0 |
   77 |       0 |       0 |       0 |       0 |       0 |       0 |       0 |       0 |      25 |      25 |      25 |      25 |      25 |       0 |       0 |       0 |       0 |       0 |      25 |      25 |      25 |       0 |       0 |       0 |
   78 |       0 |       0 |       0 |       0 |       0 |       0 |       0 |       0 |      10 |      10 |      10 |      47 |      10 |       0 |       0 |       0 |       0 |       0 |      10 |      10 |      10 |       0 |       0 |       0 |
   79 |       0 |       0 |       0 |       0 |       0 |       0 |       0 |       0 |       0 |       0 |      10 |      10 |      10 |       0 |       0 |       0 |       0 |       0 |       0 |       0 |       0 |       0 |       0 |       0 |
   80 |       0 |       0 |       0 |       0 |       0 |       0 |       0 |       0 |       0 |      10 |      10 |      10 |      10 |       0 |       0 |       0 |       0 |       0 |       0 |       0 |       0 |       0 |       0 |       0 |
   81 |     455 |     455 |     455 |     455 |     455 |     455 |     455 |     455 |     455 |     455 |     455 |     455 |     455 |     455 |     455 |     455 |     455 |     455 |     455 |     455 |     455 |     455 |     455 |     455 |
   82 |     150 |     215 |     150 |     150 |     385 |     455 |     315 |     455 |     455 |     455 |     455 |     455 |     455 |     455 |     455 |     150 |     150 |     150 |     455 |     455 |     455 |     455 |     150 |       0 |
   83 |       0 |       0 |       0 |       0 |       0 |      20 |     130 |     130 |     130 |     130 |     130 |     130 |     130 |     130 |     130 |     130 |     130 |     130 |     130 |     130 |     130 |     130 |     130 |     130 |
   84 |       0 |       0 |       0 |      20 |     130 |     130 |     130 |     130 |     130 |     130 |     130 |     130 |     130 |     130 |     130 |     130 |     130 |     130 |     130 |     130 |     130 |     130 |     130 |     130 |
   85 |       0 |       0 |       0 |       0 |      25 |      25 |      25 |      25 |     162 |     162 |     162 |     162 |     162 |      25 |      25 |      25 |      25 |      25 |      25 |     162 |      25 |      25 |     136 |      25 |
   86 |       0 |       0 |       0 |       0 |       0 |       0 |       0 |       0 |      20 |      50 |      57 |      80 |      20 |      20 |      20 |       0 |       0 |       0 |      20 |      20 |      20 |      20 |       0 |       0 |
   87 |       0 |       0 |       0 |       0 |       0 |       0 |       0 |       0 |      25 |      25 |      25 |      25 |      25 |      25 |       0 |       0 |       0 |       0 |      25 |      25 |      25 |       0 |       0 |       0 |
   88 |       0 |       0 |       0 |       0 |       0 |       0 |       0 |       0 |      10 |      10 |      10 |      55 |      10 |      10 |       0 |       0 |       0 |       0 |      10 |      10 |      10 |       0 |       0 |       0 |
   89 |       0 |       0 |       0 |       0 |       0 |       0 |       0 |       0 |       0 |       0 |      10 |      10 |      10 |       0 |       0 |       0 |       0 |       0 |       0 |       0 |       0 |       0 |       0 |       0 |
   90 |       0 |       0 |       0 |       0 |       0 |       0 |       0 |       0 |       0 |      10 |      10 |      10 |      10 |       0 |       0 |       0 |       0 |       0 |       0 |       0 |       0 |       0 |       0 |       0 |
-------------------------------------------------------------------------------------------------------------------------------------------------------------------------------------------------------------------------------------------------------
Total |    6300 |    6750 |    7650 |    8550 |    9000 |    9900 |   10350 |   10800 |   11700 |   12600 |   13050 |   13500 |   12600 |   11700 |   10800 |    9450 |    9000 |    9900 |   10800 |   12600 |   11700 |    9900 |    8100 |    7200 |
Diff. |       0 |       0 |       0 |       0 |       0 |       0 |       0 |       0 |       0 |       0 |       0 |       0 |       0 |       0 |       0 |       0 |       0 |       0 |       0 |       0 |       0 |       0 |       0 |       0 |

