t;demand;reserve
1;7346;735
2;6887;689
3;6396;640
4;6019;602
5;5759;576
6;5450;545
7;4910;491
8;4910;491
9;4931;493
10;5135;514
11;5541;554
12;6193;619
13;6431;643
14;6472;647
15;6545;655
16;6787;679
17;7499;750
18;8369;837
19;8588;859
20;8287;829
21;7618;762
22;7078;708
23;6531;653
24;5479;548
