t;demand;reserve
1;5877;588
2;5509;551
3;5117;512
4;4815;482
5;4607;461
6;4360;436
7;3928;393
8;3928;393
9;3945;395
10;4108;411
11;4433;443
12;4954;495
13;5145;515
14;5178;518
15;5236;524
16;5430;543
17;5999;600
18;6695;670
19;6870;687
20;6629;663
21;6094;609
22;5663;566
23;5225;523
24;4383;438
