t;demand;reserve
1;735;74
2;689;69
3;640;64
4;602;60
5;576;58
6;545;55
7;491;49
8;491;49
9;493;49
10;513;51
11;554;55
12;619;62
13;643;64
14;647;65
15;654;65
16;679;68
17;750;75
18;837;84
19;859;86
20;829;83
21;762;76
22;708;71
23;653;65
24;548;55
