t;demand;reserve
1;34645.16;3464.516
2;31717.4;3171.74
3;30253.52;3025.352
4;29277.6;2927.76
5;28301.68;2830.168
6;28301.68;2830.168
7;29277.6;2927.76
8;31229.44;3122.944
9;35621.08;3562.108
10;39036.8;3903.68
11;40012.72;4001.272
12;40500.68;4050.068
13;40012.72;4001.272
14;39036.8;3903.68
15;38548.84;3854.884
16;38548.84;3854.884
17;40500.68;4050.068
18;44404.36;4440.436
19;43916.4;4391.64
20;42940.48;4294.048
21;41476.6;4147.66
22;40988.64;4098.864
23;38548.84;3854.884
24;36109.04;3610.904
25;34645.16;3464.516
26;31717.4;3171.74
27;30253.52;3025.352
28;29277.6;2927.76
29;28301.68;2830.168
30;28301.68;2830.168
31;29277.6;2927.76
32;31229.44;3122.944
33;35621.08;3562.108
34;39036.8;3903.68
35;40012.72;4001.272
36;40500.68;4050.068
37;40012.72;4001.272
38;39036.8;3903.68
39;38548.84;3854.884
40;38548.84;3854.884
41;40500.68;4050.068
42;44404.36;4440.436
43;43916.4;4391.64
44;42940.48;4294.048
45;41476.6;4147.66
46;40988.64;4098.864
47;38548.84;3854.884
48;36109.04;3610.904
49;34645.16;3464.516
50;31717.4;3171.74
51;30253.52;3025.352
52;29277.6;2927.76
53;28301.68;2830.168
54;28301.68;2830.168
55;29277.6;2927.76
56;31229.44;3122.944
57;35621.08;3562.108
58;39036.8;3903.68
59;40012.72;4001.272
60;40500.68;4050.068
61;40012.72;4001.272
62;39036.8;3903.68
63;38548.84;3854.884
64;38548.84;3854.884
65;40500.68;4050.068
66;44404.36;4440.436
67;43916.4;4391.64
68;42940.48;4294.048
69;41476.6;4147.66
70;40988.64;4098.864
71;38548.84;3854.884
72;36109.04;3610.904
73;34645.16;3464.516
74;31717.4;3171.74
75;30253.52;3025.352
76;29277.6;2927.76
77;28301.68;2830.168
78;28301.68;2830.168
79;29277.6;2927.76
80;31229.44;3122.944
81;35621.08;3562.108
82;39036.8;3903.68
83;40012.72;4001.272
84;40500.68;4050.068
85;40012.72;4001.272
86;39036.8;3903.68
87;38548.84;3854.884
88;38548.84;3854.884
89;40500.68;4050.068
90;44404.36;4440.436
91;43916.4;4391.64
92;42940.48;4294.048
93;41476.6;4147.66
94;40988.64;4098.864
95;38548.84;3854.884
96;36109.04;3610.904
97;34645.16;3464.516
98;31717.4;3171.74
99;30253.52;3025.352
100;29277.6;2927.76
101;28301.68;2830.168
102;28301.68;2830.168
103;29277.6;2927.76
104;31229.44;3122.944
105;35621.08;3562.108
106;39036.8;3903.68
107;40012.72;4001.272
108;40500.68;4050.068
109;40012.72;4001.272
110;39036.8;3903.68
111;38548.84;3854.884
112;38548.84;3854.884
113;40500.68;4050.068
114;44404.36;4440.436
115;43916.4;4391.64
116;42940.48;4294.048
117;41476.6;4147.66
118;40988.64;4098.864
119;38548.84;3854.884
120;36109.04;3610.904
121;27716.128;2771.6128
122;25373.92;2537.392
123;24202.816;2420.2816
124;23422.08;2342.208
125;22641.344;2264.1344
126;22641.344;2264.1344
127;23422.08;2342.208
128;24983.552;2498.3552
129;28496.864;2849.6864
130;31229.44;3122.944
131;32010.176;3201.0176
132;32400.544;3240.0544
133;32010.176;3201.0176
134;31229.44;3122.944
135;30839.072;3083.9072
136;30839.072;3083.9072
137;32400.544;3240.0544
138;35523.488;3552.3488
139;35133.12;3513.312
140;34352.384;3435.2384
141;33181.28;3318.128
142;32790.912;3279.0912
143;30839.072;3083.9072
144;28887.232;2888.7232
145;27716.128;2771.6128
146;25373.92;2537.392
147;24202.816;2420.2816
148;23422.08;2342.208
149;22641.344;2264.1344
150;22641.344;2264.1344
151;23422.08;2342.208
152;24983.552;2498.3552
153;28496.864;2849.6864
154;31229.44;3122.944
155;32010.176;3201.0176
156;32400.544;3240.0544
157;32010.176;3201.0176
158;31229.44;3122.944
159;30839.072;3083.9072
160;30839.072;3083.9072
161;32400.544;3240.0544
162;35523.488;3552.3488
163;35133.12;3513.312
164;34352.384;3435.2384
165;33181.28;3318.128
166;32790.912;3279.0912
167;30839.072;3083.9072
168;28887.232;2888.7232
