t;demand;reserve
1;34883.01;3488.301
2;31935.15;3193.515
3;30461.22;3046.122
4;29478.6;2947.86
5;28495.98;2849.598
6;28495.98;2849.598
7;29478.6;2947.86
8;31443.84;3144.384
9;35865.63;3586.563
10;39304.8;3930.48
11;40287.42;4028.742
12;40778.73;4077.873
13;40287.42;4028.742
14;39304.8;3930.48
15;38813.49;3881.349
16;38813.49;3881.349
17;40778.73;4077.873
18;44709.21;4470.921
19;44217.9;4421.79
20;43235.28;4323.528
21;41761.35;4176.135
22;41270.04;4127.004
23;38813.49;3881.349
24;36356.94;3635.694
25;34883.01;3488.301
26;31935.15;3193.515
27;30461.22;3046.122
28;29478.6;2947.86
29;28495.98;2849.598
30;28495.98;2849.598
31;29478.6;2947.86
32;31443.84;3144.384
33;35865.63;3586.563
34;39304.8;3930.48
35;40287.42;4028.742
36;40778.73;4077.873
37;40287.42;4028.742
38;39304.8;3930.48
39;38813.49;3881.349
40;38813.49;3881.349
41;40778.73;4077.873
42;44709.21;4470.921
43;44217.9;4421.79
44;43235.28;4323.528
45;41761.35;4176.135
46;41270.04;4127.004
47;38813.49;3881.349
48;36356.94;3635.694
49;34883.01;3488.301
50;31935.15;3193.515
51;30461.22;3046.122
52;29478.6;2947.86
53;28495.98;2849.598
54;28495.98;2849.598
55;29478.6;2947.86
56;31443.84;3144.384
57;35865.63;3586.563
58;39304.8;3930.48
59;40287.42;4028.742
60;40778.73;4077.873
61;40287.42;4028.742
62;39304.8;3930.48
63;38813.49;3881.349
64;38813.49;3881.349
65;40778.73;4077.873
66;44709.21;4470.921
67;44217.9;4421.79
68;43235.28;4323.528
69;41761.35;4176.135
70;41270.04;4127.004
71;38813.49;3881.349
72;36356.94;3635.694
73;34883.01;3488.301
74;31935.15;3193.515
75;30461.22;3046.122
76;29478.6;2947.86
77;28495.98;2849.598
78;28495.98;2849.598
79;29478.6;2947.86
80;31443.84;3144.384
81;35865.63;3586.563
82;39304.8;3930.48
83;40287.42;4028.742
84;40778.73;4077.873
85;40287.42;4028.742
86;39304.8;3930.48
87;38813.49;3881.349
88;38813.49;3881.349
89;40778.73;4077.873
90;44709.21;4470.921
91;44217.9;4421.79
92;43235.28;4323.528
93;41761.35;4176.135
94;41270.04;4127.004
95;38813.49;3881.349
96;36356.94;3635.694
97;34883.01;3488.301
98;31935.15;3193.515
99;30461.22;3046.122
100;29478.6;2947.86
101;28495.98;2849.598
102;28495.98;2849.598
103;29478.6;2947.86
104;31443.84;3144.384
105;35865.63;3586.563
106;39304.8;3930.48
107;40287.42;4028.742
108;40778.73;4077.873
109;40287.42;4028.742
110;39304.8;3930.48
111;38813.49;3881.349
112;38813.49;3881.349
113;40778.73;4077.873
114;44709.21;4470.921
115;44217.9;4421.79
116;43235.28;4323.528
117;41761.35;4176.135
118;41270.04;4127.004
119;38813.49;3881.349
120;36356.94;3635.694
121;27906.408;2790.6408
122;25548.12;2554.812
123;24368.976;2436.8976
124;23582.88;2358.288
125;22796.784;2279.6784
126;22796.784;2279.6784
127;23582.88;2358.288
128;25155.072;2515.5072
129;28692.504;2869.2504
130;31443.84;3144.384
131;32229.936;3222.9936
132;32622.984;3262.2984
133;32229.936;3222.9936
134;31443.84;3144.384
135;31050.792;3105.0792
136;31050.792;3105.0792
137;32622.984;3262.2984
138;35767.368;3576.7368
139;35374.32;3537.432
140;34588.224;3458.8224
141;33409.08;3340.908
142;33016.032;3301.6032
143;31050.792;3105.0792
144;29085.552;2908.5552
145;27906.408;2790.6408
146;25548.12;2554.812
147;24368.976;2436.8976
148;23582.88;2358.288
149;22796.784;2279.6784
150;22796.784;2279.6784
151;23582.88;2358.288
152;25155.072;2515.5072
153;28692.504;2869.2504
154;31443.84;3144.384
155;32229.936;3222.9936
156;32622.984;3262.2984
157;32229.936;3222.9936
158;31443.84;3144.384
159;31050.792;3105.0792
160;31050.792;3105.0792
161;32622.984;3262.2984
162;35767.368;3576.7368
163;35374.32;3537.432
164;34588.224;3458.8224
165;33409.08;3340.908
166;33016.032;3301.6032
167;31050.792;3105.0792
168;29085.552;2908.5552
