t;demand;reserve
1;32060.05;3206.005
2;29350.75;2935.075
3;27996.1;2799.61
4;27093;2709.3
5;26189.9;2618.99
6;26189.9;2618.99
7;27093;2709.3
8;28899.2;2889.92
9;32963.15;3296.315
10;36124;3612.4
11;37027.1;3702.71
12;37478.65;3747.865
13;37027.1;3702.71
14;36124;3612.4
15;35672.45;3567.245
16;35672.45;3567.245
17;37478.65;3747.865
18;41091.05;4109.105
19;40639.5;4063.95
20;39736.4;3973.64
21;38381.75;3838.175
22;37930.2;3793.02
23;35672.45;3567.245
24;33414.7;3341.47
25;32060.05;3206.005
26;29350.75;2935.075
27;27996.1;2799.61
28;27093;2709.3
29;26189.9;2618.99
30;26189.9;2618.99
31;27093;2709.3
32;28899.2;2889.92
33;32963.15;3296.315
34;36124;3612.4
35;37027.1;3702.71
36;37478.65;3747.865
37;37027.1;3702.71
38;36124;3612.4
39;35672.45;3567.245
40;35672.45;3567.245
41;37478.65;3747.865
42;41091.05;4109.105
43;40639.5;4063.95
44;39736.4;3973.64
45;38381.75;3838.175
46;37930.2;3793.02
47;35672.45;3567.245
48;33414.7;3341.47
49;32060.05;3206.005
50;29350.75;2935.075
51;27996.1;2799.61
52;27093;2709.3
53;26189.9;2618.99
54;26189.9;2618.99
55;27093;2709.3
56;28899.2;2889.92
57;32963.15;3296.315
58;36124;3612.4
59;37027.1;3702.71
60;37478.65;3747.865
61;37027.1;3702.71
62;36124;3612.4
63;35672.45;3567.245
64;35672.45;3567.245
65;37478.65;3747.865
66;41091.05;4109.105
67;40639.5;4063.95
68;39736.4;3973.64
69;38381.75;3838.175
70;37930.2;3793.02
71;35672.45;3567.245
72;33414.7;3341.47
73;32060.05;3206.005
74;29350.75;2935.075
75;27996.1;2799.61
76;27093;2709.3
77;26189.9;2618.99
78;26189.9;2618.99
79;27093;2709.3
80;28899.2;2889.92
81;32963.15;3296.315
82;36124;3612.4
83;37027.1;3702.71
84;37478.65;3747.865
85;37027.1;3702.71
86;36124;3612.4
87;35672.45;3567.245
88;35672.45;3567.245
89;37478.65;3747.865
90;41091.05;4109.105
91;40639.5;4063.95
92;39736.4;3973.64
93;38381.75;3838.175
94;37930.2;3793.02
95;35672.45;3567.245
96;33414.7;3341.47
97;32060.05;3206.005
98;29350.75;2935.075
99;27996.1;2799.61
100;27093;2709.3
101;26189.9;2618.99
102;26189.9;2618.99
103;27093;2709.3
104;28899.2;2889.92
105;32963.15;3296.315
106;36124;3612.4
107;37027.1;3702.71
108;37478.65;3747.865
109;37027.1;3702.71
110;36124;3612.4
111;35672.45;3567.245
112;35672.45;3567.245
113;37478.65;3747.865
114;41091.05;4109.105
115;40639.5;4063.95
116;39736.4;3973.64
117;38381.75;3838.175
118;37930.2;3793.02
119;35672.45;3567.245
120;33414.7;3341.47
121;25648.04;2564.804
122;23480.6;2348.06
123;22396.88;2239.688
124;21674.4;2167.44
125;20951.92;2095.192
126;20951.92;2095.192
127;21674.4;2167.44
128;23119.36;2311.936
129;26370.52;2637.052
130;28899.2;2889.92
131;29621.68;2962.168
132;29982.92;2998.292
133;29621.68;2962.168
134;28899.2;2889.92
135;28537.96;2853.796
136;28537.96;2853.796
137;29982.92;2998.292
138;32872.84;3287.284
139;32511.6;3251.16
140;31789.12;3178.912
141;30705.4;3070.54
142;30344.16;3034.416
143;28537.96;2853.796
144;26731.76;2673.176
145;25648.04;2564.804
146;23480.6;2348.06
147;22396.88;2239.688
148;21674.4;2167.44
149;20951.92;2095.192
150;20951.92;2095.192
151;21674.4;2167.44
152;23119.36;2311.936
153;26370.52;2637.052
154;28899.2;2889.92
155;29621.68;2962.168
156;29982.92;2998.292
157;29621.68;2962.168
158;28899.2;2889.92
159;28537.96;2853.796
160;28537.96;2853.796
161;29982.92;2998.292
162;32872.84;3287.284
163;32511.6;3251.16
164;31789.12;3178.912
165;30705.4;3070.54
166;30344.16;3034.416
167;28537.96;2853.796
168;26731.76;2673.176
