id;P_max;P_min;P_rampup;P_rampdown;P_startup;P_shutdown;P_past;T_past;T_onmin;T_offmin;T_cooling;C_fix;C_var;C_starthot;C_startcold
1;455;150;225;225;150;150;455;8;8;8;14;1000;16.19;4500;9000
2;455;150;225;225;150;150;455;8;8;8;14;1000;16.19;4500;9000
3;455;150;225;225;150;150;455;8;8;8;14;1000;16.19;4500;9000
4;455;150;225;225;150;150;455;8;8;8;14;1000;16.19;4500;9000
5;455;150;225;225;150;150;455;8;8;8;14;1000;16.19;4500;9000
6;455;150;225;225;150;150;455;8;8;8;14;1000;16.19;4500;9000
7;455;150;225;225;150;150;455;8;8;8;14;1000;16.19;4500;9000
8;455;150;225;225;150;150;455;8;8;8;14;1000;16.19;4500;9000
9;455;150;225;225;150;150;455;8;8;8;14;1000;16.19;4500;9000
10;455;150;225;225;150;150;455;8;8;8;14;1000;16.19;4500;9000
11;455;150;225;225;150;150;455;8;8;8;14;1000;16.19;4500;9000
12;455;150;225;225;150;150;455;8;8;8;14;1000;16.19;4500;9000
13;455;150;225;225;150;150;455;8;8;8;14;1000;16.19;4500;9000
14;455;150;225;225;150;150;455;8;8;8;14;1000;16.19;4500;9000
15;455;150;225;225;150;150;455;8;8;8;14;1000;16.19;4500;9000
16;455;150;225;225;150;150;455;8;8;8;14;1000;16.19;4500;9000
17;455;150;225;225;150;150;455;8;8;8;14;1000;16.19;4500;9000
18;455;150;225;225;150;150;245;8;8;8;14;970;17.26;5000;10000
19;455;150;225;225;150;150;245;8;8;8;14;970;17.26;5000;10000
20;455;150;225;225;150;150;245;8;8;8;14;970;17.26;5000;10000
21;455;150;225;225;150;150;245;8;8;8;14;970;17.26;5000;10000
22;455;150;225;225;150;150;245;8;8;8;14;970;17.26;5000;10000
23;455;150;225;225;150;150;245;8;8;8;14;970;17.26;5000;10000
24;455;150;225;225;150;150;245;8;8;8;14;970;17.26;5000;10000
25;455;150;225;225;150;150;245;8;8;8;14;970;17.26;5000;10000
26;455;150;225;225;150;150;245;8;8;8;14;970;17.26;5000;10000
27;455;150;225;225;150;150;245;8;8;8;14;970;17.26;5000;10000
28;455;150;225;225;150;150;245;8;8;8;14;970;17.26;5000;10000
29;455;150;225;225;150;150;245;8;8;8;14;970;17.26;5000;10000
30;455;150;225;225;150;150;245;8;8;8;14;970;17.26;5000;10000
31;455;150;225;225;150;150;245;8;8;8;14;970;17.26;5000;10000
32;455;150;225;225;150;150;245;8;8;8;14;970;17.26;5000;10000
33;455;150;225;225;150;150;245;8;8;8;14;970;17.26;5000;10000
34;130;20;50;50;20;20;0;-5;5;5;10;700;16.6;550;1100
35;130;20;50;50;20;20;0;-5;5;5;10;680;16.5;560;1120
36;130;20;50;50;20;20;0;-5;5;5;10;680;16.5;560;1120
37;130;20;50;50;20;20;0;-5;5;5;10;680;16.5;560;1120
38;162;25;60;60;25;25;0;-6;6;6;11;450;19.7;900;1800
39;80;20;60;60;20;20;0;-3;3;3;8;370;22.26;170;340
40;80;20;60;60;20;20;0;-3;3;3;8;370;22.26;170;340
41;80;20;60;60;20;20;0;-3;3;3;8;370;22.26;170;340
42;80;20;60;60;20;20;0;-3;3;3;8;370;22.26;170;340
43;80;20;60;60;20;20;0;-3;3;3;8;370;22.26;170;340
44;80;20;60;60;20;20;0;-3;3;3;8;370;22.26;170;340
45;80;20;60;60;20;20;0;-3;3;3;8;370;22.26;170;340
46;85;25;60;60;25;25;0;-3;3;3;6;480;27.74;260;520
47;85;25;60;60;25;25;0;-3;3;3;6;480;27.74;260;520
48;55;10;135;135;10;10;0;-1;1;1;2;660;25.92;30;60
49;55;10;135;135;10;10;0;-1;1;1;2;660;25.92;30;60
50;55;10;135;135;10;10;0;-1;1;1;2;660;25.92;30;60
51;55;10;135;135;10;10;0;-1;1;1;2;660;25.92;30;60
