=======================
Unit-Commitment-Problem
Fix-and-Optimize (weak)
Michael Tunder
=======================

Instanz: sym-dem
Planung: 60 Einheiten & 24 Stunden
Abweichung von Nachfrage: moeglich

Abbruchsgrund: Vollstaendige Loesung
Gesamtkosten [GE]: 4331658.6
Ganzzahlige Loesung
Bedarfsabweichungskosten [%]: 0

Optimierungsdauer [s]: 2.109 (0.035min)
Maximale Dauer: 18000s / 300.000min / 5.00h
Optimalitaetsluecke [%]: --
Beste Schranke [GE]: --
Nebenbedingungen: 11166
Entscheidungsvariablen (gesamt): 10104
Kontinuierliche Variablen: 2904
Binaervariablen: 7200
Fixierte Binaervariablen: 7096
Verbleibende Binaervariablen: 104
Iterationen: 4
Ganzzahligkeitstoleranz: 0.01
Xpress-Version: 8.11.1

Schedule: Commitment-Status
===========================
 Time |    1  |    2  |    3  |    4  |    5  |    6  |    7  |    8  |    9  |   10  |   11  |   12  |   13  |   14  |   15  |   16  |   17  |   18  |   19  |   20  |   21  |   22  |   23  |   24  |
 Unit |       |       |       |       |       |       |       |       |       |       |       |       |       |       |       |       |       |       |       |       |       |       |       |       |
-------------------------------------------------------------------------------------------------------------------------------------------------------------------------------------------------------
    1 |   X   |   X   |   X   |   X   |   X   |   X   |   X   |   X   |   X   |   X   |   X   |   X   |   X   |   X   |   X   |   X   |   X   |   X   |   X   |   X   |   X   |   X   |   X   |   X   |
    2 |   X   |   X   |   X   |   X   |   X   |   X   |   X   |   X   |   X   |   X   |   X   |   X   |   X   |   X   |   X   |   X   |   X   |   X   |   X   |   X   |   X   |   X   |   X   |   -   |
    3 |   -   |   -   |   -   |   -   |   -   |   -   |   X   |   X   |   X   |   X   |   X   |   X   |   X   |   X   |   X   |   X   |   X   |   X   |   X   |   X   |   X   |   X   |   X   |   X   |
    4 |   -   |   -   |   -   |   -   |   X   |   X   |   X   |   X   |   X   |   X   |   X   |   X   |   X   |   X   |   X   |   X   |   X   |   X   |   X   |   X   |   X   |   X   |   X   |   X   |
    5 |   -   |   X   |   X   |   X   |   X   |   X   |   X   |   X   |   X   |   X   |   X   |   X   |   X   |   X   |   X   |   X   |   X   |   X   |   X   |   X   |   X   |   X   |   -   |   -   |
    6 |   -   |   -   |   -   |   -   |   -   |   -   |   -   |   X   |   X   |   X   |   X   |   X   |   X   |   X   |   X   |   -   |   -   |   -   |   X   |   X   |   X   |   X   |   -   |   -   |
    7 |   -   |   -   |   -   |   -   |   -   |   -   |   -   |   -   |   X   |   X   |   X   |   X   |   X   |   X   |   -   |   -   |   -   |   -   |   X   |   X   |   X   |   -   |   -   |   -   |
    8 |   -   |   -   |   -   |   -   |   -   |   -   |   -   |   -   |   X   |   X   |   X   |   X   |   X   |   -   |   -   |   -   |   -   |   -   |   -   |   -   |   -   |   -   |   -   |   -   |
    9 |   -   |   -   |   -   |   -   |   -   |   -   |   -   |   -   |   -   |   X   |   X   |   X   |   X   |   -   |   -   |   -   |   -   |   -   |   -   |   -   |   -   |   -   |   -   |   -   |
   10 |   -   |   -   |   -   |   -   |   -   |   -   |   -   |   -   |   -   |   -   |   -   |   -   |   -   |   -   |   -   |   -   |   -   |   -   |   -   |   -   |   -   |   -   |   -   |   -   |
   11 |   X   |   X   |   X   |   X   |   X   |   X   |   X   |   X   |   X   |   X   |   X   |   X   |   X   |   X   |   X   |   X   |   X   |   X   |   X   |   X   |   X   |   X   |   X   |   X   |
   12 |   X   |   X   |   X   |   X   |   X   |   X   |   X   |   X   |   X   |   X   |   X   |   X   |   X   |   X   |   X   |   X   |   X   |   X   |   X   |   X   |   X   |   X   |   X   |   -   |
   13 |   -   |   -   |   -   |   -   |   X   |   X   |   X   |   X   |   X   |   X   |   X   |   X   |   X   |   X   |   X   |   X   |   X   |   X   |   X   |   X   |   X   |   X   |   X   |   X   |
   14 |   -   |   -   |   X   |   X   |   X   |   X   |   X   |   X   |   X   |   X   |   X   |   X   |   X   |   X   |   X   |   X   |   X   |   X   |   X   |   X   |   X   |   X   |   X   |   X   |
   15 |   -   |   -   |   -   |   -   |   -   |   -   |   -   |   X   |   X   |   X   |   X   |   X   |   X   |   X   |   X   |   X   |   X   |   X   |   X   |   X   |   X   |   X   |   X   |   X   |
   16 |   -   |   -   |   -   |   -   |   -   |   -   |   -   |   X   |   X   |   X   |   X   |   X   |   X   |   X   |   X   |   -   |   -   |   -   |   X   |   X   |   X   |   X   |   -   |   -   |
   17 |   -   |   -   |   -   |   -   |   -   |   -   |   -   |   -   |   X   |   X   |   X   |   X   |   X   |   X   |   -   |   -   |   -   |   -   |   X   |   X   |   X   |   -   |   -   |   -   |
   18 |   -   |   -   |   -   |   -   |   -   |   -   |   -   |   -   |   X   |   X   |   X   |   X   |   X   |   -   |   -   |   -   |   -   |   -   |   X   |   X   |   X   |   -   |   -   |   -   |
   19 |   -   |   -   |   -   |   -   |   -   |   -   |   -   |   -   |   -   |   X   |   X   |   X   |   X   |   -   |   -   |   -   |   -   |   -   |   -   |   -   |   -   |   -   |   -   |   -   |
   20 |   -   |   -   |   -   |   -   |   -   |   -   |   -   |   -   |   -   |   -   |   X   |   X   |   X   |   -   |   -   |   -   |   -   |   -   |   -   |   -   |   -   |   -   |   -   |   -   |
   21 |   X   |   X   |   X   |   X   |   X   |   X   |   X   |   X   |   X   |   X   |   X   |   X   |   X   |   X   |   X   |   X   |   X   |   X   |   X   |   X   |   X   |   X   |   X   |   X   |
   22 |   X   |   X   |   X   |   X   |   X   |   X   |   X   |   X   |   X   |   X   |   X   |   X   |   X   |   X   |   X   |   X   |   X   |   X   |   X   |   X   |   X   |   X   |   -   |   -   |
   23 |   -   |   -   |   -   |   -   |   -   |   X   |   X   |   X   |   X   |   X   |   X   |   X   |   X   |   X   |   X   |   X   |   X   |   X   |   X   |   X   |   X   |   X   |   X   |   X   |
   24 |   -   |   -   |   -   |   -   |   X   |   X   |   X   |   X   |   X   |   X   |   X   |   X   |   X   |   X   |   X   |   X   |   X   |   X   |   X   |   X   |   X   |   X   |   X   |   X   |
   25 |   -   |   -   |   X   |   X   |   X   |   X   |   X   |   X   |   X   |   X   |   X   |   X   |   X   |   X   |   X   |   X   |   X   |   X   |   X   |   X   |   X   |   X   |   X   |   X   |
   26 |   -   |   -   |   -   |   -   |   -   |   -   |   -   |   X   |   X   |   X   |   X   |   X   |   X   |   X   |   X   |   -   |   -   |   -   |   X   |   X   |   X   |   X   |   -   |   -   |
   27 |   -   |   -   |   -   |   -   |   -   |   -   |   -   |   -   |   X   |   X   |   X   |   X   |   X   |   X   |   -   |   -   |   -   |   -   |   X   |   X   |   X   |   -   |   -   |   -   |
   28 |   -   |   -   |   -   |   -   |   -   |   -   |   -   |   -   |   -   |   X   |   X   |   X   |   X   |   -   |   -   |   -   |   -   |   -   |   X   |   X   |   X   |   -   |   -   |   -   |
   29 |   -   |   -   |   -   |   -   |   -   |   -   |   -   |   -   |   -   |   X   |   X   |   X   |   X   |   -   |   -   |   -   |   -   |   -   |   -   |   -   |   -   |   -   |   -   |   -   |
   30 |   -   |   -   |   -   |   -   |   -   |   -   |   -   |   -   |   -   |   -   |   X   |   X   |   X   |   -   |   -   |   -   |   -   |   -   |   -   |   -   |   -   |   -   |   -   |   -   |
   31 |   X   |   X   |   X   |   X   |   X   |   X   |   X   |   X   |   X   |   X   |   X   |   X   |   X   |   X   |   X   |   X   |   X   |   X   |   X   |   X   |   X   |   X   |   X   |   X   |
   32 |   X   |   X   |   X   |   X   |   X   |   X   |   X   |   X   |   X   |   X   |   X   |   X   |   X   |   X   |   X   |   X   |   X   |   X   |   X   |   X   |   X   |   X   |   -   |   -   |
   33 |   -   |   -   |   -   |   -   |   -   |   X   |   X   |   X   |   X   |   X   |   X   |   X   |   X   |   X   |   X   |   X   |   X   |   X   |   X   |   X   |   X   |   X   |   X   |   X   |
   34 |   -   |   -   |   -   |   X   |   X   |   X   |   X   |   X   |   X   |   X   |   X   |   X   |   X   |   X   |   X   |   X   |   X   |   X   |   X   |   X   |   X   |   X   |   X   |   X   |
   35 |   -   |   -   |   -   |   -   |   X   |   X   |   X   |   X   |   X   |   X   |   X   |   X   |   X   |   X   |   X   |   X   |   X   |   X   |   X   |   X   |   X   |   X   |   X   |   X   |
   36 |   -   |   -   |   -   |   -   |   -   |   -   |   -   |   X   |   X   |   X   |   X   |   X   |   X   |   X   |   -   |   -   |   -   |   -   |   X   |   X   |   X   |   X   |   -   |   -   |
   37 |   -   |   -   |   -   |   -   |   -   |   -   |   -   |   -   |   X   |   X   |   X   |   X   |   X   |   X   |   -   |   -   |   -   |   -   |   X   |   X   |   X   |   -   |   -   |   -   |
   38 |   -   |   -   |   -   |   -   |   -   |   -   |   -   |   -   |   X   |   X   |   X   |   X   |   X   |   X   |   -   |   -   |   -   |   -   |   X   |   X   |   X   |   -   |   -   |   -   |
   39 |   -   |   -   |   -   |   -   |   -   |   -   |   -   |   -   |   -   |   -   |   X   |   X   |   X   |   -   |   -   |   -   |   -   |   -   |   -   |   -   |   -   |   -   |   -   |   -   |
   40 |   -   |   -   |   -   |   -   |   -   |   -   |   -   |   -   |   -   |   -   |   X   |   X   |   X   |   -   |   -   |   -   |   -   |   -   |   -   |   -   |   -   |   -   |   -   |   -   |
   41 |   X   |   X   |   X   |   X   |   X   |   X   |   X   |   X   |   X   |   X   |   X   |   X   |   X   |   X   |   X   |   X   |   X   |   X   |   X   |   X   |   X   |   X   |   X   |   X   |
   42 |   X   |   X   |   X   |   X   |   X   |   X   |   X   |   X   |   X   |   X   |   X   |   X   |   X   |   X   |   X   |   X   |   X   |   X   |   X   |   X   |   X   |   X   |   X   |   X   |
   43 |   -   |   -   |   -   |   -   |   X   |   X   |   X   |   X   |   X   |   X   |   X   |   X   |   X   |   X   |   X   |   X   |   X   |   X   |   X   |   X   |   X   |   X   |   X   |   X   |
   44 |   -   |   -   |   -   |   X   |   X   |   X   |   X   |   X   |   X   |   X   |   X   |   X   |   X   |   X   |   X   |   X   |   X   |   X   |   X   |   X   |   X   |   X   |   X   |   X   |
   45 |   -   |   -   |   X   |   X   |   X   |   X   |   X   |   X   |   X   |   X   |   X   |   X   |   X   |   X   |   X   |   X   |   X   |   X   |   X   |   X   |   X   |   X   |   X   |   X   |
   46 |   -   |   -   |   -   |   -   |   -   |   -   |   -   |   X   |   X   |   X   |   X   |   X   |   X   |   X   |   X   |   -   |   -   |   -   |   X   |   X   |   X   |   X   |   -   |   -   |
   47 |   -   |   -   |   -   |   -   |   -   |   -   |   -   |   -   |   X   |   X   |   X   |   X   |   X   |   X   |   -   |   -   |   -   |   -   |   X   |   X   |   X   |   -   |   -   |   -   |
   48 |   -   |   -   |   -   |   -   |   -   |   -   |   -   |   -   |   X   |   X   |   X   |   X   |   X   |   -   |   -   |   -   |   -   |   -   |   X   |   X   |   X   |   -   |   -   |   -   |
   49 |   -   |   -   |   -   |   -   |   -   |   -   |   -   |   -   |   -   |   X   |   X   |   X   |   X   |   -   |   -   |   -   |   -   |   -   |   -   |   -   |   -   |   -   |   -   |   -   |
   50 |   -   |   -   |   -   |   -   |   -   |   -   |   -   |   -   |   -   |   -   |   X   |   X   |   X   |   -   |   -   |   -   |   -   |   -   |   -   |   -   |   -   |   -   |   -   |   -   |
   51 |   X   |   X   |   X   |   X   |   X   |   X   |   X   |   X   |   X   |   X   |   X   |   X   |   X   |   X   |   X   |   X   |   X   |   X   |   X   |   X   |   X   |   X   |   X   |   X   |
   52 |   X   |   X   |   X   |   X   |   X   |   X   |   X   |   X   |   X   |   X   |   X   |   X   |   X   |   X   |   X   |   X   |   X   |   X   |   X   |   X   |   X   |   X   |   X   |   -   |
   53 |   -   |   -   |   -   |   -   |   -   |   -   |   X   |   X   |   X   |   X   |   X   |   X   |   X   |   X   |   X   |   X   |   X   |   X   |   X   |   X   |   X   |   X   |   X   |   X   |
   54 |   -   |   -   |   -   |   -   |   X   |   X   |   X   |   X   |   X   |   X   |   X   |   X   |   X   |   X   |   X   |   X   |   X   |   X   |   X   |   X   |   X   |   X   |   X   |   X   |
   55 |   -   |   -   |   X   |   X   |   X   |   X   |   X   |   X   |   X   |   X   |   X   |   X   |   X   |   X   |   X   |   X   |   X   |   X   |   X   |   X   |   X   |   X   |   X   |   X   |
   56 |   -   |   -   |   -   |   -   |   -   |   -   |   -   |   X   |   X   |   X   |   X   |   X   |   X   |   X   |   X   |   -   |   -   |   -   |   X   |   X   |   X   |   -   |   -   |   -   |
   57 |   -   |   -   |   -   |   -   |   -   |   -   |   -   |   -   |   X   |   X   |   X   |   X   |   X   |   X   |   -   |   -   |   -   |   -   |   X   |   X   |   X   |   -   |   -   |   -   |
   58 |   -   |   -   |   -   |   -   |   -   |   -   |   -   |   -   |   -   |   X   |   X   |   X   |   X   |   X   |   -   |   -   |   -   |   -   |   X   |   X   |   X   |   -   |   -   |   -   |
   59 |   -   |   -   |   -   |   -   |   -   |   -   |   -   |   -   |   -   |   -   |   X   |   X   |   X   |   -   |   -   |   -   |   -   |   -   |   -   |   -   |   -   |   -   |   -   |   -   |
   60 |   -   |   -   |   -   |   -   |   -   |   -   |   -   |   -   |   -   |   -   |   X   |   X   |   X   |   -   |   -   |   -   |   -   |   -   |   -   |   -   |   -   |   -   |   -   |   -   |
-------------------------------------------------------------------------------------------------------------------------------------------------------------------------------------------------------
Total |  12   |  13   |  17   |  19   |  25   |  27   |  29   |  36   |  46   |  52   |  59   |  59   |  59   |  44   |  35   |  30   |  30   |  30   |  47   |  47   |  47   |  35   |  27   |  24   |

Schedule: Leistungs-Output [MW]
===============================
 Time |     1   |     2   |     3   |     4   |     5   |     6   |     7   |     8   |     9   |    10   |    11   |    12   |    13   |    14   |    15   |    16   |    17   |    18   |    19   |    20   |    21   |    22   |    23   |    24   |
 Unit |         |         |         |         |         |         |         |         |         |         |         |         |         |         |         |         |         |         |         |         |         |         |         |         |
-------------------------------------------------------------------------------------------------------------------------------------------------------------------------------------------------------------------------------------------------------
    1 |     455 |     455 |     455 |     455 |     455 |     455 |     455 |     455 |     455 |     455 |     455 |     455 |     455 |     455 |     455 |     455 |     455 |     455 |     455 |     455 |     455 |     455 |     455 |     455 |
    2 |     150 |     150 |     455 |     455 |     455 |     455 |     455 |     455 |     455 |     455 |     455 |     455 |     455 |     455 |     455 |     455 |     455 |     190 |     455 |     455 |     455 |     455 |     150 |       0 |
    3 |       0 |       0 |       0 |       0 |       0 |       0 |      20 |     130 |     130 |     130 |     130 |     130 |     130 |     130 |     130 |     130 |     130 |     130 |     130 |     130 |     130 |     130 |     130 |     130 |
    4 |       0 |       0 |       0 |       0 |      20 |     130 |     130 |     130 |     130 |     130 |     130 |     130 |     130 |     130 |     130 |     130 |     130 |     130 |     130 |     130 |     130 |     130 |     130 |     130 |
    5 |       0 |      25 |      25 |      25 |      25 |      25 |      25 |      25 |     162 |     162 |     162 |     162 |     162 |     162 |      25 |      25 |      25 |      25 |      25 |     162 |     162 |      25 |       0 |       0 |
    6 |       0 |       0 |       0 |       0 |       0 |       0 |       0 |      20 |      20 |      20 |      80 |      80 |      20 |      20 |      20 |       0 |       0 |       0 |      20 |      20 |      20 |      20 |       0 |       0 |
    7 |       0 |       0 |       0 |       0 |       0 |       0 |       0 |       0 |      25 |      25 |      25 |      25 |      25 |      25 |       0 |       0 |       0 |       0 |      25 |      25 |      25 |       0 |       0 |       0 |
    8 |       0 |       0 |       0 |       0 |       0 |       0 |       0 |       0 |      10 |      10 |      10 |      55 |      10 |       0 |       0 |       0 |       0 |       0 |       0 |       0 |       0 |       0 |       0 |       0 |
    9 |       0 |       0 |       0 |       0 |       0 |       0 |       0 |       0 |       0 |      10 |      10 |      10 |      10 |       0 |       0 |       0 |       0 |       0 |       0 |       0 |       0 |       0 |       0 |       0 |
   10 |       0 |       0 |       0 |       0 |       0 |       0 |       0 |       0 |       0 |       0 |       0 |       0 |       0 |       0 |       0 |       0 |       0 |       0 |       0 |       0 |       0 |       0 |       0 |       0 |
   11 |     455 |     455 |     455 |     455 |     455 |     455 |     455 |     455 |     455 |     455 |     455 |     455 |     455 |     455 |     455 |     455 |     455 |     455 |     455 |     455 |     455 |     455 |     455 |     455 |
   12 |     150 |     150 |     455 |     455 |     455 |     455 |     455 |     400 |     455 |     455 |     455 |     455 |     455 |     455 |     455 |     150 |     150 |     455 |     165 |     455 |     455 |     455 |     150 |       0 |
   13 |       0 |       0 |       0 |       0 |      20 |     130 |     130 |     130 |     130 |     130 |     130 |     130 |     130 |     130 |     130 |     130 |     130 |     130 |     130 |     130 |     130 |     130 |     130 |     130 |
   14 |       0 |       0 |      20 |     130 |     130 |     130 |     130 |     130 |     130 |     130 |     130 |     130 |     130 |     130 |     130 |     130 |     130 |     130 |     130 |     130 |     130 |     130 |     130 |     130 |
   15 |       0 |       0 |       0 |       0 |       0 |       0 |       0 |      25 |     162 |     162 |     162 |     162 |     162 |     162 |      25 |      25 |      25 |      25 |      25 |     162 |      25 |      25 |      25 |      25 |
   16 |       0 |       0 |       0 |       0 |       0 |       0 |       0 |      20 |      20 |      58 |      80 |      80 |      20 |      20 |      20 |       0 |       0 |       0 |      20 |      20 |      20 |      20 |       0 |       0 |
   17 |       0 |       0 |       0 |       0 |       0 |       0 |       0 |       0 |      25 |      25 |      25 |      25 |      25 |      25 |       0 |       0 |       0 |       0 |      25 |      25 |      25 |       0 |       0 |       0 |
   18 |       0 |       0 |       0 |       0 |       0 |       0 |       0 |       0 |      10 |      10 |      10 |      55 |      10 |       0 |       0 |       0 |       0 |       0 |      10 |      10 |      10 |       0 |       0 |       0 |
   19 |       0 |       0 |       0 |       0 |       0 |       0 |       0 |       0 |       0 |      10 |      10 |      10 |      10 |       0 |       0 |       0 |       0 |       0 |       0 |       0 |       0 |       0 |       0 |       0 |
   20 |       0 |       0 |       0 |       0 |       0 |       0 |       0 |       0 |       0 |       0 |      10 |      10 |      10 |       0 |       0 |       0 |       0 |       0 |       0 |       0 |       0 |       0 |       0 |       0 |
   21 |     455 |     455 |     455 |     455 |     455 |     455 |     455 |     455 |     455 |     455 |     455 |     455 |     455 |     455 |     455 |     455 |     455 |     455 |     455 |     455 |     455 |     455 |     455 |     455 |
   22 |     455 |     150 |     455 |     455 |     455 |     455 |     430 |     455 |     455 |     455 |     455 |     455 |     455 |     455 |     455 |     195 |     150 |     455 |     455 |     455 |     455 |     150 |       0 |       0 |
   23 |       0 |       0 |       0 |       0 |       0 |      20 |     130 |     130 |     130 |     130 |     130 |     130 |     130 |     130 |     130 |     130 |     130 |     130 |     130 |     130 |     130 |     130 |     130 |     130 |
   24 |       0 |       0 |       0 |       0 |      20 |     130 |     130 |     130 |     130 |     130 |     130 |     130 |     130 |     130 |     130 |     130 |     130 |     130 |     130 |     130 |     130 |     130 |     130 |     130 |
   25 |       0 |       0 |      25 |      25 |      25 |      25 |      25 |      25 |      25 |     162 |     162 |     162 |     130 |      25 |      25 |      25 |      25 |      25 |      25 |     162 |     162 |      25 |      25 |      25 |
   26 |       0 |       0 |       0 |       0 |       0 |       0 |       0 |      20 |      20 |      20 |      20 |      80 |      20 |      20 |      20 |       0 |       0 |       0 |      20 |      20 |      20 |      20 |       0 |       0 |
   27 |       0 |       0 |       0 |       0 |       0 |       0 |       0 |       0 |      25 |      25 |      25 |      25 |      25 |      25 |       0 |       0 |       0 |       0 |      25 |      25 |      25 |       0 |       0 |       0 |
   28 |       0 |       0 |       0 |       0 |       0 |       0 |       0 |       0 |       0 |      10 |      10 |      38 |      10 |       0 |       0 |       0 |       0 |       0 |      10 |      10 |      10 |       0 |       0 |       0 |
   29 |       0 |       0 |       0 |       0 |       0 |       0 |       0 |       0 |       0 |      10 |      10 |      10 |      10 |       0 |       0 |       0 |       0 |       0 |       0 |       0 |       0 |       0 |       0 |       0 |
   30 |       0 |       0 |       0 |       0 |       0 |       0 |       0 |       0 |       0 |       0 |      10 |      10 |      10 |       0 |       0 |       0 |       0 |       0 |       0 |       0 |       0 |       0 |       0 |       0 |
   31 |     455 |     455 |     455 |     455 |     455 |     455 |     455 |     455 |     455 |     455 |     455 |     455 |     455 |     455 |     455 |     455 |     455 |     455 |     455 |     455 |     455 |     455 |     455 |     455 |
   32 |     415 |     455 |     280 |     425 |     455 |     455 |     455 |     455 |     455 |     455 |     455 |     455 |     455 |     455 |     455 |     455 |     150 |     455 |     455 |     455 |     455 |     150 |       0 |       0 |
   33 |       0 |       0 |       0 |       0 |       0 |      20 |     130 |     130 |     130 |     130 |     130 |     130 |     130 |     130 |     130 |     130 |     130 |     130 |     130 |     130 |     130 |     130 |     130 |     130 |
   34 |       0 |       0 |       0 |      20 |     130 |     130 |     130 |     130 |     130 |     130 |     130 |     130 |     130 |     130 |     130 |     130 |     130 |     130 |     130 |     130 |     130 |     130 |     130 |     130 |
   35 |       0 |       0 |       0 |       0 |      25 |      25 |      25 |      25 |      25 |     162 |     162 |     162 |     162 |      25 |      25 |      25 |      25 |      25 |      25 |     162 |      61 |      25 |      25 |      25 |
   36 |       0 |       0 |       0 |       0 |       0 |       0 |       0 |      20 |      20 |      20 |      48 |      80 |      20 |      20 |       0 |       0 |       0 |       0 |      20 |      20 |      20 |      20 |       0 |       0 |
   37 |       0 |       0 |       0 |       0 |       0 |       0 |       0 |       0 |      25 |      25 |      25 |      25 |      25 |      25 |       0 |       0 |       0 |       0 |      25 |      25 |      25 |       0 |       0 |       0 |
   38 |       0 |       0 |       0 |       0 |       0 |       0 |       0 |       0 |      10 |      10 |      10 |      10 |      10 |      10 |       0 |       0 |       0 |       0 |      10 |      10 |      10 |       0 |       0 |       0 |
   39 |       0 |       0 |       0 |       0 |       0 |       0 |       0 |       0 |       0 |       0 |      10 |      10 |      10 |       0 |       0 |       0 |       0 |       0 |       0 |       0 |       0 |       0 |       0 |       0 |
   40 |       0 |       0 |       0 |       0 |       0 |       0 |       0 |       0 |       0 |       0 |      10 |      10 |      10 |       0 |       0 |       0 |       0 |       0 |       0 |       0 |       0 |       0 |       0 |       0 |
   41 |     455 |     455 |     455 |     455 |     455 |     455 |     455 |     455 |     455 |     455 |     455 |     455 |     455 |     455 |     455 |     455 |     455 |     455 |     455 |     455 |     455 |     455 |     455 |     455 |
   42 |     150 |     385 |     455 |     455 |     380 |     390 |     455 |     420 |     455 |     455 |     455 |     455 |     455 |     455 |     455 |     455 |     200 |     150 |     455 |     455 |     455 |     395 |     455 |     385 |
   43 |       0 |       0 |       0 |       0 |      20 |     130 |     130 |     130 |     130 |     130 |     130 |     130 |     130 |     130 |     130 |     130 |     130 |     130 |     130 |     130 |     130 |     130 |     130 |     130 |
   44 |       0 |       0 |       0 |      20 |     130 |     130 |     130 |     130 |     130 |     130 |     130 |     130 |     130 |     130 |     130 |     130 |     130 |     130 |     130 |     130 |     130 |     130 |     130 |     130 |
   45 |       0 |       0 |      25 |      25 |      25 |      25 |      25 |      25 |      25 |     162 |     162 |     162 |     162 |      91 |      25 |      25 |      25 |      25 |      25 |     162 |      25 |      25 |      25 |      25 |
   46 |       0 |       0 |       0 |       0 |       0 |       0 |       0 |      20 |      20 |      20 |      80 |      80 |      20 |      20 |      20 |       0 |       0 |       0 |      20 |      80 |      20 |      20 |       0 |       0 |
   47 |       0 |       0 |       0 |       0 |       0 |       0 |       0 |       0 |      25 |      25 |      25 |      25 |      25 |      25 |       0 |       0 |       0 |       0 |      25 |      25 |      25 |       0 |       0 |       0 |
   48 |       0 |       0 |       0 |       0 |       0 |       0 |       0 |       0 |      10 |      10 |      10 |      55 |      10 |       0 |       0 |       0 |       0 |       0 |      10 |      10 |      10 |       0 |       0 |       0 |
   49 |       0 |       0 |       0 |       0 |       0 |       0 |       0 |       0 |       0 |      10 |      10 |      10 |      10 |       0 |       0 |       0 |       0 |       0 |       0 |       0 |       0 |       0 |       0 |       0 |
   50 |       0 |       0 |       0 |       0 |       0 |       0 |       0 |       0 |       0 |       0 |      10 |      10 |      10 |       0 |       0 |       0 |       0 |       0 |       0 |       0 |       0 |       0 |       0 |       0 |
   51 |     455 |     455 |     455 |     455 |     455 |     455 |     455 |     455 |     455 |     455 |     455 |     455 |     455 |     455 |     455 |     455 |     455 |     455 |     455 |     455 |     455 |     455 |     455 |     455 |
   52 |     150 |     455 |     150 |     455 |     455 |     455 |     455 |     455 |     455 |     455 |     455 |     455 |     455 |     455 |     385 |     150 |     455 |     455 |     455 |     455 |     455 |     455 |     150 |       0 |
   53 |       0 |       0 |       0 |       0 |       0 |       0 |      20 |     130 |     130 |     130 |     130 |     130 |     130 |     130 |     130 |     130 |     130 |     130 |     130 |     130 |     130 |     130 |     130 |     130 |
   54 |       0 |       0 |       0 |       0 |      20 |     130 |     130 |     130 |     130 |     130 |     130 |     130 |     130 |     130 |     130 |     130 |     130 |     130 |     130 |     130 |     130 |     130 |     130 |     130 |
   55 |       0 |       0 |      25 |      25 |      25 |      25 |      25 |      25 |      71 |     162 |     162 |     162 |     162 |      25 |      25 |      25 |      25 |      25 |      25 |     162 |      25 |      25 |     105 |      25 |
   56 |       0 |       0 |       0 |       0 |       0 |       0 |       0 |      20 |      20 |      20 |      80 |      80 |      20 |      20 |      20 |       0 |       0 |       0 |      20 |      48 |      20 |       0 |       0 |       0 |
   57 |       0 |       0 |       0 |       0 |       0 |       0 |       0 |       0 |      25 |      25 |      25 |      25 |      25 |      25 |       0 |       0 |       0 |       0 |      25 |      25 |      25 |       0 |       0 |       0 |
   58 |       0 |       0 |       0 |       0 |       0 |       0 |       0 |       0 |       0 |      10 |      10 |      55 |      10 |      10 |       0 |       0 |       0 |       0 |      10 |      10 |      10 |       0 |       0 |       0 |
   59 |       0 |       0 |       0 |       0 |       0 |       0 |       0 |       0 |       0 |       0 |      10 |      10 |      10 |       0 |       0 |       0 |       0 |       0 |       0 |       0 |       0 |       0 |       0 |       0 |
   60 |       0 |       0 |       0 |       0 |       0 |       0 |       0 |       0 |       0 |       0 |      10 |      10 |      10 |       0 |       0 |       0 |       0 |       0 |       0 |       0 |       0 |       0 |       0 |       0 |
-------------------------------------------------------------------------------------------------------------------------------------------------------------------------------------------------------------------------------------------------------
Total |    4200 |    4500 |    5100 |    5700 |    6000 |    6600 |    6900 |    7200 |    7800 |    8400 |    8700 |    9000 |    8400 |    7800 |    7200 |    6300 |    6000 |    6600 |    7200 |    8400 |    7800 |    6600 |    5400 |    4800 |
Diff. |       0 |       0 |       0 |       0 |       0 |       0 |       0 |       0 |       0 |       0 |       0 |       0 |       0 |       0 |       0 |       0 |       0 |       0 |       0 |       0 |       0 |       0 |       0 |       0 |

