t;Dt;Rt
t1;7346;735
t2;6887;689
t3;6396;640
t4;6019;602
t5;5759;576
t6;5450;545
t7;4910;491
t8;4910;491
t9;4931;493
t10;5135;514
t11;5541;554
t12;6193;619
t13;6431;643
t14;6472;647
t15;6545;655
t16;6787;679
t17;7499;750
t18;8369;837
t19;8588;859
t20;8287;829
t21;7618;762
t22;7078;708
t23;6531;653
t24;5479;548
t25;4578;458
t26;3962;396
t27;3760;376
t28;3872;387
t29;4456;446
t30;5651;565
t31;7337;734
t32;9206;921
t33;10426;1043
t34;11009;1101
t35;11543;1154
t36;11846;1185
t37;11885;1189
t38;11681;1168
t39;11503;1150
t40;11451;1145
t41;11687;1169
t42;12196;1220
t43;12010;1201
t44;11531;1153
t45;10448;1045
t46;9804;980
t47;9376;938
t48;8166;817
t49;7556;756
t50;6953;695
t51;6689;669
t52;6734;673
t53;6766;677
t54;7082;708
t55;7909;791
t56;8838;884
t57;9235;924
t58;9047;905
t59;8770;877
t60;8580;858
t61;8433;843
t62;8340;834
t63;8330;833
t64;8580;858
t65;9008;901
t66;9585;959
t67;9466;947
t68;9122;912
t69;8189;819
t70;7610;761
t71;7274;727
t72;6341;634
t73;5579;558
t74;5148;515
t75;5121;512
t76;5328;533
t77;5698;570
t78;6298;630
t79;7415;742
t80;8731;873
t81;9288;929
t82;9327;933
t83;9218;922
t84;9223;922
t85;9057;906
t86;8946;895
t87;8862;886
t88;8926;893
t89;9353;935
t90;10172;1017
t91;10037;1004
t92;9554;955
t93;8568;857
t94;7761;776
t95;7338;734
t96;6404;640
t97;5600;560
t98;5207;521
t99;4959;496
t100;4949;495
t101;5231;523
t102;5659;566
t103;6787;679
t104;8261;826
t105;9188;919
t106;9595;960
t107;9835;984
t108;10107;1011
t109;10146;1015
t110;10017;1002
t111;9843;984
t112;9706;971
t113;9865;987
t114;10328;1033
t115;10123;1012
t116;9442;944
t117;8606;861
t118;7892;789
t119;7575;758
t120;6672;667
t121;5978;598
t122;5506;551
t123;5379;538
t124;5549;555
t125;5915;592
t126;6400;640
t127;7213;721
t128;8443;844
t129;9286;929
t130;9781;978
t131;10170;1017
t132;10483;1048
t133;10432;1043
t134;10199;1020
t135;10010;1001
t136;10158;1016
t137;10770;1077
t138;11748;1175
t139;11777;1178
t140;11189;1119
t141;10273;1027
t142;9599;960
t143;9169;917
t144;8287;829
t145;7432;743
t146;6703;670
t147;6286;629
t148;6130;613
t149;6173;617
t150;6024;602
t151;5819;582
t152;6263;626
t153;7071;707
t154;7626;763
t155;8070;807
t156;8347;835
t157;8154;815
t158;7956;796
t159;7743;774
t160;7857;786
t161;8316;832
t162;9202;920
t163;9231;923
t164;8844;884
t165;8050;805
t166;7569;757
t167;7642;764
t168;6885;689
t169;6109;611
t170;5543;554
t171;5373;537
t172;5348;535
t173;5551;555
t174;5586;559
t175;5321;532
t176;5708;571
t177;6322;632
t178;7157;716
t179;7757;776
t180;8344;834
t181;8342;834
t182;8066;807
t183;8040;804
t184;8166;817
t185;8686;869
t186;9820;982
t187;10142;1014
t188;9992;999
t189;9546;955
t190;9347;935
t191;9525;953
t192;8895;890
t193;8322;832
t194;7894;789
t195;7743;774
t196;7870;787
t197;8287;829
t198;9192;919
t199;11230;1123
t200;12962;1296
t201;13641;1364
t202;13605;1361
t203;13756;1376
t204;13856;1386
t205;13693;1369
t206;13506;1351
t207;13304;1330
t208;13160;1316
t209;13005;1301
t210;13295;1330
t211;13009;1301
t212;12424;1242
t213;11365;1137
t214;10318;1032
t215;9397;940
t216;8128;813
t217;7127;713
t218;6539;654
t219;6390;639
t220;6572;657
t221;7094;709
t222;7995;800
t223;9949;995
t224;11599;1160
t225;12168;1217
t226;12254;1225
t227;12469;1247
t228;12520;1252
t229;12419;1242
t230;12331;1233
t231;12299;1230
t232;12858;1286
t233;13165;1317
t234;13824;1382
t235;13785;1379
t236;13316;1332
t237;12391;1239
t238;11615;1162
t239;10950;1095
t240;9853;985
t241;8926;893
t242;8396;840
t243;8187;819
t244;8087;809
t245;8193;819
t246;8737;874
t247;10352;1035
t248;11994;1199
t249;12387;1239
t250;12020;1202
t251;11936;1194
t252;11992;1199
t253;11902;1190
t254;11994;1199
t255;12127;1213
t256;12307;1231
t257;12497;1250
t258;13201;1320
t259;13214;1321
t260;12917;1292
t261;12072;1207
t262;11282;1128
t263;10532;1053
t264;9298;930
t265;8342;834
t266;7735;774
t267;7309;731
t268;7168;717
t269;7157;716
t270;7644;764
t271;9034;903
t272;10348;1035
t273;10676;1068
t274;10273;1027
t275;10113;1011
t276;10068;1007
t277;9877;988
t278;9763;976
t279;9701;970
t280;9810;981
t281;10058;1006
t282;10809;1081
t283;10839;1084
t284;10618;1062
t285;9726;973
t286;9134;913
t287;8666;867
t288;7669;767
t289;6899;690
t290;6416;642
t291;6271;627
t292;6328;633
t293;6611;661
t294;7188;719
t295;8676;868
t296;10246;1025
t297;10737;1074
t298;10375;1038
t299;10232;1023
t300;10137;1014
t301;10013;1001
t302;9763;976
t303;9792;979
t304;10004;1000
t305;10332;1033
t306;11192;1119
t307;11114;1111
t308;10567;1057
t309;9589;959
t310;8916;892
t311;8596;860
t312;7921;792
t313;7282;728
t314;6863;686
t315;6650;665
t316;6701;670
t317;6869;687
t318;6922;692
t319;6994;699
t320;7864;786
t321;8768;877
t322;9415;942
t323;9638;964
t324;9573;957
t325;9190;919
t326;8756;876
t327;8662;866
t328;9116;912
t329;9771;977
t330;10878;1088
t331;10991;1099
t332;10661;1066
t333;9939;994
t334;9630;963
t335;9746;975
t336;9206;921
t337;8625;863
t338;8111;811
t339;7931;793
t340;7784;778
t341;7743;774
t342;7618;762
t343;7329;733
t344;7679;768
t345;8344;834
t346;8860;886
t347;9210;921
t348;9525;953
t349;9308;931
t350;8848;885
t351;8772;877
t352;9063;906
t353;9787;979
t354;11153;1115
t355;11529;1153
t356;11312;1131
t357;10844;1084
t358;10567;1057
t359;10723;1072
t360;10082;1008
t361;9523;952
t362;9182;918
t363;8969;897
t364;9016;902
t365;9333;933
t366;10045;1005
t367;11910;1191
t368;13525;1353
t369;13887;1389
t370;13521;1352
t371;13250;1325
t372;13034;1303
t373;12784;1278
t374;12710;1271
t375;12798;1280
t376;13074;1307
t377;13457;1346
t378;14337;1434
t379;14331;1433
t380;13963;1396
t381;13103;1310
t382;12430;1243
t383;11922;1192
t384;10938;1094
t385;10135;1014
t386;9556;956
t387;9235;924
t388;9214;921
t389;9442;944
t390;10080;1008
t391;11822;1182
t392;13449;1345
t393;13856;1386
t394;13602;1360
t395;13461;1346
t396;13373;1337
t397;13038;1304
t398;12909;1291
t399;12954;1295
t400;13201;1320
t401;13553;1355
t402;14505;1451
t403;14562;1456
t404;14178;1418
t405;13390;1339
t406;12684;1268
t407;12168;1217
t408;11230;1123
t409;10436;1044
t410;9906;991
t411;9595;960
t412;9589;959
t413;9703;970
t414;10283;1028
t415;11779;1178
t416;13128;1313
t417;13185;1319
t418;12542;1254
t419;12260;1226
t420;12051;1205
t421;11799;1180
t422;11713;1171
t423;11695;1170
t424;11855;1186
t425;12016;1202
t426;12638;1264
t427;12336;1234
t428;11630;1163
t429;10643;1064
t430;9869;987
t431;9417;942
t432;8609;861
t433;7788;779
t434;7491;749
t435;7526;753
t436;7827;783
t437;8236;824
t438;8946;895
t439;10747;1075
t440;12323;1232
t441;12772;1277
t442;12718;1272
t443;12819;1282
t444;13007;1301
t445;12974;1297
t446;12819;1282
t447;12522;1252
t448;12276;1228
t449;12037;1204
t450;12043;1204
t451;11574;1157
t452;10911;1091
t453;9900;990
t454;9274;927
t455;9040;904
t456;8244;824
t457;7655;766
t458;7260;726
t459;7157;716
t460;7284;728
t461;7544;754
t462;8113;811
t463;9826;983
t464;11466;1147
t465;11820;1182
t466;11660;1166
t467;11541;1154
t468;11572;1157
t469;11527;1153
t470;11406;1141
t471;11492;1149
t472;11785;1179
t473;12186;1219
t474;13091;1309
t475;13060;1306
t476;12471;1247
t477;11486;1149
t478;10846;1085
t479;10524;1052
t480;9773;977
t481;9092;909
t482;8639;864
t483;8389;839
t484;8277;828
t485;8142;814
t486;7909;791
t487;7806;781
t488;8345;835
t489;8983;898
t490;9317;932
t491;9509;951
t492;9401;940
t493;8819;882
t494;8191;819
t495;7864;786
t496;7819;782
t497;7984;798
t498;8981;898
t499;9253;925
t500;8801;880
t501;7919;792
t502;7294;729
t503;7049;705
t504;6345;635
t505;5684;568
t506;5074;507
t507;4732;473
t508;4486;449
t509;4372;437
t510;4261;426
t511;3928;393
t512;4249;425
t513;4867;487
t514;5586;559
t515;6214;621
t516;6959;696
t517;6977;698
t518;6897;690
t519;6811;681
t520;7012;701
t521;7423;742
t522;8523;852
t523;9102;910
t524;9092;909
t525;8637;864
t526;8369;837
t527;8525;853
t528;7706;771
t529;7184;718
t530;6949;695
t531;7139;714
t532;7460;746
t533;7939;794
t534;8885;889
t535;10876;1088
t536;12708;1271
t537;13156;1316
t538;13122;1312
t539;13146;1315
t540;13263;1326
t541;13126;1313
t542;13138;1314
t543;13036;1304
t544;12999;1300
t545;13046;1305
t546;13799;1380
t547;13907;1391
t548;13588;1359
t549;12724;1272
t550;12016;1202
t551;11552;1155
t552;10547;1055
t553;9832;983
t554;9454;945
t555;9229;923
t556;9317;932
t557;9554;955
t558;10185;1019
t559;11842;1184
t560;13384;1338
t561;13779;1378
t562;13633;1363
t563;13678;1368
t564;13785;1379
t565;13635;1364
t566;13629;1363
t567;13596;1360
t568;13699;1370
t569;13693;1369
t570;14413;1441
t571;14575;1458
t572;14257;1426
t573;13422;1342
t574;12729;1273
t575;12178;1218
t576;11241;1124
t577;10577;1058
t578;10133;1013
t579;9853;985
t580;9873;987
t581;10125;1013
t582;10717;1072
t583;12321;1232
t584;13736;1374
t585;13996;1400
t586;13748;1375
t587;13590;1359
t588;13414;1341
t589;13230;1323
t590;13124;1312
t591;13025;1303
t592;13103;1310
t593;13242;1324
t594;13998;1400
t595;14188;1419
t596;13760;1376
t597;12919;1292
t598;12151;1215
t599;11636;1164
t600;10616;1062
t601;9835;984
t602;9392;939
t603;9061;906
t604;9040;904
t605;9155;916
t606;9661;966
t607;11038;1104
t608;12383;1238
t609;12585;1259
t610;12293;1229
t611;12110;1211
t612;11934;1193
t613;11605;1161
t614;11486;1149
t615;11572;1157
t616;11748;1175
t617;11881;1188
t618;12551;1255
t619;12546;1255
t620;12135;1214
t621;11245;1125
t622;10616;1062
t623;10360;1036
t624;9654;965
t625;8922;892
t626;8520;852
t627;8392;839
t628;8531;853
t629;8870;887
t630;9497;950
t631;11050;1105
t632;12626;1263
t633;13257;1326
t634;13183;1318
t635;13326;1333
t636;13447;1345
t637;13357;1336
t638;13060;1306
t639;12882;1288
t640;12898;1290
t641;12989;1299
t642;13684;1368
t643;13762;1376
t644;13334;1333
t645;12456;1246
t646;11836;1184
t647;11533;1153
t648;10799;1080
t649;10129;1013
t650;9675;968
t651;9364;936
t652;9304;930
t653;9272;927
t654;9069;907
t655;9018;902
t656;9673;967
t657;10477;1048
t658;11177;1118
t659;11472;1147
t660;11578;1158
t661;11363;1136
t662;10956;1096
t663;10745;1075
t664;10682;1068
t665;10805;1081
t666;11703;1170
t667;11920;1192
t668;11460;1146
t669;10710;1071
t670;10250;1025
t671;10279;1028
t672;9792;979
t673;9206;921
t674;8654;865
t675;8369;837
t676;8193;819
t677;8046;805
t678;7821;782
t679;7407;741
t680;7712;771
t681;8439;844
t682;9114;911
t683;9681;968
t684;10182;1018
t685;10047;1005
t686;9554;955
t687;9233;923
t688;9092;909
t689;9139;914
t690;10023;1002
t691;10440;1044
t692;10168;1017
t693;9626;963
t694;9442;944
t695;9650;965
t696;9092;909
t697;8523;852
t698;8087;809
t699;7763;776
t700;7733;773
t701;7943;794
t702;8594;859
t703;10262;1026
t704;11924;1192
t705;12430;1243
t706;12489;1249
t707;12569;1257
t708;12684;1268
t709;12557;1256
t710;12370;1237
t711;12178;1218
t712;12131;1213
t713;11981;1198
t714;13046;1305
t715;12727;1273
t716;12401;1240
t717;11664;1166
t718;11095;1110
t719;10782;1078
t720;9875;988
t721;9298;930
t722;8860;886
t723;8658;866
t724;8651;865
t725;8772;877
t726;9263;926
t727;10690;1069
t728;12135;1214
t729;12417;1242
t730;12258;1226
t731;12100;1210
t732;12035;1204
t733;11842;1184
t734;11705;1171
t735;11599;1160
t736;11611;1161
t737;11687;1169
t738;12446;1245
t739;12845;1285
t740;12569;1257
t741;11979;1198
t742;11456;1146
t743;11140;1114
t744;10393;1039
t745;9042;904
t746;8717;872
t747;8496;850
t748;8500;850
t749;8619;862
t750;9089;909
t751;10426;1043
t752;11726;1173
t753;11955;1196
t754;11718;1172
t755;11447;1145
t756;11234;1123
t757;10884;1088
t758;10627;1063
t759;10467;1047
t760;10618;1062
t761;10811;1081
t762;11660;1166
t763;12160;1216
t764;11830;1183
t765;11132;1113
t766;10631;1063
t767;10305;1031
t768;9857;986
t769;9609;961
t770;9327;933
t771;9126;913
t772;9059;906
t773;9206;921
t774;9804;980
t775;11212;1121
t776;12698;1270
t777;12968;1297
t778;12737;1274
t779;12487;1249
t780;12301;1230
t781;12096;1210
t782;12080;1208
t783;12139;1214
t784;12375;1238
t785;12557;1256
t786;13205;1321
t787;13570;1357
t788;13359;1336
t789;12804;1280
t790;12305;1231
t791;12082;1208
t792;11460;1146
t793;10907;1091
t794;10520;1052
t795;10121;1012
t796;9863;986
t797;9863;986
t798;10348;1035
t799;11724;1172
t800;12962;1296
t801;13074;1307
t802;12845;1285
t803;12755;1276
t804;12628;1263
t805;12422;1242
t806;12268;1227
t807;12170;1217
t808;12311;1231
t809;12522;1252
t810;13250;1325
t811;13555;1356
t812;13306;1331
t813;12608;1261
t814;12024;1202
t815;11992;1199
t816;11535;1154
t817;10975;1098
t818;10539;1054
t819;10090;1009
t820;9742;974
t821;9527;953
t822;9311;931
t823;9081;908
t824;9685;969
t825;10340;1034
t826;10758;1076
t827;10880;1088
t828;10719;1072
t829;10449;1045
t830;10142;1014
t831;10064;1006
t832;10287;1029
t833;10604;1060
t834;11523;1152
t835;12082;1208
t836;11738;1174
t837;11009;1101
t838;10727;1073
t839;10938;1094
t840;10530;1053
t841;10070;1007
t842;9616;962
t843;9241;924
t844;8879;888
t845;8647;865
t846;8332;833
t847;7810;781
t848;8064;806
t849;8580;858
t850;8965;897
t851;9083;908
t852;9272;927
t853;8991;899
t854;8672;867
t855;8645;865
t856;8907;891
t857;9284;928
t858;10258;1026
t859;11063;1106
t860;10901;1090
t861;10424;1042
t862;10277;1028
t863;10710;1071
t864;10338;1034
t865;9974;997
t866;9620;962
t867;9423;942
t868;9265;927
t869;9423;942
t870;10064;1006
t871;11674;1167
t872;12954;1295
t873;13150;1315
t874;12923;1292
t875;12675;1268
t876;12534;1253
t877;12469;1247
t878;12487;1249
t879;12569;1257
t880;12714;1271
t881;12847;1285
t882;13510;1351
t883;13934;1393
t884;13703;1370
t885;12993;1299
t886;12569;1257
t887;12417;1242
t888;11830;1183
t889;11374;1137
t890;10991;1099
t891;10625;1063
t892;10375;1038
t893;10326;1033
t894;10670;1067
t895;11936;1194
t896;13189;1319
t897;13394;1339
t898;13279;1328
t899;13306;1331
t900;13265;1327
t901;13019;1302
t902;13027;1303
t903;12997;1300
t904;12982;1298
t905;12817;1282
t906;13265;1327
t907;13498;1350
t908;13246;1325
t909;12483;1248
t910;11902;1190
t911;11664;1166
t912;11030;1103
t913;10348;1035
t914;9972;997
t915;9630;963
t916;9454;945
t917;9527;953
t918;10049;1005
t919;11355;1136
t920;12706;1271
t921;13138;1314
t922;13126;1313
t923;13013;1301
t924;12880;1288
t925;12688;1269
t926;12634;1263
t927;12643;1264
t928;12804;1280
t929;12946;1295
t930;13631;1363
t931;14143;1414
t932;13914;1391
t933;13310;1331
t934;12792;1279
t935;12536;1254
t936;11720;1172
t937;11128;1113
t938;10641;1064
t939;10283;1028
t940;10082;1008
t941;10031;1003
t942;10414;1041
t943;11707;1171
t944;12845;1285
t945;13058;1306
t946;12821;1282
t947;12587;1259
t948;12417;1242
t949;12272;1227
t950;12262;1226
t951;12047;1205
t952;11984;1198
t953;11922;1192
t954;12415;1242
t955;12907;1291
t956;12741;1274
t957;12139;1214
t958;11791;1179
t959;11724;1172
t960;11140;1114
t961;10625;1063
t962;10309;1031
t963;10131;1013
t964;10062;1006
t965;10187;1019
t966;10620;1062
t967;11865;1187
t968;13077;1308
t969;13377;1338
t970;13296;1330
t971;13236;1324
t972;13060;1306
t973;12780;1278
t974;12440;1244
t975;12276;1228
t976;12354;1235
t977;12518;1252
t978;13169;1317
t979;13774;1377
t980;13426;1343
t981;12708;1271
t982;12194;1219
t983;12182;1218
t984;11695;1170
t985;11134;1113
t986;10696;1070
t987;10219;1022
t988;9916;992
t989;9687;969
t990;9384;938
t991;9137;914
t992;9679;968
t993;10342;1034
t994;10782;1078
t995;10860;1086
t996;10725;1073
t997;10414;1041
t998;10019;1002
t999;9880;988
t1000;10064;1006
t1001;10375;1038
t1002;11214;1121
t1003;12145;1215
t1004;11822;1182
t1005;11114;1111
t1006;10827;1083
t1007;11061;1106
t1008;10651;1065
t1009;10199;1020
t1010;9671;967
t1011;9306;931
t1012;9006;901
t1013;8703;870
t1014;8461;846
t1015;8025;803
t1016;8115;812
t1017;8547;855
t1018;8989;899
t1019;9139;914
t1020;9266;927
t1021;9034;903
t1022;8608;861
t1023;8433;843
t1024;8559;856
t1025;8860;886
t1026;9757;976
t1027;10749;1075
t1028;10618;1062
t1029;10238;1024
t1030;10090;1009
t1031;10465;1047
t1032;10082;1008
t1033;9673;967
t1034;9487;949
t1035;9321;932
t1036;9177;918
t1037;9364;936
t1038;10002;1000
t1039;11638;1164
t1040;13038;1304
t1041;13375;1338
t1042;13482;1348
t1043;13558;1356
t1044;13684;1368
t1045;13662;1366
t1046;13574;1357
t1047;13490;1349
t1048;13402;1340
t1049;13306;1331
t1050;13682;1368
t1051;14135;1414
t1052;13875;1388
t1053;13126;1313
t1054;12456;1246
t1055;12074;1207
t1056;11273;1127
t1057;10670;1067
t1058;10315;1032
t1059;9996;1000
t1060;9873;987
t1061;9980;998
t1062;10371;1037
t1063;11584;1158
t1064;12706;1271
t1065;13048;1305
t1066;13273;1327
t1067;13420;1342
t1068;13494;1349
t1069;13234;1323
t1070;12943;1294
t1071;12649;1265
t1072;12432;1243
t1073;12196;1220
t1074;12415;1242
t1075;12524;1252
t1076;11838;1184
t1077;10719;1072
t1078;9771;977
t1079;9006;901
t1080;7917;792
t1081;6922;692
t1082;6331;633
t1083;5952;595
t1084;5878;588
t1085;6073;607
t1086;6531;653
t1087;7890;789
t1088;9085;909
t1089;9493;949
t1090;9558;956
t1091;9669;967
t1092;9695;970
t1093;9460;946
t1094;9335;934
t1095;9399;940
t1096;9519;952
t1097;9671;967
t1098;10172;1017
t1099;10846;1085
t1100;10837;1084
t1101;10191;1019
t1102;9906;991
t1103;9820;982
t1104;9233;923
t1105;8823;882
t1106;8686;869
t1107;8666;867
t1108;8883;888
t1109;9243;924
t1110;9808;981
t1111;11161;1116
t1112;12321;1232
t1113;12622;1262
t1114;12553;1255
t1115;12379;1238
t1116;12327;1233
t1117;12086;1209
t1118;11924;1192
t1119;11795;1180
t1120;11808;1181
t1121;11699;1170
t1122;12022;1202
t1123;12422;1242
t1124;11945;1195
t1125;10985;1099
t1126;10273;1027
t1127;9759;976
t1128;8690;869
t1129;7884;788
t1130;7415;742
t1131;7106;711
t1132;7075;708
t1133;7282;728
t1134;7757;776
t1135;9102;910
t1136;10451;1045
t1137;10983;1098
t1138;11097;1110
t1139;11275;1128
t1140;11343;1134
t1141;11165;1117
t1142;10977;1098
t1143;10884;1088
t1144;10903;1090
t1145;10934;1093
t1146;11523;1152
t1147;12043;1204
t1148;11736;1174
t1149;10966;1097
t1150;10477;1048
t1151;10272;1027
t1152;9573;957
t1153;8883;888
t1154;8412;841
t1155;8125;813
t1156;7931;793
t1157;7929;793
t1158;7706;771
t1159;7415;742
t1160;7835;784
t1161;8424;842
t1162;8793;879
t1163;8840;884
t1164;8768;877
t1165;8371;837
t1166;8017;802
t1167;7819;782
t1168;7679;768
t1169;7778;778
t1170;8297;830
t1171;8995;900
t1172;8627;863
t1173;7782;778
t1174;7276;728
t1175;7397;740
t1176;6812;681
t1177;6189;619
t1178;5647;565
t1179;5422;542
t1180;5405;541
t1181;5454;545
t1182;5381;538
t1183;5123;512
t1184;5367;537
t1185;5962;596
t1186;6545;655
t1187;6768;677
t1188;6832;683
t1189;6285;629
t1190;5716;572
t1191;5622;562
t1192;5880;588
t1193;6351;635
t1194;7442;744
t1195;8500;850
t1196;8602;860
t1197;8193;819
t1198;8023;802
t1199;8385;839
t1200;7906;791
t1201;7436;744
t1202;7100;710
t1203;6940;694
t1204;7076;708
t1205;7368;737
t1206;7952;795
t1207;9362;936
t1208;10530;1053
t1209;11042;1104
t1210;11050;1105
t1211;10923;1092
t1212;10907;1091
t1213;10596;1060
t1214;10428;1043
t1215;10316;1032
t1216;10416;1042
t1217;10616;1062
t1218;11149;1115
t1219;11912;1191
t1220;11537;1154
t1221;10604;1060
t1222;9916;992
t1223;9497;950
t1224;8680;868
t1225;7880;788
t1226;7309;731
t1227;6967;697
t1228;6842;684
t1229;6953;695
t1230;7311;731
t1231;8306;831
t1232;9253;925
t1233;9513;951
t1234;9415;942
t1235;9294;929
t1236;9325;933
t1237;9243;924
t1238;9200;920
t1239;9368;937
t1240;9673;967
t1241;9943;994
t1242;10602;1060
t1243;11541;1154
t1244;11427;1143
t1245;10676;1068
t1246;10107;1011
t1247;9765;977
t1248;8942;894
t1249;8310;831
t1250;7952;795
t1251;7737;774
t1252;7757;776
t1253;8007;801
t1254;8400;840
t1255;9701;970
t1256;10706;1071
t1257;10841;1084
t1258;10555;1056
t1259;10371;1037
t1260;10070;1007
t1261;9487;949
t1262;9245;925
t1263;9268;927
t1264;9556;956
t1265;9851;985
t1266;10410;1041
t1267;11083;1108
t1268;10575;1058
t1269;9413;941
t1270;8518;852
t1271;7927;793
t1272;6832;683
t1273;6013;601
t1274;5755;576
t1275;5510;551
t1276;5530;553
t1277;5735;574
t1278;6371;637
t1279;7712;771
t1280;9046;905
t1281;9601;960
t1282;9806;981
t1283;10041;1004
t1284;10244;1024
t1285;10225;1023
t1286;10289;1029
t1287;10295;1030
t1288;10346;1035
t1289;10338;1034
t1290;10848;1085
t1291;11296;1130
t1292;10923;1092
t1293;9939;994
t1294;9212;921
t1295;8647;865
t1296;7511;751
t1297;6572;657
t1298;6007;601
t1299;5676;568
t1300;5764;576
t1301;5993;599
t1302;6689;669
t1303;8082;808
t1304;9188;919
t1305;9611;961
t1306;9497;950
t1307;9454;945
t1308;9405;941
t1309;9092;909
t1310;8873;887
t1311;8682;868
t1312;8733;873
t1313;8737;874
t1314;9263;926
t1315;9824;982
t1316;9556;956
t1317;8652;865
t1318;8040;804
t1319;7755;776
t1320;6988;699
t1321;6060;606
t1322;5692;569
t1323;5575;558
t1324;5594;559
t1325;5690;569
t1326;5628;563
t1327;5635;564
t1328;6193;619
t1329;6789;679
t1330;7094;709
t1331;7143;714
t1332;6961;696
t1333;6369;637
t1334;6015;602
t1335;5901;590
t1336;6073;607
t1337;6421;642
t1338;7069;707
t1339;8179;818
t1340;8123;812
t1341;7299;730
t1342;7078;708
t1343;7266;727
t1344;6812;681
t1345;6200;620
t1346;5819;582
t1347;5657;566
t1348;5665;567
t1349;5829;583
t1350;5798;580
t1351;5590;559
t1352;5905;591
t1353;6717;672
t1354;7391;739
t1355;7767;777
t1356;8213;821
t1357;8064;806
t1358;7583;758
t1359;7262;726
t1360;7315;732
t1361;7630;763
t1362;8459;846
t1363;9736;974
t1364;10023;1002
t1365;9554;955
t1366;9288;929
t1367;9530;953
t1368;8971;897
t1369;8486;849
t1370;8209;821
t1371;8111;811
t1372;8168;817
t1373;8461;846
t1374;9182;918
t1375;10819;1082
t1376;11816;1182
t1377;12070;1207
t1378;11881;1188
t1379;11765;1177
t1380;11666;1167
t1381;11441;1144
t1382;11353;1135
t1383;11288;1129
t1384;11341;1134
t1385;11327;1133
t1386;11730;1173
t1387;12331;1233
t1388;12084;1208
t1389;11249;1125
t1390;10504;1050
t1391;9957;996
t1392;8975;898
t1393;8203;820
t1394;7763;776
t1395;7536;754
t1396;7554;755
t1397;7837;784
t1398;8449;845
t1399;9826;983
t1400;10811;1081
t1401;11073;1107
t1402;10923;1092
t1403;10837;1084
t1404;10729;1073
t1405;10403;1040
t1406;10174;1017
t1407;10015;1002
t1408;9798;980
t1409;9693;969
t1410;10123;1012
t1411;10684;1068
t1412;10530;1053
t1413;9826;983
t1414;9284;928
t1415;8930;893
t1416;8074;807
t1417;7544;754
t1418;7196;720
t1419;7178;718
t1420;7460;746
t1421;7984;798
t1422;8793;879
t1423;10424;1042
t1424;11570;1157
t1425;12022;1202
t1426;12061;1206
t1427;12131;1213
t1428;12229;1223
t1429;11939;1194
t1430;11803;1180
t1431;11660;1166
t1432;11654;1165
t1433;11634;1163
t1434;11963;1196
t1435;12726;1273
t1436;12747;1275
t1437;11910;1191
t1438;11224;1122
t1439;10653;1065
t1440;9699;970
t1441;9456;946
t1442;8956;896
t1443;8723;872
t1444;8856;886
t1445;9139;914
t1446;9806;981
t1447;11380;1138
t1448;12503;1250
t1449;12845;1285
t1450;12741;1274
t1451;12639;1264
t1452;12585;1259
t1453;12329;1233
t1454;12117;1212
t1455;11891;1189
t1456;11928;1193
t1457;11916;1192
t1458;12460;1246
t1459;13467;1347
t1460;13486;1349
t1461;12585;1259
t1462;11806;1181
t1463;11218;1122
t1464;10146;1015
t1465;9368;937
t1466;8870;887
t1467;8649;865
t1468;8809;881
t1469;9104;910
t1470;9726;973
t1471;11402;1140
t1472;12665;1267
t1473;13093;1309
t1474;13032;1303
t1475;13052;1305
t1476;13032;1303
t1477;12778;1278
t1478;12518;1252
t1479;12223;1222
t1480;12158;1216
t1481;12276;1228
t1482;12714;1271
t1483;13492;1349
t1484;13295;1330
t1485;12309;1231
t1486;11519;1152
t1487;10942;1094
t1488;9982;998
t1489;9135;914
t1490;8582;858
t1491;8238;824
t1492;8093;809
t1493;8130;813
t1494;8031;803
t1495;7992;799
t1496;8502;850
t1497;9182;918
t1498;9626;963
t1499;9609;961
t1500;9493;949
t1501;9261;926
t1502;8965;897
t1503;8611;861
t1504;8688;869
t1505;8899;890
t1506;9530;953
t1507;10541;1054
t1508;10453;1045
t1509;9726;973
t1510;9233;923
t1511;9169;917
t1512;8518;852
t1513;7800;780
t1514;7176;718
t1515;6943;694
t1516;7016;702
t1517;7149;715
t1518;7075;708
t1519;6889;689
t1520;7164;716
t1521;7970;797
t1522;8631;863
t1523;8973;897
t1524;9292;929
t1525;8977;898
t1526;8512;851
t1527;8236;824
t1528;8261;826
t1529;8437;844
t1530;9030;903
t1531;10068;1007
t1532;9978;998
t1533;9333;933
t1534;8891;889
t1535;8840;884
t1536;7952;795
t1537;7145;715
t1538;6734;673
t1539;6584;658
t1540;6693;669
t1541;7067;707
t1542;7890;789
t1543;9826;983
t1544;11187;1119
t1545;11730;1173
t1546;11765;1177
t1547;11832;1183
t1548;11939;1194
t1549;11863;1186
t1550;11877;1188
t1551;11851;1185
t1552;11924;1192
t1553;11912;1191
t1554;12219;1222
t1555;13058;1306
t1556;13103;1310
t1557;12258;1226
t1558;11593;1159
t1559;11013;1101
t1560;10017;1002
t1561;9353;935
t1562;8975;898
t1563;8838;884
t1564;8985;899
t1565;9263;926
t1566;9912;991
t1567;11486;1149
t1568;12434;1243
t1569;12581;1258
t1570;12155;1216
t1571;11851;1185
t1572;11746;1175
t1573;11570;1157
t1574;11627;1163
t1575;11808;1181
t1576;12029;1203
t1577;12164;1216
t1578;12573;1257
t1579;13289;1329
t1580;13347;1335
t1581;12487;1249
t1582;11679;1168
t1583;11163;1116
t1584;10164;1016
t1585;9462;946
t1586;9081;908
t1587;9010;901
t1588;9188;919
t1589;9462;946
t1590;10096;1010
t1591;11421;1142
t1592;12164;1216
t1593;12164;1216
t1594;11806;1181
t1595;11611;1161
t1596;11593;1159
t1597;11329;1133
t1598;11312;1131
t1599;11439;1144
t1600;11605;1161
t1601;11674;1167
t1602;12125;1213
t1603;12761;1276
t1604;12647;1265
t1605;11779;1178
t1606;11093;1109
t1607;10737;1074
t1608;9841;984
t1609;9102;910
t1610;8588;859
t1611;8281;828
t1612;8347;835
t1613;8709;871
t1614;9485;949
t1615;10985;1099
t1616;11932;1193
t1617;12061;1206
t1618;11730;1173
t1619;11595;1160
t1620;11406;1141
t1621;10927;1093
t1622;10758;1076
t1623;10602;1060
t1624;10643;1064
t1625;10913;1091
t1626;11726;1173
t1627;12778;1278
t1628;13093;1309
t1629;12309;1231
t1630;11611;1161
t1631;11106;1111
t1632;10199;1020
t1633;9595;960
t1634;9218;922
t1635;9092;909
t1636;9245;925
t1637;9528;953
t1638;10058;1006
t1639;11329;1133
t1640;12129;1213
t1641;12178;1218
t1642;11726;1173
t1643;11355;1136
t1644;11069;1107
t1645;10713;1071
t1646;10391;1039
t1647;10144;1014
t1648;10244;1024
t1649;10625;1063
t1650;11322;1132
t1651;12203;1220
t1652;12250;1225
t1653;11157;1116
t1654;10283;1028
t1655;9789;979
t1656;8920;892
t1657;8185;819
t1658;7599;760
t1659;7249;725
t1660;7209;721
t1661;7276;728
t1662;7239;724
t1663;7206;721
t1664;7616;762
t1665;8156;816
t1666;8494;849
t1667;8475;848
t1668;8437;844
t1669;8203;820
t1670;7978;798
t1671;7618;762
t1672;7636;764
t1673;7872;787
t1674;8492;849
t1675;9415;942
t1676;9396;940
t1677;8512;851
t1678;7958;796
t1679;7644;764
t1680;6940;694
t1681;6116;612
t1682;5391;539
t1683;5103;510
t1684;5125;513
t1685;5238;524
t1686;5221;522
t1687;5023;502
t1688;5528;553
t1689;6404;640
t1690;7145;715
t1691;7546;755
t1692;8013;801
t1693;7929;793
t1694;7593;759
t1695;7557;756
t1696;7618;762
t1697;7784;778
t1698;8451;845
t1699;9396;940
t1700;9648;965
t1701;9077;908
t1702;8776;878
t1703;8748;875
t1704;7931;793
t1705;7141;714
t1706;6750;675
t1707;6562;656
t1708;6560;656
t1709;6900;690
t1710;7698;770
t1711;9403;940
t1712;10606;1061
t1713;11118;1112
t1714;11040;1104
t1715;11124;1112
t1716;11124;1112
t1717;10985;1099
t1718;10932;1093
t1719;10760;1076
t1720;10661;1066
t1721;10668;1067
t1722;11085;1109
t1723;11932;1193
t1724;12268;1227
t1725;11488;1149
t1726;10815;1082
t1727;10283;1028
t1728;9188;919
t1729;8516;852
t1730;8113;811
t1731;7980;798
t1732;8214;821
t1733;8625;863
t1734;9333;933
t1735;10876;1088
t1736;11988;1199
t1737;12440;1244
t1738;12325;1233
t1739;12358;1236
t1740;12387;1239
t1741;12084;1208
t1742;11889;1189
t1743;11638;1164
t1744;11476;1148
t1745;11449;1145
t1746;11810;1181
t1747;12520;1252
t1748;12770;1277
t1749;11914;1191
t1750;11161;1116
t1751;10547;1055
t1752;9485;949
t1753;8709;871
t1754;8246;825
t1755;8089;809
t1756;8203;820
t1757;8609;861
t1758;9321;932
t1759;10751;1075
t1760;11894;1189
t1761;12422;1242
t1762;12389;1239
t1763;12286;1229
t1764;12219;1222
t1765;11949;1195
t1766;11806;1181
t1767;11601;1160
t1768;11644;1164
t1769;11765;1177
t1770;12389;1239
t1771;13293;1329
t1772;13760;1376
t1773;12970;1297
t1774;12250;1225
t1775;11627;1163
t1776;10541;1054
t1777;9728;973
t1778;9354;935
t1779;9225;923
t1780;9454;945
t1781;9791;979
t1782;10455;1046
t1783;11830;1183
t1784;12655;1266
t1785;12677;1268
t1786;12176;1218
t1787;11781;1178
t1788;11580;1158
t1789;11218;1122
t1790;11075;1108
t1791;11050;1105
t1792;11149;1115
t1793;11505;1151
t1794;12209;1221
t1795;13171;1317
t1796;13813;1381
t1797;12952;1295
t1798;12008;1201
t1799;11128;1113
t1800;9978;998
t1801;9067;907
t1802;8651;865
t1803;8494;849
t1804;8604;860
t1805;8905;891
t1806;9550;955
t1807;10799;1080
t1808;11529;1153
t1809;11449;1145
t1810;11218;1122
t1811;11095;1110
t1812;10921;1092
t1813;10659;1066
t1814;10316;1032
t1815;10060;1006
t1816;10137;1014
t1817;10620;1062
t1818;11408;1141
t1819;12256;1226
t1820;12767;1277
t1821;11789;1179
t1822;10903;1090
t1823;10301;1030
t1824;9413;941
t1825;8668;867
t1826;8175;818
t1827;7857;786
t1828;7804;780
t1829;7843;784
t1830;7761;776
t1831;7600;760
t1832;8005;801
t1833;8465;847
t1834;8641;864
t1835;8578;858
t1836;8521;852
t1837;8281;828
t1838;8074;807
t1839;8123;812
t1840;8396;840
t1841;8903;890
t1842;9654;965
t1843;10553;1055
t1844;10801;1080
t1845;9949;995
t1846;9417;942
t1847;9163;916
t1848;8453;845
t1849;7786;779
t1850;7315;732
t1851;7084;708
t1852;6988;699
t1853;6990;699
t1854;6924;692
t1855;6595;660
t1856;6856;686
t1857;7364;736
t1858;7874;787
t1859;8093;809
t1860;8246;825
t1861;7659;766
t1862;7227;723
t1863;6951;695
t1864;6852;685
t1865;7057;706
t1866;7612;761
t1867;8652;865
t1868;9094;909
t1869;8476;848
t1870;8095;810
t1871;7765;777
t1872;7010;701
t1873;6396;640
t1874;6083;608
t1875;6077;608
t1876;6433;643
t1877;7073;707
t1878;8025;803
t1879;9744;974
t1880;10848;1085
t1881;10801;1080
t1882;10342;1034
t1883;10332;1033
t1884;10404;1040
t1885;10111;1011
t1886;9974;997
t1887;9961;996
t1888;10123;1012
t1889;10311;1031
t1890;10997;1100
t1891;12067;1207
t1892;12761;1276
t1893;11914;1191
t1894;11005;1101
t1895;10305;1031
t1896;9192;919
t1897;8533;853
t1898;8164;816
t1899;8042;804
t1900;8078;808
t1901;8324;832
t1902;9008;901
t1903;10199;1020
t1904;11093;1109
t1905;11110;1111
t1906;10547;1055
t1907;10133;1013
t1908;9912;991
t1909;9628;963
t1910;9572;957
t1911;9681;968
t1912;10096;1010
t1913;10510;1051
t1914;11243;1124
t1915;12217;1222
t1916;12876;1288
t1917;12078;1208
t1918;11251;1125
t1919;10565;1057
t1920;9616;962
t1921;8793;879
t1922;8416;842
t1923;8261;826
t1924;8461;846
t1925;8926;893
t1926;9714;971
t1927;11106;1111
t1928;11961;1196
t1929;11881;1188
t1930;11398;1140
t1931;11171;1117
t1932;11116;1112
t1933;10831;1083
t1934;10835;1084
t1935;10768;1077
t1936;10889;1089
t1937;11038;1104
t1938;11713;1171
t1939;12602;1260
t1940;13377;1338
t1941;12634;1263
t1942;11791;1179
t1943;11116;1112
t1944;10092;1009
t1945;9249;925
t1946;8809;881
t1947;8672;867
t1948;8860;886
t1949;9212;921
t1950;9982;998
t1951;11316;1132
t1952;12121;1212
t1953;12004;1200
t1954;11419;1142
t1955;11204;1120
t1956;11196;1120
t1957;10927;1093
t1958;10848;1085
t1959;10809;1081
t1960;10997;1100
t1961;11228;1123
t1962;11879;1188
t1963;12681;1268
t1964;13404;1340
t1965;12634;1263
t1966;11783;1178
t1967;10981;1098
t1968;9867;987
t1969;9208;921
t1970;8864;886
t1971;8750;875
t1972;8926;893
t1973;9274;927
t1974;10053;1005
t1975;11343;1134
t1976;12123;1212
t1977;12043;1204
t1978;11498;1150
t1979;11208;1121
t1980;11095;1110
t1981;10809;1081
t1982;10651;1065
t1983;10553;1055
t1984;10725;1073
t1985;11036;1104
t1986;11621;1162
t1987;12235;1224
t1988;12892;1289
t1989;12080;1208
t1990;11253;1125
t1991;10588;1059
t1992;9681;968
t1993;8940;894
t1994;8535;854
t1995;8318;832
t1996;8340;834
t1997;8473;847
t1998;8559;856
t1999;8531;853
t2000;9042;904
t2001;9331;933
t2002;9306;931
t2003;9114;911
t2004;8981;898
t2005;8629;863
t2006;8238;824
t2007;8134;813
t2008;8324;832
t2009;8703;870
t2010;9347;935
t2011;10111;1011
t2012;10698;1070
t2013;9916;992
t2014;9261;926
t2015;8975;898
t2016;8236;824
t2017;7526;753
t2018;7092;709
t2019;6899;690
t2020;6877;688
t2021;6920;692
t2022;6801;680
t2023;6818;682
t2024;7327;733
t2025;7786;779
t2026;7837;784
t2027;7780;778
t2028;7233;723
t2029;6511;651
t2030;5964;596
t2031;5784;578
t2032;5942;594
t2033;6703;670
t2034;7765;777
t2035;8760;876
t2036;9607;961
t2037;9243;924
t2038;9071;907
t2039;8295;830
t2040;7720;772
t2041;7499;750
t2042;7505;751
t2043;7798;780
t2044;8277;828
t2045;9178;918
t2046;11134;1113
t2047;12223;1222
t2048;12565;1257
t2049;12260;1226
t2050;11928;1193
t2051;11505;1151
t2052;10940;1094
t2053;10487;1049
t2054;10109;1011
t2055;9878;988
t2056;9765;977
t2057;10170;1017
t2058;10934;1093
t2059;11783;1178
t2060;12397;1240
t2061;11627;1163
t2062;10663;1066
t2063;9439;944
t2064;8590;859
t2065;8060;806
t2066;7806;781
t2067;7855;786
t2068;8082;808
t2069;8787;879
t2070;10428;1043
t2071;11419;1142
t2072;11734;1173
t2073;11554;1155
t2074;11312;1131
t2075;11063;1106
t2076;10483;1048
t2077;10090;1009
t2078;9665;967
t2079;9448;945
t2080;9370;937
t2081;9697;970
t2082;10455;1046
t2083;11292;1129
t2084;11887;1189
t2085;11095;1110
t2086;10146;1015
t2087;9026;903
t2088;8345;835
t2089;7988;799
t2090;7733;773
t2091;7771;777
t2092;8125;813
t2093;8924;892
t2094;10514;1051
t2095;11443;1144
t2096;11717;1172
t2097;11515;1152
t2098;11148;1115
t2099;10670;1067
t2100;9974;997
t2101;9288;929
t2102;8660;866
t2103;8058;806
t2104;7714;771
t2105;7966;797
t2106;8625;863
t2107;9407;941
t2108;9970;997
t2109;9202;920
t2110;8408;841
t2111;7329;733
t2112;6423;642
t2113;5929;593
t2114;5596;560
t2115;5555;556
t2116;5948;595
t2117;6852;685
t2118;8559;856
t2119;9806;981
t2120;10107;1011
t2121;9769;977
t2122;9394;939
t2123;9233;923
t2124;8811;881
t2125;8486;849
t2126;8126;813
t2127;8095;810
t2128;8040;804
t2129;8187;819
t2130;8473;847
t2131;8817;882
t2132;9032;903
t2133;8480;848
t2134;7849;785
t2135;6973;697
t2136;6216;622
t2137;5807;581
t2138;5704;570
t2139;6003;600
t2140;6445;645
t2141;7221;722
t2142;8956;896
t2143;10139;1014
t2144;10553;1055
t2145;10469;1047
t2146;10389;1039
t2147;10174;1017
t2148;9659;966
t2149;9018;902
t2150;8449;845
t2151;7995;800
t2152;7786;779
t2153;7845;785
t2154;8064;806
t2155;8512;851
t2156;8783;878
t2157;8146;815
t2158;7552;755
t2159;6611;661
t2160;5532;553
t2161;4900;490
t2162;4400;440
t2163;4327;433
t2164;4370;437
t2165;4472;447
t2166;4648;465
t2167;5205;521
t2168;5954;595
t2169;6531;653
t2170;6746;675
t2171;6783;678
t2172;6275;628
t2173;5755;576
t2174;5307;531
t2175;5191;519
t2176;5324;532
t2177;6062;606
t2178;6949;695
t2179;7808;781
t2180;8533;853
t2181;8551;855
t2182;8461;846
t2183;7988;799
t2184;6466;647
t2185;6103;610
t2186;5919;592
t2187;5852;585
t2188;5917;592
t2189;6015;602
t2190;6116;612
t2191;6439;644
t2192;6971;697
t2193;6996;700
t2194;6582;658
t2195;6286;629
t2196;5747;575
t2197;5047;505
t2198;4550;455
t2199;4388;439
t2200;4644;464
t2201;5264;526
t2202;6179;618
t2203;7092;709
t2204;7906;791
t2205;7683;768
t2206;7491;749
t2207;6736;674
t2208;6197;620
t2209;5936;594
t2210;5888;589
t2211;5981;598
t2212;6412;641
t2213;7174;717
t2214;8604;860
t2215;9890;989
t2216;10729;1073
t2217;10747;1075
t2218;10461;1046
t2219;10260;1026
t2220;9849;985
t2221;9566;957
t2222;9274;927
t2223;9042;904
t2224;8963;896
t2225;9284;928
t2226;9912;991
t2227;10559;1056
t2228;10946;1095
t2229;10426;1043
t2230;9695;970
t2231;8686;869
t2232;7951;795
t2233;7528;753
t2234;7368;737
t2235;7469;747
t2236;7780;778
t2237;8302;830
t2238;9456;946
t2239;10504;1050
t2240;11298;1130
t2241;11408;1141
t2242;11204;1120
t2243;11026;1103
t2244;10246;1025
t2245;9777;978
t2246;9394;939
t2247;9370;937
t2248;9356;936
t2249;9620;962
t2250;10037;1004
t2251;10451;1045
t2252;10803;1080
t2253;10209;1021
t2254;9425;943
t2255;8344;834
t2256;7610;761
t2257;7274;727
t2258;7053;705
t2259;7080;708
t2260;7401;740
t2261;8064;806
t2262;9460;946
t2263;10618;1062
t2264;11140;1114
t2265;11126;1113
t2266;11142;1114
t2267;11157;1116
t2268;10770;1077
t2269;10444;1044
t2270;10277;1028
t2271;10080;1008
t2272;9965;997
t2273;10176;1018
t2274;10582;1058
t2275;11036;1104
t2276;11306;1131
t2277;10837;1084
t2278;10144;1014
t2279;9075;908
t2280;8351;835
t2281;7995;800
t2282;7855;786
t2283;7958;796
t2284;8213;821
t2285;8758;876
t2286;10111;1011
t2287;11089;1109
t2288;11681;1168
t2289;11715;1172
t2290;11687;1169
t2291;11617;1162
t2292;11282;1128
t2293;11007;1101
t2294;10623;1062
t2295;10448;1045
t2296;10273;1027
t2297;10403;1040
t2298;10668;1067
t2299;10966;1097
t2300;11054;1105
t2301;10498;1050
t2302;9834;983
t2303;8944;894
t2304;8134;813
t2305;7600;760
t2306;7354;735
t2307;7350;735
t2308;7401;740
t2309;7428;743
t2310;7305;731
t2311;7509;751
t2312;8070;807
t2313;8390;839
t2314;8578;858
t2315;8746;875
t2316;8500;850
t2317;7819;782
t2318;7286;729
t2319;6930;693
t2320;6834;683
t2321;7137;714
t2322;7765;777
t2323;8302;830
t2324;8774;877
t2325;8492;849
t2326;8101;810
t2327;7229;723
t2328;6433;643
t2329;5964;596
t2330;5639;564
t2331;5614;561
t2332;5766;577
t2333;5911;591
t2334;6095;610
t2335;6504;650
t2336;7016;702
t2337;7243;724
t2338;7057;706
t2339;6830;683
t2340;6574;657
t2341;6179;618
t2342;5714;571
t2343;5596;560
t2344;5479;548
t2345;5870;587
t2346;6437;644
t2347;6985;699
t2348;7544;754
t2349;7413;741
t2350;7335;734
t2351;6724;672
t2352;6202;620
t2353;5757;576
t2354;5606;561
t2355;5620;562
t2356;5852;585
t2357;6005;601
t2358;6050;605
t2359;6373;637
t2360;7008;701
t2361;7245;725
t2362;6854;685
t2363;6533;653
t2364;6281;628
t2365;5729;573
t2366;5303;530
t2367;5004;500
t2368;4865;487
t2369;5324;532
t2370;5854;585
t2371;6418;642
t2372;7076;708
t2373;7028;703
t2374;6732;673
t2375;6077;608
t2376;5338;534
t2377;4869;487
t2378;4558;456
t2379;4507;451
t2380;4730;473
t2381;4875;488
t2382;4869;487
t2383;5199;520
t2384;5802;580
t2385;6367;637
t2386;6752;675
t2387;6988;699
t2388;6578;658
t2389;5940;594
t2390;5674;567
t2391;5604;560
t2392;5733;573
t2393;6064;606
t2394;6758;676
t2395;7249;725
t2396;7591;759
t2397;7505;751
t2398;7419;742
t2399;6726;673
t2400;6085;609
t2401;5631;563
t2402;5403;540
t2403;5483;548
t2404;5735;574
t2405;6292;629
t2406;7597;760
t2407;8740;874
t2408;9577;958
t2409;9802;980
t2410;9843;984
t2411;9845;985
t2412;9218;922
t2413;8733;873
t2414;8551;855
t2415;8514;851
t2416;8688;869
t2417;9112;911
t2418;9912;991
t2419;10520;1052
t2420;10899;1090
t2421;10586;1059
t2422;9992;999
t2423;8975;898
t2424;8201;820
t2425;7720;772
t2426;7542;754
t2427;7653;765
t2428;8087;809
t2429;8866;887
t2430;10195;1020
t2431;11142;1114
t2432;11695;1170
t2433;11795;1180
t2434;11898;1190
t2435;11832;1183
t2436;11421;1142
t2437;11196;1120
t2438;10919;1092
t2439;10725;1073
t2440;10604;1060
t2441;10618;1062
t2442;10909;1091
t2443;11239;1124
t2444;11382;1138
t2445;11046;1105
t2446;10383;1038
t2447;9403;940
t2448;8641;864
t2449;8216;822
t2450;7943;794
t2451;7890;789
t2452;8209;821
t2453;8846;885
t2454;9855;986
t2455;10749;1075
t2456;11202;1120
t2457;10899;1090
t2458;10670;1067
t2459;10418;1042
t2460;9927;993
t2461;9654;965
t2462;9354;935
t2463;9137;914
t2464;9016;902
t2465;9071;907
t2466;9417;942
t2467;9867;987
t2468;10238;1024
t2469;10045;1005
t2470;9401;940
t2471;8385;839
t2472;7556;756
t2473;7049;705
t2474;6771;677
t2475;6848;685
t2476;7118;712
t2477;7847;785
t2478;9124;912
t2479;10160;1016
t2480;10711;1071
t2481;10753;1075
t2482;10663;1066
t2483;10508;1051
t2484;10088;1009
t2485;9906;991
t2486;9630;963
t2487;9325;933
t2488;9306;931
t2489;9566;957
t2490;9978;998
t2491;10375;1038
t2492;10704;1070
t2493;10496;1050
t2494;9982;998
t2495;9094;909
t2496;8250;825
t2497;7841;784
t2498;7700;770
t2499;7741;774
t2500;7962;796
t2501;8113;811
t2502;8383;838
t2503;9040;904
t2504;9747;975
t2505;10019;1002
t2506;9906;991
t2507;9615;962
t2508;9059;906
t2509;8793;879
t2510;8471;847
t2511;8471;847
t2512;8502;850
t2513;8827;883
t2514;9214;921
t2515;9476;948
t2516;9751;975
t2517;9480;948
t2518;9028;903
t2519;8261;826
t2520;7485;749
t2521;6981;698
t2522;6768;677
t2523;6801;680
t2524;6940;694
t2525;7084;708
t2526;7104;710
t2527;7499;750
t2528;8044;804
t2529;8381;838
t2530;8664;866
t2531;8860;886
t2532;8516;852
t2533;7864;786
t2534;7395;740
t2535;7202;720
t2536;7190;719
t2537;7448;745
t2538;7898;790
t2539;8301;830
t2540;8717;872
t2541;8697;870
t2542;8543;854
t2543;7819;782
t2544;7225;723
t2545;6897;690
t2546;6846;685
t2547;6992;699
t2548;7321;732
t2549;8040;804
t2550;9515;952
t2551;10551;1055
t2552;11191;1119
t2553;11149;1115
t2554;10925;1093
t2555;10917;1092
t2556;10543;1054
t2557;10232;1023
t2558;9908;991
t2559;9685;969
t2560;9620;962
t2561;9658;966
t2562;9963;996
t2563;10316;1032
t2564;10711;1071
t2565;10776;1078
t2566;10201;1020
t2567;9206;921
t2568;8455;846
t2569;8080;808
t2570;7894;789
t2571;8062;806
t2572;8320;832
t2573;8864;886
t2574;10041;1004
t2575;10995;1100
t2576;11398;1140
t2577;11149;1115
t2578;10555;1056
t2579;10338;1034
t2580;9959;996
t2581;9695;970
t2582;9210;921
t2583;8991;899
t2584;8827;883
t2585;9114;911
t2586;9628;963
t2587;10272;1027
t2588;10784;1078
t2589;10760;1076
t2590;10105;1011
t2591;8971;897
t2592;8132;813
t2593;7600;760
t2594;7358;736
t2595;7520;752
t2596;7868;787
t2597;8705;871
t2598;10229;1023
t2599;11322;1132
t2600;11806;1181
t2601;11658;1166
t2602;11503;1150
t2603;11386;1139
t2604;10866;1087
t2605;10631;1063
t2606;10344;1034
t2607;10154;1015
t2608;10039;1004
t2609;10078;1008
t2610;10428;1043
t2611;10731;1073
t2612;10973;1097
t2613;10811;1081
t2614;9982;998
t2615;8778;878
t2616;7894;789
t2617;7505;751
t2618;7241;724
t2619;7434;743
t2620;7757;776
t2621;8467;847
t2622;9816;982
t2623;11054;1105
t2624;11558;1156
t2625;11408;1141
t2626;11181;1118
t2627;10846;1085
t2628;10285;1029
t2629;9865;987
t2630;9738;974
t2631;9693;969
t2632;9755;976
t2633;9980;998
t2634;10438;1044
t2635;10954;1095
t2636;11167;1117
t2637;10956;1096
t2638;10172;1017
t2639;9110;911
t2640;8322;832
t2641;7823;782
t2642;7722;772
t2643;7900;790
t2644;8283;828
t2645;9020;902
t2646;10455;1046
t2647;11589;1159
t2648;12063;1206
t2649;11824;1182
t2650;11760;1176
t2651;11568;1157
t2652;11169;1117
t2653;10768;1077
t2654;10371;1037
t2655;10129;1013
t2656;9984;998
t2657;10117;1012
t2658;10438;1044
t2659;10723;1072
t2660;10825;1083
t2661;10754;1075
t2662;10037;1004
t2663;8997;900
t2664;8211;821
t2665;7773;777
t2666;7554;755
t2667;7599;760
t2668;7737;774
t2669;7888;789
t2670;8058;806
t2671;8703;870
t2672;9231;923
t2673;9347;935
t2674;9313;931
t2675;8959;896
t2676;8394;839
t2677;7886;789
t2678;7540;754
t2679;7450;745
t2680;7536;754
t2681;8050;805
t2682;8600;860
t2683;9040;904
t2684;9090;909
t2685;8866;887
t2686;8428;843
t2687;7597;760
t2688;6926;693
t2689;6437;644
t2690;6298;630
t2691;6374;637
t2692;6474;647
t2693;6416;642
t2694;6189;619
t2695;6617;662
t2696;7264;726
t2697;7675;768
t2698;7647;765
t2699;7659;766
t2700;7282;728
t2701;6662;666
t2702;6214;621
t2703;6279;628
t2704;6191;619
t2705;6472;647
t2706;7235;724
t2707;7761;776
t2708;8142;814
t2709;8332;833
t2710;8085;809
t2711;7276;728
t2712;6685;669
t2713;6337;634
t2714;6304;630
t2715;6445;645
t2716;6824;682
t2717;7638;764
t2718;8991;899
t2719;10225;1023
t2720;10870;1087
t2721;10839;1084
t2722;10553;1055
t2723;10283;1028
t2724;9642;964
t2725;9329;933
t2726;8901;890
t2727;8846;885
t2728;8695;870
t2729;8989;899
t2730;9427;943
t2731;9857;986
t2732;10158;1016
t2733;9865;987
t2734;9051;905
t2735;8003;800
t2736;7225;723
t2737;6816;682
t2738;6689;669
t2739;6738;674
t2740;7090;709
t2741;7786;779
t2742;9071;907
t2743;10232;1023
t2744;11038;1104
t2745;11103;1110
t2746;11099;1110
t2747;11110;1111
t2748;10459;1046
t2749;10137;1014
t2750;9734;973
t2751;9564;956
t2752;9464;946
t2753;9611;961
t2754;9855;986
t2755;10189;1019
t2756;10303;1030
t2757;10246;1025
t2758;9558;956
t2759;8611;861
t2760;7874;787
t2761;7405;741
t2762;7266;727
t2763;7337;734
t2764;7614;761
t2765;8156;816
t2766;9177;918
t2767;10133;1013
t2768;10622;1062
t2769;10358;1036
t2770;9896;990
t2771;9562;956
t2772;9002;900
t2773;8746;875
t2774;8658;866
t2775;8695;870
t2776;8686;869
t2777;8969;897
t2778;9468;947
t2779;9965;997
t2780;10258;1026
t2781;10148;1015
t2782;9380;938
t2783;8363;836
t2784;7436;744
t2785;6916;692
t2786;6660;666
t2787;6578;658
t2788;6848;685
t2789;7612;761
t2790;9018;902
t2791;10232;1023
t2792;10682;1068
t2793;10535;1054
t2794;10369;1037
t2795;10152;1015
t2796;9444;944
t2797;9053;905
t2798;8707;871
t2799;8609;861
t2800;8643;864
t2801;8866;887
t2802;9392;939
t2803;9953;995
t2804;10303;1030
t2805;10336;1034
t2806;9570;957
t2807;8606;861
t2808;7800;780
t2809;7317;732
t2810;7166;717
t2811;7260;726
t2812;7714;771
t2813;8389;839
t2814;9820;982
t2815;10993;1099
t2816;11359;1136
t2817;10993;1099
t2818;10788;1079
t2819;10586;1059
t2820;10250;1025
t2821;9747;975
t2822;9466;947
t2823;9446;945
t2824;9513;951
t2825;9873;987
t2826;10328;1033
t2827;10623;1062
t2828;10710;1071
t2829;10604;1060
t2830;9855;986
t2831;8838;884
t2832;8005;801
t2833;7436;744
t2834;7294;729
t2835;7247;725
t2836;7333;733
t2837;7563;756
t2838;7954;795
t2839;8496;850
t2840;8983;898
t2841;9102;910
t2842;8954;895
t2843;8459;846
t2844;7704;770
t2845;7024;702
t2846;6552;655
t2847;6400;640
t2848;6412;641
t2849;6758;676
t2850;7331;733
t2851;7751;775
t2852;7956;796
t2853;7980;798
t2854;7514;751
t2855;6707;671
t2856;5888;589
t2857;5434;543
t2858;5274;527
t2859;5180;518
t2860;5266;527
t2861;5491;549
t2862;5641;564
t2863;6214;621
t2864;6877;688
t2865;7329;733
t2866;7311;731
t2867;7235;724
t2868;6857;686
t2869;6042;604
t2870;5598;560
t2871;5508;551
t2872;5663;566
t2873;6144;614
t2874;6787;679
t2875;7274;727
t2876;7548;755
t2877;7733;773
t2878;7468;747
t2879;6648;665
t2880;6187;619
t2881;5827;583
t2882;5698;570
t2883;5807;581
t2884;6154;615
t2885;6611;661
t2886;7593;759
t2887;8676;868
t2888;9429;943
t2889;9396;940
t2890;9063;906
t2891;8783;878
t2892;8156;816
t2893;7593;759
t2894;7018;702
t2895;6740;674
t2896;6611;661
t2897;6746;675
t2898;7063;706
t2899;7507;751
t2900;7685;769
t2901;7778;778
t2902;7262;726
t2903;6550;655
t2904;5735;574
t2905;5399;540
t2906;5168;517
t2907;5117;512
t2908;5156;516
t2909;5148;515
t2910;5070;507
t2911;5440;544
t2912;6040;604
t2913;6107;611
t2914;5854;585
t2915;5643;564
t2916;5125;513
t2917;4452;445
t2918;4181;418
t2919;4124;412
t2920;4394;439
t2921;5090;509
t2922;5899;590
t2923;6615;662
t2924;7049;705
t2925;7338;734
t2926;6981;698
t2927;6267;627
t2928;5802;580
t2929;5561;556
t2930;5545;555
t2931;5669;567
t2932;5964;596
t2933;6811;681
t2934;8717;872
t2935;10070;1007
t2936;10631;1063
t2937;10428;1043
t2938;10197;1020
t2939;9927;993
t2940;9308;931
t2941;8883;888
t2942;8623;862
t2943;8426;843
t2944;8332;833
t2945;8600;860
t2946;9132;913
t2947;9566;957
t2948;9728;973
t2949;9521;952
t2950;8803;880
t2951;7929;793
t2952;7319;732
t2953;7137;714
t2954;7018;702
t2955;7119;712
t2956;7405;741
t2957;8103;810
t2958;9634;963
t2959;10788;1079
t2960;11101;1110
t2961;10811;1081
t2962;10594;1059
t2963;10492;1049
t2964;10090;1009
t2965;9779;978
t2966;9632;963
t2967;9505;951
t2968;9319;932
t2969;9575;958
t2970;9910;991
t2971;10330;1033
t2972;10432;1043
t2973;10408;1041
t2974;9577;958
t2975;8516;852
t2976;7821;782
t2977;7401;740
t2978;7182;718
t2979;7164;716
t2980;7479;748
t2981;8199;820
t2982;9570;957
t2983;10606;1061
t2984;10925;1093
t2985;10502;1050
t2986;9949;995
t2987;9552;955
t2988;8977;898
t2989;8600;860
t2990;8365;837
t2991;8324;832
t2992;8332;833
t2993;8823;882
t2994;9399;940
t2995;9802;980
t2996;9937;994
t2997;9884;988
t2998;9122;912
t2999;8031;803
t3000;7266;727
t3001;6885;689
t3002;6683;668
t3003;6711;671
t3004;6789;679
t3005;6873;687
t3006;7110;711
t3007;7780;778
t3008;8402;840
t3009;8674;867
t3010;8774;877
t3011;8645;865
t3012;8285;829
t3013;7808;781
t3014;7491;749
t3015;7305;731
t3016;7337;734
t3017;7575;758
t3018;7898;790
t3019;8117;812
t3020;8027;803
t3021;8027;803
t3022;7728;773
t3023;7049;705
t3024;6474;647
t3025;6017;602
t3026;5802;580
t3027;5762;576
t3028;5866;587
t3029;5872;587
t3030;5864;586
t3031;6273;627
t3032;6812;681
t3033;7131;713
t3034;7376;738
t3035;7851;785
t3036;7657;766
t3037;7252;725
t3038;6848;685
t3039;6762;676
t3040;6797;680
t3041;7266;727
t3042;7780;778
t3043;8044;804
t3044;8080;808
t3045;8295;830
t3046;8177;818
t3047;7487;749
t3048;6969;697
t3049;6609;661
t3050;6539;654
t3051;6717;672
t3052;7112;711
t3053;7919;792
t3054;9683;968
t3055;10891;1089
t3056;11343;1134
t3057;11120;1112
t3058;11030;1103
t3059;10975;1098
t3060;10694;1069
t3061;10410;1041
t3062;10074;1007
t3063;9890;989
t3064;9648;965
t3065;9779;978
t3066;10107;1011
t3067;10389;1039
t3068;10375;1038
t3069;10430;1043
t3070;9620;962
t3071;8471;847
t3072;7733;773
t3073;7331;733
t3074;7125;713
t3075;7088;709
t3076;7207;721
t3077;7761;776
t3078;9018;902
t3079;10121;1012
t3080;10371;1037
t3081;10178;1018
t3082;9634;963
t3083;9208;921
t3084;8606;861
t3085;8363;836
t3086;8353;835
t3087;8543;854
t3088;8631;863
t3089;9010;901
t3090;9464;946
t3091;9927;993
t3092;9965;997
t3093;9898;990
t3094;8920;892
t3095;7704;770
t3096;6883;688
t3097;6502;650
t3098;6304;630
t3099;6369;637
t3100;6666;667
t3101;7346;735
t3102;8873;887
t3103;10189;1019
t3104;10715;1072
t3105;10545;1055
t3106;10414;1041
t3107;10299;1030
t3108;9791;979
t3109;9597;960
t3110;9245;925
t3111;9190;919
t3112;9157;916
t3113;9478;948
t3114;9965;997
t3115;10324;1032
t3116;10397;1040
t3117;10391;1039
t3118;9699;970
t3119;8396;840
t3120;7460;746
t3121;7012;701
t3122;6844;684
t3123;6906;691
t3124;7094;709
t3125;7702;770
t3126;9077;908
t3127;10129;1013
t3128;10481;1048
t3129;10066;1007
t3130;9575;958
t3131;9210;921
t3132;8547;855
t3133;8130;813
t3134;8050;805
t3135;8136;814
t3136;8154;815
t3137;8676;868
t3138;9135;914
t3139;9507;951
t3140;9392;939
t3141;9165;917
t3142;8220;822
t3143;7049;705
t3144;6324;632
t3145;5845;585
t3146;5641;564
t3147;5751;575
t3148;6091;609
t3149;6795;680
t3150;8275;828
t3151;9415;942
t3152;9804;980
t3153;9476;948
t3154;9137;914
t3155;8717;872
t3156;7984;798
t3157;7468;747
t3158;7145;715
t3159;7162;716
t3160;7274;727
t3161;7810;781
t3162;8318;832
t3163;8584;858
t3164;8500;850
t3165;8455;846
t3166;7853;785
t3167;6988;699
t3168;6414;641
t3169;6050;605
t3170;5743;574
t3171;5655;566
t3172;5628;563
t3173;5616;562
t3174;5862;586
t3175;6447;645
t3176;6820;682
t3177;6756;676
t3178;6541;654
t3179;6296;630
t3180;5821;582
t3181;5141;514
t3182;4693;469
t3183;4460;446
t3184;4433;443
t3185;4840;484
t3186;5397;540
t3187;5911;591
t3188;6181;618
t3189;6752;675
t3190;6820;682
t3191;6271;627
t3192;5633;563
t3193;5307;531
t3194;5213;521
t3195;5278;528
t3196;5403;540
t3197;5328;533
t3198;5367;537
t3199;5819;582
t3200;6214;621
t3201;6187;619
t3202;6232;623
t3203;6509;651
t3204;6126;613
t3205;5506;551
t3206;5205;521
t3207;5135;514
t3208;5289;529
t3209;5929;593
t3210;6812;681
t3211;7491;749
t3212;7898;790
t3213;8254;825
t3214;8318;832
t3215;7477;748
t3216;6781;678
t3217;6349;635
t3218;6144;614
t3219;6214;621
t3220;6617;662
t3221;7247;725
t3222;8860;886
t3223;9920;992
t3224;10154;1015
t3225;9499;950
t3226;8920;892
t3227;8604;860
t3228;8130;813
t3229;7919;792
t3230;7773;777
t3231;7794;779
t3232;7951;795
t3233;8412;841
t3234;9126;913
t3235;9738;974
t3236;9988;999
t3237;10051;1005
t3238;9243;924
t3239;7923;792
t3240;7123;712
t3241;6662;666
t3242;6474;647
t3243;6595;660
t3244;6889;689
t3245;7489;749
t3246;8954;895
t3247;10111;1011
t3248;10496;1050
t3249;10178;1018
t3250;9890;989
t3251;9767;977
t3252;9421;942
t3253;9288;929
t3254;9079;908
t3255;8965;897
t3256;8985;899
t3257;9190;919
t3258;9552;955
t3259;9970;997
t3260;9978;998
t3261;9961;996
t3262;9286;929
t3263;8160;816
t3264;7315;732
t3265;6791;679
t3266;6580;658
t3267;6685;669
t3268;6875;688
t3269;7383;738
t3270;8652;865
t3271;9636;964
t3272;9791;979
t3273;9562;956
t3274;9296;930
t3275;9145;915
t3276;8422;842
t3277;7876;788
t3278;7469;747
t3279;7055;706
t3280;6730;673
t3281;6879;688
t3282;7292;729
t3283;7831;783
t3284;8181;818
t3285;8490;849
t3286;8187;819
t3287;7174;717
t3288;6416;642
t3289;6038;604
t3290;5848;585
t3291;5856;586
t3292;5848;585
t3293;5436;544
t3294;5270;527
t3295;5557;556
t3296;5764;576
t3297;5467;547
t3298;5168;517
t3299;5328;533
t3300;5016;502
t3301;4646;465
t3302;4329;433
t3303;4306;431
t3304;4515;452
t3305;5190;519
t3306;6099;610
t3307;6885;689
t3308;7346;735
t3309;7767;777
t3310;7644;764
t3311;6883;688
t3312;6071;607
t3313;5622;562
t3314;5428;543
t3315;5395;540
t3316;5571;557
t3317;5893;589
t3318;6863;686
t3319;7767;777
t3320;8256;826
t3321;8009;801
t3322;7493;749
t3323;7247;725
t3324;6895;690
t3325;6341;634
t3326;6034;603
t3327;6134;613
t3328;6349;635
t3329;6975;698
t3330;7573;757
t3331;8056;806
t3332;8144;814
t3333;8181;818
t3334;7829;783
t3335;7002;700
t3336;6371;637
t3337;6024;602
t3338;5935;594
t3339;5911;591
t3340;6066;607
t3341;6159;616
t3342;6554;655
t3343;7164;716
t3344;7767;777
t3345;7855;786
t3346;7565;757
t3347;7225;723
t3348;6691;669
t3349;6214;621
t3350;5923;592
t3351;6003;600
t3352;6214;621
t3353;6748;675
t3354;7376;738
t3355;7747;775
t3356;7696;770
t3357;7683;768
t3358;7378;738
t3359;6728;673
t3360;6050;605
