t;Dt;Rt
t1;1469;147
t2;1377;138
t3;1279;128
t4;1204;120
t5;1152;115
t6;1090;109
t7;982;98
t8;982;98
t9;986;99
t10;1027;103
t11;1108;111
t12;1239;124
t13;1286;129
t14;1294;129
t15;1309;131
t16;1357;136
t17;1500;150
t18;1674;167
t19;1718;172
t20;1657;166
t21;1524;152
t22;1416;142
t23;1306;131
t24;1096;110
t25;916;92
t26;792;79
t27;752;75
t28;774;77
t29;891;89
t30;1130;113
t31;1467;147
t32;1841;184
t33;2085;209
t34;2202;220
t35;2309;231
t36;2369;237
t37;2377;238
t38;2336;234
t39;2301;230
t40;2290;229
t41;2337;234
t42;2439;244
t43;2402;240
t44;2306;231
t45;2090;209
t46;1961;196
t47;1875;188
t48;1633;163
t49;1511;151
t50;1391;139
t51;1338;134
t52;1347;135
t53;1353;135
t54;1416;142
t55;1582;158
t56;1768;177
t57;1847;185
t58;1809;181
t59;1754;175
t60;1716;172
t61;1687;169
t62;1668;167
t63;1666;167
t64;1716;172
t65;1802;180
t66;1917;192
t67;1893;189
t68;1824;182
t69;1638;164
t70;1522;152
t71;1455;146
t72;1268;127
t73;1116;112
t74;1030;103
t75;1024;102
t76;1066;107
t77;1140;114
t78;1260;126
t79;1483;148
t80;1746;175
t81;1858;186
t82;1865;187
t83;1844;184
t84;1845;185
t85;1811;181
t86;1789;179
t87;1772;177
t88;1785;179
t89;1871;187
t90;2034;203
t91;2007;201
t92;1911;191
t93;1714;171
t94;1552;155
t95;1468;147
t96;1281;128
t97;1120;112
t98;1041;104
t99;992;99
t100;990;99
t101;1046;105
t102;1132;113
t103;1357;136
t104;1652;165
t105;1838;184
t106;1919;192
t107;1967;197
t108;2021;202
t109;2029;203
t110;2003;200
t111;1969;197
t112;1941;194
t113;1973;197
t114;2066;207
t115;2025;203
t116;1888;189
t117;1721;172
t118;1578;158
t119;1515;152
t120;1334;133
t121;1196;120
t122;1101;110
t123;1076;108
t124;1110;111
t125;1183;118
t126;1280;128
t127;1443;144
t128;1689;169
t129;1857;186
t130;1956;196
t131;2034;203
t132;2097;210
t133;2086;209
t134;2040;204
t135;2002;200
t136;2032;203
t137;2154;215
t138;2350;235
t139;2355;236
t140;2238;224
t141;2055;206
t142;1920;192
t143;1834;183
t144;1657;166
t145;1486;149
t146;1341;134
t147;1257;126
t148;1226;123
t149;1235;124
t150;1205;121
t151;1164;116
t152;1253;125
t153;1414;141
t154;1525;153
t155;1614;161
t156;1669;167
t157;1631;163
t158;1591;159
t159;1549;155
t160;1571;157
t161;1663;166
t162;1840;184
t163;1846;185
t164;1769;177
t165;1610;161
t166;1514;151
t167;1528;153
t168;1377;138
