i;PMax;PMin;MUT;MDT;Kvar;Kfix;K_Warmstart;K_Coldstart;Beta;Prioritšt;SZInit;BZInit;uInit;MarginalCosts
i1;455;150;8;8;16,19;3428,5;4500;9000;14;1;0;8;1;18,3898021978022
i2;455;150;8;8;17,26;3559;5000;10000;14;4;0;8;1;19,3948681318681
i3;130;20;5;5;16,6;1032;550;1100;10;10;5;0;0;21,9886153846154
i4;130;20;5;5;16,5;1010;560;1120;10;7;5;0;0;21,7357692307692
i5;162;25;6;6;19,7;942,5;900;1800;11;13;6;0;0;22,4837777777778
i6;80;20;3;3;22,26;815,2;170;340;6;16;3;0;0;26,892
i7;85;25;3;3;27,74;1173,5;260;520;6;19;3;0;0;33,3950588235294
i8;55;10;1;1;25,92;919,2;30;60;2;22;1;0;0;37,929
i9;55;10;1;1;27,27;937,7;30;60;2;25;1;0;0;39,3709090909091
i10;55;10;1;1;27,79;947,9;30;60;2;28;1;0;0;39,9828181818182
i11;455;150;8;8;16,19;3428,5;4500;9000;14;2;0;8;1;18,3998021978022
i12;455;150;8;8;17,26;3559;5000;10000;14;5;0;8;1;19,4048681318681
i13;130;20;5;5;16,6;1032;550;1100;10;11;5;0;0;21,9986153846154
i14;130;20;5;5;16,5;1010;560;1120;10;8;5;0;0;21,7457692307692
i15;162;25;6;6;19,7;942,5;900;1800;11;14;6;0;0;22,4937777777778
i16;80;20;3;3;22,26;815,2;170;340;6;17;3;0;0;26,902
i17;85;25;3;3;27,74;1173,5;260;520;6;20;3;0;0;33,4050588235294
i18;55;10;1;1;25,92;919,2;30;60;2;23;1;0;0;37,939
i19;55;10;1;1;27,27;937,7;30;60;2;26;1;0;0;39,3809090909091
i20;55;10;1;1;27,79;947,9;30;60;2;29;1;0;0;39,9928181818182
i21;455;150;8;8;16,19;3428,5;4500;9000;14;3;0;8;1;18,4098021978022
i22;455;150;8;8;17,26;3559;5000;10000;14;6;0;8;1;19,4148681318681
i23;130;20;5;5;16,6;1032;550;1100;10;12;5;0;0;22,0086153846154
i24;130;20;5;5;16,5;1010;560;1120;10;9;5;0;0;21,7557692307692
i25;162;25;6;6;19,7;942,5;900;1800;11;15;6;0;0;22,5037777777778
i26;80;20;3;3;22,26;815,2;170;340;6;18;3;0;0;26,912
i27;85;25;3;3;27,74;1173,5;260;520;6;21;3;0;0;33,4150588235294
i28;55;10;1;1;25,92;919,2;30;60;2;24;1;0;0;37,949
i29;55;10;1;1;27,27;937,7;30;60;2;27;1;0;0;39,3909090909091
i30;55;10;1;1;27,79;947,9;30;60;2;30;1;0;0;40,0028181818182
