j;P_Turb;P_Pump;Eta_Turb;Eta_Pump;E_Max;E_Min;E_ini;E_fin;K_Pump;K_Turb
PSW1;127;63;0,92;0,85;889;64;318;318;10;11
PSW2;190;95;0,94;0,9;1330;95;475;475;10,5;11,5
PSW3;63;32;0,89;0,8;441;32;158;158;9,5;10
