t;Dt;Rt
t1;2204;220
t2;2066;207
t3;1919;192
t4;1806;181
t5;1728;173
t6;1635;164
t7;1473;147
t8;1473;147
t9;1479;148
t10;1540;154
t11;1662;166
t12;1858;186
t13;1929;193
t14;1942;194
t15;1963;196
t16;2036;204
t17;2250;225
t18;2511;251
t19;2576;258
t20;2486;249
t21;2285;229
t22;2124;212
t23;1959;196
t24;1644;164
t25;1373;137
t26;1188;119
t27;1128;113
t28;1161;116
t29;1337;134
t30;1695;170
t31;2201;220
t32;2762;276
t33;3128;313
t34;3303;330
t35;3463;346
t36;3554;355
t37;3565;357
t38;3504;350
t39;3451;345
t40;3435;344
t41;3506;351
t42;3659;366
t43;3603;360
t44;3459;346
t45;3134;313
t46;2941;294
t47;2813;281
t48;2450;245
t49;2267;227
t50;2086;209
t51;2007;201
t52;2020;202
t53;2030;203
t54;2125;213
t55;2373;237
t56;2651;265
t57;2771;277
t58;2714;271
t59;2631;263
t60;2574;257
t61;2530;253
t62;2502;250
t63;2499;250
t64;2574;257
t65;2703;270
t66;2876;288
t67;2840;284
t68;2737;274
t69;2457;246
t70;2283;228
t71;2182;218
t72;1902;190
t73;1674;167
t74;1545;155
t75;1536;154
t76;1599;160
t77;1709;171
t78;1889;189
t79;2224;222
t80;2619;262
t81;2786;279
t82;2798;280
t83;2765;277
t84;2767;277
t85;2717;272
t86;2684;268
t87;2659;266
t88;2678;268
t89;2806;281
t90;3052;305
t91;3011;301
t92;2866;287
t93;2571;257
t94;2328;233
t95;2202;220
t96;1921;192
t97;1680;168
t98;1562;156
t99;1488;149
t100;1485;149
t101;1569;157
t102;1698;170
t103;2036;204
t104;2478;248
t105;2756;276
t106;2878;288
t107;2951;295
t108;3032;303
t109;3044;304
t110;3005;301
t111;2953;295
t112;2912;291
t113;2959;296
t114;3098;310
t115;3037;304
t116;2833;283
t117;2582;258
t118;2368;237
t119;2273;227
t120;2002;200
t121;1793;179
t122;1652;165
t123;1614;161
t124;1665;167
t125;1774;177
t126;1920;192
t127;2164;216
t128;2533;253
t129;2786;279
t130;2934;293
t131;3051;305
t132;3145;315
t133;3130;313
t134;3060;306
t135;3003;300
t136;3047;305
t137;3231;323
t138;3524;352
t139;3533;353
t140;3357;336
t141;3082;308
t142;2880;288
t143;2751;275
t144;2486;249
t145;2230;223
t146;2011;201
t147;1886;189
t148;1839;184
t149;1852;185
t150;1807;181
t151;1746;175
t152;1879;188
t153;2121;212
t154;2288;229
t155;2421;242
t156;2504;250
t157;2446;245
t158;2387;239
t159;2323;232
t160;2357;236
t161;2495;250
t162;2761;276
t163;2769;277
t164;2653;265
t165;2415;242
t166;2271;227
t167;2292;229
t168;2065;207
t169;1833;183
t170;1663;166
t171;1612;161
t172;1604;160
t173;1665;167
t174;1676;168
t175;1596;160
t176;1712;171
t177;1897;190
t178;2147;215
t179;2327;233
t180;2503;250
t181;2502;250
t182;2420;242
t183;2412;241
t184;2450;245
t185;2606;261
t186;2946;295
t187;3043;304
t188;2998;300
t189;2864;286
t190;2804;280
t191;2857;286
t192;2668;267
t193;2497;250
t194;2368;237
t195;2323;232
t196;2361;236
t197;2486;249
t198;2758;276
t199;3369;337
t200;3889;389
t201;4092;409
t202;4082;408
t203;4127;413
t204;4157;416
t205;4108;411
t206;4052;405
t207;3991;399
t208;3948;395
t209;3902;390
t210;3988;399
t211;3903;390
t212;3727;373
t213;3409;341
t214;3096;310
t215;2819;282
t216;2439;244
t217;2138;214
t218;1962;196
t219;1917;192
t220;1972;197
t221;2128;213
t222;2399;240
t223;2985;299
t224;3480;348
t225;3650;365
t226;3676;368
t227;3741;374
t228;3756;376
t229;3726;373
t230;3699;370
t231;3690;369
t232;3858;386
t233;3950;395
t234;4147;415
t235;4136;414
t236;3995;400
t237;3717;372
t238;3484;348
t239;3285;329
t240;2956;296
t241;2678;268
t242;2519;252
t243;2456;246
t244;2426;243
t245;2458;246
t246;2621;262
t247;3106;311
t248;3598;360
t249;3716;372
t250;3606;361
t251;3581;358
t252;3598;360
t253;3571;357
t254;3598;360
t255;3638;364
t256;3692;369
t257;3749;375
t258;3960;396
t259;3964;396
t260;3875;388
t261;3622;362
t262;3385;339
t263;3159;316
t264;2789;279
t265;2502;250
t266;2321;232
t267;2193;219
t268;2151;215
t269;2147;215
t270;2293;229
t271;2710;271
t272;3104;310
t273;3203;320
t274;3082;308
t275;3034;303
t276;3020;302
t277;2963;296
t278;2929;293
t279;2910;291
t280;2943;294
t281;3018;302
t282;3243;324
t283;3252;325
t284;3185;319
t285;2918;292
t286;2740;274
t287;2600;260
t288;2301;230
t289;2070;207
t290;1925;193
t291;1881;188
t292;1898;190
t293;1983;198
t294;2156;216
t295;2603;260
t296;3074;307
t297;3221;322
t298;3113;311
t299;3070;307
t300;3041;304
t301;3004;300
t302;2929;293
t303;2938;294
t304;3001;300
t305;3100;310
t306;3358;336
t307;3334;333
t308;3170;317
t309;2877;288
t310;2675;268
t311;2579;258
t312;2376;238
t313;2185;219
t314;2059;206
t315;1995;200
t316;2010;201
t317;2061;206
t318;2077;208
t319;2098;210
t320;2359;236
t321;2630;263
t322;2825;283
t323;2891;289
t324;2872;287
t325;2757;276
t326;2627;263
t327;2599;260
t328;2735;274
t329;2931;293
t330;3263;326
t331;3297;330
t332;3198;320
t333;2982;298
t334;2889;289
t335;2924;292
t336;2762;276
t337;2588;259
t338;2433;243
t339;2379;238
t340;2335;234
t341;2323;232
t342;2285;229
t343;2199;220
t344;2304;230
t345;2503;250
t346;2658;266
t347;2763;276
t348;2857;286
t349;2792;279
t350;2654;265
t351;2632;263
t352;2719;272
t353;2936;294
t354;3346;335
t355;3459;346
t356;3394;339
t357;3253;325
t358;3170;317
t359;3217;322
t360;3025;303
t361;2857;286
t362;2755;276
t363;2691;269
t364;2705;271
t365;2800;280
t366;3013;301
t367;3573;357
t368;4058;406
t369;4166;417
t370;4056;406
t371;3975;398
t372;3910;391
t373;3835;384
t374;3813;381
t375;3839;384
t376;3922;392
t377;4037;404
t378;4301;430
t379;4299;430
t380;4189;419
t381;3931;393
t382;3729;373
t383;3577;358
t384;3281;328
t385;3040;304
t386;2867;287
t387;2771;277
t388;2764;276
t389;2833;283
t390;3024;302
t391;3547;355
t392;4035;404
t393;4157;416
t394;4080;408
t395;4038;404
t396;4012;401
t397;3912;391
t398;3873;387
t399;3886;389
t400;3960;396
t401;4066;407
t402;4351;435
t403;4368;437
t404;4254;425
t405;4017;402
t406;3805;381
t407;3650;365
t408;3369;337
t409;3131;313
t410;2972;297
t411;2878;288
t412;2877;288
t413;2911;291
t414;3085;309
t415;3534;353
t416;3938;394
t417;3956;396
t418;3763;376
t419;3678;368
t420;3615;362
t421;3540;354
t422;3514;351
t423;3509;351
t424;3557;356
t425;3605;361
t426;3791;379
t427;3701;370
t428;3489;349
t429;3193;319
t430;2961;296
t431;2825;283
t432;2583;258
t433;2336;234
t434;2247;225
t435;2258;226
t436;2348;235
t437;2471;247
t438;2684;268
t439;3224;322
t440;3697;370
t441;3832;383
t442;3815;382
t443;3846;385
t444;3902;390
t445;3892;389
t446;3846;385
t447;3757;376
t448;3683;368
t449;3611;361
t450;3613;361
t451;3472;347
t452;3273;327
t453;2970;297
t454;2782;278
t455;2712;271
t456;2473;247
t457;2297;230
t458;2178;218
t459;2147;215
t460;2185;219
t461;2263;226
t462;2434;243
t463;2948;295
t464;3440;344
t465;3546;355
t466;3498;350
t467;3462;346
t468;3472;347
t469;3458;346
t470;3422;342
t471;3448;345
t472;3535;354
t473;3656;366
t474;3927;393
t475;3918;392
t476;3741;374
t477;3446;345
t478;3254;325
t479;3157;316
t480;2932;293
t481;2728;273
t482;2592;259
t483;2517;252
t484;2483;248
t485;2443;244
t486;2373;237
t487;2342;234
t488;2504;250
t489;2695;270
t490;2795;280
t491;2853;285
t492;2820;282
t493;2646;265
t494;2457;246
t495;2359;236
t496;2346;235
t497;2395;240
t498;2694;269
t499;2776;278
t500;2640;264
t501;2376;238
t502;2188;219
t503;2115;212
t504;1904;190
t505;1705;171
t506;1522;152
t507;1420;142
t508;1346;135
t509;1312;131
t510;1278;128
t511;1178;118
t512;1275;128
t513;1460;146
t514;1676;168
t515;1864;186
t516;2088;209
t517;2093;209
t518;2069;207
t519;2043;204
t520;2104;210
t521;2227;223
t522;2557;256
t523;2731;273
t524;2728;273
t525;2591;259
t526;2511;251
t527;2558;256
t528;2312;231
t529;2155;216
t530;2085;209
t531;2142;214
t532;2238;224
t533;2382;238
t534;2666;267
t535;3263;326
t536;3812;381
t537;3947;395
t538;3937;394
t539;3944;394
t540;3979;398
t541;3938;394
t542;3941;394
t543;3911;391
t544;3900;390
t545;3914;391
t546;4140;414
t547;4172;417
t548;4076;408
t549;3817;382
t550;3605;361
t551;3466;347
t552;3164;316
t553;2949;295
t554;2836;284
t555;2769;277
t556;2795;280
t557;2866;287
t558;3056;306
t559;3553;355
t560;4015;402
t561;4134;413
t562;4090;409
t563;4103;410
t564;4136;414
t565;4090;409
t566;4089;409
t567;4079;408
t568;4110;411
t569;4108;411
t570;4324;432
t571;4373;437
t572;4277;428
t573;4026;403
t574;3819;382
t575;3653;365
t576;3372;337
t577;3173;317
t578;3040;304
t579;2956;296
t580;2962;296
t581;3037;304
t582;3215;322
t583;3696;370
t584;4121;412
t585;4199;420
t586;4124;412
t587;4077;408
t588;4024;402
t589;3969;397
t590;3937;394
t591;3907;391
t592;3931;393
t593;3973;397
t594;4200;420
t595;4256;426
t596;4128;413
t597;3876;388
t598;3645;365
t599;3491;349
t600;3185;319
t601;2951;295
t602;2817;282
t603;2718;272
t604;2712;271
t605;2747;275
t606;2898;290
t607;3311;331
t608;3715;372
t609;3775;378
t610;3688;369
t611;3633;363
t612;3580;358
t613;3482;348
t614;3446;345
t615;3472;347
t616;3524;352
t617;3564;356
t618;3765;377
t619;3764;376
t620;3640;364
t621;3374;337
t622;3185;319
t623;3108;311
t624;2896;290
t625;2677;268
t626;2556;256
t627;2518;252
t628;2559;256
t629;2661;266
t630;2849;285
t631;3315;332
t632;3788;379
t633;3977;398
t634;3955;396
t635;3998;400
t636;4034;403
t637;4007;401
t638;3918;392
t639;3865;387
t640;3869;387
t641;3897;390
t642;4105;411
t643;4129;413
t644;4000;400
t645;3737;374
t646;3551;355
t647;3460;346
t648;3240;324
t649;3039;304
t650;2903;290
t651;2809;281
t652;2791;279
t653;2782;278
t654;2721;272
t655;2705;271
t656;2902;290
t657;3143;314
t658;3353;335
t659;3442;344
t660;3473;347
t661;3409;341
t662;3287;329
t663;3223;322
t664;3205;321
t665;3242;324
t666;3511;351
t667;3576;358
t668;3438;344
t669;3213;321
t670;3075;308
t671;3084;308
t672;2938;294
t673;2762;276
t674;2596;260
t675;2511;251
t676;2458;246
t677;2414;241
t678;2346;235
t679;2222;222
t680;2314;231
t681;2532;253
t682;2734;273
t683;2904;290
t684;3054;305
t685;3014;301
t686;2866;287
t687;2770;277
t688;2728;273
t689;2742;274
t690;3007;301
t691;3132;313
t692;3050;305
t693;2888;289
t694;2833;283
t695;2895;290
t696;2728;273
t697;2557;256
t698;2426;243
t699;2329;233
t700;2320;232
t701;2383;238
t702;2578;258
t703;3079;308
t704;3577;358
t705;3729;373
t706;3747;375
t707;3771;377
t708;3805;381
t709;3767;377
t710;3711;371
t711;3653;365
t712;3639;364
t713;3594;359
t714;3914;391
t715;3818;382
t716;3720;372
t717;3499;350
t718;3328;333
t719;3235;324
t720;2962;296
t721;2789;279
t722;2658;266
t723;2598;260
t724;2595;260
t725;2632;263
t726;2779;278
t727;3207;321
t728;3640;364
t729;3725;373
t730;3677;368
t731;3630;363
t732;3611;361
t733;3553;355
t734;3511;351
t735;3480;348
t736;3483;348
t737;3506;351
t738;3734;373
t739;3853;385
t740;3771;377
t741;3594;359
t742;3437;344
t743;3342;334
t744;3118;312
t745;2712;271
t746;2615;262
t747;2549;255
t748;2550;255
t749;2586;259
t750;2727;273
t751;3128;313
t752;3518;352
t753;3587;359
t754;3516;352
t755;3434;343
t756;3370;337
t757;3265;327
t758;3188;319
t759;3140;314
t760;3185;319
t761;3243;324
t762;3498;350
t763;3648;365
t764;3549;355
t765;3340;334
t766;3189;319
t767;3091;309
t768;2957;296
t769;2883;288
t770;2798;280
t771;2738;274
t772;2718;272
t773;2762;276
t774;2941;294
t775;3364;336
t776;3809;381
t777;3890;389
t778;3821;382
t779;3746;375
t780;3690;369
t781;3629;363
t782;3624;362
t783;3642;364
t784;3713;371
t785;3767;377
t786;3961;396
t787;4071;407
t788;4008;401
t789;3841;384
t790;3692;369
t791;3625;363
t792;3438;344
t793;3272;327
t794;3156;316
t795;3036;304
t796;2959;296
t797;2959;296
t798;3104;310
t799;3517;352
t800;3889;389
t801;3922;392
t802;3853;385
t803;3826;383
t804;3788;379
t805;3727;373
t806;3680;368
t807;3651;365
t808;3693;369
t809;3757;376
t810;3975;398
t811;4066;407
t812;3992;399
t813;3782;378
t814;3607;361
t815;3598;360
t816;3460;346
t817;3293;329
t818;3162;316
t819;3027;303
t820;2922;292
t821;2858;286
t822;2793;279
t823;2724;272
t824;2905;291
t825;3102;310
t826;3228;323
t827;3264;326
t828;3216;322
t829;3135;314
t830;3043;304
t831;3019;302
t832;3086;309
t833;3181;318
t834;3457;346
t835;3625;363
t836;3521;352
t837;3303;330
t838;3218;322
t839;3281;328
t840;3159;316
t841;3021;302
t842;2885;289
t843;2772;277
t844;2664;266
t845;2594;259
t846;2500;250
t847;2343;234
t848;2419;242
t849;2574;257
t850;2690;269
t851;2725;273
t852;2782;278
t853;2697;270
t854;2602;260
t855;2593;259
t856;2672;267
t857;2785;279
t858;3077;308
t859;3319;332
t860;3270;327
t861;3127;313
t862;3083;308
t863;3213;321
t864;3101;310
t865;2992;299
t866;2886;289
t867;2827;283
t868;2779;278
t869;2827;283
t870;3019;302
t871;3502;350
t872;3886;389
t873;3945;395
t874;3877;388
t875;3802;380
t876;3760;376
t877;3741;374
t878;3746;375
t879;3771;377
t880;3814;381
t881;3854;385
t882;4053;405
t883;4180;418
t884;4111;411
t885;3898;390
t886;3771;377
t887;3725;373
t888;3549;355
t889;3412;341
t890;3297;330
t891;3188;319
t892;3113;311
t893;3098;310
t894;3201;320
t895;3581;358
t896;3957;396
t897;4018;402
t898;3984;398
t899;3992;399
t900;3980;398
t901;3906;391
t902;3908;391
t903;3899;390
t904;3894;389
t905;3845;385
t906;3980;398
t907;4049;405
t908;3974;397
t909;3745;375
t910;3571;357
t911;3499;350
t912;3309;331
t913;3104;310
t914;2992;299
t915;2889;289
t916;2836;284
t917;2858;286
t918;3015;302
t919;3406;341
t920;3812;381
t921;3941;394
t922;3938;394
t923;3904;390
t924;3864;386
t925;3807;381
t926;3790;379
t927;3793;379
t928;3841;384
t929;3884;388
t930;4089;409
t931;4243;424
t932;4174;417
t933;3993;399
t934;3838;384
t935;3761;376
t936;3516;352
t937;3338;334
t938;3192;319
t939;3085;309
t940;3025;303
t941;3009;301
t942;3124;312
t943;3512;351
t944;3853;385
t945;3917;392
t946;3846;385
t947;3776;378
t948;3725;373
t949;3682;368
t950;3679;368
t951;3614;361
t952;3595;360
t953;3577;358
t954;3724;372
t955;3872;387
t956;3822;382
t957;3642;364
t958;3537;354
t959;3517;352
t960;3342;334
t961;3188;319
t962;3093;309
t963;3039;304
t964;3019;302
t965;3056;306
t966;3186;319
t967;3560;356
t968;3923;392
t969;4013;401
t970;3989;399
t971;3971;397
t972;3918;392
t973;3834;383
t974;3732;373
t975;3683;368
t976;3706;371
t977;3755;376
t978;3951;395
t979;4132;413
t980;4028;403
t981;3812;381
t982;3658;366
t983;3655;366
t984;3509;351
t985;3340;334
t986;3209;321
t987;3066;307
t988;2975;298
t989;2906;291
t990;2815;282
t991;2741;274
t992;2904;290
t993;3103;310
t994;3235;324
t995;3258;326
t996;3218;322
t997;3124;312
t998;3006;301
t999;2964;296
t1000;3019;302
t1001;3113;311
t1002;3364;336
t1003;3643;364
t1004;3547;355
t1005;3334;333
t1006;3248;325
t1007;3318;332
t1008;3195;320
t1009;3060;306
t1010;2901;290
t1011;2792;279
t1012;2702;270
t1013;2611;261
t1014;2538;254
t1015;2407;241
t1016;2434;243
t1017;2564;256
t1018;2697;270
t1019;2742;274
t1020;2780;278
t1021;2710;271
t1022;2582;258
t1023;2530;253
t1024;2568;257
t1025;2658;266
t1026;2927;293
t1027;3225;323
t1028;3185;319
t1029;3071;307
t1030;3027;303
t1031;3140;314
t1032;3025;303
t1033;2902;290
t1034;2846;285
t1035;2796;280
t1036;2753;275
t1037;2809;281
t1038;3001;300
t1039;3491;349
t1040;3912;391
t1041;4012;401
t1042;4045;405
t1043;4068;407
t1044;4105;411
t1045;4099;410
t1046;4072;407
t1047;4047;405
t1048;4021;402
t1049;3992;399
t1050;4105;411
t1051;4241;424
t1052;4163;416
t1053;3938;394
t1054;3737;374
t1055;3622;362
t1056;3382;338
t1057;3201;320
t1058;3094;309
t1059;2999;300
t1060;2962;296
t1061;2994;299
t1062;3111;311
t1063;3475;348
t1064;3812;381
t1065;3914;391
t1066;3982;398
t1067;4026;403
t1068;4048;405
t1069;3970;397
t1070;3883;388
t1071;3795;380
t1072;3730;373
t1073;3659;366
t1074;3724;372
t1075;3757;376
t1076;3551;355
t1077;3216;322
t1078;2931;293
t1079;2702;270
t1080;2375;238
t1081;2077;208
t1082;1899;190
t1083;1786;179
t1084;1763;176
t1085;1822;182
t1086;1959;196
t1087;2367;237
t1088;2725;273
t1089;2848;285
t1090;2867;287
t1091;2901;290
t1092;2908;291
t1093;2838;284
t1094;2800;280
t1095;2820;282
t1096;2856;286
t1097;2901;290
t1098;3052;305
t1099;3254;325
t1100;3251;325
t1101;3057;306
t1102;2972;297
t1103;2946;295
t1104;2770;277
t1105;2647;265
t1106;2606;261
t1107;2600;260
t1108;2665;267
t1109;2773;277
t1110;2942;294
t1111;3348;335
t1112;3696;370
t1113;3787;379
t1114;3766;377
t1115;3714;371
t1116;3698;370
t1117;3626;363
t1118;3577;358
t1119;3538;354
t1120;3543;354
t1121;3510;351
t1122;3606;361
t1123;3727;373
t1124;3584;358
t1125;3296;330
t1126;3082;308
t1127;2928;293
t1128;2607;261
t1129;2365;237
t1130;2224;222
t1131;2132;213
t1132;2122;212
t1133;2185;219
t1134;2327;233
t1135;2731;273
t1136;3135;314
t1137;3295;330
t1138;3329;333
t1139;3382;338
t1140;3403;340
t1141;3350;335
t1142;3293;329
t1143;3265;327
t1144;3271;327
t1145;3280;328
t1146;3457;346
t1147;3613;361
t1148;3521;352
t1149;3290;329
t1150;3143;314
t1151;3081;308
t1152;2872;287
t1153;2665;267
t1154;2524;252
t1155;2437;244
t1156;2379;238
t1157;2379;238
t1158;2312;231
t1159;2224;222
t1160;2351;235
t1161;2527;253
t1162;2638;264
t1163;2652;265
t1164;2630;263
t1165;2511;251
t1166;2405;241
t1167;2346;235
t1168;2304;230
t1169;2334;233
t1170;2489;249
t1171;2698;270
t1172;2588;259
t1173;2335;234
t1174;2183;218
t1175;2219;222
t1176;2044;204
t1177;1857;186
t1178;1694;169
t1179;1627;163
t1180;1621;162
t1181;1636;164
t1182;1614;161
t1183;1537;154
t1184;1610;161
t1185;1789;179
t1186;1963;196
t1187;2030;203
t1188;2050;205
t1189;1885;189
t1190;1715;172
t1191;1687;169
t1192;1764;176
t1193;1905;191
t1194;2233;223
t1195;2550;255
t1196;2580;258
t1197;2458;246
t1198;2407;241
t1199;2515;252
t1200;2372;237
t1201;2231;223
t1202;2130;213
t1203;2082;208
t1204;2123;212
t1205;2210;221
t1206;2386;239
t1207;2809;281
t1208;3159;316
t1209;3313;331
t1210;3315;332
t1211;3277;328
t1212;3272;327
t1213;3179;318
t1214;3128;313
t1215;3095;310
t1216;3125;313
t1217;3185;319
t1218;3345;335
t1219;3574;357
t1220;3461;346
t1221;3181;318
t1222;2975;298
t1223;2849;285
t1224;2604;260
t1225;2364;236
t1226;2193;219
t1227;2090;209
t1228;2053;205
t1229;2086;209
t1230;2193;219
t1231;2492;249
t1232;2776;278
t1233;2854;285
t1234;2825;283
t1235;2788;279
t1236;2798;280
t1237;2773;277
t1238;2760;276
t1239;2810;281
t1240;2902;290
t1241;2983;298
t1242;3181;318
t1243;3462;346
t1244;3428;343
t1245;3203;320
t1246;3032;303
t1247;2930;293
t1248;2683;268
t1249;2493;249
t1250;2386;239
t1251;2321;232
t1252;2327;233
t1253;2402;240
t1254;2520;252
t1255;2910;291
t1256;3212;321
t1257;3252;325
t1258;3167;317
t1259;3111;311
t1260;3021;302
t1261;2846;285
t1262;2773;277
t1263;2781;278
t1264;2867;287
t1265;2955;296
t1266;3123;312
t1267;3325;333
t1268;3172;317
t1269;2824;282
t1270;2555;256
t1271;2378;238
t1272;2050;205
t1273;1804;180
t1274;1726;173
t1275;1653;165
t1276;1659;166
t1277;1721;172
t1278;1911;191
t1279;2314;231
t1280;2714;271
t1281;2880;288
t1282;2942;294
t1283;3012;301
t1284;3073;307
t1285;3067;307
t1286;3087;309
t1287;3088;309
t1288;3104;310
t1289;3101;310
t1290;3255;326
t1291;3389;339
t1292;3277;328
t1293;2982;298
t1294;2764;276
t1295;2594;259
t1296;2253;225
t1297;1972;197
t1298;1802;180
t1299;1703;170
t1300;1729;173
t1301;1798;180
t1302;2007;201
t1303;2424;242
t1304;2756;276
t1305;2883;288
t1306;2849;285
t1307;2836;284
t1308;2822;282
t1309;2728;273
t1310;2662;266
t1311;2605;261
t1312;2620;262
t1313;2621;262
t1314;2779;278
t1315;2947;295
t1316;2867;287
t1317;2596;260
t1318;2412;241
t1319;2326;233
t1320;2097;210
t1321;1818;182
t1322;1708;171
t1323;1672;167
t1324;1678;168
t1325;1707;171
t1326;1688;169
t1327;1691;169
t1328;1858;186
t1329;2037;204
t1330;2128;213
t1331;2143;214
t1332;2088;209
t1333;1911;191
t1334;1804;180
t1335;1770;177
t1336;1822;182
t1337;1926;193
t1338;2121;212
t1339;2454;245
t1340;2437;244
t1341;2190;219
t1342;2124;212
t1343;2180;218
t1344;2044;204
t1345;1860;186
t1346;1746;175
t1347;1697;170
t1348;1699;170
t1349;1749;175
t1350;1739;174
t1351;1677;168
t1352;1772;177
t1353;2015;202
t1354;2217;222
t1355;2330;233
t1356;2464;246
t1357;2419;242
t1358;2275;228
t1359;2179;218
t1360;2195;220
t1361;2289;229
t1362;2538;254
t1363;2921;292
t1364;3007;301
t1365;2866;287
t1366;2786;279
t1367;2859;286
t1368;2691;269
t1369;2546;255
t1370;2463;246
t1371;2433;243
t1372;2450;245
t1373;2538;254
t1374;2755;276
t1375;3246;325
t1376;3545;355
t1377;3621;362
t1378;3564;356
t1379;3530;353
t1380;3500;350
t1381;3432;343
t1382;3406;341
t1383;3386;339
t1384;3402;340
t1385;3398;340
t1386;3519;352
t1387;3699;370
t1388;3625;363
t1389;3375;338
t1390;3151;315
t1391;2987;299
t1392;2693;269
t1393;2461;246
t1394;2329;233
t1395;2261;226
t1396;2266;227
t1397;2351;235
t1398;2535;254
t1399;2948;295
t1400;3243;324
t1401;3322;332
t1402;3277;328
t1403;3251;325
t1404;3219;322
t1405;3121;312
t1406;3052;305
t1407;3005;301
t1408;2939;294
t1409;2908;291
t1410;3037;304
t1411;3205;321
t1412;3159;316
t1413;2948;295
t1414;2785;279
t1415;2679;268
t1416;2422;242
t1417;2263;226
t1418;2159;216
t1419;2153;215
t1420;2238;224
t1421;2395;240
t1422;2638;264
t1423;3127;313
t1424;3471;347
t1425;3606;361
t1426;3618;362
t1427;3639;364
t1428;3669;367
t1429;3582;358
t1430;3541;354
t1431;3498;350
t1432;3496;350
t1433;3490;349
t1434;3589;359
t1435;3818;382
t1436;3824;382
t1437;3573;357
t1438;3367;337
t1439;3196;320
t1440;2910;291
t1441;2837;284
t1442;2687;269
t1443;2617;262
t1444;2657;266
t1445;2742;274
t1446;2942;294
t1447;3414;341
t1448;3751;375
t1449;3853;385
t1450;3822;382
t1451;3792;379
t1452;3775;378
t1453;3699;370
t1454;3635;364
t1455;3567;357
t1456;3578;358
t1457;3575;358
t1458;3738;374
t1459;4040;404
t1460;4046;405
t1461;3775;378
t1462;3542;354
t1463;3365;337
t1464;3044;304
t1465;2810;281
t1466;2661;266
t1467;2595;260
t1468;2643;264
t1469;2731;273
t1470;2918;292
t1471;3421;342
t1472;3799;380
t1473;3928;393
t1474;3910;391
t1475;3916;392
t1476;3910;391
t1477;3833;383
t1478;3755;376
t1479;3667;367
t1480;3648;365
t1481;3683;368
t1482;3814;381
t1483;4048;405
t1484;3988;399
t1485;3693;369
t1486;3456;346
t1487;3283;328
t1488;2995;300
t1489;2741;274
t1490;2575;258
t1491;2471;247
t1492;2428;243
t1493;2439;244
t1494;2409;241
t1495;2397;240
t1496;2551;255
t1497;2755;276
t1498;2888;289
t1499;2883;288
t1500;2848;285
t1501;2778;278
t1502;2690;269
t1503;2583;258
t1504;2606;261
t1505;2670;267
t1506;2859;286
t1507;3162;316
t1508;3136;314
t1509;2918;292
t1510;2770;277
t1511;2751;275
t1512;2555;256
t1513;2340;234
t1514;2153;215
t1515;2083;208
t1516;2105;211
t1517;2145;215
t1518;2122;212
t1519;2067;207
t1520;2149;215
t1521;2391;239
t1522;2589;259
t1523;2692;269
t1524;2788;279
t1525;2693;269
t1526;2554;255
t1527;2471;247
t1528;2478;248
t1529;2531;253
t1530;2709;271
t1531;3020;302
t1532;2993;299
t1533;2800;280
t1534;2667;267
t1535;2652;265
t1536;2386;239
t1537;2143;214
t1538;2020;202
t1539;1975;198
t1540;2008;201
t1541;2120;212
t1542;2367;237
t1543;2948;295
t1544;3356;336
t1545;3519;352
t1546;3530;353
t1547;3550;355
t1548;3582;358
t1549;3559;356
t1550;3563;356
t1551;3555;356
t1552;3577;358
t1553;3574;357
t1554;3666;367
t1555;3917;392
t1556;3931;393
t1557;3677;368
t1558;3478;348
t1559;3304;330
t1560;3005;301
t1561;2806;281
t1562;2693;269
t1563;2651;265
t1564;2695;270
t1565;2779;278
t1566;2974;297
t1567;3446;345
t1568;3730;373
t1569;3774;377
t1570;3646;365
t1571;3555;356
t1572;3524;352
t1573;3471;347
t1574;3488;349
t1575;3543;354
t1576;3609;361
t1577;3649;365
t1578;3772;377
t1579;3987;399
t1580;4004;400
t1581;3746;375
t1582;3504;350
t1583;3349;335
t1584;3049;305
t1585;2839;284
t1586;2724;272
t1587;2703;270
t1588;2756;276
t1589;2839;284
t1590;3029;303
t1591;3426;343
t1592;3649;365
t1593;3649;365
t1594;3542;354
t1595;3483;348
t1596;3478;348
t1597;3399;340
t1598;3394;339
t1599;3432;343
t1600;3482;348
t1601;3502;350
t1602;3638;364
t1603;3828;383
t1604;3794;379
t1605;3534;353
t1606;3328;333
t1607;3221;322
t1608;2952;295
t1609;2731;273
t1610;2576;258
t1611;2484;248
t1612;2504;250
t1613;2613;261
t1614;2846;285
t1615;3296;330
t1616;3579;358
t1617;3618;362
t1618;3519;352
t1619;3479;348
t1620;3422;342
t1621;3278;328
t1622;3228;323
t1623;3181;318
t1624;3193;319
t1625;3274;327
t1626;3518;352
t1627;3833;383
t1628;3928;393
t1629;3693;369
t1630;3483;348
t1631;3332;333
t1632;3060;306
t1633;2878;288
t1634;2765;277
t1635;2728;273
t1636;2773;277
t1637;2859;286
t1638;3018;302
t1639;3399;340
t1640;3639;364
t1641;3653;365
t1642;3518;352
t1643;3406;341
t1644;3321;332
t1645;3214;321
t1646;3117;312
t1647;3043;304
t1648;3073;307
t1649;3188;319
t1650;3396;340
t1651;3661;366
t1652;3675;368
t1653;3347;335
t1654;3085;309
t1655;2937;294
t1656;2676;268
t1657;2456;246
t1658;2280;228
t1659;2175;218
t1660;2163;216
t1661;2183;218
t1662;2172;217
t1663;2162;216
t1664;2285;229
t1665;2447;245
t1666;2548;255
t1667;2542;254
t1668;2531;253
t1669;2461;246
t1670;2393;239
t1671;2285;229
t1672;2291;229
t1673;2362;236
t1674;2548;255
t1675;2825;283
t1676;2819;282
t1677;2554;255
t1678;2387;239
t1679;2293;229
t1680;2082;208
t1681;1835;184
t1682;1617;162
t1683;1531;153
t1684;1538;154
t1685;1572;157
t1686;1566;157
t1687;1507;151
t1688;1658;166
t1689;1921;192
t1690;2143;214
t1691;2264;226
t1692;2404;240
t1693;2379;238
t1694;2278;228
t1695;2267;227
t1696;2285;229
t1697;2335;234
t1698;2535;254
t1699;2819;282
t1700;2894;289
t1701;2723;272
t1702;2633;263
t1703;2624;262
t1704;2379;238
t1705;2142;214
t1706;2025;203
t1707;1969;197
t1708;1968;197
t1709;2070;207
t1710;2309;231
t1711;2821;282
t1712;3182;318
t1713;3335;334
t1714;3312;331
t1715;3337;334
t1716;3337;334
t1717;3296;330
t1718;3280;328
t1719;3228;323
t1720;3198;320
t1721;3201;320
t1722;3325;333
t1723;3579;358
t1724;3680;368
t1725;3446;345
t1726;3245;325
t1727;3085;309
t1728;2756;276
t1729;2555;256
t1730;2434;243
t1731;2394;239
t1732;2464;246
t1733;2588;259
t1734;2800;280
t1735;3263;326
t1736;3596;360
t1737;3732;373
t1738;3697;370
t1739;3707;371
t1740;3716;372
t1741;3625;363
t1742;3567;357
t1743;3491;349
t1744;3443;344
t1745;3435;344
t1746;3543;354
t1747;3756;376
t1748;3831;383
t1749;3574;357
t1750;3348;335
t1751;3164;316
t1752;2846;285
t1753;2613;261
t1754;2474;247
t1755;2427;243
t1756;2461;246
t1757;2583;258
t1758;2796;280
t1759;3225;323
t1760;3568;357
t1761;3727;373
t1762;3717;372
t1763;3686;369
t1764;3666;367
t1765;3585;359
t1766;3542;354
t1767;3480;348
t1768;3493;349
t1769;3530;353
t1770;3717;372
t1771;3988;399
t1772;4128;413
t1773;3891;389
t1774;3675;368
t1775;3488;349
t1776;3162;316
t1777;2918;292
t1778;2806;281
t1779;2768;277
t1780;2836;284
t1781;2937;294
t1782;3137;314
t1783;3549;355
t1784;3797;380
t1785;3803;380
t1786;3653;365
t1787;3534;353
t1788;3474;347
t1789;3365;337
t1790;3323;332
t1791;3315;332
t1792;3345;335
t1793;3452;345
t1794;3663;366
t1795;3951;395
t1796;4144;414
t1797;3886;389
t1798;3602;360
t1799;3338;334
t1800;2993;299
t1801;2720;272
t1802;2595;260
t1803;2548;255
t1804;2581;258
t1805;2671;267
t1806;2865;287
t1807;3240;324
t1808;3459;346
t1809;3435;344
t1810;3365;337
t1811;3328;333
t1812;3276;328
t1813;3198;320
t1814;3095;310
t1815;3018;302
t1816;3041;304
t1817;3186;319
t1818;3422;342
t1819;3677;368
t1820;3830;383
t1821;3537;354
t1822;3271;327
t1823;3090;309
t1824;2824;282
t1825;2600;260
t1826;2453;245
t1827;2357;236
t1828;2341;234
t1829;2353;235
t1830;2328;233
t1831;2280;228
t1832;2402;240
t1833;2539;254
t1834;2592;259
t1835;2573;257
t1836;2556;256
t1837;2484;248
t1838;2422;242
t1839;2437;244
t1840;2519;252
t1841;2671;267
t1842;2896;290
t1843;3166;317
t1844;3240;324
t1845;2985;299
t1846;2825;283
t1847;2749;275
t1848;2536;254
t1849;2336;234
t1850;2195;220
t1851;2125;213
t1852;2097;210
t1853;2097;210
t1854;2077;208
t1855;1979;198
t1856;2057;206
t1857;2209;221
t1858;2362;236
t1859;2428;243
t1860;2474;247
t1861;2298;230
t1862;2168;217
t1863;2085;209
t1864;2055;206
t1865;2117;212
t1866;2284;228
t1867;2596;260
t1868;2728;273
t1869;2543;254
t1870;2429;243
t1871;2329;233
t1872;2103;210
t1873;1919;192
t1874;1825;183
t1875;1823;182
t1876;1930;193
t1877;2122;212
t1878;2407;241
t1879;2923;292
t1880;3255;326
t1881;3240;324
t1882;3103;310
t1883;3100;310
t1884;3121;312
t1885;3033;303
t1886;2992;299
t1887;2988;299
t1888;3037;304
t1889;3093;309
t1890;3299;330
t1891;3620;362
t1892;3828;383
t1893;3574;357
t1894;3301;330
t1895;3091;309
t1896;2758;276
t1897;2560;256
t1898;2449;245
t1899;2413;241
t1900;2423;242
t1901;2497;250
t1902;2703;270
t1903;3060;306
t1904;3328;333
t1905;3333;333
t1906;3164;316
t1907;3040;304
t1908;2974;297
t1909;2888;289
t1910;2871;287
t1911;2904;290
t1912;3029;303
t1913;3153;315
t1914;3373;337
t1915;3665;367
t1916;3863;386
t1917;3623;362
t1918;3375;338
t1919;3169;317
t1920;2885;289
t1921;2638;264
t1922;2525;253
t1923;2478;248
t1924;2538;254
t1925;2678;268
t1926;2914;291
t1927;3332;333
t1928;3588;359
t1929;3564;356
t1930;3419;342
t1931;3351;335
t1932;3335;334
t1933;3249;325
t1934;3250;325
t1935;3230;323
t1936;3267;327
t1937;3311;331
t1938;3514;351
t1939;3781;378
t1940;4013;401
t1941;3790;379
t1942;3537;354
t1943;3335;334
t1944;3027;303
t1945;2775;278
t1946;2643;264
t1947;2602;260
t1948;2658;266
t1949;2764;276
t1950;2995;300
t1951;3395;340
t1952;3636;364
t1953;3601;360
t1954;3426;343
t1955;3361;336
t1956;3359;336
t1957;3278;328
t1958;3255;326
t1959;3243;324
t1960;3299;330
t1961;3368;337
t1962;3564;356
t1963;3804;380
t1964;4021;402
t1965;3790;379
t1966;3535;354
t1967;3294;329
t1968;2960;296
t1969;2762;276
t1970;2659;266
t1971;2625;263
t1972;2678;268
t1973;2782;278
t1974;3016;302
t1975;3403;340
t1976;3637;364
t1977;3613;361
t1978;3449;345
t1979;3362;336
t1980;3328;333
t1981;3243;324
t1982;3195;320
t1983;3166;317
t1984;3218;322
t1985;3311;331
t1986;3486;349
t1987;3670;367
t1988;3868;387
t1989;3624;362
t1990;3376;338
t1991;3176;318
t1992;2904;290
t1993;2682;268
t1994;2561;256
t1995;2495;250
t1996;2502;250
t1997;2542;254
t1998;2568;257
t1999;2559;256
t2000;2712;271
t2001;2799;280
t2002;2792;279
t2003;2734;273
t2004;2694;269
t2005;2589;259
t2006;2471;247
t2007;2440;244
t2008;2497;250
t2009;2611;261
t2010;2804;280
t2011;3033;303
t2012;3209;321
t2013;2975;298
t2014;2778;278
t2015;2693;269
t2016;2471;247
t2017;2258;226
t2018;2128;213
t2019;2070;207
t2020;2063;206
t2021;2076;208
t2022;2040;204
t2023;2046;205
t2024;2198;220
t2025;2336;234
t2026;2351;235
t2027;2334;233
t2028;2170;217
t2029;1953;195
t2030;1789;179
t2031;1735;174
t2032;1783;178
t2033;2011;201
t2034;2329;233
t2035;2628;263
t2036;2882;288
t2037;2773;277
t2038;2721;272
t2039;2488;249
t2040;2316;232
t2041;2250;225
t2042;2251;225
t2043;2339;234
t2044;2483;248
t2045;2754;275
t2046;3340;334
t2047;3667;367
t2048;3770;377
t2049;3678;368
t2050;3578;358
t2051;3452;345
t2052;3282;328
t2053;3146;315
t2054;3033;303
t2055;2964;296
t2056;2930;293
t2057;3051;305
t2058;3280;328
t2059;3535;354
t2060;3719;372
t2061;3488;349
t2062;3199;320
t2063;2832;283
t2064;2577;258
t2065;2418;242
t2066;2342;234
t2067;2356;236
t2068;2424;242
t2069;2636;264
t2070;3128;313
t2071;3426;343
t2072;3520;352
t2073;3466;347
t2074;3394;339
t2075;3319;332
t2076;3145;315
t2077;3027;303
t2078;2900;290
t2079;2834;283
t2080;2811;281
t2081;2909;291
t2082;3137;314
t2083;3388;339
t2084;3566;357
t2085;3328;333
t2086;3044;304
t2087;2708;271
t2088;2504;250
t2089;2396;240
t2090;2320;232
t2091;2331;233
t2092;2437;244
t2093;2677;268
t2094;3154;315
t2095;3433;343
t2096;3515;352
t2097;3455;346
t2098;3344;334
t2099;3201;320
t2100;2992;299
t2101;2786;279
t2102;2598;260
t2103;2417;242
t2104;2314;231
t2105;2390;239
t2106;2588;259
t2107;2822;282
t2108;2991;299
t2109;2761;276
t2110;2522;252
t2111;2199;220
t2112;1927;193
t2113;1779;178
t2114;1679;168
t2115;1667;167
t2116;1784;178
t2117;2055;206
t2118;2568;257
t2119;2942;294
t2120;3032;303
t2121;2931;293
t2122;2818;282
t2123;2770;277
t2124;2643;264
t2125;2546;255
t2126;2438;244
t2127;2429;243
t2128;2412;241
t2129;2456;246
t2130;2542;254
t2131;2645;265
t2132;2710;271
t2133;2544;254
t2134;2355;236
t2135;2092;209
t2136;1865;187
t2137;1742;174
t2138;1711;171
t2139;1801;180
t2140;1933;193
t2141;2166;217
t2142;2687;269
t2143;3042;304
t2144;3166;317
t2145;3141;314
t2146;3117;312
t2147;3052;305
t2148;2898;290
t2149;2705;271
t2150;2535;254
t2151;2399;240
t2152;2336;234
t2153;2353;235
t2154;2419;242
t2155;2554;255
t2156;2635;264
t2157;2444;244
t2158;2265;227
t2159;1983;198
t2160;1660;166
t2161;1470;147
t2162;1320;132
t2163;1298;130
t2164;1311;131
t2165;1342;134
t2166;1394;139
t2167;1562;156
t2168;1786;179
t2169;1959;196
t2170;2024;202
t2171;2035;204
t2172;1882;188
t2173;1726;173
t2174;1592;159
t2175;1557;156
t2176;1597;160
t2177;1818;182
t2178;2085;209
t2179;2342;234
t2180;2560;256
t2181;2565;257
t2182;2538;254
t2183;2396;240
t2184;1940;194
t2185;1831;183
t2186;1776;178
t2187;1756;176
t2188;1775;178
t2189;1804;180
t2190;1835;184
t2191;1932;193
t2192;2091;209
t2193;2099;210
t2194;1975;198
t2195;1886;189
t2196;1724;172
t2197;1514;151
t2198;1365;137
t2199;1316;132
t2200;1393;139
t2201;1579;158
t2202;1854;185
t2203;2128;213
t2204;2372;237
t2205;2305;231
t2206;2247;225
t2207;2021;202
t2208;1859;186
t2209;1781;178
t2210;1766;177
t2211;1794;179
t2212;1923;192
t2213;2152;215
t2214;2581;258
t2215;2967;297
t2216;3219;322
t2217;3224;322
t2218;3138;314
t2219;3078;308
t2220;2955;296
t2221;2870;287
t2222;2782;278
t2223;2712;271
t2224;2689;269
t2225;2785;279
t2226;2974;297
t2227;3168;317
t2228;3284;328
t2229;3128;313
t2230;2908;291
t2231;2606;261
t2232;2385;239
t2233;2258;226
t2234;2210;221
t2235;2241;224
t2236;2334;233
t2237;2491;249
t2238;2837;284
t2239;3151;315
t2240;3389;339
t2241;3422;342
t2242;3361;336
t2243;3308;331
t2244;3074;307
t2245;2933;293
t2246;2818;282
t2247;2811;281
t2248;2807;281
t2249;2886;289
t2250;3011;301
t2251;3135;314
t2252;3241;324
t2253;3063;306
t2254;2827;283
t2255;2503;250
t2256;2283;228
t2257;2182;218
t2258;2116;212
t2259;2124;212
t2260;2220;222
t2261;2419;242
t2262;2838;284
t2263;3185;319
t2264;3342;334
t2265;3338;334
t2266;3342;334
t2267;3347;335
t2268;3231;323
t2269;3133;313
t2270;3083;308
t2271;3024;302
t2272;2989;299
t2273;3053;305
t2274;3175;318
t2275;3311;331
t2276;3392;339
t2277;3251;325
t2278;3043;304
t2279;2722;272
t2280;2505;251
t2281;2399;240
t2282;2356;236
t2283;2387;239
t2284;2464;246
t2285;2627;263
t2286;3033;303
t2287;3327;333
t2288;3504;350
t2289;3514;351
t2290;3506;351
t2291;3485;349
t2292;3385;339
t2293;3302;330
t2294;3187;319
t2295;3134;313
t2296;3082;308
t2297;3121;312
t2298;3201;320
t2299;3290;329
t2300;3316;332
t2301;3150;315
t2302;2950;295
t2303;2683;268
t2304;2440;244
t2305;2280;228
t2306;2206;221
t2307;2205;221
t2308;2220;222
t2309;2229;223
t2310;2192;219
t2311;2253;225
t2312;2421;242
t2313;2517;252
t2314;2573;257
t2315;2624;262
t2316;2550;255
t2317;2346;235
t2318;2186;219
t2319;2079;208
t2320;2050;205
t2321;2141;214
t2322;2329;233
t2323;2491;249
t2324;2632;263
t2325;2548;255
t2326;2430;243
t2327;2169;217
t2328;1930;193
t2329;1789;179
t2330;1692;169
t2331;1684;168
t2332;1730;173
t2333;1773;177
t2334;1828;183
t2335;1951;195
t2336;2105;211
t2337;2173;217
t2338;2117;212
t2339;2049;205
t2340;1972;197
t2341;1854;185
t2342;1714;171
t2343;1679;168
t2344;1644;164
t2345;1761;176
t2346;1931;193
t2347;2095;210
t2348;2263;226
t2349;2224;222
t2350;2200;220
t2351;2017;202
t2352;1861;186
t2353;1727;173
t2354;1682;168
t2355;1686;169
t2356;1756;176
t2357;1801;180
t2358;1815;182
t2359;1912;191
t2360;2102;210
t2361;2173;217
t2362;2056;206
t2363;1960;196
t2364;1884;188
t2365;1719;172
t2366;1591;159
t2367;1501;150
t2368;1459;146
t2369;1597;160
t2370;1756;176
t2371;1925;193
t2372;2123;212
t2373;2108;211
t2374;2020;202
t2375;1823;182
t2376;1601;160
t2377;1461;146
t2378;1367;137
t2379;1352;135
t2380;1419;142
t2381;1462;146
t2382;1461;146
t2383;1560;156
t2384;1740;174
t2385;1910;191
t2386;2026;203
t2387;2097;210
t2388;1973;197
t2389;1782;178
t2390;1702;170
t2391;1681;168
t2392;1720;172
t2393;1819;182
t2394;2027;203
t2395;2175;218
t2396;2277;228
t2397;2251;225
t2398;2226;223
t2399;2018;202
t2400;1826;183
t2401;1689;169
t2402;1621;162
t2403;1645;165
t2404;1721;172
t2405;1888;189
t2406;2279;228
t2407;2622;262
t2408;2873;287
t2409;2941;294
t2410;2953;295
t2411;2954;295
t2412;2765;277
t2413;2620;262
t2414;2565;257
t2415;2554;255
t2416;2606;261
t2417;2734;273
t2418;2974;297
t2419;3156;316
t2420;3270;327
t2421;3176;318
t2422;2998;300
t2423;2693;269
t2424;2460;246
t2425;2316;232
t2426;2263;226
t2427;2296;230
t2428;2426;243
t2429;2660;266
t2430;3059;306
t2431;3342;334
t2432;3509;351
t2433;3538;354
t2434;3570;357
t2435;3550;355
t2436;3426;343
t2437;3359;336
t2438;3276;328
t2439;3218;322
t2440;3181;318
t2441;3185;319
t2442;3273;327
t2443;3372;337
t2444;3415;342
t2445;3314;331
t2446;3115;312
t2447;2821;282
t2448;2592;259
t2449;2465;247
t2450;2383;238
t2451;2367;237
t2452;2463;246
t2453;2654;265
t2454;2957;296
t2455;3225;323
t2456;3361;336
t2457;3270;327
t2458;3201;320
t2459;3125;313
t2460;2978;298
t2461;2896;290
t2462;2806;281
t2463;2741;274
t2464;2705;271
t2465;2721;272
t2466;2825;283
t2467;2960;296
t2468;3071;307
t2469;3013;301
t2470;2820;282
t2471;2515;252
t2472;2267;227
t2473;2115;212
t2474;2031;203
t2475;2054;205
t2476;2135;214
t2477;2354;235
t2478;2737;274
t2479;3048;305
t2480;3213;321
t2481;3226;323
t2482;3199;320
t2483;3152;315
t2484;3026;303
t2485;2972;297
t2486;2889;289
t2487;2798;280
t2488;2792;279
t2489;2870;287
t2490;2993;299
t2491;3113;311
t2492;3211;321
t2493;3149;315
t2494;2995;300
t2495;2728;273
t2496;2475;248
t2497;2352;235
t2498;2310;231
t2499;2322;232
t2500;2389;239
t2501;2434;243
t2502;2515;252
t2503;2712;271
t2504;2924;292
t2505;3006;301
t2506;2972;297
t2507;2884;288
t2508;2718;272
t2509;2638;264
t2510;2541;254
t2511;2541;254
t2512;2551;255
t2513;2648;265
t2514;2764;276
t2515;2843;284
t2516;2925;293
t2517;2844;284
t2518;2708;271
t2519;2478;248
t2520;2246;225
t2521;2094;209
t2522;2030;203
t2523;2040;204
t2524;2082;208
t2525;2125;213
t2526;2131;213
t2527;2250;225
t2528;2413;241
t2529;2514;251
t2530;2599;260
t2531;2658;266
t2532;2555;256
t2533;2359;236
t2534;2219;222
t2535;2160;216
t2536;2157;216
t2537;2234;223
t2538;2369;237
t2539;2490;249
t2540;2615;262
t2541;2609;261
t2542;2563;256
t2543;2346;235
t2544;2168;217
t2545;2069;207
t2546;2054;205
t2547;2098;210
t2548;2196;220
t2549;2412;241
t2550;2854;285
t2551;3165;317
t2552;3357;336
t2553;3345;335
t2554;3277;328
t2555;3275;328
t2556;3163;316
t2557;3070;307
t2558;2972;297
t2559;2905;291
t2560;2886;289
t2561;2897;290
t2562;2989;299
t2563;3095;310
t2564;3213;321
t2565;3233;323
t2566;3060;306
t2567;2762;276
t2568;2536;254
t2569;2424;242
t2570;2368;237
t2571;2419;242
t2572;2496;250
t2573;2659;266
t2574;3012;301
t2575;3299;330
t2576;3419;342
t2577;3345;335
t2578;3167;317
t2579;3101;310
t2580;2988;299
t2581;2908;291
t2582;2763;276
t2583;2697;270
t2584;2648;265
t2585;2734;273
t2586;2888;289
t2587;3081;308
t2588;3235;324
t2589;3228;323
t2590;3032;303
t2591;2691;269
t2592;2440;244
t2593;2280;228
t2594;2207;221
t2595;2256;226
t2596;2361;236
t2597;2612;261
t2598;3069;307
t2599;3396;340
t2600;3542;354
t2601;3497;350
t2602;3451;345
t2603;3416;342
t2604;3260;326
t2605;3189;319
t2606;3103;310
t2607;3046;305
t2608;3012;301
t2609;3023;302
t2610;3128;313
t2611;3219;322
t2612;3292;329
t2613;3243;324
t2614;2995;300
t2615;2633;263
t2616;2368;237
t2617;2251;225
t2618;2172;217
t2619;2230;223
t2620;2327;233
t2621;2540;254
t2622;2945;295
t2623;3316;332
t2624;3467;347
t2625;3422;342
t2626;3354;335
t2627;3254;325
t2628;3086;309
t2629;2959;296
t2630;2921;292
t2631;2908;291
t2632;2927;293
t2633;2994;299
t2634;3131;313
t2635;3286;329
t2636;3350;335
t2637;3287;329
t2638;3052;305
t2639;2733;273
t2640;2497;250
t2641;2347;235
t2642;2317;232
t2643;2370;237
t2644;2485;249
t2645;2706;271
t2646;3137;314
t2647;3477;348
t2648;3619;362
t2649;3547;355
t2650;3528;353
t2651;3470;347
t2652;3351;335
t2653;3230;323
t2654;3111;311
t2655;3039;304
t2656;2995;300
t2657;3035;304
t2658;3131;313
t2659;3217;322
t2660;3247;325
t2661;3226;323
t2662;3011;301
t2663;2699;270
t2664;2463;246
t2665;2332;233
t2666;2266;227
t2667;2280;228
t2668;2321;232
t2669;2366;237
t2670;2417;242
t2671;2611;261
t2672;2769;277
t2673;2804;280
t2674;2794;279
t2675;2688;269
t2676;2518;252
t2677;2366;237
t2678;2262;226
t2679;2235;224
t2680;2261;226
t2681;2415;242
t2682;2580;258
t2683;2712;271
t2684;2727;273
t2685;2660;266
t2686;2528;253
t2687;2279;228
t2688;2078;208
t2689;1931;193
t2690;1889;189
t2691;1912;191
t2692;1942;194
t2693;1925;193
t2694;1857;186
t2695;1985;199
t2696;2179;218
t2697;2302;230
t2698;2294;229
t2699;2298;230
t2700;2185;219
t2701;1999;200
t2702;1864;186
t2703;1884;188
t2704;1857;186
t2705;1942;194
t2706;2170;217
t2707;2328;233
t2708;2443;244
t2709;2500;250
t2710;2426;243
t2711;2183;218
t2712;2006;201
t2713;1901;190
t2714;1891;189
t2715;1933;193
t2716;2047;205
t2717;2291;229
t2718;2697;270
t2719;3067;307
t2720;3261;326
t2721;3252;325
t2722;3166;317
t2723;3085;309
t2724;2893;289
t2725;2799;280
t2726;2670;267
t2727;2654;265
t2728;2609;261
t2729;2697;270
t2730;2828;283
t2731;2957;296
t2732;3047;305
t2733;2959;296
t2734;2715;272
t2735;2401;240
t2736;2168;217
t2737;2045;205
t2738;2007;201
t2739;2021;202
t2740;2127;213
t2741;2336;234
t2742;2721;272
t2743;3070;307
t2744;3311;331
t2745;3331;333
t2746;3330;333
t2747;3333;333
t2748;3138;314
t2749;3041;304
t2750;2920;292
t2751;2869;287
t2752;2839;284
t2753;2883;288
t2754;2957;296
t2755;3057;306
t2756;3091;309
t2757;3074;307
t2758;2867;287
t2759;2583;258
t2760;2362;236
t2761;2221;222
t2762;2180;218
t2763;2201;220
t2764;2284;228
t2765;2447;245
t2766;2753;275
t2767;3040;304
t2768;3186;319
t2769;3107;311
t2770;2969;297
t2771;2869;287
t2772;2701;270
t2773;2624;262
t2774;2598;260
t2775;2609;261
t2776;2606;261
t2777;2691;269
t2778;2840;284
t2779;2989;299
t2780;3077;308
t2781;3045;305
t2782;2814;281
t2783;2509;251
t2784;2231;223
t2785;2075;208
t2786;1998;200
t2787;1973;197
t2788;2054;205
t2789;2284;228
t2790;2705;271
t2791;3070;307
t2792;3205;321
t2793;3161;316
t2794;3111;311
t2795;3046;305
t2796;2833;283
t2797;2716;272
t2798;2612;261
t2799;2583;258
t2800;2593;259
t2801;2660;266
t2802;2817;282
t2803;2986;299
t2804;3091;309
t2805;3101;310
t2806;2871;287
t2807;2582;258
t2808;2340;234
t2809;2195;220
t2810;2150;215
t2811;2178;218
t2812;2314;231
t2813;2517;252
t2814;2946;295
t2815;3298;330
t2816;3408;341
t2817;3298;330
t2818;3236;324
t2819;3176;318
t2820;3075;308
t2821;2924;292
t2822;2840;284
t2823;2834;283
t2824;2854;285
t2825;2962;296
t2826;3098;310
t2827;3187;319
t2828;3213;321
t2829;3181;318
t2830;2957;296
t2831;2651;265
t2832;2402;240
t2833;2231;223
t2834;2188;219
t2835;2174;217
t2836;2200;220
t2837;2269;227
t2838;2386;239
t2839;2549;255
t2840;2695;270
t2841;2731;273
t2842;2686;269
t2843;2538;254
t2844;2311;231
t2845;2107;211
t2846;1966;197
t2847;1920;192
t2848;1923;192
t2849;2027;203
t2850;2199;220
t2851;2325;233
t2852;2387;239
t2853;2394;239
t2854;2254;225
t2855;2012;201
t2856;1766;177
t2857;1630;163
t2858;1582;158
t2859;1554;155
t2860;1580;158
t2861;1647;165
t2862;1692;169
t2863;1864;186
t2864;2063;206
t2865;2199;220
t2866;2193;219
t2867;2170;217
t2868;2057;206
t2869;1813;181
t2870;1679;168
t2871;1652;165
t2872;1699;170
t2873;1843;184
t2874;2036;204
t2875;2182;218
t2876;2264;226
t2877;2320;232
t2878;2240;224
t2879;1994;199
t2880;1856;186
t2881;1748;175
t2882;1709;171
t2883;1742;174
t2884;1846;185
t2885;1983;198
t2886;2278;228
t2887;2603;260
t2888;2829;283
t2889;2819;282
t2890;2719;272
t2891;2635;264
t2892;2447;245
t2893;2278;228
t2894;2105;211
t2895;2022;202
t2896;1983;198
t2897;2024;202
t2898;2119;212
t2899;2252;225
t2900;2305;231
t2901;2334;233
t2902;2179;218
t2903;1965;197
t2904;1721;172
t2905;1620;162
t2906;1550;155
t2907;1535;154
t2908;1547;155
t2909;1545;155
t2910;1521;152
t2911;1632;163
t2912;1812;181
t2913;1832;183
t2914;1756;176
t2915;1693;169
t2916;1538;154
t2917;1336;134
t2918;1254;125
t2919;1237;124
t2920;1318;132
t2921;1527;153
t2922;1770;177
t2923;1984;198
t2924;2115;212
t2925;2202;220
t2926;2094;209
t2927;1880;188
t2928;1740;174
t2929;1668;167
t2930;1664;166
t2931;1701;170
t2932;1789;179
t2933;2043;204
t2934;2615;262
t2935;3021;302
t2936;3189;319
t2937;3128;313
t2938;3059;306
t2939;2978;298
t2940;2792;279
t2941;2665;267
t2942;2587;259
t2943;2528;253
t2944;2500;250
t2945;2580;258
t2946;2739;274
t2947;2870;287
t2948;2918;292
t2949;2856;286
t2950;2641;264
t2951;2379;238
t2952;2196;220
t2953;2141;214
t2954;2105;211
t2955;2136;214
t2956;2221;222
t2957;2431;243
t2958;2890;289
t2959;3236;324
t2960;3330;333
t2961;3243;324
t2962;3178;318
t2963;3148;315
t2964;3027;303
t2965;2934;293
t2966;2890;289
t2967;2852;285
t2968;2796;280
t2969;2873;287
t2970;2973;297
t2971;3099;310
t2972;3130;313
t2973;3123;312
t2974;2873;287
t2975;2555;256
t2976;2346;235
t2977;2220;222
t2978;2155;216
t2979;2149;215
t2980;2244;224
t2981;2460;246
t2982;2871;287
t2983;3182;318
t2984;3277;328
t2985;3151;315
t2986;2985;299
t2987;2866;287
t2988;2693;269
t2989;2580;258
t2990;2510;251
t2991;2497;250
t2992;2500;250
t2993;2647;265
t2994;2820;282
t2995;2941;294
t2996;2981;298
t2997;2965;297
t2998;2737;274
t2999;2409;241
t3000;2180;218
t3001;2065;207
t3002;2005;201
t3003;2013;201
t3004;2037;204
t3005;2062;206
t3006;2133;213
t3007;2334;233
t3008;2521;252
t3009;2602;260
t3010;2632;263
t3011;2593;259
t3012;2485;249
t3013;2342;234
t3014;2247;225
t3015;2192;219
t3016;2201;220
t3017;2273;227
t3018;2369;237
t3019;2435;244
t3020;2408;241
t3021;2408;241
t3022;2318;232
t3023;2115;212
t3024;1942;194
t3025;1805;181
t3026;1740;174
t3027;1729;173
t3028;1760;176
t3029;1762;176
t3030;1759;176
t3031;1882;188
t3032;2044;204
t3033;2139;214
t3034;2213;221
t3035;2355;236
t3036;2297;230
t3037;2176;218
t3038;2054;205
t3039;2028;203
t3040;2039;204
t3041;2180;218
t3042;2334;233
t3043;2413;241
t3044;2424;242
t3045;2488;249
t3046;2453;245
t3047;2246;225
t3048;2091;209
t3049;1983;198
t3050;1962;196
t3051;2015;202
t3052;2133;213
t3053;2376;238
t3054;2905;291
t3055;3267;327
t3056;3403;340
t3057;3336;334
t3058;3309;331
t3059;3293;329
t3060;3208;321
t3061;3123;312
t3062;3022;302
t3063;2967;297
t3064;2894;289
t3065;2934;293
t3066;3032;303
t3067;3117;312
t3068;3113;311
t3069;3129;313
t3070;2886;289
t3071;2541;254
t3072;2320;232
t3073;2199;220
t3074;2138;214
t3075;2126;213
t3076;2162;216
t3077;2328;233
t3078;2705;271
t3079;3036;304
t3080;3111;311
t3081;3053;305
t3082;2890;289
t3083;2762;276
t3084;2582;258
t3085;2509;251
t3086;2506;251
t3087;2563;256
t3088;2589;259
t3089;2703;270
t3090;2839;284
t3091;2978;298
t3092;2989;299
t3093;2969;297
t3094;2676;268
t3095;2311;231
t3096;2065;207
t3097;1950;195
t3098;1891;189
t3099;1911;191
t3100;2000;200
t3101;2204;220
t3102;2662;266
t3103;3057;306
t3104;3215;322
t3105;3164;316
t3106;3124;312
t3107;3090;309
t3108;2937;294
t3109;2879;288
t3110;2773;277
t3111;2757;276
t3112;2747;275
t3113;2843;284
t3114;2989;299
t3115;3097;310
t3116;3119;312
t3117;3117;312
t3118;2910;291
t3119;2519;252
t3120;2238;224
t3121;2104;210
t3122;2053;205
t3123;2072;207
t3124;2128;213
t3125;2311;231
t3126;2723;272
t3127;3039;304
t3128;3144;314
t3129;3020;302
t3130;2873;287
t3131;2763;276
t3132;2564;256
t3133;2439;244
t3134;2415;242
t3135;2441;244
t3136;2446;245
t3137;2603;260
t3138;2741;274
t3139;2852;285
t3140;2817;282
t3141;2749;275
t3142;2466;247
t3143;2115;212
t3144;1897;190
t3145;1753;175
t3146;1692;169
t3147;1725;173
t3148;1827;183
t3149;2038;204
t3150;2483;248
t3151;2825;283
t3152;2941;294
t3153;2843;284
t3154;2741;274
t3155;2615;262
t3156;2395;240
t3157;2240;224
t3158;2143;214
t3159;2149;215
t3160;2182;218
t3161;2343;234
t3162;2495;250
t3163;2575;258
t3164;2550;255
t3165;2536;254
t3166;2356;236
t3167;2097;210
t3168;1924;192
t3169;1815;182
t3170;1723;172
t3171;1696;170
t3172;1688;169
t3173;1685;169
t3174;1759;176
t3175;1934;193
t3176;2046;205
t3177;2027;203
t3178;1962;196
t3179;1889;189
t3180;1746;175
t3181;1542;154
t3182;1408;141
t3183;1338;134
t3184;1330;133
t3185;1452;145
t3186;1619;162
t3187;1773;177
t3188;1854;185
t3189;2026;203
t3190;2046;205
t3191;1881;188
t3192;1690;169
t3193;1592;159
t3194;1564;156
t3195;1583;158
t3196;1621;162
t3197;1599;160
t3198;1610;161
t3199;1746;175
t3200;1864;186
t3201;1856;186
t3202;1870;187
t3203;1953;195
t3204;1838;184
t3205;1652;165
t3206;1562;156
t3207;1540;154
t3208;1587;159
t3209;1779;178
t3210;2044;204
t3211;2247;225
t3212;2369;237
t3213;2476;248
t3214;2495;250
t3215;2243;224
t3216;2034;203
t3217;1905;191
t3218;1843;184
t3219;1864;186
t3220;1985;199
t3221;2174;217
t3222;2658;266
t3223;2976;298
t3224;3046;305
t3225;2850;285
t3226;2676;268
t3227;2581;258
t3228;2439;244
t3229;2376;238
t3230;2332;233
t3231;2338;234
t3232;2385;239
t3233;2524;252
t3234;2738;274
t3235;2921;292
t3236;2996;300
t3237;3015;302
t3238;2773;277
t3239;2377;238
t3240;2137;214
t3241;1999;200
t3242;1942;194
t3243;1979;198
t3244;2067;207
t3245;2247;225
t3246;2686;269
t3247;3033;303
t3248;3149;315
t3249;3053;305
t3250;2967;297
t3251;2930;293
t3252;2826;283
t3253;2786;279
t3254;2724;272
t3255;2690;269
t3256;2695;270
t3257;2757;276
t3258;2866;287
t3259;2991;299
t3260;2993;299
t3261;2988;299
t3262;2786;279
t3263;2448;245
t3264;2195;220
t3265;2037;204
t3266;1974;197
t3267;2006;201
t3268;2063;206
t3269;2215;222
t3270;2596;260
t3271;2891;289
t3272;2937;294
t3273;2869;287
t3274;2789;279
t3275;2744;274
t3276;2527;253
t3277;2363;236
t3278;2241;224
t3279;2116;212
t3280;2019;202
t3281;2064;206
t3282;2187;219
t3283;2349;235
t3284;2454;245
t3285;2547;255
t3286;2456;246
t3287;2152;215
t3288;1925;193
t3289;1811;181
t3290;1755;176
t3291;1757;176
t3292;1755;176
t3293;1631;163
t3294;1581;158
t3295;1667;167
t3296;1729;173
t3297;1640;164
t3298;1550;155
t3299;1599;160
t3300;1505;151
t3301;1394;139
t3302;1299;130
t3303;1292;129
t3304;1354;135
t3305;1557;156
t3306;1830;183
t3307;2065;207
t3308;2204;220
t3309;2330;233
t3310;2293;229
t3311;2065;207
t3312;1821;182
t3313;1687;169
t3314;1628;163
t3315;1618;162
t3316;1671;167
t3317;1768;177
t3318;2059;206
t3319;2330;233
t3320;2477;248
t3321;2403;240
t3322;2248;225
t3323;2174;217
t3324;2068;207
t3325;1902;190
t3326;1810;181
t3327;1840;184
t3328;1905;191
t3329;2092;209
t3330;2272;227
t3331;2417;242
t3332;2443;244
t3333;2454;245
t3334;2349;235
t3335;2101;210
t3336;1911;191
t3337;1807;181
t3338;1780;178
t3339;1773;177
t3340;1820;182
t3341;1848;185
t3342;1966;197
t3343;2149;215
t3344;2330;233
t3345;2356;236
t3346;2270;227
t3347;2168;217
t3348;2007;201
t3349;1864;186
t3350;1777;178
t3351;1801;180
t3352;1864;186
t3353;2024;202
t3354;2213;221
t3355;2324;232
t3356;2309;231
t3357;2305;231
t3358;2213;221
t3359;2019;202
t3360;1815;182
