j;P_Turb;P_Pump;Eta_Turb;Eta_Pump;E_Max;E_Min;E_ini;E_fin;K_Pump;K_Turb
PSW1;169;84;0,92;0,85;1183;85;423;423;10;11
PSW2;253;127;0,94;0,9;1771;127;633;633;10,5;11,5
PSW3;84;42;0,89;0,8;588;42;210;210;9,5;10
