t;Dt;Rt
t1;2939;294
t2;2755;276
t3;2558;256
t4;2407;241
t5;2303;230
t6;2180;218
t7;1964;196
t8;1964;196
t9;1973;197
t10;2054;205
t11;2217;222
t12;2477;248
t13;2572;257
t14;2589;259
t15;2618;262
t16;2715;272
t17;3000;300
t18;3348;335
t19;3435;344
t20;3315;332
t21;3047;305
t22;2831;283
t23;2612;261
t24;2192;219
