j;P_Turb;P_Pump;Eta_Turb;Eta_Pump;E_Max;E_Min;E_ini;E_fin;K_Pump;K_Turb
PSW1;253;127;0,92;0,85;1771;127;633;633;10;11
PSW2;380;190;0,94;0,9;2660;190;950;950;10,5;11,5
PSW3;127;63;0,89;0,8;889;64;318;318;9,5;10
