t;Dt;Rt
t1;4408;441
t2;4132;413
t3;3838;384
t4;3611;361
t5;3455;346
t6;3270;327
t7;2946;295
t8;2946;295
t9;2959;296
t10;3081;308
t11;3325;333
t12;3716;372
t13;3859;386
t14;3883;388
t15;3927;393
t16;4072;407
t17;4499;450
t18;5021;502
t19;5153;515
t20;4972;497
t21;4571;457
t22;4247;425
t23;3919;392
t24;3287;329
t25;2747;275
t26;2377;238
t27;2256;226
t28;2323;232
t29;2674;267
t30;3391;339
t31;4402;440
t32;5524;552
t33;6256;626
t34;6605;661
t35;6926;693
t36;7107;711
t37;7131;713
t38;7009;701
t39;6902;690
t40;6870;687
t41;7012;701
t42;7317;732
t43;7206;721
t44;6918;692
t45;6269;627
t46;5883;588
t47;5626;563
t48;4899;490
t49;4533;453
t50;4172;417
t51;4014;401
t52;4041;404
t53;4059;406
t54;4249;425
t55;4746;475
t56;5303;530
t57;5541;554
t58;5428;543
t59;5262;526
t60;5148;515
t61;5060;506
t62;5004;500
t63;4998;500
t64;5148;515
t65;5405;541
t66;5751;575
t67;5680;568
t68;5473;547
t69;4913;491
t70;4566;457
t71;4364;436
t72;3805;381
t73;3347;335
t74;3089;309
t75;3073;307
t76;3197;320
t77;3419;342
t78;3779;378
t79;4449;445
t80;5238;524
t81;5573;557
t82;5596;560
t83;5531;553
t84;5534;553
t85;5434;543
t86;5367;537
t87;5317;532
t88;5356;536
t89;5612;561
t90;6103;610
t91;6022;602
t92;5732;573
t93;5141;514
t94;4657;466
t95;4403;440
t96;3842;384
t97;3360;336
t98;3124;312
t99;2975;298
t100;2969;297
t101;3138;314
t102;3395;340
t103;4072;407
t104;4957;496
t105;5513;551
t106;5757;576
t107;5901;590
t108;6064;606
t109;6088;609
t110;6010;601
t111;5906;591
t112;5824;582
t113;5919;592
t114;6197;620
t115;6074;607
t116;5665;567
t117;5163;516
t118;4735;474
t119;4545;455
t120;4003;400
t121;3587;359
t122;3304;330
t123;3228;323
t124;3330;333
t125;3549;355
t126;3840;384
t127;4328;433
t128;5066;507
t129;5572;557
t130;5868;587
t131;6102;610
t132;6290;629
t133;6259;626
t134;6120;612
t135;6006;601
t136;6095;610
t137;6462;646
t138;7049;705
t139;7066;707
t140;6713;671
t141;6164;616
t142;5759;576
t143;5501;550
t144;4972;497
t145;4459;446
t146;4022;402
t147;3772;377
t148;3678;368
t149;3704;370
t150;3615;362
t151;3491;349
t152;3758;376
t153;4242;424
t154;4576;458
t155;4842;484
t156;5008;501
t157;4892;489
t158;4774;477
t159;4646;465
t160;4714;471
t161;4990;499
t162;5521;552
t163;5539;554
t164;5306;531
t165;4830;483
t166;4542;454
t167;4585;459
t168;4131;413
t169;3665;367
t170;3326;333
t171;3224;322
t172;3209;321
t173;3331;333
t174;3352;335
t175;3192;319
t176;3425;343
t177;3793;379
t178;4294;429
t179;4654;465
t180;5006;501
t181;5005;501
t182;4840;484
t183;4824;482
t184;4899;490
t185;5211;521
t186;5892;589
t187;6085;609
t188;5995;600
t189;5728;573
t190;5608;561
t191;5715;572
t192;5337;534
t193;4993;499
t194;4736;474
t195;4646;465
t196;4722;472
t197;4972;497
t198;5515;552
t199;6738;674
t200;7777;778
t201;8184;818
t202;8163;816
t203;8254;825
t204;8313;831
t205;8216;822
t206;8103;810
t207;7983;798
t208;7896;790
t209;7803;780
t210;7977;798
t211;7805;781
t212;7455;746
t213;6819;682
t214;6191;619
t215;5638;564
t216;4877;488
t217;4276;428
t218;3923;392
t219;3834;383
t220;3943;394
t221;4256;426
t222;4797;480
t223;5969;597
t224;6960;696
t225;7301;730
t226;7353;735
t227;7482;748
t228;7512;751
t229;7451;745
t230;7398;740
t231;7380;738
t232;7715;772
t233;7899;790
t234;8295;830
t235;8271;827
t236;7990;799
t237;7435;744
t238;6969;697
t239;6570;657
t240;5912;591
t241;5356;536
t242;5038;504
t243;4912;491
t244;4852;485
t245;4916;492
t246;5242;524
t247;6211;621
t248;7197;720
t249;7432;743
t250;7212;721
t251;7161;716
t252;7195;720
t253;7141;714
t254;7197;720
t255;7276;728
t256;7384;738
t257;7498;750
t258;7920;792
t259;7929;793
t260;7750;775
t261;7243;724
t262;6769;677
t263;6319;632
t264;5579;558
t265;5005;501
t266;4641;464
t267;4385;439
t268;4301;430
t269;4294;429
t270;4586;459
t271;5420;542
t272;6209;621
t273;6406;641
t274;6164;616
t275;6068;607
t276;6041;604
t277;5926;593
t278;5858;586
t279;5820;582
t280;5886;589
t281;6035;604
t282;6486;649
t283;6503;650
t284;6371;637
t285;5836;584
t286;5480;548
t287;5200;520
t288;4601;460
t289;4139;414
t290;3849;385
t291;3763;376
t292;3797;380
t293;3967;397
t294;4313;431
t295;5206;521
t296;6148;615
t297;6442;644
t298;6225;623
t299;6139;614
t300;6082;608
t301;6008;601
t302;5858;586
t303;5875;588
t304;6002;600
t305;6199;620
t306;6715;672
t307;6669;667
t308;6340;634
t309;5753;575
t310;5350;535
t311;5157;516
t312;4753;475
t313;4369;437
t314;4118;412
t315;3990;399
t316;4021;402
t317;4122;412
t318;4153;415
t319;4197;420
t320;4719;472
t321;5261;526
t322;5649;565
t323;5783;578
t324;5744;574
t325;5514;551
t326;5254;525
t327;5197;520
t328;5470;547
t329;5863;586
t330;6527;653
t331;6595;660
t332;6396;640
t333;5963;596
t334;5778;578
t335;5847;585
t336;5524;552
t337;5175;518
t338;4867;487
t339;4759;476
t340;4671;467
t341;4646;465
t342;4571;457
t343;4397;440
t344;4607;461
t345;5006;501
t346;5316;532
t347;5526;553
t348;5715;572
t349;5585;559
t350;5309;531
t351;5263;526
t352;5438;544
t353;5872;587
t354;6692;669
t355;6917;692
t356;6787;679
t357;6507;651
t358;6340;634
t359;6434;643
t360;6049;605
t361;5714;571
t362;5509;551
t363;5382;538
t364;5410;541
t365;5600;560
t366;6027;603
t367;7146;715
t368;8115;812
t369;8332;833
t370;8113;811
t371;7950;795
t372;7821;782
t373;7670;767
t374;7626;763
t375;7679;768
t376;7844;784
t377;8074;807
t378;8602;860
t379;8599;860
t380;8378;838
t381;7862;786
t382;7458;746
t383;7153;715
t384;6563;656
t385;6081;608
t386;5734;573
t387;5541;554
t388;5528;553
t389;5665;567
t390;6048;605
t391;7093;709
t392;8069;807
t393;8313;831
t394;8161;816
t395;8076;808
t396;8024;802
t397;7823;782
t398;7746;775
t399;7773;777
t400;7920;792
t401;8132;813
t402;8703;870
t403;8737;874
t404;8507;851
t405;8034;803
t406;7611;761
t407;7301;730
t408;6738;674
t409;6261;626
t410;5944;594
t411;5757;576
t412;5753;575
t413;5822;582
t414;6170;617
t415;7067;707
t416;7877;788
t417;7911;791
t418;7525;753
t419;7356;736
t420;7231;723
t421;7079;708
t422;7028;703
t423;7017;702
t424;7113;711
t425;7209;721
t426;7583;758
t427;7402;740
t428;6978;698
t429;6386;639
t430;5921;592
t431;5650;565
t432;5166;517
t433;4673;467
t434;4495;450
t435;4516;452
t436;4696;470
t437;4942;494
t438;5367;537
t439;6448;645
t440;7394;739
t441;7663;766
t442;7631;763
t443;7692;769
t444;7804;780
t445;7784;778
t446;7692;769
t447;7513;751
t448;7365;737
t449;7222;722
t450;7226;723
t451;6944;694
t452;6547;655
t453;5940;594
t454;5565;557
t455;5424;542
t456;4946;495
t457;4593;459
t458;4356;436
t459;4294;429
t460;4370;437
t461;4526;453
t462;4868;487
t463;5895;590
t464;6880;688
t465;7092;709
t466;6996;700
t467;6924;692
t468;6943;694
t469;6916;692
t470;6843;684
t471;6895;690
t472;7071;707
t473;7311;731
t474;7855;786
t475;7836;784
t476;7483;748
t477;6891;689
t478;6508;651
t479;6314;631
t480;5864;586
t481;5455;546
t482;5183;518
t483;5033;503
t484;4966;497
t485;4885;489
t486;4746;475
t487;4683;468
t488;5007;501
t489;5390;539
t490;5590;559
t491;5705;571
t492;5641;564
t493;5291;529
t494;4915;492
t495;4719;472
t496;4692;469
t497;4790;479
t498;5389;539
t499;5552;555
t500;5281;528
t501;4752;475
t502;4376;438
t503;4229;423
t504;3807;381
t505;3411;341
t506;3045;305
t507;2839;284
t508;2691;269
t509;2623;262
t510;2556;256
t511;2357;236
t512;2549;255
t513;2920;292
t514;3352;335
t515;3728;373
t516;4175;418
t517;4186;419
t518;4138;414
t519;4086;409
t520;4207;421
t521;4454;445
t522;5114;511
t523;5461;546
t524;5455;546
t525;5182;518
t526;5021;502
t527;5115;512
t528;4624;462
t529;4310;431
t530;4170;417
t531;4283;428
t532;4476;448
t533;4763;476
t534;5331;533
t535;6525;653
t536;7625;763
t537;7893;789
t538;7873;787
t539;7888;789
t540;7958;796
t541;7876;788
t542;7883;788
t543;7822;782
t544;7800;780
t545;7828;783
t546;8279;828
t547;8344;834
t548;8153;815
t549;7634;763
t550;7209;721
t551;6931;693
t552;6328;633
t553;5899;590
t554;5673;567
t555;5538;554
t556;5590;559
t557;5732;573
t558;6111;611
t559;7105;711
t560;8031;803
t561;8268;827
t562;8180;818
t563;8207;821
t564;8271;827
t565;8181;818
t566;8177;818
t567;8157;816
t568;8220;822
t569;8216;822
t570;8648;865
t571;8745;875
t572;8554;855
t573;8053;805
t574;7638;764
t575;7307;731
t576;6745;675
t577;6346;635
t578;6080;608
t579;5912;591
t580;5924;592
t581;6075;608
t582;6430;643
t583;7392;739
t584;8242;824
t585;8398;840
t586;8249;825
t587;8154;815
t588;8048;805
t589;7938;794
t590;7875;788
t591;7815;782
t592;7862;786
t593;7945;795
t594;8399;840
t595;8513;851
t596;8256;826
t597;7751;775
t598;7290;729
t599;6982;698
t600;6369;637
t601;5901;590
t602;5635;564
t603;5437;544
t604;5424;542
t605;5493;549
t606;5797;580
t607;6623;662
t608;7430;743
t609;7551;755
t610;7376;738
t611;7266;727
t612;7160;716
t613;6963;696
t614;6891;689
t615;6943;694
t616;7049;705
t617;7128;713
t618;7531;753
t619;7527;753
t620;7281;728
t621;6747;675
t622;6369;637
t623;6216;622
t624;5792;579
t625;5353;535
t626;5112;511
t627;5035;504
t628;5119;512
t629;5322;532
t630;5698;570
t631;6630;663
t632;7575;758
t633;7954;795
t634;7910;791
t635;7995;800
t636;8068;807
t637;8014;801
t638;7836;784
t639;7729;773
t640;7739;774
t641;7794;779
t642;8210;821
t643;8257;826
t644;8000;800
t645;7473;747
t646;7101;710
t647;6920;692
t648;6480;648
t649;6077;608
t650;5805;581
t651;5619;562
t652;5582;558
t653;5563;556
t654;5441;544
t655;5411;541
t656;5804;580
t657;6286;629
t658;6706;671
t659;6883;688
t660;6947;695
t661;6818;682
t662;6574;657
t663;6447;645
t664;6409;641
t665;6483;648
t666;7022;702
t667;7152;715
t668;6876;688
t669;6426;643
t670;6150;615
t671;6168;617
t672;5875;588
