j;P_Turb;P_Pump;Eta_Turb;Eta_Pump;E_Max;E_Min;E_ini;E_fin;K_Pump;K_Turb
PSW1;337;169;0,92;0,85;2359;169;843;843;10;11
PSW2;506;253;0,94;0,9;3542;253;1265;1265;10,5;11,5
PSW3;169;84;0,89;0,8;1183;85;423;423;9,5;10
