j;P_Turb;P_Pump;Eta_Turb;Eta_Pump;E_Max;E_Min;E_ini;E_fin;K_Pump;K_Turb
PSW1;380;190;0,92;0,85;2660;190;950;950;10;11
PSW2;570;285;0,94;0,9;3990;285;1425;1425;10,5;11,5
PSW3;190;95;0,89;0,8;1330;95;475;475;9,5;10
