t;Dt;Rt
t1;6612;661
t2;6198;620
t3;5756;576
t4;5417;542
t5;5183;518
t6;4905;491
t7;4419;442
t8;4419;442
t9;4438;444
t10;4621;462
t11;4987;499
t12;5573;557
t13;5788;579
t14;5825;583
t15;5890;589
t16;6108;611
t17;6749;675
t18;7532;753
t19;7729;773
t20;7458;746
t21;6856;686
t22;6371;637
t23;5878;588
t24;4931;493
t25;4120;412
t26;3565;357
t27;3384;338
t28;3484;348
t29;4011;401
t30;5086;509
t31;6603;660
t32;8285;829
t33;9383;938
t34;9908;991
t35;10388;1039
t36;10661;1066
t37;10696;1070
t38;10513;1051
t39;10353;1035
t40;10306;1031
t41;10518;1052
t42;10976;1098
t43;10809;1081
t44;10378;1038
t45;9403;940
t46;8824;882
t47;8438;844
t48;7349;735
t49;6800;680
t50;6258;626
t51;6020;602
t52;6061;606
t53;6089;609
t54;6374;637
t55;7118;712
t56;7954;795
t57;8312;831
t58;8143;814
t59;7893;789
t60;7722;772
t61;7590;759
t62;7506;751
t63;7497;750
t64;7722;772
t65;8108;811
t66;8627;863
t67;8519;852
t68;8210;821
t69;7370;737
t70;6849;685
t71;6547;655
t72;5707;571
t73;5021;502
t74;4634;463
t75;4609;461
t76;4796;480
t77;5128;513
t78;5668;567
t79;6673;667
t80;7858;786
t81;8359;836
t82;8394;839
t83;8296;830
t84;8301;830
t85;8152;815
t86;8051;805
t87;7976;798
t88;8034;803
t89;8417;842
t90;9155;916
t91;9033;903
t92;8599;860
t93;7712;771
t94;6985;699
t95;6605;661
t96;5763;576
t97;5040;504
t98;4686;469
t99;4463;446
t100;4454;445
t101;4708;471
t102;5093;509
t103;6108;611
t104;7435;744
t105;8269;827
t106;8635;864
t107;8852;885
t108;9097;910
t109;9132;913
t110;9016;902
t111;8859;886
t112;8736;874
t113;8878;888
t114;9295;930
t115;9111;911
t116;8498;850
t117;7745;775
t118;7103;710
t119;6818;682
t120;6005;601
t121;5380;538
t122;4956;496
t123;4841;484
t124;4994;499
t125;5323;532
t126;5760;576
t127;6492;649
t128;7599;760
t129;8357;836
t130;8803;880
t131;9153;915
t132;9434;943
t133;9389;939
t134;9179;918
t135;9009;901
t136;9142;914
t137;9693;969
t138;10573;1057
t139;10599;1060
t140;10070;1007
t141;9246;925
t142;8639;864
t143;8252;825
t144;7458;746
t145;6689;669
t146;6033;603
t147;5658;566
t148;5517;552
t149;5556;556
t150;5422;542
t151;5237;524
t152;5637;564
t153;6364;636
t154;6863;686
t155;7263;726
t156;7513;751
t157;7338;734
t158;7161;716
t159;6969;697
t160;7071;707
t161;7485;749
t162;8282;828
t163;8308;831
t164;7960;796
t165;7245;725
t166;6812;681
t167;6877;688
t168;6196;620
t169;5498;550
t170;4989;499
t171;4836;484
t172;4813;481
t173;4996;500
t174;5028;503
t175;4788;479
t176;5137;514
t177;5690;569
t178;6441;644
t179;6981;698
t180;7509;751
t181;7507;751
t182;7259;726
t183;7236;724
t184;7349;735
t185;7817;782
t186;8838;884
t187;9128;913
t188;8993;899
t189;8591;859
t190;8412;841
t191;8572;857
t192;8005;801
t193;7490;749
t194;7104;710
t195;6969;697
t196;7083;708
t197;7458;746
t198;8273;827
t199;10107;1011
t200;11666;1167
t201;12277;1228
t202;12245;1225
t203;12380;1238
t204;12470;1247
t205;12324;1232
t206;12155;1216
t207;11974;1197
t208;11844;1184
t209;11705;1171
t210;11965;1197
t211;11708;1171
t212;11182;1118
t213;10228;1023
t214;9287;929
t215;8458;846
t216;7316;732
t217;6415;642
t218;5885;589
t219;5751;575
t220;5915;592
t221;6385;639
t222;7196;720
t223;8954;895
t224;10439;1044
t225;10951;1095
t226;11029;1103
t227;11222;1122
t228;11268;1127
t229;11177;1118
t230;11097;1110
t231;11069;1107
t232;11573;1157
t233;11849;1185
t234;12442;1244
t235;12407;1241
t236;11984;1198
t237;11152;1115
t238;10453;1045
t239;9855;986
t240;8868;887
t241;8034;803
t242;7557;756
t243;7368;737
t244;7279;728
t245;7374;737
t246;7863;786
t247;9317;932
t248;10795;1080
t249;11149;1115
t250;10818;1082
t251;10742;1074
t252;10793;1079
t253;10712;1071
t254;10795;1080
t255;10914;1091
t256;11076;1108
t257;11247;1125
t258;11881;1188
t259;11893;1189
t260;11625;1163
t261;10865;1087
t262;10154;1015
t263;9478;948
t264;8368;837
t265;7507;751
t266;6962;696
t267;6578;658
t268;6452;645
t269;6441;644
t270;6879;688
t271;8130;813
t272;9313;931
t273;9609;961
t274;9246;925
t275;9102;910
t276;9061;906
t277;8889;889
t278;8787;879
t279;8731;873
t280;8829;883
t281;9053;905
t282;9728;973
t283;9755;976
t284;9556;956
t285;8753;875
t286;8220;822
t287;7800;780
t288;6902;690
t289;6209;621
t290;5774;577
t291;5644;564
t292;5695;570
t293;5950;595
t294;6469;647
t295;7808;781
t296;9221;922
t297;9663;966
t298;9338;934
t299;9209;921
t300;9123;912
t301;9012;901
t302;8787;879
t303;8813;881
t304;9003;900
t305;9299;930
t306;10073;1007
t307;10003;1000
t308;9510;951
t309;8630;863
t310;8025;803
t311;7736;774
t312;7129;713
t313;6554;655
t314;6177;618
t315;5985;599
t316;6031;603
t317;6182;618
t318;6230;623
t319;6295;630
t320;7078;708
t321;7891;789
t322;8474;847
t323;8674;867
t324;8616;862
t325;8271;827
t326;7881;788
t327;7796;780
t328;8204;820
t329;8794;879
t330;9790;979
t331;9892;989
t332;9595;960
t333;8945;895
t334;8667;867
t335;8771;877
t336;8285;829
t337;7763;776
t338;7300;730
t339;7138;714
t340;7006;701
t341;6969;697
t342;6856;686
t343;6596;660
t344;6911;691
t345;7509;751
t346;7974;797
t347;8289;829
t348;8572;857
t349;8377;838
t350;7963;796
t351;7895;790
t352;8157;816
t353;8808;881
t354;10038;1004
t355;10376;1038
t356;10181;1018
t357;9760;976
t358;9510;951
t359;9651;965
t360;9074;907
t361;8570;857
t362;8264;826
t363;8072;807
t364;8115;812
t365;8400;840
t366;9040;904
t367;10719;1072
t368;12173;1217
t369;12498;1250
t370;12169;1217
t371;11925;1193
t372;11731;1173
t373;11506;1151
t374;11439;1144
t375;11518;1152
t376;11766;1177
t377;12111;1211
t378;12903;1290
t379;12898;1290
t380;12567;1257
t381;11793;1179
t382;11187;1119
t383;10730;1073
t384;9844;984
t385;9121;912
t386;8600;860
t387;8312;831
t388;8292;829
t389;8498;850
t390;9072;907
t391;10640;1064
t392;12104;1210
t393;12470;1247
t394;12241;1224
t395;12115;1212
t396;12035;1204
t397;11735;1174
t398;11618;1162
t399;11659;1166
t400;11881;1188
t401;12197;1220
t402;13054;1305
t403;13105;1311
t404;12761;1276
t405;12051;1205
t406;11416;1142
t407;10951;1095
t408;10107;1011
t409;9392;939
t410;8915;892
t411;8635;864
t412;8630;863
t413;8732;873
t414;9255;926
t415;10601;1060
t416;11815;1182
t417;11867;1187
t418;11288;1129
t419;11034;1103
t420;10846;1085
t421;10619;1062
t422;10541;1054
t423;10526;1053
t424;10670;1067
t425;10814;1081
t426;11374;1137
t427;11103;1110
t428;10467;1047
t429;9579;958
t430;8882;888
t431;8475;848
t432;7749;775
t433;7009;701
t434;6742;674
t435;6774;677
t436;7045;705
t437;7412;741
t438;8051;805
t439;9672;967
t440;11090;1109
t441;11495;1150
t442;11446;1145
t443;11537;1154
t444;11706;1171
t445;11676;1168
t446;11537;1154
t447;11270;1127
t448;11048;1105
t449;10833;1083
t450;10839;1084
t451;10416;1042
t452;9820;982
t453;8910;891
t454;8347;835
t455;8136;814
t456;7419;742
t457;6890;689
t458;6534;653
t459;6441;644
t460;6555;656
t461;6789;679
t462;7302;730
t463;8843;884
t464;10320;1032
t465;10638;1064
t466;10494;1049
t467;10386;1039
t468;10415;1042
t469;10374;1037
t470;10265;1027
t471;10343;1034
t472;10606;1061
t473;10967;1097
t474;11782;1178
t475;11754;1175
t476;11224;1122
t477;10337;1034
t478;9762;976
t479;9471;947
t480;8796;880
t481;8183;818
t482;7775;778
t483;7550;755
t484;7449;745
t485;7328;733
t486;7118;712
t487;7025;703
t488;7511;751
t489;8085;809
t490;8386;839
t491;8558;856
t492;8461;846
t493;7937;794
t494;7372;737
t495;7078;708
t496;7038;704
t497;7185;719
t498;8083;808
t499;8328;833
t500;7921;792
t501;7127;713
t502;6564;656
t503;6344;634
t504;5711;571
t505;5116;512
t506;4567;457
t507;4259;426
t508;4037;404
t509;3935;394
t510;3835;384
t511;3535;354
t512;3824;382
t513;4380;438
t514;5028;503
t515;5593;559
t516;6263;626
t517;6279;628
t518;6207;621
t519;6129;613
t520;6311;631
t521;6680;668
t522;7671;767
t523;8192;819
t524;8183;818
t525;7773;777
t526;7532;753
t527;7673;767
t528;6935;694
t529;6466;647
t530;6254;625
t531;6425;643
t532;6714;671
t533;7145;715
t534;7997;800
t535;9788;979
t536;11437;1144
t537;11840;1184
t538;11810;1181
t539;11831;1183
t540;11937;1194
t541;11814;1181
t542;11824;1182
t543;11733;1173
t544;11699;1170
t545;11742;1174
t546;12419;1242
t547;12516;1252
t548;12229;1223
t549;11451;1145
t550;10814;1081
t551;10397;1040
t552;9493;949
t553;8848;885
t554;8509;851
t555;8306;831
t556;8386;839
t557;8599;860
t558;9167;917
t559;10658;1066
t560;12046;1205
t561;12401;1240
t562;12270;1227
t563;12310;1231
t564;12407;1241
t565;12271;1227
t566;12266;1227
t567;12236;1224
t568;12329;1233
t569;12324;1232
t570;12972;1297
t571;13118;1312
t572;12831;1283
t573;12079;1208
t574;11456;1146
t575;10960;1096
t576;10117;1012
t577;9519;952
t578;9119;912
t579;8868;887
t580;8885;889
t581;9112;911
t582;9646;965
t583;11089;1109
t584;12363;1236
t585;12597;1260
t586;12373;1237
t587;12231;1223
t588;12072;1207
t589;11907;1191
t590;11812;1181
t591;11722;1172
t592;11793;1179
t593;11918;1192
t594;12599;1260
t595;12769;1277
t596;12384;1238
t597;11627;1163
t598;10936;1094
t599;10473;1047
t600;9554;955
t601;8852;885
t602;8452;845
t603;8155;816
t604;8136;814
t605;8240;824
t606;8695;870
t607;9934;993
t608;11145;1115
t609;11326;1133
t610;11064;1106
t611;10899;1090
t612;10740;1074
t613;10445;1045
t614;10337;1034
t615;10415;1042
t616;10573;1057
t617;10693;1069
t618;11296;1130
t619;11291;1129
t620;10921;1092
t621;10121;1012
t622;9554;955
t623;9324;932
t624;8688;869
t625;8030;803
t626;7668;767
t627;7553;755
t628;7678;768
t629;7983;798
t630;8547;855
t631;9945;995
t632;11363;1136
t633;11932;1193
t634;11865;1187
t635;11993;1199
t636;12102;1210
t637;12021;1202
t638;11754;1175
t639;11594;1159
t640;11608;1161
t641;11691;1169
t642;12315;1232
t643;12386;1239
t644;12000;1200
t645;11210;1121
t646;10652;1065
t647;10379;1038
t648;9720;972
t649;9116;912
t650;8708;871
t651;8428;843
t652;8373;837
t653;8345;835
t654;8162;816
t655;8116;812
t656;8706;871
t657;9429;943
t658;10059;1006
t659;10325;1033
t660;10420;1042
t661;10226;1023
t662;9860;986
t663;9670;967
t664;9614;961
t665;9725;973
t666;10533;1053
t667;10728;1073
t668;10314;1031
t669;9639;964
t670;9225;923
t671;9251;925
t672;8813;881
t673;8285;829
t674;7789;779
t675;7532;753
t676;7374;737
t677;7242;724
t678;7039;704
t679;6666;667
t680;6941;694
t681;7595;760
t682;8203;820
t683;8713;871
t684;9163;916
t685;9042;904
t686;8599;860
t687;8310;831
t688;8183;818
t689;8225;823
t690;9021;902
t691;9396;940
t692;9151;915
t693;8664;866
t694;8498;850
t695;8685;869
t696;8183;818
t697;7671;767
t698;7279;728
t699;6987;699
t700;6960;696
t701;7148;715
t702;7734;773
t703;9236;924
t704;10731;1073
t705;11187;1119
t706;11240;1124
t707;11312;1131
t708;11416;1142
t709;11302;1130
t710;11133;1113
t711;10960;1096
t712;10918;1092
t713;10782;1078
t714;11742;1174
t715;11455;1146
t716;11161;1116
t717;10497;1050
t718;9985;999
t719;9704;970
t720;8887;889
t721;8368;837
t722;7974;797
t723;7793;779
t724;7785;779
t725;7895;790
t726;8336;834
t727;9621;962
t728;10921;1092
t729;11175;1118
t730;11032;1103
t731;10890;1089
t732;10832;1083
t733;10658;1066
t734;10534;1053
t735;10439;1044
t736;10450;1045
t737;10518;1052
t738;11201;1120
t739;11560;1156
t740;11312;1131
t741;10781;1078
t742;10311;1031
t743;10026;1003
t744;9353;935
t745;8137;814
t746;7845;785
t747;7646;765
t748;7650;765
t749;7757;776
t750;8180;818
t751;9383;938
t752;10554;1055
t753;10760;1076
t754;10547;1055
t755;10302;1030
t756;10110;1011
t757;9795;980
t758;9565;957
t759;9420;942
t760;9556;956
t761;9730;973
t762;10494;1049
t763;10944;1094
t764;10647;1065
t765;10019;1002
t766;9568;957
t767;9274;927
t768;8871;887
t769;8648;865
t770;8394;839
t771;8213;821
t772;8153;815
t773;8285;829
t774;8824;882
t775;10091;1009
t776;11428;1143
t777;11671;1167
t778;11464;1146
t779;11238;1124
t780;11071;1107
t781;10886;1089
t782;10872;1087
t783;10925;1093
t784;11138;1114
t785;11302;1130
t786;11884;1188
t787;12213;1221
t788;12023;1202
t789;11523;1152
t790;11075;1108
t791;10874;1087
t792;10314;1031
t793;9816;982
t794;9468;947
t795;9109;911
t796;8877;888
t797;8877;888
t798;9313;931
t799;10552;1055
t800;11666;1167
t801;11766;1177
t802;11560;1156
t803;11479;1148
t804;11365;1137
t805;11180;1118
t806;11041;1104
t807;10953;1095
t808;11080;1108
t809;11270;1127
t810;11925;1193
t811;12199;1220
t812;11976;1198
t813;11347;1135
t814;10821;1082
t815;10793;1079
t816;10381;1038
t817;9878;988
t818;9485;949
t819;9081;908
t820;8767;877
t821;8574;857
t822;8380;838
t823;8173;817
t824;8716;872
t825;9306;931
t826;9683;968
t827;9792;979
t828;9647;965
t829;9405;941
t830;9128;913
t831;9058;906
t832;9258;926
t833;9544;954
t834;10371;1037
t835;10874;1087
t836;10564;1056
t837;9908;991
t838;9654;965
t839;9844;984
t840;9477;948
t841;9063;906
t842;8655;866
t843;8317;832
t844;7991;799
t845;7782;778
t846;7499;750
t847;7029;703
t848;7258;726
t849;7722;772
t850;8069;807
t851;8174;817
t852;8345;835
t853;8092;809
t854;7805;781
t855;7780;778
t856;8016;802
t857;8356;836
t858;9232;923
t859;9957;996
t860;9811;981
t861;9382;938
t862;9250;925
t863;9639;964
t864;9304;930
t865;8977;898
t866;8658;866
t867;8481;848
t868;8338;834
t869;8481;848
t870;9058;906
t871;10506;1051
t872;11659;1166
t873;11835;1184
t874;11631;1163
t875;11407;1141
t876;11280;1128
t877;11222;1122
t878;11238;1124
t879;11312;1131
t880;11442;1144
t881;11562;1156
t882;12159;1216
t883;12541;1254
t884;12333;1233
t885;11694;1169
t886;11312;1131
t887;11175;1118
t888;10647;1065
t889;10237;1024
t890;9892;989
t891;9563;956
t892;9338;934
t893;9294;929
t894;9603;960
t895;10742;1074
t896;11870;1187
t897;12055;1206
t898;11951;1195
t899;11976;1198
t900;11939;1194
t901;11717;1172
t902;11724;1172
t903;11698;1170
t904;11683;1168
t905;11536;1154
t906;11939;1194
t907;12148;1215
t908;11921;1192
t909;11235;1124
t910;10712;1071
t911;10497;1050
t912;9927;993
t913;9313;931
t914;8975;898
t915;8667;867
t916;8509;851
t917;8574;857
t918;9044;904
t919;10219;1022
t920;11435;1144
t921;11824;1182
t922;11814;1181
t923;11712;1171
t924;11592;1159
t925;11420;1142
t926;11370;1137
t927;11379;1138
t928;11523;1152
t929;11652;1165
t930;12268;1227
t931;12729;1273
t932;12523;1252
t933;11979;1198
t934;11513;1151
t935;11282;1128
t936;10548;1055
t937;10015;1002
t938;9577;958
t939;9255;926
t940;9074;907
t941;9028;903
t942;9373;937
t943;10536;1054
t944;11560;1156
t945;11752;1175
t946;11539;1154
t947;11328;1133
t948;11175;1118
t949;11045;1105
t950;11036;1104
t951;10842;1084
t952;10786;1079
t953;10730;1073
t954;11173;1117
t955;11617;1162
t956;11467;1147
t957;10925;1093
t958;10612;1061
t959;10552;1055
t960;10026;1003
t961;9563;956
t962;9278;928
t963;9118;912
t964;9056;906
t965;9169;917
t966;9558;956
t967;10679;1068
t968;11770;1177
t969;12039;1204
t970;11967;1197
t971;11912;1191
t972;11754;1175
t973;11502;1150
t974;11196;1120
t975;11048;1105
t976;11119;1112
t977;11266;1127
t978;11852;1185
t979;12396;1240
t980;12083;1208
t981;11437;1144
t982;10974;1097
t983;10964;1096
t984;10526;1053
t985;10020;1002
t986;9626;963
t987;9197;920
t988;8924;892
t989;8718;872
t990;8445;845
t991;8224;822
t992;8711;871
t993;9308;931
t994;9704;970
t995;9774;977
t996;9653;965
t997;9373;937
t998;9017;902
t999;8892;889
t1000;9058;906
t1001;9338;934
t1002;10093;1009
t1003;10930;1093
t1004;10640;1064
t1005;10003;1000
t1006;9744;974
t1007;9955;996
t1008;9586;959
t1009;9179;918
t1010;8704;870
t1011;8375;838
t1012;8106;811
t1013;7833;783
t1014;7615;762
t1015;7222;722
t1016;7303;730
t1017;7692;769
t1018;8090;809
t1019;8225;823
t1020;8340;834
t1021;8130;813
t1022;7747;775
t1023;7590;759
t1024;7703;770
t1025;7974;797
t1026;8782;878
t1027;9674;967
t1028;9556;956
t1029;9214;921
t1030;9081;908
t1031;9419;942
t1032;9074;907
t1033;8706;871
t1034;8539;854
t1035;8389;839
t1036;8259;826
t1037;8428;843
t1038;9002;900
t1039;10474;1047
t1040;11735;1174
t1041;12037;1204
t1042;12134;1213
t1043;12203;1220
t1044;12315;1232
t1045;12296;1230
t1046;12217;1222
t1047;12141;1214
t1048;12062;1206
t1049;11976;1198
t1050;12314;1231
t1051;12722;1272
t1052;12488;1249
t1053;11814;1181
t1054;11210;1121
t1055;10867;1087
t1056;10145;1015
t1057;9603;960
t1058;9283;928
t1059;8996;900
t1060;8885;889
t1061;8982;898
t1062;9334;933
t1063;10425;1043
t1064;11435;1144
t1065;11743;1174
t1066;11946;1195
t1067;12078;1208
t1068;12145;1215
t1069;11911;1191
t1070;11648;1165
t1071;11384;1138
t1072;11189;1119
t1073;10976;1098
t1074;11173;1117
t1075;11272;1127
t1076;10654;1065
t1077;9647;965
t1078;8794;879
t1079;8106;811
t1080;7126;713
t1081;6230;623
t1082;5698;570
t1083;5357;536
t1084;5290;529
t1085;5466;547
t1086;5878;588
t1087;7101;710
t1088;8176;818
t1089;8544;854
t1090;8602;860
t1091;8702;870
t1092;8725;873
t1093;8514;851
t1094;8401;840
t1095;8459;846
t1096;8567;857
t1097;8704;870
t1098;9155;916
t1099;9762;976
t1100;9753;975
t1101;9172;917
t1102;8915;892
t1103;8838;884
t1104;8310;831
t1105;7940;794
t1106;7817;782
t1107;7800;780
t1108;7995;800
t1109;8319;832
t1110;8827;883
t1111;10045;1005
t1112;11089;1109
t1113;11360;1136
t1114;11298;1130
t1115;11141;1114
t1116;11094;1109
t1117;10877;1088
t1118;10731;1073
t1119;10615;1062
t1120;10628;1063
t1121;10529;1053
t1122;10819;1082
t1123;11180;1118
t1124;10751;1075
t1125;9887;989
t1126;9246;925
t1127;8783;878
t1128;7821;782
t1129;7096;710
t1130;6673;667
t1131;6395;640
t1132;6367;637
t1133;6554;655
t1134;6981;698
t1135;8192;819
t1136;9406;941
t1137;9885;989
t1138;9987;999
t1139;10147;1015
t1140;10209;1021
t1141;10049;1005
t1142;9880;988
t1143;9795;980
t1144;9813;981
t1145;9841;984
t1146;10371;1037
t1147;10839;1084
t1148;10562;1056
t1149;9869;987
t1150;9429;943
t1151;9244;924
t1152;8616;862
t1153;7995;800
t1154;7571;757
t1155;7312;731
t1156;7138;714
t1157;7136;714
t1158;6935;694
t1159;6673;667
t1160;7052;705
t1161;7581;758
t1162;7914;791
t1163;7956;796
t1164;7891;789
t1165;7534;753
t1166;7215;722
t1167;7038;704
t1168;6911;691
t1169;7001;700
t1170;7467;747
t1171;8095;810
t1172;7764;776
t1173;7004;700
t1174;6548;655
t1175;6657;666
t1176;6131;613
t1177;5570;557
t1178;5082;508
t1179;4880;488
t1180;4864;486
t1181;4908;491
t1182;4843;484
t1183;4611;461
t1184;4831;483
t1185;5366;537
t1186;5890;589
t1187;6091;609
t1188;6149;615
t1189;5656;566
t1190;5144;514
t1191;5060;506
t1192;5292;529
t1193;5716;572
t1194;6698;670
t1195;7650;765
t1196;7741;774
t1197;7374;737
t1198;7221;722
t1199;7546;755
t1200;7115;712
t1201;6693;669
t1202;6390;639
t1203;6246;625
t1204;6369;637
t1205;6631;663
t1206;7157;716
t1207;8426;843
t1208;9477;948
t1209;9938;994
t1210;9945;995
t1211;9830;983
t1212;9816;982
t1213;9537;954
t1214;9385;939
t1215;9285;929
t1216;9375;938
t1217;9554;955
t1218;10035;1004
t1219;10721;1072
t1220;10383;1038
t1221;9544;954
t1222;8924;892
t1223;8547;855
t1224;7812;781
t1225;7092;709
t1226;6578;658
t1227;6270;627
t1228;6158;616
t1229;6258;626
t1230;6580;658
t1231;7476;748
t1232;8328;833
t1233;8562;856
t1234;8474;847
t1235;8364;836
t1236;8393;839
t1237;8319;832
t1238;8280;828
t1239;8431;843
t1240;8706;871
t1241;8949;895
t1242;9542;954
t1243;10386;1039
t1244;10284;1028
t1245;9609;961
t1246;9097;910
t1247;8789;879
t1248;8048;805
t1249;7479;748
t1250;7157;716
t1251;6964;696
t1252;6981;698
t1253;7206;721
t1254;7560;756
t1255;8731;873
t1256;9635;964
t1257;9756;976
t1258;9500;950
t1259;9334;933
t1260;9063;906
t1261;8539;854
t1262;8320;832
t1263;8342;834
t1264;8600;860
t1265;8866;887
t1266;9369;937
t1267;9975;998
t1268;9517;952
t1269;8472;847
t1270;7666;767
t1271;7134;713
t1272;6149;615
t1273;5411;541
t1274;5179;518
t1275;4959;496
t1276;4977;498
t1277;5162;516
t1278;5734;573
t1279;6941;694
t1280;8141;814
t1281;8641;864
t1282;8826;883
t1283;9037;904
t1284;9220;922
t1285;9202;920
t1286;9260;926
t1287;9265;927
t1288;9311;931
t1289;9304;930
t1290;9764;976
t1291;10167;1017
t1292;9830;983
t1293;8945;895
t1294;8291;829
t1295;7782;778
t1296;6759;676
t1297;5915;592
t1298;5406;541
t1299;5109;511
t1300;5188;519
t1301;5394;539
t1302;6020;602
t1303;7273;727
t1304;8269;827
t1305;8650;865
t1306;8547;855
t1307;8509;851
t1308;8465;847
t1309;8183;818
t1310;7986;799
t1311;7814;781
t1312;7859;786
t1313;7863;786
t1314;8336;834
t1315;8841;884
t1316;8600;860
t1317;7787;779
t1318;7236;724
t1319;6979;698
t1320;6290;629
t1321;5454;545
t1322;5123;512
t1323;5017;502
t1324;5035;504
t1325;5121;512
t1326;5065;507
t1327;5072;507
t1328;5573;557
t1329;6110;611
t1330;6385;639
t1331;6429;643
t1332;6265;627
t1333;5732;573
t1334;5413;541
t1335;5311;531
t1336;5466;547
t1337;5779;578
t1338;6362;636
t1339;7361;736
t1340;7310;731
t1341;6569;657
t1342;6371;637
t1343;6540;654
t1344;6131;613
t1345;5580;558
t1346;5237;524
t1347;5091;509
t1348;5098;510
t1349;5246;525
t1350;5218;522
t1351;5031;503
t1352;5315;532
t1353;6045;605
t1354;6652;665
t1355;6990;699
t1356;7391;739
t1357;7258;726
t1358;6825;683
t1359;6536;654
t1360;6584;658
t1361;6867;687
t1362;7613;761
t1363;8762;876
t1364;9021;902
t1365;8599;860
t1366;8359;836
t1367;8577;858
t1368;8074;807
t1369;7638;764
t1370;7388;739
t1371;7300;730
t1372;7351;735
t1373;7615;762
t1374;8264;826
t1375;9737;974
t1376;10635;1064
t1377;10863;1086
t1378;10693;1069
t1379;10589;1059
t1380;10499;1050
t1381;10297;1030
t1382;10218;1022
t1383;10159;1016
t1384;10207;1021
t1385;10195;1020
t1386;10557;1056
t1387;11097;1110
t1388;10876;1088
t1389;10124;1012
t1390;9454;945
t1391;8961;896
t1392;8078;808
t1393;7382;738
t1394;6987;699
t1395;6782;678
t1396;6798;680
t1397;7053;705
t1398;7604;760
t1399;8843;884
t1400;9730;973
t1401;9966;997
t1402;9830;983
t1403;9753;975
t1404;9656;966
t1405;9362;936
t1406;9156;916
t1407;9014;901
t1408;8818;882
t1409;8723;872
t1410;9111;911
t1411;9616;962
t1412;9477;948
t1413;8843;884
t1414;8356;836
t1415;8037;804
t1416;7266;727
t1417;6789;679
t1418;6476;648
t1419;6460;646
t1420;6714;671
t1421;7185;719
t1422;7914;791
t1423;9382;938
t1424;10413;1041
t1425;10819;1082
t1426;10855;1086
t1427;10918;1092
t1428;11006;1101
t1429;10746;1075
t1430;10622;1062
t1431;10494;1049
t1432;10489;1049
t1433;10471;1047
t1434;10767;1077
t1435;11453;1145
t1436;11472;1147
t1437;10719;1072
t1438;10101;1010
t1439;9588;959
t1440;8729;873
t1441;8511;851
t1442;8060;806
t1443;7851;785
t1444;7970;797
t1445;8225;823
t1446;8826;883
t1447;10242;1024
t1448;11252;1125
t1449;11560;1156
t1450;11467;1147
t1451;11376;1138
t1452;11326;1133
t1453;11096;1110
t1454;10906;1091
t1455;10702;1070
t1456;10735;1074
t1457;10724;1072
t1458;11214;1121
t1459;12120;1212
t1460;12138;1214
t1461;11326;1133
t1462;10626;1063
t1463;10096;1010
t1464;9132;913
t1465;8431;843
t1466;7983;798
t1467;7784;778
t1468;7928;793
t1469;8194;819
t1470;8753;875
t1471;10262;1026
t1472;11398;1140
t1473;11784;1178
t1474;11729;1173
t1475;11747;1175
t1476;11729;1173
t1477;11500;1150
t1478;11266;1127
t1479;11001;1100
t1480;10943;1094
t1481;11048;1105
t1482;11442;1144
t1483;12143;1214
t1484;11965;1197
t1485;11078;1108
t1486;10367;1037
t1487;9848;985
t1488;8984;898
t1489;8222;822
t1490;7724;772
t1491;7414;741
t1492;7284;728
t1493;7317;732
t1494;7228;723
t1495;7192;719
t1496;7652;765
t1497;8264;826
t1498;8664;866
t1499;8648;865
t1500;8544;854
t1501;8335;834
t1502;8069;807
t1503;7750;775
t1504;7819;782
t1505;8009;801
t1506;8577;858
t1507;9487;949
t1508;9408;941
t1509;8753;875
t1510;8310;831
t1511;8252;825
t1512;7666;767
t1513;7020;702
t1514;6459;646
t1515;6249;625
t1516;6314;631
t1517;6434;643
t1518;6367;637
t1519;6200;620
t1520;6448;645
t1521;7173;717
t1522;7768;777
t1523;8076;808
t1524;8363;836
t1525;8079;808
t1526;7661;766
t1527;7412;741
t1528;7435;744
t1529;7594;759
t1530;8127;813
t1531;9061;906
t1532;8980;898
t1533;8400;840
t1534;8002;800
t1535;7956;796
t1536;7157;716
t1537;6430;643
t1538;6061;606
t1539;5925;593
t1540;6024;602
t1541;6360;636
t1542;7101;710
t1543;8843;884
t1544;10068;1007
t1545;10557;1056
t1546;10589;1059
t1547;10649;1065
t1548;10746;1075
t1549;10677;1068
t1550;10689;1069
t1551;10666;1067
t1552;10731;1073
t1553;10721;1072
t1554;10997;1100
t1555;11752;1175
t1556;11793;1179
t1557;11032;1103
t1558;10434;1043
t1559;9911;991
t1560;9016;902
t1561;8417;842
t1562;8078;808
t1563;7954;795
t1564;8086;809
t1565;8336;834
t1566;8921;892
t1567;10337;1034
t1568;11191;1119
t1569;11323;1132
t1570;10939;1094
t1571;10666;1067
t1572;10571;1057
t1573;10413;1041
t1574;10464;1046
t1575;10628;1063
t1576;10826;1083
t1577;10948;1095
t1578;11316;1132
t1579;11960;1196
t1580;12013;1201
t1581;11238;1124
t1582;10511;1051
t1583;10047;1005
t1584;9148;915
t1585;8516;852
t1586;8173;817
t1587;8109;811
t1588;8269;827
t1589;8516;852
t1590;9086;909
t1591;10279;1028
t1592;10948;1095
t1593;10948;1095
t1594;10626;1063
t1595;10450;1045
t1596;10434;1043
t1597;10196;1020
t1598;10181;1018
t1599;10295;1030
t1600;10445;1045
t1601;10506;1051
t1602;10913;1091
t1603;11485;1149
t1604;11383;1138
t1605;10601;1060
t1606;9983;998
t1607;9663;966
t1608;8857;886
t1609;8192;819
t1610;7729;773
t1611;7453;745
t1612;7513;751
t1613;7838;784
t1614;8537;854
t1615;9887;989
t1616;10738;1074
t1617;10855;1086
t1618;10557;1056
t1619;10436;1044
t1620;10265;1027
t1621;9834;983
t1622;9683;968
t1623;9542;954
t1624;9579;958
t1625;9822;982
t1626;10554;1055
t1627;11500;1150
t1628;11784;1178
t1629;11078;1108
t1630;10450;1045
t1631;9996;1000
t1632;9179;918
t1633;8635;864
t1634;8296;830
t1635;8183;818
t1636;8320;832
t1637;8576;858
t1638;9053;905
t1639;10196;1020
t1640;10916;1092
t1641;10960;1096
t1642;10554;1055
t1643;10219;1022
t1644;9962;996
t1645;9642;964
t1646;9352;935
t1647;9130;913
t1648;9220;922
t1649;9563;956
t1650;10189;1019
t1651;10983;1098
t1652;11025;1103
t1653;10042;1004
t1654;9255;926
t1655;8810;881
t1656;8028;803
t1657;7367;737
t1658;6839;684
t1659;6524;652
t1660;6488;649
t1661;6548;655
t1662;6515;652
t1663;6485;649
t1664;6855;686
t1665;7340;734
t1666;7645;765
t1667;7627;763
t1668;7594;759
t1669;7382;738
t1670;7180;718
t1671;6856;686
t1672;6872;687
t1673;7085;709
t1674;7643;764
t1675;8474;847
t1676;8456;846
t1677;7661;766
t1678;7162;716
t1679;6879;688
t1680;6246;625
t1681;5505;551
t1682;4852;485
t1683;4593;459
t1684;4613;461
t1685;4715;472
t1686;4699;470
t1687;4521;452
t1688;4975;498
t1689;5763;576
t1690;6430;643
t1691;6791;679
t1692;7212;721
t1693;7136;714
t1694;6833;683
t1695;6802;680
t1696;6856;686
t1697;7006;701
t1698;7606;761
t1699;8456;846
t1700;8683;868
t1701;8169;817
t1702;7898;790
t1703;7873;787
t1704;7138;714
t1705;6427;643
t1706;6075;608
t1707;5906;591
t1708;5904;590
t1709;6210;621
t1710;6928;693
t1711;8463;846
t1712;9545;955
t1713;10006;1001
t1714;9936;994
t1715;10012;1001
t1716;10012;1001
t1717;9887;989
t1718;9839;984
t1719;9684;968
t1720;9595;960
t1721;9602;960
t1722;9976;998
t1723;10738;1074
t1724;11041;1104
t1725;10339;1034
t1726;9734;973
t1727;9255;926
t1728;8269;827
t1729;7664;766
t1730;7302;730
t1731;7182;718
t1732;7393;739
t1733;7763;776
t1734;8400;840
t1735;9788;979
t1736;10789;1079
t1737;11196;1120
t1738;11092;1109
t1739;11122;1112
t1740;11149;1115
t1741;10876;1088
t1742;10700;1070
t1743;10474;1047
t1744;10328;1033
t1745;10304;1030
t1746;10629;1063
t1747;11268;1127
t1748;11493;1149
t1749;10723;1072
t1750;10045;1005
t1751;9493;949
t1752;8537;854
t1753;7838;784
t1754;7421;742
t1755;7280;728
t1756;7382;738
t1757;7749;775
t1758;8389;839
t1759;9676;968
t1760;10705;1071
t1761;11180;1118
t1762;11150;1115
t1763;11057;1106
t1764;10997;1100
t1765;10754;1075
t1766;10626;1063
t1767;10441;1044
t1768;10480;1048
t1769;10589;1059
t1770;11150;1115
t1771;11963;1196
t1772;12384;1238
t1773;11673;1167
t1774;11025;1103
t1775;10464;1046
t1776;9487;949
t1777;8755;876
t1778;8419;842
t1779;8303;830
t1780;8509;851
t1781;8811;881
t1782;9410;941
t1783;10647;1065
t1784;11390;1139
t1785;11409;1141
t1786;10958;1096
t1787;10603;1060
t1788;10422;1042
t1789;10096;1010
t1790;9968;997
t1791;9945;995
t1792;10035;1004
t1793;10355;1036
t1794;10988;1099
t1795;11854;1185
t1796;12431;1243
t1797;11657;1166
t1798;10807;1081
t1799;10015;1002
t1800;8980;898
t1801;8160;816
t1802;7785;779
t1803;7645;765
t1804;7743;774
t1805;8014;801
t1806;8595;860
t1807;9720;972
t1808;10376;1038
t1809;10304;1030
t1810;10096;1010
t1811;9985;999
t1812;9829;983
t1813;9593;959
t1814;9285;929
t1815;9054;905
t1816;9123;912
t1817;9558;956
t1818;10267;1027
t1819;11031;1103
t1820;11490;1149
t1821;10610;1061
t1822;9813;981
t1823;9271;927
t1824;8472;847
t1825;7801;780
t1826;7358;736
t1827;7071;707
t1828;7023;702
t1829;7059;706
t1830;6985;699
t1831;6840;684
t1832;7205;721
t1833;7618;762
t1834;7777;778
t1835;7720;772
t1836;7669;767
t1837;7453;745
t1838;7266;727
t1839;7310;731
t1840;7557;756
t1841;8012;801
t1842;8688;869
t1843;9498;950
t1844;9721;972
t1845;8954;895
t1846;8475;848
t1847;8247;825
t1848;7608;761
t1849;7008;701
t1850;6584;658
t1851;6376;638
t1852;6290;629
t1853;6291;629
t1854;6232;623
t1855;5936;594
t1856;6170;617
t1857;6628;663
t1858;7087;709
t1859;7284;728
t1860;7421;742
t1861;6893;689
t1862;6504;650
t1863;6256;626
t1864;6166;617
t1865;6351;635
t1866;6851;685
t1867;7787;779
t1868;8185;819
t1869;7629;763
t1870;7286;729
t1871;6988;699
t1872;6309;631
t1873;5756;576
t1874;5475;548
t1875;5470;547
t1876;5790;579
t1877;6365;637
t1878;7222;722
t1879;8769;877
t1880;9764;976
t1881;9721;972
t1882;9308;931
t1883;9299;930
t1884;9364;936
t1885;9100;910
t1886;8977;898
t1887;8965;897
t1888;9111;911
t1889;9280;928
t1890;9897;990
t1891;10860;1086
t1892;11485;1149
t1893;10723;1072
t1894;9904;990
t1895;9274;927
t1896;8273;827
t1897;7680;768
t1898;7347;735
t1899;7238;724
t1900;7270;727
t1901;7492;749
t1902;8108;811
t1903;9179;918
t1904;9983;998
t1905;9999;1000
t1906;9493;949
t1907;9119;912
t1908;8921;892
t1909;8665;867
t1910;8614;861
t1911;8713;871
t1912;9086;909
t1913;9459;946
t1914;10119;1012
t1915;10995;1100
t1916;11588;1159
t1917;10870;1087
t1918;10126;1013
t1919;9508;951
t1920;8655;866
t1921;7914;791
t1922;7574;757
t1923;7435;744
t1924;7615;762
t1925;8034;803
t1926;8743;874
t1927;9996;1000
t1928;10765;1077
t1929;10693;1069
t1930;10258;1026
t1931;10054;1005
t1932;10005;1001
t1933;9748;975
t1934;9751;975
t1935;9691;969
t1936;9800;980
t1937;9934;993
t1938;10541;1054
t1939;11342;1134
t1940;12039;1204
t1941;11370;1137
t1942;10612;1061
t1943;10005;1001
t1944;9082;908
t1945;8324;832
t1946;7928;793
t1947;7805;781
t1948;7974;797
t1949;8291;829
t1950;8984;898
t1951;10184;1018
t1952;10909;1091
t1953;10804;1080
t1954;10277;1028
t1955;10084;1008
t1956;10077;1008
t1957;9834;983
t1958;9764;976
t1959;9728;973
t1960;9897;990
t1961;10105;1011
t1962;10691;1069
t1963;11412;1141
t1964;12064;1206
t1965;11370;1137
t1966;10605;1061
t1967;9883;988
t1968;8880;888
t1969;8287;829
t1970;7977;798
t1971;7875;788
t1972;8034;803
t1973;8347;835
t1974;9047;905
t1975;10209;1021
t1976;10911;1091
t1977;10839;1084
t1978;10348;1035
t1979;10087;1009
t1980;9985;999
t1981;9728;973
t1982;9586;959
t1983;9498;950
t1984;9653;965
t1985;9932;993
t1986;10459;1046
t1987;11011;1101
t1988;11603;1160
t1989;10872;1087
t1990;10128;1013
t1991;9529;953
t1992;8713;871
t1993;8046;805
t1994;7682;768
t1995;7486;749
t1996;7506;751
t1997;7625;763
t1998;7703;770
t1999;7678;768
t2000;8137;814
t2001;8398;840
t2002;8375;838
t2003;8203;820
t2004;8083;808
t2005;7766;777
t2006;7414;741
t2007;7321;732
t2008;7492;749
t2009;7833;783
t2010;8412;841
t2011;9100;910
t2012;9628;963
t2013;8924;892
t2014;8335;834
t2015;8078;808
t2016;7412;741
t2017;6774;677
t2018;6383;638
t2019;6209;621
t2020;6189;619
t2021;6228;623
t2022;6121;612
t2023;6137;614
t2024;6594;659
t2025;7008;701
t2026;7053;705
t2027;7002;700
t2028;6510;651
t2029;5860;586
t2030;5367;537
t2031;5206;521
t2032;5348;535
t2033;6033;603
t2034;6988;699
t2035;7884;788
t2036;8646;865
t2037;8319;832
t2038;8164;816
t2039;7465;747
t2040;6948;695
t2041;6749;675
t2042;6754;675
t2043;7018;702
t2044;7449;745
t2045;8261;826
t2046;10020;1002
t2047;11001;1100
t2048;11309;1131
t2049;11034;1103
t2050;10735;1074
t2051;10355;1036
t2052;9846;985
t2053;9438;944
t2054;9098;910
t2055;8891;889
t2056;8789;879
t2057;9153;915
t2058;9841;984
t2059;10605;1061
t2060;11157;1116
t2061;10464;1046
t2062;9596;960
t2063;8495;850
t2064;7731;773
t2065;7254;725
t2066;7025;703
t2067;7069;707
t2068;7273;727
t2069;7909;791
t2070;9385;939
t2071;10277;1028
t2072;10561;1056
t2073;10399;1040
t2074;10181;1018
t2075;9957;996
t2076;9434;943
t2077;9081;908
t2078;8699;870
t2079;8503;850
t2080;8433;843
t2081;8727;873
t2082;9410;941
t2083;10163;1016
t2084;10698;1070
t2085;9985;999
t2086;9132;913
t2087;8123;812
t2088;7511;751
t2089;7189;719
t2090;6960;696
t2091;6994;699
t2092;7312;731
t2093;8032;803
t2094;9463;946
t2095;10299;1030
t2096;10545;1055
t2097;10364;1036
t2098;10033;1003
t2099;9603;960
t2100;8977;898
t2101;8359;836
t2102;7794;779
t2103;7252;725
t2104;6943;694
t2105;7170;717
t2106;7763;776
t2107;8467;847
t2108;8973;897
t2109;8282;828
t2110;7567;757
t2111;6596;660
t2112;5781;578
t2113;5336;534
t2114;5037;504
t2115;5000;500
t2116;5353;535
t2117;6166;617
t2118;7703;770
t2119;8826;883
t2120;9097;910
t2121;8792;879
t2122;8454;845
t2123;8310;831
t2124;7930;793
t2125;7638;764
t2126;7314;731
t2127;7286;729
t2128;7236;724
t2129;7368;737
t2130;7625;763
t2131;7935;794
t2132;8129;813
t2133;7632;763
t2134;7064;706
t2135;6276;628
t2136;5594;559
t2137;5227;523
t2138;5133;513
t2139;5403;540
t2140;5800;580
t2141;6499;650
t2142;8060;806
t2143;9125;913
t2144;9498;950
t2145;9422;942
t2146;9350;935
t2147;9156;916
t2148;8694;869
t2149;8116;812
t2150;7604;760
t2151;7196;720
t2152;7008;701
t2153;7060;706
t2154;7258;726
t2155;7661;766
t2156;7905;791
t2157;7331;733
t2158;6796;680
t2159;5950;595
t2160;4979;498
t2161;4410;441
t2162;3960;396
t2163;3894;389
t2164;3933;393
t2165;4025;403
t2166;4183;418
t2167;4685;469
t2168;5359;536
t2169;5878;588
t2170;6071;607
t2171;6105;611
t2172;5647;565
t2173;5179;518
t2174;4776;478
t2175;4672;467
t2176;4792;479
t2177;5455;546
t2178;6254;625
t2179;7027;703
t2180;7680;768
t2181;7696;770
t2182;7615;762
t2183;7189;719
t2184;5820;582
t2185;5492;549
t2186;5327;533
t2187;5267;527
t2188;5325;533
t2189;5413;541
t2190;5505;551
t2191;5795;580
t2192;6274;627
t2193;6297;630
t2194;5924;592
t2195;5658;566
t2196;5172;517
t2197;4542;454
t2198;4095;410
t2199;3949;395
t2200;4180;418
t2201;4737;474
t2202;5561;556
t2203;6383;638
t2204;7115;712
t2205;6914;691
t2206;6742;674
t2207;6063;606
t2208;5577;558
t2209;5343;534
t2210;5299;530
t2211;5383;538
t2212;5770;577
t2213;6457;646
t2214;7743;774
t2215;8901;890
t2216;9656;966
t2217;9672;967
t2218;9415;942
t2219;9234;923
t2220;8864;886
t2221;8609;861
t2222;8347;835
t2223;8137;814
t2224;8067;807
t2225;8356;836
t2226;8921;892
t2227;9503;950
t2228;9852;985
t2229;9383;938
t2230;8725;873
t2231;7817;782
t2232;7155;716
t2233;6775;678
t2234;6631;663
t2235;6723;672
t2236;7002;700
t2237;7472;747
t2238;8511;851
t2239;9454;945
t2240;10168;1017
t2241;10267;1027
t2242;10084;1008
t2243;9924;992
t2244;9221;922
t2245;8799;880
t2246;8454;845
t2247;8433;843
t2248;8421;842
t2249;8658;866
t2250;9033;903
t2251;9406;941
t2252;9723;972
t2253;9188;919
t2254;8482;848
t2255;7509;751
t2256;6849;685
t2257;6547;655
t2258;6348;635
t2259;6372;637
t2260;6661;666
t2261;7258;726
t2262;8514;851
t2263;9556;956
t2264;10026;1003
t2265;10013;1001
t2266;10027;1003
t2267;10042;1004
t2268;9693;969
t2269;9399;940
t2270;9250;925
t2271;9072;907
t2272;8968;897
t2273;9158;916
t2274;9524;952
t2275;9932;993
t2276;10175;1018
t2277;9753;975
t2278;9130;913
t2279;8167;817
t2280;7516;752
t2281;7196;720
t2282;7069;707
t2283;7162;716
t2284;7391;739
t2285;7882;788
t2286;9100;910
t2287;9980;998
t2288;10513;1051
t2289;10543;1054
t2290;10518;1052
t2291;10455;1046
t2292;10154;1015
t2293;9906;991
t2294;9561;956
t2295;9403;940
t2296;9246;925
t2297;9362;936
t2298;9602;960
t2299;9869;987
t2300;9948;995
t2301;9449;945
t2302;8850;885
t2303;8049;805
t2304;7321;732
t2305;6840;684
t2306;6619;662
t2307;6615;662
t2308;6661;666
t2309;6686;669
t2310;6575;658
t2311;6758;676
t2312;7263;726
t2313;7551;755
t2314;7720;772
t2315;7872;787
t2316;7650;765
t2317;7038;704
t2318;6557;656
t2319;6237;624
t2320;6151;615
t2321;6423;642
t2322;6988;699
t2323;7472;747
t2324;7896;790
t2325;7643;764
t2326;7291;729
t2327;6506;651
t2328;5790;579
t2329;5367;537
t2330;5075;508
t2331;5052;505
t2332;5190;519
t2333;5320;532
t2334;5485;549
t2335;5853;585
t2336;6314;631
t2337;6518;652
t2338;6351;635
t2339;6147;615
t2340;5917;592
t2341;5561;556
t2342;5142;514
t2343;5037;504
t2344;4931;493
t2345;5283;528
t2346;5793;579
t2347;6286;629
t2348;6789;679
t2349;6672;667
t2350;6601;660
t2351;6052;605
t2352;5582;558
t2353;5181;518
t2354;5045;505
t2355;5058;506
t2356;5267;527
t2357;5404;540
t2358;5445;545
t2359;5735;574
t2360;6307;631
t2361;6520;652
t2362;6168;617
t2363;5880;588
t2364;5653;565
t2365;5156;516
t2366;4773;477
t2367;4503;450
t2368;4378;438
t2369;4792;479
t2370;5269;527
t2371;5776;578
t2372;6369;637
t2373;6325;633
t2374;6059;606
t2375;5470;547
t2376;4804;480
t2377;4382;438
t2378;4102;410
t2379;4056;406
t2380;4257;426
t2381;4387;439
t2382;4382;438
t2383;4679;468
t2384;5221;522
t2385;5730;573
t2386;6077;608
t2387;6290;629
t2388;5920;592
t2389;5346;535
t2390;5107;511
t2391;5044;504
t2392;5160;516
t2393;5457;546
t2394;6082;608
t2395;6524;652
t2396;6832;683
t2397;6754;675
t2398;6677;668
t2399;6054;605
t2400;5477;548
t2401;5068;507
t2402;4862;486
t2403;4935;494
t2404;5162;516
t2405;5663;566
t2406;6837;684
t2407;7866;787
t2408;8620;862
t2409;8822;882
t2410;8859;886
t2411;8861;886
t2412;8296;830
t2413;7859;786
t2414;7696;770
t2415;7662;766
t2416;7819;782
t2417;8201;820
t2418;8921;892
t2419;9468;947
t2420;9809;981
t2421;9528;953
t2422;8993;899
t2423;8078;808
t2424;7381;738
t2425;6948;695
t2426;6788;679
t2427;6888;689
t2428;7279;728
t2429;7979;798
t2430;9176;918
t2431;10027;1003
t2432;10526;1053
t2433;10615;1062
t2434;10709;1071
t2435;10649;1065
t2436;10279;1028
t2437;10077;1008
t2438;9827;983
t2439;9653;965
t2440;9544;954
t2441;9556;956
t2442;9818;982
t2443;10115;1012
t2444;10244;1024
t2445;9941;994
t2446;9345;935
t2447;8463;846
t2448;7777;778
t2449;7395;740
t2450;7148;715
t2451;7101;710
t2452;7388;739
t2453;7961;796
t2454;8870;887
t2455;9674;967
t2456;10082;1008
t2457;9809;981
t2458;9603;960
t2459;9376;938
t2460;8935;894
t2461;8688;869
t2462;8419;842
t2463;8224;822
t2464;8115;812
t2465;8164;816
t2466;8475;848
t2467;8880;888
t2468;9214;921
t2469;9040;904
t2470;8461;846
t2471;7546;755
t2472;6800;680
t2473;6344;634
t2474;6094;609
t2475;6163;616
t2476;6406;641
t2477;7062;706
t2478;8211;821
t2479;9144;914
t2480;9640;964
t2481;9677;968
t2482;9596;960
t2483;9457;946
t2484;9079;908
t2485;8915;892
t2486;8667;867
t2487;8393;839
t2488;8375;838
t2489;8609;861
t2490;8980;898
t2491;9338;934
t2492;9633;963
t2493;9447;945
t2494;8984;898
t2495;8185;819
t2496;7425;743
t2497;7057;706
t2498;6930;693
t2499;6967;697
t2500;7166;717
t2501;7302;730
t2502;7544;754
t2503;8136;814
t2504;8773;877
t2505;9017;902
t2506;8915;892
t2507;8653;865
t2508;8153;815
t2509;7914;791
t2510;7624;762
t2511;7624;762
t2512;7652;765
t2513;7944;794
t2514;8292;829
t2515;8528;853
t2516;8776;878
t2517;8532;853
t2518;8125;813
t2519;7435;744
t2520;6737;674
t2521;6283;628
t2522;6091;609
t2523;6121;612
t2524;6246;625
t2525;6376;638
t2526;6393;639
t2527;6749;675
t2528;7240;724
t2529;7543;754
t2530;7798;780
t2531;7974;797
t2532;7664;766
t2533;7078;708
t2534;6656;666
t2535;6481;648
t2536;6471;647
t2537;6703;670
t2538;7108;711
t2539;7470;747
t2540;7845;785
t2541;7828;783
t2542;7689;769
t2543;7038;704
t2544;6503;650
t2545;6207;621
t2546;6161;616
t2547;6293;629
t2548;6589;659
t2549;7236;724
t2550;8563;856
t2551;9496;950
t2552;10071;1007
t2553;10035;1004
t2554;9832;983
t2555;9825;983
t2556;9489;949
t2557;9209;921
t2558;8917;892
t2559;8716;872
t2560;8658;866
t2561;8692;869
t2562;8966;897
t2563;9285;929
t2564;9640;964
t2565;9698;970
t2566;9181;918
t2567;8285;829
t2568;7609;761
t2569;7272;727
t2570;7104;710
t2571;7256;726
t2572;7488;749
t2573;7977;798
t2574;9037;904
t2575;9896;990
t2576;10258;1026
t2577;10035;1004
t2578;9500;950
t2579;9304;930
t2580;8963;896
t2581;8725;873
t2582;8289;829
t2583;8092;809
t2584;7944;794
t2585;8203;820
t2586;8665;867
t2587;9244;924
t2588;9705;971
t2589;9684;968
t2590;9095;910
t2591;8074;807
t2592;7319;732
t2593;6840;684
t2594;6622;662
t2595;6768;677
t2596;7082;708
t2597;7835;784
t2598;9206;921
t2599;10189;1019
t2600;10626;1063
t2601;10492;1049
t2602;10353;1035
t2603;10247;1025
t2604;9779;978
t2605;9568;957
t2606;9309;931
t2607;9139;914
t2608;9035;904
t2609;9070;907
t2610;9385;939
t2611;9658;966
t2612;9876;988
t2613;9730;973
t2614;8984;898
t2615;7900;790
t2616;7104;710
t2617;6754;675
t2618;6517;652
t2619;6691;669
t2620;6981;698
t2621;7620;762
t2622;8834;883
t2623;9948;995
t2624;10402;1040
t2625;10267;1027
t2626;10063;1006
t2627;9762;976
t2628;9257;926
t2629;8878;888
t2630;8764;876
t2631;8723;872
t2632;8780;878
t2633;8982;898
t2634;9394;939
t2635;9859;986
t2636;10050;1005
t2637;9860;986
t2638;9155;916
t2639;8199;820
t2640;7490;749
t2641;7041;704
t2642;6950;695
t2643;7110;711
t2644;7455;746
t2645;8118;812
t2646;9410;941
t2647;10430;1043
t2648;10856;1086
t2649;10642;1064
t2650;10584;1058
t2651;10411;1041
t2652;10052;1005
t2653;9691;969
t2654;9334;933
t2655;9116;912
t2656;8986;899
t2657;9105;911
t2658;9394;939
t2659;9651;965
t2660;9742;974
t2661;9679;968
t2662;9033;903
t2663;8097;810
t2664;7390;739
t2665;6995;700
t2666;6798;680
t2667;6839;684
t2668;6964;696
t2669;7099;710
t2670;7252;725
t2671;7833;783
t2672;8308;831
t2673;8412;841
t2674;8382;838
t2675;8064;806
t2676;7555;756
t2677;7097;710
t2678;6786;679
t2679;6705;671
t2680;6782;678
t2681;7245;725
t2682;7740;774
t2683;8136;814
t2684;8181;818
t2685;7979;798
t2686;7585;759
t2687;6837;684
t2688;6233;623
t2689;5793;579
t2690;5668;567
t2691;5737;574
t2692;5827;583
t2693;5774;577
t2694;5570;557
t2695;5955;596
t2696;6538;654
t2697;6907;691
t2698;6883;688
t2699;6893;689
t2700;6554;655
t2701;5996;600
t2702;5593;559
t2703;5651;565
t2704;5572;557
t2705;5825;583
t2706;6511;651
t2707;6985;699
t2708;7328;733
t2709;7499;750
t2710;7277;728
t2711;6548;655
t2712;6017;602
t2713;5704;570
t2714;5674;567
t2715;5800;580
t2716;6142;614
t2717;6874;687
t2718;8092;809
t2719;9202;920
t2720;9783;978
t2721;9755;976
t2722;9498;950
t2723;9255;926
t2724;8678;868
t2725;8396;840
t2726;8011;801
t2727;7961;796
t2728;7826;783
t2729;8090;809
t2730;8484;848
t2731;8871;887
t2732;9142;914
t2733;8878;888
t2734;8146;815
t2735;7203;720
t2736;6503;650
t2737;6135;614
t2738;6020;602
t2739;6064;606
t2740;6381;638
t2741;7008;701
t2742;8164;816
t2743;9209;921
t2744;9934;993
t2745;9992;999
t2746;9989;999
t2747;9999;1000
t2748;9413;941
t2749;9123;912
t2750;8760;876
t2751;8607;861
t2752;8518;852
t2753;8650;865
t2754;8870;887
t2755;9170;917
t2756;9273;927
t2757;9221;922
t2758;8602;860
t2759;7750;775
t2760;7087;709
t2761;6664;666
t2762;6540;654
t2763;6603;660
t2764;6853;685
t2765;7340;734
t2766;8259;826
t2767;9119;912
t2768;9559;956
t2769;9322;932
t2770;8906;891
t2771;8606;861
t2772;8102;810
t2773;7872;787
t2774;7793;779
t2775;7826;783
t2776;7817;782
t2777;8072;807
t2778;8521;852
t2779;8968;897
t2780;9232;923
t2781;9134;913
t2782;8442;844
t2783;7527;753
t2784;6693;669
t2785;6225;623
t2786;5994;599
t2787;5920;592
t2788;6163;616
t2789;6851;685
t2790;8116;812
t2791;9209;921
t2792;9614;961
t2793;9482;948
t2794;9332;933
t2795;9137;914
t2796;8500;850
t2797;8148;815
t2798;7837;784
t2799;7749;775
t2800;7778;778
t2801;7979;798
t2802;8452;845
t2803;8958;896
t2804;9273;927
t2805;9302;930
t2806;8613;861
t2807;7745;775
t2808;7020;702
t2809;6585;659
t2810;6450;645
t2811;6534;653
t2812;6943;694
t2813;7550;755
t2814;8838;884
t2815;9894;989
t2816;10223;1022
t2817;9894;989
t2818;9709;971
t2819;9528;953
t2820;9225;923
t2821;8773;877
t2822;8519;852
t2823;8502;850
t2824;8562;856
t2825;8885;889
t2826;9295;930
t2827;9561;956
t2828;9639;964
t2829;9544;954
t2830;8870;887
t2831;7954;795
t2832;7205;721
t2833;6693;669
t2834;6564;656
t2835;6522;652
t2836;6599;660
t2837;6807;681
t2838;7159;716
t2839;7646;765
t2840;8085;809
t2841;8192;819
t2842;8058;806
t2843;7613;761
t2844;6934;693
t2845;6321;632
t2846;5897;590
t2847;5760;576
t2848;5770;577
t2849;6082;608
t2850;6598;660
t2851;6976;698
t2852;7161;716
t2853;7182;718
t2854;6763;676
t2855;6036;604
t2856;5299;530
t2857;4891;489
t2858;4746;475
t2859;4662;466
t2860;4739;474
t2861;4942;494
t2862;5077;508
t2863;5593;559
t2864;6189;619
t2865;6596;660
t2866;6580;658
t2867;6511;651
t2868;6172;617
t2869;5438;544
t2870;5038;504
t2871;4957;496
t2872;5096;510
t2873;5529;553
t2874;6108;611
t2875;6547;655
t2876;6793;679
t2877;6960;696
t2878;6721;672
t2879;5983;598
t2880;5568;557
t2881;5244;524
t2882;5128;513
t2883;5227;523
t2884;5538;554
t2885;5950;595
t2886;6833;683
t2887;7808;781
t2888;8486;849
t2889;8456;846
t2890;8157;816
t2891;7905;791
t2892;7340;734
t2893;6833;683
t2894;6316;632
t2895;6066;607
t2896;5950;595
t2897;6071;607
t2898;6356;636
t2899;6756;676
t2900;6916;692
t2901;7001;700
t2902;6536;654
t2903;5895;590
t2904;5162;516
t2905;4859;486
t2906;4651;465
t2907;4605;461
t2908;4641;464
t2909;4634;463
t2910;4563;456
t2911;4896;490
t2912;5436;544
t2913;5496;550
t2914;5269;527
t2915;5079;508
t2916;4613;461
t2917;4007;401
t2918;3763;376
t2919;3711;371
t2920;3954;395
t2921;4581;458
t2922;5309;531
t2923;5953;595
t2924;6344;634
t2925;6605;661
t2926;6283;628
t2927;5640;564
t2928;5221;522
t2929;5005;501
t2930;4991;499
t2931;5102;510
t2932;5367;537
t2933;6129;613
t2934;7845;785
t2935;9063;906
t2936;9568;957
t2937;9385;939
t2938;9177;918
t2939;8935;894
t2940;8377;838
t2941;7995;800
t2942;7761;776
t2943;7583;758
t2944;7499;750
t2945;7740;774
t2946;8218;822
t2947;8609;861
t2948;8755;876
t2949;8569;857
t2950;7923;792
t2951;7136;714
t2952;6587;659
t2953;6423;642
t2954;6316;632
t2955;6408;641
t2956;6664;666
t2957;7293;729
t2958;8671;867
t2959;9709;971
t2960;9991;999
t2961;9730;973
t2962;9535;954
t2963;9443;944
t2964;9081;908
t2965;8801;880
t2966;8669;867
t2967;8555;856
t2968;8387;839
t2969;8618;862
t2970;8919;892
t2971;9297;930
t2972;9389;939
t2973;9368;937
t2974;8620;862
t2975;7664;766
t2976;7039;704
t2977;6661;666
t2978;6464;646
t2979;6448;645
t2980;6731;673
t2981;7379;738
t2982;8613;861
t2983;9545;955
t2984;9832;983
t2985;9452;945
t2986;8954;895
t2987;8597;860
t2988;8079;808
t2989;7740;774
t2990;7529;753
t2991;7492;749
t2992;7499;750
t2993;7940;794
t2994;8459;846
t2995;8822;882
t2996;8943;894
t2997;8896;890
t2998;8210;821
t2999;7228;723
t3000;6540;654
t3001;6196;620
t3002;6015;602
t3003;6040;604
t3004;6110;611
t3005;6186;619
t3006;6399;640
t3007;7002;700
t3008;7562;756
t3009;7807;781
t3010;7896;790
t3011;7780;778
t3012;7456;746
t3013;7027;703
t3014;6742;674
t3015;6575;658
t3016;6603;660
t3017;6818;682
t3018;7108;711
t3019;7305;731
t3020;7224;722
t3021;7224;722
t3022;6955;696
t3023;6344;634
t3024;5827;583
t3025;5415;542
t3026;5221;522
t3027;5186;519
t3028;5279;528
t3029;5285;529
t3030;5278;528
t3031;5646;565
t3032;6131;613
t3033;6418;642
t3034;6638;664
t3035;7066;707
t3036;6891;689
t3037;6527;653
t3038;6163;616
t3039;6085;609
t3040;6117;612
t3041;6540;654
t3042;7002;700
t3043;7240;724
t3044;7272;727
t3045;7465;747
t3046;7360;736
t3047;6738;674
t3048;6272;627
t3049;5948;595
t3050;5885;589
t3051;6045;605
t3052;6400;640
t3053;7127;713
t3054;8715;872
t3055;9802;980
t3056;10209;1021
t3057;10008;1001
t3058;9927;993
t3059;9878;988
t3060;9624;962
t3061;9369;937
t3062;9067;907
t3063;8901;890
t3064;8683;868
t3065;8801;880
t3066;9097;910
t3067;9350;935
t3068;9338;934
t3069;9387;939
t3070;8658;866
t3071;7624;762
t3072;6960;696
t3073;6598;660
t3074;6413;641
t3075;6379;638
t3076;6487;649
t3077;6985;699
t3078;8116;812
t3079;9109;911
t3080;9334;933
t3081;9160;916
t3082;8671;867
t3083;8287;829
t3084;7745;775
t3085;7527;753
t3086;7518;752
t3087;7689;769
t3088;7768;777
t3089;8109;811
t3090;8518;852
t3091;8935;894
t3092;8968;897
t3093;8908;891
t3094;8028;803
t3095;6934;693
t3096;6195;620
t3097;5851;585
t3098;5674;567
t3099;5732;573
t3100;5999;600
t3101;6612;661
t3102;7986;799
t3103;9170;917
t3104;9644;964
t3105;9491;949
t3106;9373;937
t3107;9269;927
t3108;8811;881
t3109;8637;864
t3110;8320;832
t3111;8271;827
t3112;8241;824
t3113;8530;853
t3114;8968;897
t3115;9292;929
t3116;9357;936
t3117;9352;935
t3118;8729;873
t3119;7557;756
t3120;6714;671
t3121;6311;631
t3122;6159;616
t3123;6216;622
t3124;6385;639
t3125;6932;693
t3126;8169;817
t3127;9116;912
t3128;9433;943
t3129;9060;906
t3130;8618;862
t3131;8289;829
t3132;7692;769
t3133;7317;732
t3134;7245;725
t3135;7323;732
t3136;7338;734
t3137;7808;781
t3138;8222;822
t3139;8556;856
t3140;8452;845
t3141;8248;825
t3142;7398;740
t3143;6344;634
t3144;5691;569
t3145;5260;526
t3146;5077;508
t3147;5176;518
t3148;5482;548
t3149;6115;612
t3150;7448;745
t3151;8474;847
t3152;8824;882
t3153;8528;853
t3154;8224;822
t3155;7845;785
t3156;7185;719
t3157;6721;672
t3158;6430;643
t3159;6446;645
t3160;6547;655
t3161;7029;703
t3162;7486;749
t3163;7726;773
t3164;7650;765
t3165;7609;761
t3166;7067;707
t3167;6290;629
t3168;5772;577
t3169;5445;545
t3170;5169;517
t3171;5089;509
t3172;5065;507
t3173;5054;505
t3174;5276;528
t3175;5802;580
t3176;6138;614
t3177;6080;608
t3178;5887;589
t3179;5667;567
t3180;5239;524
t3181;4627;463
t3182;4224;422
t3183;4014;401
t3184;3990;399
t3185;4356;436
t3186;4857;486
t3187;5320;532
t3188;5563;556
t3189;6077;608
t3190;6138;614
t3191;5644;564
t3192;5070;507
t3193;4776;478
t3194;4692;469
t3195;4750;475
t3196;4862;486
t3197;4796;480
t3198;4831;483
t3199;5237;524
t3200;5593;559
t3201;5568;557
t3202;5609;561
t3203;5858;586
t3204;5514;551
t3205;4956;496
t3206;4685;469
t3207;4621;462
t3208;4760;476
t3209;5336;534
t3210;6131;613
t3211;6742;674
t3212;7108;711
t3213;7428;743
t3214;7486;749
t3215;6730;673
t3216;6103;610
t3217;5714;571
t3218;5529;553
t3219;5593;559
t3220;5955;596
t3221;6522;652
t3222;7974;797
t3223;8928;893
t3224;9139;914
t3225;8549;855
t3226;8028;803
t3227;7743;774
t3228;7317;732
t3229;7127;713
t3230;6995;700
t3231;7015;702
t3232;7155;716
t3233;7571;757
t3234;8213;821
t3235;8764;876
t3236;8989;899
t3237;9046;905
t3238;8319;832
t3239;7131;713
t3240;6411;641
t3241;5996;600
t3242;5827;583
t3243;5936;594
t3244;6200;620
t3245;6740;674
t3246;8058;806
t3247;9100;910
t3248;9447;945
t3249;9160;916
t3250;8901;890
t3251;8790;879
t3252;8479;848
t3253;8359;836
t3254;8171;817
t3255;8069;807
t3256;8086;809
t3257;8271;827
t3258;8597;860
t3259;8973;897
t3260;8980;898
t3261;8965;897
t3262;8357;836
t3263;7344;734
t3264;6584;658
t3265;6112;611
t3266;5922;592
t3267;6017;602
t3268;6188;619
t3269;6645;665
t3270;7787;779
t3271;8672;867
t3272;8811;881
t3273;8606;861
t3274;8366;837
t3275;8231;823
t3276;7580;758
t3277;7089;709
t3278;6723;672
t3279;6349;635
t3280;6057;606
t3281;6191;619
t3282;6562;656
t3283;7048;705
t3284;7363;736
t3285;7641;764
t3286;7368;737
t3287;6457;646
t3288;5774;577
t3289;5434;543
t3290;5264;526
t3291;5271;527
t3292;5264;526
t3293;4892;489
t3294;4743;474
t3295;5001;500
t3296;5188;519
t3297;4920;492
t3298;4651;465
t3299;4796;480
t3300;4514;451
t3301;4181;418
t3302;3896;390
t3303;3875;388
t3304;4063;406
t3305;4671;467
t3306;5489;549
t3307;6196;620
t3308;6612;661
t3309;6990;699
t3310;6879;688
t3311;6195;620
t3312;5464;546
t3313;5060;506
t3314;4885;489
t3315;4855;486
t3316;5014;501
t3317;5304;530
t3318;6177;618
t3319;6990;699
t3320;7430;743
t3321;7208;721
t3322;6744;674
t3323;6522;652
t3324;6205;621
t3325;5707;571
t3326;5431;543
t3327;5521;552
t3328;5714;571
t3329;6277;628
t3330;6816;682
t3331;7250;725
t3332;7330;733
t3333;7363;736
t3334;7046;705
t3335;6302;630
t3336;5734;573
t3337;5422;542
t3338;5341;534
t3339;5320;532
t3340;5459;546
t3341;5543;554
t3342;5899;590
t3343;6448;645
t3344;6990;699
t3345;7069;707
t3346;6809;681
t3347;6503;650
t3348;6022;602
t3349;5593;559
t3350;5331;533
t3351;5403;540
t3352;5593;559
t3353;6073;607
t3354;6638;664
t3355;6972;697
t3356;6927;693
t3357;6914;691
t3358;6640;664
t3359;6056;606
t3360;5445;545
