unit;t;status;output;reserve
1;1;1;375;0
1;2;1;455;0
1;3;1;455;0
1;4;1;455;0
1;5;1;455;0
1;6;1;455;0
1;7;1;455;0
1;8;1;455;0
1;9;1;455;0
1;10;1;455;0
1;11;1;455;0
1;12;1;455;0
1;13;1;455;0
1;14;1;455;0
1;15;1;455;0
1;16;1;455;0
1;17;1;455;0
1;18;1;455;0
1;19;1;455;0
1;20;1;455;0
1;21;1;455;0
1;22;1;455;0
1;23;1;455;0
1;24;1;455;0
1;25;1;455;0
1;26;1;455;0
1;27;1;455;0
1;28;1;455;0
1;29;1;455;0
1;30;1;455;0
1;31;1;455;0
1;32;1;455;0
1;33;1;455;0
1;34;1;455;0
1;35;1;455;0
1;36;1;455;0
1;37;1;455;0
1;38;1;455;0
1;39;1;455;0
1;40;1;455;0
1;41;1;455;0
1;42;1;455;0
1;43;1;455;0
1;44;1;455;0
1;45;1;455;0
1;46;1;455;0
1;47;1;455;0
1;48;1;455;0
1;49;1;455;0
1;50;1;455;0
1;51;1;455;0
1;52;1;455;0
1;53;1;455;0
1;54;1;455;0
1;55;1;455;0
1;56;1;455;0
1;57;1;455;0
1;58;1;455;0
1;59;1;455;0
1;60;1;455;0
1;61;1;455;0
1;62;1;455;0
1;63;1;455;0
1;64;1;455;0
1;65;1;455;0
1;66;1;455;0
1;67;1;455;0
1;68;1;455;0
1;69;1;455;0
1;70;1;455;0
1;71;1;455;0
1;72;1;455;0
1;73;1;455;0
1;74;1;455;0
1;75;1;455;0
1;76;1;455;0
1;77;1;455;0
1;78;1;455;0
1;79;1;455;0
1;80;1;455;0
1;81;1;455;0
1;82;1;455;0
1;83;1;455;0
1;84;1;455;0
1;85;1;455;0
1;86;1;455;0
1;87;1;455;0
1;88;1;455;0
1;89;1;455;0
1;90;1;455;0
1;91;1;455;0
1;92;1;455;0
1;93;1;455;0
1;94;1;455;0
1;95;1;455;0
1;96;1;455;0
2;1;1;375;0
2;2;1;418.448;36.552
2;3;1;455;0
2;4;1;451.2;3.8
2;5;1;420.16;0
2;6;1;420.16;0
2;7;1;443.256;0
2;8;1;418.672;36.328
2;9;1;444.28;10.72
2;10;1;455;0
2;11;1;455;0
2;12;1;455;0
2;13;1;455;0
2;14;1;455;0
2;15;1;453.696;0
2;16;1;433.512;21.488
2;17;1;426.16;28.84
2;18;1;455;0
2;19;1;455;0
2;20;1;455;0
2;21;1;455;0
2;22;1;455;0
2;23;1;455;0
2;24;1;455;0
2;25;1;455;0
2;26;1;455;0
2;27;1;455;0
2;28;1;451.2;3.8
2;29;1;420.16;34.84
2;30;1;420.16;34.84
2;31;1;443.256;0
2;32;1;418.672;36.328
2;33;1;444.28;10.72
2;34;1;455;0
2;35;1;455;0
2;36;1;455;0
2;37;1;455;0
2;38;1;455;0
2;39;1;453.696;0
2;40;1;433.512;21.488
2;41;1;426.16;28.84
2;42;1;455;0
2;43;1;455;0
2;44;1;455;0
2;45;1;455;0
2;46;1;455;0
2;47;1;455;0
2;48;1;455;0
2;49;1;455;0
2;50;1;455;0
2;51;1;455;0
2;52;1;451.2;0
2;53;1;420.16;0
2;54;1;420.16;34.84
2;55;1;443.256;11.744
2;56;1;418.672;36.328
2;57;1;444.28;10.72
2;58;1;455;0
2;59;1;455;0
2;60;1;455;0
2;61;1;455;0
2;62;1;455;0
2;63;1;453.696;0
2;64;1;433.512;21.488
2;65;1;426.16;28.84
2;66;1;455;0
2;67;1;455;0
2;68;1;455;0
2;69;1;455;0
2;70;1;455;0
2;71;1;455;0
2;72;1;455;0
2;73;1;455;0
2;74;1;455;0
2;75;1;455;0
2;76;1;451.2;3.8
2;77;1;420.16;0
2;78;1;420.16;0
2;79;1;443.256;0
2;80;1;418.672;36.328
2;81;1;444.28;10.72
2;82;1;455;0
2;83;1;455;0
2;84;1;455;0
2;85;1;455;0
2;86;1;455;0
2;87;1;453.696;0
2;88;1;433.512;21.488
2;89;1;426.16;28.84
2;90;1;455;0
2;91;1;455;0
2;92;1;455;0
2;93;1;455;0
2;94;1;455;0
2;95;1;437.4;17.6
2;96;1;408.48;46.52
3;1;1;70;0
3;2;1;20;0
3;3;0;0;0
3;4;0;0;0
3;5;0;0;0
3;6;0;0;0
3;7;0;0;0
3;8;1;20;0
3;9;1;70;0
3;10;1;120;0
3;11;1;130;0
3;12;1;130;0
3;13;1;130;0
3;14;1;130;0
3;15;1;130;0
3;16;1;130;0
3;17;1;130;0
3;18;1;130;0
3;19;1;130;0
3;20;1;130;0
3;21;1;130;0
3;22;1;120;0
3;23;1;70;60
3;24;1;20;0
3;25;0;0;0
3;26;0;0;0
3;27;0;0;0
3;28;0;0;0
3;29;0;0;0
3;30;0;0;0
3;31;0;0;0
3;32;1;20;0
3;33;1;70;0
3;34;1;120;0
3;35;1;130;0
3;36;1;130;0
3;37;1;130;0
3;38;1;130;0
3;39;1;130;0
3;40;1;130;0
3;41;1;130;0
3;42;1;130;0
3;43;1;130;0
3;44;1;130;0
3;45;1;130;0
3;46;1;120;0
3;47;1;70;0
3;48;1;20;0
3;49;0;0;0
3;50;0;0;0
3;51;0;0;0
3;52;0;0;0
3;53;0;0;0
3;54;0;0;0
3;55;0;0;0
3;56;1;20;0
3;57;1;70;0
3;58;1;120;0
3;59;1;130;0
3;60;1;130;0
3;61;1;130;0
3;62;1;130;0
3;63;1;130;0
3;64;1;130;0
3;65;1;130;0
3;66;1;130;0
3;67;1;130;0
3;68;1;130;0
3;69;1;130;0
3;70;1;120;0
3;71;1;70;60
3;72;1;20;0
3;73;0;0;0
3;74;0;0;0
3;75;0;0;0
3;76;0;0;0
3;77;0;0;0
3;78;0;0;0
3;79;0;0;0
3;80;1;20;0
3;81;1;70;0
3;82;1;120;0
3;83;1;130;0
3;84;1;130;0
3;85;1;130;0
3;86;1;130;0
3;87;1;130;0
3;88;1;130;0
3;89;1;130;0
3;90;1;130;0
3;91;1;130;0
3;92;1;130;0
3;93;1;130;0
3;94;1;130;0
3;95;1;130;0
3;96;1;130;0
4;1;1;70;0
4;2;1;20;0
4;3;0;0;0
4;4;0;0;0
4;5;0;0;0
4;6;0;0;0
4;7;0;0;0
4;8;1;20;0
4;9;1;70;0
4;10;1;120;0
4;11;1;130;0
4;12;1;130;0
4;13;1;130;0
4;14;1;130;0
4;15;1;130;0
4;16;1;130;0
4;17;1;130;0
4;18;1;130;0
4;19;1;130;0
4;20;1;130;0
4;21;1;130;0
4;22;1;130;0
4;23;1;130;0
4;24;1;120;0
4;25;1;70;18.536
4;26;1;20;0
4;27;0;0;0
4;28;0;0;0
4;29;0;0;0
4;30;0;0;0
4;31;0;0;0
4;32;1;20;0
4;33;1;70;0
4;34;1;120;0
4;35;1;130;0
4;36;1;130;0
4;37;1;130;0
4;38;1;130;0
4;39;1;130;0
4;40;1;130;0
4;41;1;130;0
4;42;1;130;0
4;43;1;130;0
4;44;1;130;0
4;45;1;130;0
4;46;1;130;0
4;47;1;130;0
4;48;1;120;0
4;49;1;70;18.536
4;50;1;20;0
4;51;0;0;0
4;52;0;0;0
4;53;0;0;0
4;54;0;0;0
4;55;0;0;0
4;56;1;20;0
4;57;1;70;0
4;58;1;120;0
4;59;1;130;0
4;60;1;130;0
4;61;1;130;0
4;62;1;130;0
4;63;1;130;0
4;64;1;130;0
4;65;1;130;0
4;66;1;130;0
4;67;1;130;0
4;68;1;130;0
4;69;1;130;0
4;70;1;130;0
4;71;1;130;0
4;72;1;120;0
4;73;1;70;55.096
4;74;1;20;0
4;75;0;0;0
4;76;0;0;0
4;77;0;0;0
4;78;0;0;0
4;79;0;0;0
4;80;1;20;0
4;81;1;70;0
4;82;1;120;0
4;83;1;130;0
4;84;1;130;0
4;85;1;130;0
4;86;1;130;0
4;87;1;130;0
4;88;1;130;0
4;89;1;130;0
4;90;1;130;0
4;91;1;130;0
4;92;1;130;0
4;93;1;130;0
4;94;1;130;0
4;95;1;130;0
4;96;1;130;0
5;1;1;85;0
5;2;1;40.352;13.888
5;3;1;52.24;48.112
5;4;1;25;42.76
5;5;1;25;45.008
5;6;1;25;45.008
5;7;1;32.944;46.56
5;8;1;79.608;13.336
5;9;1;93.68;45.928
5;10;1;91.6;62.08
5;11;1;82.64;63.632
5;12;1;98.16;4.408
5;13;1;82.64;63.632
5;14;1;71.6;62.08
5;15;1;57.384;61.304
5;16;1;77.568;39.816
5;17;1;102;35.568
5;18;1;162;0
5;19;1;162;0
5;20;1;150.76;8.288
5;21;1;129.2;5.96
5;22;1;123.68;5.184
5;23;1;96.08;1.304
5;24;1;98.48;57.424
5;25;1;121.92;36.56
5;26;1;78.8;50.44
5;27;1;52.24;48.112
5;28;1;25;42.76
5;29;1;25;10.168
5;30;1;25;10.168
5;31;1;32.944;46.56
5;32;1;79.608;13.336
5;33;1;93.68;45.928
5;34;1;91.6;62.08
5;35;1;82.64;63.632
5;36;1;98.16;4.408
5;37;1;82.64;63.632
5;38;1;71.6;62.08
5;39;1;57.384;61.304
5;40;1;77.568;39.816
5;41;1;102;35.568
5;42;1;162;0
5;43;1;162;0
5;44;1;150.76;8.288
5;45;1;129.2;5.96
5;46;1;123.68;5.184
5;47;1;96.08;61.304
5;48;1;98.48;57.424
5;49;1;121.92;36.56
5;50;1;78.8;50.44
5;51;1;52.24;48.112
5;52;1;25;46.56
5;53;1;25;45.008
5;54;1;25;45.008
5;55;1;32.944;34.816
5;56;1;79.608;13.336
5;57;1;93.68;45.928
5;58;1;91.6;62.08
5;59;1;82.64;63.632
5;60;1;98.16;44.48
5;61;1;82.64;63.632
5;62;1;71.6;62.08
5;63;1;57.384;61.304
5;64;1;77.568;39.816
5;65;1;102;35.568
5;66;1;162;0
5;67;1;162;0
5;68;1;150.76;8.288
5;69;1;129.2;5.96
5;70;1;123.68;5.184
5;71;1;96.08;1.304
5;72;1;98.48;57.424
5;73;1;121.92;0
5;74;1;78.8;50.44
5;75;1;52.24;48.112
5;76;1;25;46.56
5;77;1;25;45.008
5;78;1;25;45.008
5;79;1;32.944;46.56
5;80;1;79.608;13.336
5;81;1;93.68;45.928
5;82;1;91.6;62.08
5;83;1;82.64;63.632
5;84;1;98.16;4.408
5;85;1;82.64;63.632
5;86;1;71.6;62.08
5;87;1;57.384;61.304
5;88;1;77.568;39.816
5;89;1;102;35.568
5;90;1;162;0
5;91;1;162;0
5;92;1;150.76;8.288
5;93;1;129.2;5.96
5;94;1;113.68;5.184
5;95;1;53.68;43.704
5;96;1;25;10.904
6;1;1;80;0
6;2;1;20;0
6;3;0;0;0
6;4;0;0;0
6;5;0;0;0
6;6;0;0;0
6;7;0;0;0
6;8;0;0;0
6;9;0;0;0
6;10;0;0;0
6;11;1;20;0
6;12;1;20;60
6;13;1;20;0
6;14;0;0;0
6;15;0;0;0
6;16;0;0;0
6;17;1;20;0
6;18;1;55.32;24.68
6;19;1;39.8;40.2
6;20;1;20;60
6;21;1;20;60
6;22;1;20;60
6;23;1;20;0
6;24;0;0;0
6;25;0;0;0
6;26;0;0;0
6;27;0;0;0
6;28;0;0;0
6;29;0;0;0
6;30;0;0;0
6;31;0;0;0
6;32;0;0;0
6;33;0;0;0
6;34;0;0;0
6;35;1;20;0
6;36;1;20;60
6;37;1;20;0
6;38;0;0;0
6;39;0;0;0
6;40;0;0;0
6;41;1;20;0
6;42;1;55.32;24.68
6;43;1;39.8;40.2
6;44;1;20;60
6;45;1;20;60
6;46;1;20;60
6;47;1;20;0
6;48;0;0;0
6;49;0;0;0
6;50;0;0;0
6;51;0;0;0
6;52;0;0;0
6;53;0;0;0
6;54;0;0;0
6;55;0;0;0
6;56;0;0;0
6;57;0;0;0
6;58;0;0;0
6;59;1;20;0
6;60;1;20;19.928
6;61;1;20;0
6;62;0;0;0
6;63;0;0;0
6;64;0;0;0
6;65;1;20;0
6;66;1;55.32;24.68
6;67;1;39.8;40.2
6;68;1;20;60
6;69;1;20;60
6;70;1;20;60
6;71;1;20;0
6;72;0;0;0
6;73;0;0;0
6;74;0;0;0
6;75;0;0;0
6;76;0;0;0
6;77;0;0;0
6;78;0;0;0
6;79;0;0;0
6;80;0;0;0
6;81;0;0;0
6;82;0;0;0
6;83;1;20;0
6;84;1;20;60
6;85;1;20;0
6;86;0;0;0
6;87;0;0;0
6;88;0;0;0
6;89;1;20;0
6;90;1;55.32;24.68
6;91;1;39.8;40.2
6;92;1;20;60
6;93;1;20;60
6;94;1;20;60
6;95;1;20;0
6;96;0;0;0
7;1;1;25;22.016
7;2;1;25;0
7;3;0;0;0
7;4;0;0;0
7;5;0;0;0
7;6;0;0;0
7;7;0;0;0
7;8;0;0;0
7;9;0;0;0
7;10;0;0;0
7;11;0;0;0
7;12;0;0;0
7;13;0;0;0
7;14;0;0;0
7;15;0;0;0
7;16;0;0;0
7;17;1;25;0
7;18;1;25;45.936
7;19;1;25;29.64
7;20;1;25;0
7;21;0;0;0
7;22;0;0;0
7;23;0;0;0
7;24;0;0;0
7;25;0;0;0
7;26;0;0;0
7;27;0;0;0
7;28;0;0;0
7;29;0;0;0
7;30;0;0;0
7;31;0;0;0
7;32;0;0;0
7;33;0;0;0
7;34;0;0;0
7;35;0;0;0
7;36;0;0;0
7;37;0;0;0
7;38;0;0;0
7;39;0;0;0
7;40;0;0;0
7;41;1;25;0
7;42;1;25;45.936
7;43;1;25;29.64
7;44;1;25;0
7;45;0;0;0
7;46;0;0;0
7;47;0;0;0
7;48;0;0;0
7;49;0;0;0
7;50;0;0;0
7;51;0;0;0
7;52;0;0;0
7;53;0;0;0
7;54;0;0;0
7;55;0;0;0
7;56;0;0;0
7;57;0;0;0
7;58;0;0;0
7;59;0;0;0
7;60;0;0;0
7;61;0;0;0
7;62;0;0;0
7;63;0;0;0
7;64;0;0;0
7;65;1;25;0
7;66;1;25;45.936
7;67;1;25;60
7;68;1;25;0
7;69;0;0;0
7;70;0;0;0
7;71;0;0;0
7;72;0;0;0
7;73;0;0;0
7;74;0;0;0
7;75;0;0;0
7;76;0;0;0
7;77;0;0;0
7;78;0;0;0
7;79;0;0;0
7;80;0;0;0
7;81;0;0;0
7;82;0;0;0
7;83;0;0;0
7;84;0;0;0
7;85;0;0;0
7;86;0;0;0
7;87;0;0;0
7;88;0;0;0
7;89;1;25;0
7;90;1;25;45.936
7;91;1;25;60
7;92;1;25;0
7;93;0;0;0
7;94;0;0;0
7;95;0;0;0
7;96;0;0;0
8;1;1;21.92;33.08
8;2;1;10;0
8;3;0;0;0
8;4;0;0;0
8;5;0;0;0
8;6;0;0;0
8;7;0;0;0
8;8;0;0;0
8;9;0;0;0
8;10;0;0;0
8;11;0;0;0
8;12;0;0;0
8;13;0;0;0
8;14;0;0;0
8;15;0;0;0
8;16;0;0;0
8;17;0;0;0
8;18;0;0;0
8;19;0;0;0
8;20;0;0;0
8;21;0;0;0
8;22;0;0;0
8;23;0;0;0
8;24;0;0;0
8;25;0;0;0
8;26;0;0;0
8;27;0;0;0
8;28;0;0;0
8;29;0;0;0
8;30;0;0;0
8;31;0;0;0
8;32;0;0;0
8;33;0;0;0
8;34;0;0;0
8;35;0;0;0
8;36;0;0;0
8;37;0;0;0
8;38;0;0;0
8;39;0;0;0
8;40;0;0;0
8;41;0;0;0
8;42;0;0;0
8;43;0;0;0
8;44;0;0;0
8;45;0;0;0
8;46;0;0;0
8;47;0;0;0
8;48;0;0;0
8;49;0;0;0
8;50;0;0;0
8;51;0;0;0
8;52;0;0;0
8;53;0;0;0
8;54;0;0;0
8;55;0;0;0
8;56;0;0;0
8;57;0;0;0
8;58;0;0;0
8;59;0;0;0
8;60;0;0;0
8;61;0;0;0
8;62;0;0;0
8;63;0;0;0
8;64;0;0;0
8;65;0;0;0
8;66;0;0;0
8;67;0;0;0
8;68;0;0;0
8;69;0;0;0
8;70;0;0;0
8;71;0;0;0
8;72;0;0;0
8;73;0;0;0
8;74;0;0;0
8;75;0;0;0
8;76;0;0;0
8;77;0;0;0
8;78;0;0;0
8;79;0;0;0
8;80;0;0;0
8;81;0;0;0
8;82;0;0;0
8;83;0;0;0
8;84;0;0;0
8;85;0;0;0
8;86;0;0;0
8;87;0;0;0
8;88;0;0;0
8;89;0;0;0
8;90;0;0;0
8;91;0;0;0
8;92;0;0;0
8;93;0;0;0
8;94;0;0;0
8;95;0;0;0
8;96;0;0;0
