=======================
Unit-Commitment-Problem
Fix-and-Optimize (combination)
Michael Tunder
=======================

Instanz: 8-gen (Case 1)
Planung: 8 Einheiten & 24 Stunden
Reserve: 5 Prozent
Abweichung von Nachfrage: nicht moeglich

Abbruchsgrund: Vollstaendige Loesung
Gesamtkosten [GE]: 573855.6982
Ganzzahlige Loesung
Bedarfsabweichungskosten [%]: --

Optimierungsdauer [s]: 0.485 (0.008min)
Maximale Dauer: 18000s / 300.000min / 5.00h
Optimalitaetsluecke [%]: --
Beste Schranke [GE]: --
Nebenbedingungen: 1471
Entscheidungsvariablen (gesamt): 1344
Kontinuierliche Variablen: 384
Binaervariablen: 960
Fixierte Binaervariablen: 874
Verbleibende Binaervariablen: 86
Iterationen: 6
Ganzzahligkeitstoleranz: 0.01
Xpress-Version: 8.11.1

Schedule: Commitment-Status
===========================
 Time |    1  |    2  |    3  |    4  |    5  |    6  |    7  |    8  |    9  |   10  |   11  |   12  |   13  |   14  |   15  |   16  |   17  |   18  |   19  |   20  |   21  |   22  |   23  |   24  |
 Unit |       |       |       |       |       |       |       |       |       |       |       |       |       |       |       |       |       |       |       |       |       |       |       |       |
-------------------------------------------------------------------------------------------------------------------------------------------------------------------------------------------------------
    1 |   X   |   X   |   X   |   X   |   X   |   X   |   X   |   X   |   X   |   X   |   X   |   X   |   X   |   X   |   X   |   X   |   X   |   X   |   X   |   X   |   X   |   X   |   X   |   X   |
    2 |   X   |   X   |   X   |   X   |   X   |   X   |   X   |   X   |   X   |   X   |   X   |   X   |   X   |   X   |   X   |   X   |   X   |   X   |   X   |   X   |   X   |   X   |   X   |   X   |
    3 |   X   |   X   |   -   |   -   |   -   |   -   |   -   |   X   |   X   |   X   |   X   |   X   |   X   |   X   |   X   |   X   |   X   |   X   |   X   |   X   |   X   |   X   |   X   |   X   |
    4 |   X   |   X   |   -   |   -   |   -   |   -   |   -   |   X   |   X   |   X   |   X   |   X   |   X   |   X   |   X   |   X   |   X   |   X   |   X   |   X   |   X   |   X   |   X   |   X   |
    5 |   X   |   X   |   X   |   X   |   X   |   X   |   X   |   X   |   X   |   X   |   X   |   X   |   X   |   X   |   X   |   X   |   X   |   X   |   X   |   X   |   X   |   X   |   X   |   X   |
    6 |   X   |   X   |   -   |   -   |   -   |   -   |   -   |   -   |   -   |   X   |   X   |   X   |   X   |   -   |   -   |   -   |   X   |   X   |   X   |   X   |   X   |   X   |   X   |   -   |
    7 |   X   |   X   |   -   |   -   |   -   |   -   |   -   |   -   |   -   |   -   |   -   |   -   |   -   |   -   |   -   |   -   |   X   |   X   |   X   |   X   |   -   |   -   |   -   |   -   |
    8 |   X   |   X   |   -   |   -   |   -   |   -   |   -   |   -   |   -   |   -   |   -   |   -   |   -   |   -   |   -   |   -   |   -   |   -   |   -   |   -   |   -   |   -   |   -   |   -   |
-------------------------------------------------------------------------------------------------------------------------------------------------------------------------------------------------------
Total |   8   |   8   |   3   |   3   |   3   |   3   |   3   |   5   |   5   |   6   |   6   |   6   |   6   |   5   |   5   |   5   |   7   |   7   |   7   |   7   |   6   |   6   |   6   |   5   |

Schedule: Leistungs-Output [MW]
===============================
 Time |     1   |     2   |     3   |     4   |     5   |     6   |     7   |     8   |     9   |    10   |    11   |    12   |    13   |    14   |    15   |    16   |    17   |    18   |    19   |    20   |    21   |    22   |    23   |    24   |
 Unit |         |         |         |         |         |         |         |         |         |         |         |         |         |         |         |         |         |         |         |         |         |         |         |         |
-------------------------------------------------------------------------------------------------------------------------------------------------------------------------------------------------------------------------------------------------------
    1 |     375 |     455 |     455 |     455 |     455 |     455 |     455 |     455 |     455 |     455 |     455 |     455 |     455 |     455 |     455 |     455 |     455 |     455 |     455 |     455 |     455 |     455 |     455 |     455 |
    2 |     375 | 418.448 |     455 |   451.2 |  420.16 |  420.16 | 443.256 | 418.672 |     455 |     455 |     455 |     455 |     455 |     455 | 453.696 | 433.512 |  426.16 |     455 |     455 |     455 |     455 |     455 |   437.4 |  408.48 |
    3 |      70 |      20 |       0 |       0 |       0 |       0 |       0 |      20 |      70 |     120 |     130 |     130 |     130 |     130 |     130 |     130 |     130 |     130 |     130 |     130 |     130 |     130 |     130 |     130 |
    4 |      70 |      20 |       0 |       0 |       0 |       0 |       0 |      20 |      70 |     120 |     130 |     130 |     130 |     130 |     130 |     130 |     130 |     130 |     130 |     130 |     130 |     130 |     130 |     130 |
    5 |      85 |  40.352 |   52.24 |      25 |      25 |      25 |  32.944 |  79.608 |   82.96 |    71.6 |   82.64 |   98.16 |   82.64 |    71.6 |  57.384 |  77.568 |     102 |     162 |     162 |  150.76 |   129.2 |  113.68 |   53.68 |      25 |
    6 |      80 |      20 |       0 |       0 |       0 |       0 |       0 |       0 |       0 |      20 |      20 |      20 |      20 |       0 |       0 |       0 |      20 |   55.32 |    39.8 |      20 |      20 |      20 |      20 |       0 |
    7 |      25 |      25 |       0 |       0 |       0 |       0 |       0 |       0 |       0 |       0 |       0 |       0 |       0 |       0 |       0 |       0 |      25 |      25 |      25 |      25 |       0 |       0 |       0 |       0 |
    8 |   21.92 |      10 |       0 |       0 |       0 |       0 |       0 |       0 |       0 |       0 |       0 |       0 |       0 |       0 |       0 |       0 |       0 |       0 |       0 |       0 |       0 |       0 |       0 |       0 |
-------------------------------------------------------------------------------------------------------------------------------------------------------------------------------------------------------------------------------------------------------
Total | 1101.92 |  1008.8 |  962.24 |   931.2 |  900.16 |  900.16 |   931.2 |  993.28 | 1132.96 |  1241.6 | 1272.64 | 1288.16 | 1272.64 |  1241.6 | 1226.08 | 1226.08 | 1288.16 | 1412.32 |  1396.8 | 1365.76 |  1319.2 | 1303.68 | 1226.08 | 1148.48 |
Diff. |       0 |       0 |       0 |       0 |       0 |       0 |       0 |       0 |       0 |       0 |       0 |       0 |       0 |       0 |       0 |       0 |       0 |       0 |       0 |       0 |       0 |       0 |       0 |       0 |

=======================
Unit-Commitment-Problem
Fix-and-Optimize (combination)
Michael Tunder
=======================

Instanz: 8-gen (Case 2)
Planung: 8 Einheiten & 48 Stunden
Reserve: 5 Prozent
Abweichung von Nachfrage: nicht moeglich

Abbruchsgrund: Vollstaendige Loesung
Gesamtkosten [GE]: 1142357.171
Ganzzahlige Loesung
Bedarfsabweichungskosten [%]: --

Optimierungsdauer [s]: 1.141 (0.019min)
Maximale Dauer: 18000s / 300.000min / 5.00h
Optimalitaetsluecke [%]: --
Beste Schranke [GE]: --
Nebenbedingungen: 3079
Entscheidungsvariablen (gesamt): 2688
Kontinuierliche Variablen: 768
Binaervariablen: 1920
Fixierte Binaervariablen: 1749
Verbleibende Binaervariablen: 171
Iterationen: 6
Ganzzahligkeitstoleranz: 0.01
Xpress-Version: 8.11.1

Schedule: Commitment-Status
===========================
 Time |    1  |    2  |    3  |    4  |    5  |    6  |    7  |    8  |    9  |   10  |   11  |   12  |   13  |   14  |   15  |   16  |   17  |   18  |   19  |   20  |   21  |   22  |   23  |   24  |   25  |   26  |   27  |   28  |   29  |   30  |   31  |   32  |   33  |   34  |   35  |   36  |   37  |   38  |   39  |   40  |   41  |   42  |   43  |   44  |   45  |   46  |   47  |   48  |
 Unit |       |       |       |       |       |       |       |       |       |       |       |       |       |       |       |       |       |       |       |       |       |       |       |       |       |       |       |       |       |       |       |       |       |       |       |       |       |       |       |       |       |       |       |       |       |       |       |       |
-------------------------------------------------------------------------------------------------------------------------------------------------------------------------------------------------------------------------------------------------------------------------------------------------------------------------------------------------------------------------------------------------------
    1 |   X   |   X   |   X   |   X   |   X   |   X   |   X   |   X   |   X   |   X   |   X   |   X   |   X   |   X   |   X   |   X   |   X   |   X   |   X   |   X   |   X   |   X   |   X   |   X   |   X   |   X   |   X   |   X   |   X   |   X   |   X   |   X   |   X   |   X   |   X   |   X   |   X   |   X   |   X   |   X   |   X   |   X   |   X   |   X   |   X   |   X   |   X   |   X   |
    2 |   X   |   X   |   X   |   X   |   X   |   X   |   X   |   X   |   X   |   X   |   X   |   X   |   X   |   X   |   X   |   X   |   X   |   X   |   X   |   X   |   X   |   X   |   X   |   X   |   X   |   X   |   X   |   X   |   X   |   X   |   X   |   X   |   X   |   X   |   X   |   X   |   X   |   X   |   X   |   X   |   X   |   X   |   X   |   X   |   X   |   X   |   X   |   X   |
    3 |   X   |   X   |   -   |   -   |   -   |   -   |   -   |   X   |   X   |   X   |   X   |   X   |   X   |   X   |   X   |   X   |   X   |   X   |   X   |   X   |   X   |   X   |   X   |   X   |   -   |   -   |   -   |   -   |   -   |   -   |   -   |   X   |   X   |   X   |   X   |   X   |   X   |   X   |   X   |   X   |   X   |   X   |   X   |   X   |   X   |   X   |   X   |   X   |
    4 |   X   |   X   |   -   |   -   |   -   |   -   |   -   |   X   |   X   |   X   |   X   |   X   |   X   |   X   |   X   |   X   |   X   |   X   |   X   |   X   |   X   |   X   |   X   |   X   |   X   |   X   |   -   |   -   |   -   |   -   |   -   |   X   |   X   |   X   |   X   |   X   |   X   |   X   |   X   |   X   |   X   |   X   |   X   |   X   |   X   |   X   |   X   |   X   |
    5 |   X   |   X   |   X   |   X   |   X   |   X   |   X   |   X   |   X   |   X   |   X   |   X   |   X   |   X   |   X   |   X   |   X   |   X   |   X   |   X   |   X   |   X   |   X   |   X   |   X   |   X   |   X   |   X   |   X   |   X   |   X   |   X   |   X   |   X   |   X   |   X   |   X   |   X   |   X   |   X   |   X   |   X   |   X   |   X   |   X   |   X   |   X   |   X   |
    6 |   X   |   X   |   -   |   -   |   -   |   -   |   -   |   -   |   -   |   X   |   X   |   X   |   X   |   -   |   -   |   -   |   X   |   X   |   X   |   X   |   X   |   X   |   X   |   -   |   -   |   -   |   -   |   -   |   -   |   -   |   -   |   -   |   -   |   -   |   X   |   X   |   X   |   -   |   -   |   -   |   X   |   X   |   X   |   X   |   X   |   X   |   X   |   -   |
    7 |   X   |   X   |   -   |   -   |   -   |   -   |   -   |   -   |   -   |   -   |   -   |   -   |   -   |   -   |   -   |   -   |   X   |   X   |   X   |   X   |   -   |   -   |   -   |   -   |   -   |   -   |   -   |   -   |   -   |   -   |   -   |   -   |   -   |   -   |   -   |   -   |   -   |   -   |   -   |   -   |   X   |   X   |   X   |   X   |   -   |   -   |   -   |   -   |
    8 |   X   |   X   |   -   |   -   |   -   |   -   |   -   |   -   |   -   |   -   |   -   |   -   |   -   |   -   |   -   |   -   |   -   |   -   |   -   |   -   |   -   |   -   |   -   |   -   |   -   |   -   |   -   |   -   |   -   |   -   |   -   |   -   |   -   |   -   |   -   |   -   |   -   |   -   |   -   |   -   |   -   |   -   |   -   |   -   |   -   |   -   |   -   |   -   |
-------------------------------------------------------------------------------------------------------------------------------------------------------------------------------------------------------------------------------------------------------------------------------------------------------------------------------------------------------------------------------------------------------
Total |   8   |   8   |   3   |   3   |   3   |   3   |   3   |   5   |   5   |   6   |   6   |   6   |   6   |   5   |   5   |   5   |   7   |   7   |   7   |   7   |   6   |   6   |   6   |   5   |   4   |   4   |   3   |   3   |   3   |   3   |   3   |   5   |   5   |   5   |   6   |   6   |   6   |   5   |   5   |   5   |   7   |   7   |   7   |   7   |   6   |   6   |   6   |   5   |

Schedule: Leistungs-Output [MW]
===============================
 Time |     1   |     2   |     3   |     4   |     5   |     6   |     7   |     8   |     9   |    10   |    11   |    12   |    13   |    14   |    15   |    16   |    17   |    18   |    19   |    20   |    21   |    22   |    23   |    24   |    25   |    26   |    27   |    28   |    29   |    30   |    31   |    32   |    33   |    34   |    35   |    36   |    37   |    38   |    39   |    40   |    41   |    42   |    43   |    44   |    45   |    46   |    47   |    48   |
 Unit |         |         |         |         |         |         |         |         |         |         |         |         |         |         |         |         |         |         |         |         |         |         |         |         |         |         |         |         |         |         |         |         |         |         |         |         |         |         |         |         |         |         |         |         |         |         |         |         |
-------------------------------------------------------------------------------------------------------------------------------------------------------------------------------------------------------------------------------------------------------------------------------------------------------------------------------------------------------------------------------------------------------------------------------------------------------------------------------------------------------
    1 |     375 |     455 |     455 |     455 |     455 |     455 |     455 |     455 |     455 |     455 |     455 |     455 |     455 |     455 |     455 |     455 |     455 |     455 |     455 |     455 |     455 |     455 |     455 |     455 |     455 |     455 |     455 |     455 |     455 |     455 |     455 |     455 |     455 |     455 |     455 |     455 |     455 |     455 |     455 |     455 |     455 |     455 |     455 |     455 |     455 |     455 |     455 |     455 |
    2 |     375 | 418.448 |     455 |   451.2 |  420.16 |  420.16 | 443.256 | 418.672 |     455 |     455 |     455 |     455 |     455 |     455 | 453.696 | 433.512 |  426.16 |     455 |     455 |     455 |     455 |     455 |     455 |     455 |     455 |     455 |     455 |   451.2 |  420.16 |  420.16 | 443.256 | 418.672 |  444.28 |     455 |     455 |     455 |     455 |     455 | 453.696 | 433.512 |  426.16 |     455 |     455 |     455 |     455 |     455 |   437.4 |  408.48 |
    3 |      70 |      20 |       0 |       0 |       0 |       0 |       0 |      20 |      70 |     120 |     130 |     130 |     130 |     130 |     130 |     130 |     130 |     130 |     130 |     130 |     130 |     120 |      70 |      20 |       0 |       0 |       0 |       0 |       0 |       0 |       0 |      20 |      70 |     120 |     130 |     130 |     130 |     130 |     130 |     130 |     130 |     130 |     130 |     130 |     130 |     130 |     130 |     130 |
    4 |      70 |      20 |       0 |       0 |       0 |       0 |       0 |      20 |      70 |     120 |     130 |     130 |     130 |     130 |     130 |     130 |     130 |     130 |     130 |     130 |     130 |     130 |     130 |     120 |      70 |      20 |       0 |       0 |       0 |       0 |       0 |      20 |      70 |     120 |     130 |     130 |     130 |     130 |     130 |     130 |     130 |     130 |     130 |     130 |     130 |     130 |     130 |     130 |
    5 |      85 |  40.352 |   52.24 |      25 |      25 |      25 |  32.944 |  79.608 |   82.96 |    71.6 |   82.64 |   98.16 |   82.64 |    71.6 |  57.384 |  77.568 |     102 |     162 |     162 |  150.76 |   129.2 |  123.68 |   96.08 |   98.48 |  121.92 |    78.8 |   52.24 |      25 |      25 |      25 |  32.944 |  79.608 |   93.68 |    91.6 |   82.64 |   98.16 |   82.64 |    71.6 |  57.384 |  77.568 |     102 |     162 |     162 |  150.76 |   129.2 |  113.68 |   53.68 |      25 |
    6 |      80 |      20 |       0 |       0 |       0 |       0 |       0 |       0 |       0 |      20 |      20 |      20 |      20 |       0 |       0 |       0 |      20 |   55.32 |    39.8 |      20 |      20 |      20 |      20 |       0 |       0 |       0 |       0 |       0 |       0 |       0 |       0 |       0 |       0 |       0 |      20 |      20 |      20 |       0 |       0 |       0 |      20 |   55.32 |    39.8 |      20 |      20 |      20 |      20 |       0 |
    7 |      25 |      25 |       0 |       0 |       0 |       0 |       0 |       0 |       0 |       0 |       0 |       0 |       0 |       0 |       0 |       0 |      25 |      25 |      25 |      25 |       0 |       0 |       0 |       0 |       0 |       0 |       0 |       0 |       0 |       0 |       0 |       0 |       0 |       0 |       0 |       0 |       0 |       0 |       0 |       0 |      25 |      25 |      25 |      25 |       0 |       0 |       0 |       0 |
    8 |   21.92 |      10 |       0 |       0 |       0 |       0 |       0 |       0 |       0 |       0 |       0 |       0 |       0 |       0 |       0 |       0 |       0 |       0 |       0 |       0 |       0 |       0 |       0 |       0 |       0 |       0 |       0 |       0 |       0 |       0 |       0 |       0 |       0 |       0 |       0 |       0 |       0 |       0 |       0 |       0 |       0 |       0 |       0 |       0 |       0 |       0 |       0 |       0 |
-------------------------------------------------------------------------------------------------------------------------------------------------------------------------------------------------------------------------------------------------------------------------------------------------------------------------------------------------------------------------------------------------------------------------------------------------------------------------------------------------------
Total | 1101.92 |  1008.8 |  962.24 |   931.2 |  900.16 |  900.16 |   931.2 |  993.28 | 1132.96 |  1241.6 | 1272.64 | 1288.16 | 1272.64 |  1241.6 | 1226.08 | 1226.08 | 1288.16 | 1412.32 |  1396.8 | 1365.76 |  1319.2 | 1303.68 | 1226.08 | 1148.48 | 1101.92 |  1008.8 |  962.24 |   931.2 |  900.16 |  900.16 |   931.2 |  993.28 | 1132.96 |  1241.6 | 1272.64 | 1288.16 | 1272.64 |  1241.6 | 1226.08 | 1226.08 | 1288.16 | 1412.32 |  1396.8 | 1365.76 |  1319.2 | 1303.68 | 1226.08 | 1148.48 |
Diff. |       0 |       0 |       0 |       0 |       0 |       0 |       0 |       0 |       0 |       0 |       0 |       0 |       0 |       0 |       0 |       0 |       0 |       0 |       0 |       0 |       0 |       0 |       0 |       0 |       0 |       0 |       0 |       0 |       0 |       0 |       0 |       0 |       0 |       0 |       0 |       0 |       0 |       0 |       0 |       0 |       0 |       0 |       0 |       0 |       0 |       0 |       0 |       0 |

=======================
Unit-Commitment-Problem
Fix-and-Optimize (combination)
Michael Tunder
=======================

Instanz: 8-gen (Case 3)
Planung: 8 Einheiten & 72 Stunden
Reserve: 5 Prozent
Abweichung von Nachfrage: nicht moeglich

Abbruchsgrund: Vollstaendige Loesung
Gesamtkosten [GE]: 1710858.644
Ganzzahlige Loesung
Bedarfsabweichungskosten [%]: --

Optimierungsdauer [s]: 2.141 (0.036min)
Maximale Dauer: 18000s / 300.000min / 5.00h
Optimalitaetsluecke [%]: --
Beste Schranke [GE]: --
Nebenbedingungen: 4687
Entscheidungsvariablen (gesamt): 4032
Kontinuierliche Variablen: 1152
Binaervariablen: 2880
Fixierte Binaervariablen: 2634
Verbleibende Binaervariablen: 246
Iterationen: 8
Ganzzahligkeitstoleranz: 0.01
Xpress-Version: 8.11.1

Schedule: Commitment-Status
===========================
 Time |    1  |    2  |    3  |    4  |    5  |    6  |    7  |    8  |    9  |   10  |   11  |   12  |   13  |   14  |   15  |   16  |   17  |   18  |   19  |   20  |   21  |   22  |   23  |   24  |   25  |   26  |   27  |   28  |   29  |   30  |   31  |   32  |   33  |   34  |   35  |   36  |   37  |   38  |   39  |   40  |   41  |   42  |   43  |   44  |   45  |   46  |   47  |   48  |   49  |   50  |   51  |   52  |   53  |   54  |   55  |   56  |   57  |   58  |   59  |   60  |   61  |   62  |   63  |   64  |   65  |   66  |   67  |   68  |   69  |   70  |   71  |   72  |
 Unit |       |       |       |       |       |       |       |       |       |       |       |       |       |       |       |       |       |       |       |       |       |       |       |       |       |       |       |       |       |       |       |       |       |       |       |       |       |       |       |       |       |       |       |       |       |       |       |       |       |       |       |       |       |       |       |       |       |       |       |       |       |       |       |       |       |       |       |       |       |       |       |       |
-------------------------------------------------------------------------------------------------------------------------------------------------------------------------------------------------------------------------------------------------------------------------------------------------------------------------------------------------------------------------------------------------------------------------------------------------------------------------------------------------------------------------------------------------------------------------------------------------------
    1 |   X   |   X   |   X   |   X   |   X   |   X   |   X   |   X   |   X   |   X   |   X   |   X   |   X   |   X   |   X   |   X   |   X   |   X   |   X   |   X   |   X   |   X   |   X   |   X   |   X   |   X   |   X   |   X   |   X   |   X   |   X   |   X   |   X   |   X   |   X   |   X   |   X   |   X   |   X   |   X   |   X   |   X   |   X   |   X   |   X   |   X   |   X   |   X   |   X   |   X   |   X   |   X   |   X   |   X   |   X   |   X   |   X   |   X   |   X   |   X   |   X   |   X   |   X   |   X   |   X   |   X   |   X   |   X   |   X   |   X   |   X   |   X   |
    2 |   X   |   X   |   X   |   X   |   X   |   X   |   X   |   X   |   X   |   X   |   X   |   X   |   X   |   X   |   X   |   X   |   X   |   X   |   X   |   X   |   X   |   X   |   X   |   X   |   X   |   X   |   X   |   X   |   X   |   X   |   X   |   X   |   X   |   X   |   X   |   X   |   X   |   X   |   X   |   X   |   X   |   X   |   X   |   X   |   X   |   X   |   X   |   X   |   X   |   X   |   X   |   X   |   X   |   X   |   X   |   X   |   X   |   X   |   X   |   X   |   X   |   X   |   X   |   X   |   X   |   X   |   X   |   X   |   X   |   X   |   X   |   X   |
    3 |   X   |   X   |   -   |   -   |   -   |   -   |   -   |   X   |   X   |   X   |   X   |   X   |   X   |   X   |   X   |   X   |   X   |   X   |   X   |   X   |   X   |   X   |   X   |   X   |   -   |   -   |   -   |   -   |   -   |   -   |   -   |   X   |   X   |   X   |   X   |   X   |   X   |   X   |   X   |   X   |   X   |   X   |   X   |   X   |   X   |   X   |   X   |   X   |   -   |   -   |   -   |   -   |   -   |   -   |   -   |   X   |   X   |   X   |   X   |   X   |   X   |   X   |   X   |   X   |   X   |   X   |   X   |   X   |   X   |   X   |   X   |   X   |
    4 |   X   |   X   |   -   |   -   |   -   |   -   |   -   |   X   |   X   |   X   |   X   |   X   |   X   |   X   |   X   |   X   |   X   |   X   |   X   |   X   |   X   |   X   |   X   |   X   |   X   |   X   |   -   |   -   |   -   |   -   |   -   |   X   |   X   |   X   |   X   |   X   |   X   |   X   |   X   |   X   |   X   |   X   |   X   |   X   |   X   |   X   |   X   |   X   |   X   |   X   |   -   |   -   |   -   |   -   |   -   |   X   |   X   |   X   |   X   |   X   |   X   |   X   |   X   |   X   |   X   |   X   |   X   |   X   |   X   |   X   |   X   |   X   |
    5 |   X   |   X   |   X   |   X   |   X   |   X   |   X   |   X   |   X   |   X   |   X   |   X   |   X   |   X   |   X   |   X   |   X   |   X   |   X   |   X   |   X   |   X   |   X   |   X   |   X   |   X   |   X   |   X   |   X   |   X   |   X   |   X   |   X   |   X   |   X   |   X   |   X   |   X   |   X   |   X   |   X   |   X   |   X   |   X   |   X   |   X   |   X   |   X   |   X   |   X   |   X   |   X   |   X   |   X   |   X   |   X   |   X   |   X   |   X   |   X   |   X   |   X   |   X   |   X   |   X   |   X   |   X   |   X   |   X   |   X   |   X   |   X   |
    6 |   X   |   X   |   -   |   -   |   -   |   -   |   -   |   -   |   -   |   X   |   X   |   X   |   X   |   -   |   -   |   -   |   X   |   X   |   X   |   X   |   X   |   X   |   X   |   -   |   -   |   -   |   -   |   -   |   -   |   -   |   -   |   -   |   -   |   -   |   X   |   X   |   X   |   -   |   -   |   -   |   X   |   X   |   X   |   X   |   X   |   X   |   X   |   -   |   -   |   -   |   -   |   -   |   -   |   -   |   -   |   -   |   -   |   -   |   X   |   X   |   X   |   -   |   -   |   -   |   X   |   X   |   X   |   X   |   X   |   X   |   X   |   -   |
    7 |   X   |   X   |   -   |   -   |   -   |   -   |   -   |   -   |   -   |   -   |   -   |   -   |   -   |   -   |   -   |   -   |   X   |   X   |   X   |   X   |   -   |   -   |   -   |   -   |   -   |   -   |   -   |   -   |   -   |   -   |   -   |   -   |   -   |   -   |   -   |   -   |   -   |   -   |   -   |   -   |   X   |   X   |   X   |   X   |   -   |   -   |   -   |   -   |   -   |   -   |   -   |   -   |   -   |   -   |   -   |   -   |   -   |   -   |   -   |   -   |   -   |   -   |   -   |   -   |   X   |   X   |   X   |   X   |   -   |   -   |   -   |   -   |
    8 |   X   |   X   |   -   |   -   |   -   |   -   |   -   |   -   |   -   |   -   |   -   |   -   |   -   |   -   |   -   |   -   |   -   |   -   |   -   |   -   |   -   |   -   |   -   |   -   |   -   |   -   |   -   |   -   |   -   |   -   |   -   |   -   |   -   |   -   |   -   |   -   |   -   |   -   |   -   |   -   |   -   |   -   |   -   |   -   |   -   |   -   |   -   |   -   |   -   |   -   |   -   |   -   |   -   |   -   |   -   |   -   |   -   |   -   |   -   |   -   |   -   |   -   |   -   |   -   |   -   |   -   |   -   |   -   |   -   |   -   |   -   |   -   |
-------------------------------------------------------------------------------------------------------------------------------------------------------------------------------------------------------------------------------------------------------------------------------------------------------------------------------------------------------------------------------------------------------------------------------------------------------------------------------------------------------------------------------------------------------------------------------------------------------
Total |   8   |   8   |   3   |   3   |   3   |   3   |   3   |   5   |   5   |   6   |   6   |   6   |   6   |   5   |   5   |   5   |   7   |   7   |   7   |   7   |   6   |   6   |   6   |   5   |   4   |   4   |   3   |   3   |   3   |   3   |   3   |   5   |   5   |   5   |   6   |   6   |   6   |   5   |   5   |   5   |   7   |   7   |   7   |   7   |   6   |   6   |   6   |   5   |   4   |   4   |   3   |   3   |   3   |   3   |   3   |   5   |   5   |   5   |   6   |   6   |   6   |   5   |   5   |   5   |   7   |   7   |   7   |   7   |   6   |   6   |   6   |   5   |

Schedule: Leistungs-Output [MW]
===============================
 Time |     1   |     2   |     3   |     4   |     5   |     6   |     7   |     8   |     9   |    10   |    11   |    12   |    13   |    14   |    15   |    16   |    17   |    18   |    19   |    20   |    21   |    22   |    23   |    24   |    25   |    26   |    27   |    28   |    29   |    30   |    31   |    32   |    33   |    34   |    35   |    36   |    37   |    38   |    39   |    40   |    41   |    42   |    43   |    44   |    45   |    46   |    47   |    48   |    49   |    50   |    51   |    52   |    53   |    54   |    55   |    56   |    57   |    58   |    59   |    60   |    61   |    62   |    63   |    64   |    65   |    66   |    67   |    68   |    69   |    70   |    71   |    72   |
 Unit |         |         |         |         |         |         |         |         |         |         |         |         |         |         |         |         |         |         |         |         |         |         |         |         |         |         |         |         |         |         |         |         |         |         |         |         |         |         |         |         |         |         |         |         |         |         |         |         |         |         |         |         |         |         |         |         |         |         |         |         |         |         |         |         |         |         |         |         |         |         |         |         |
-------------------------------------------------------------------------------------------------------------------------------------------------------------------------------------------------------------------------------------------------------------------------------------------------------------------------------------------------------------------------------------------------------------------------------------------------------------------------------------------------------------------------------------------------------------------------------------------------------------------------------------------------------------------------------------------------------------------------------------------------------
    1 |     375 |     455 |     455 |     455 |     455 |     455 |     455 |     455 |     455 |     455 |     455 |     455 |     455 |     455 |     455 |     455 |     455 |     455 |     455 |     455 |     455 |     455 |     455 |     455 |     455 |     455 |     455 |     455 |     455 |     455 |     455 |     455 |     455 |     455 |     455 |     455 |     455 |     455 |     455 |     455 |     455 |     455 |     455 |     455 |     455 |     455 |     455 |     455 |     455 |     455 |     455 |     455 |     455 |     455 |     455 |     455 |     455 |     455 |     455 |     455 |     455 |     455 |     455 |     455 |     455 |     455 |     455 |     455 |     455 |     455 |     455 |     455 |
    2 |     375 | 418.448 |     455 |   451.2 |  420.16 |  420.16 | 443.256 | 418.672 |     455 |     455 |     455 |     455 |     455 |     455 | 453.696 | 433.512 |  426.16 |     455 |     455 |     455 |     455 |     455 |     455 |     455 |     455 |     455 |     455 |   451.2 |  420.16 |  420.16 | 443.256 | 418.672 |  444.28 |     455 |     455 |     455 |     455 |     455 | 453.696 | 433.512 |  426.16 |     455 |     455 |     455 |     455 |     455 |     455 |     455 |     455 |     455 |     455 |   451.2 |  420.16 |  420.16 | 443.256 | 418.672 |  444.28 |     455 |     455 |     455 |     455 |     455 | 453.696 | 433.512 |  426.16 |     455 |     455 |     455 |     455 |     455 |   437.4 |  408.48 |
    3 |      70 |      20 |       0 |       0 |       0 |       0 |       0 |      20 |      70 |     120 |     130 |     130 |     130 |     130 |     130 |     130 |     130 |     130 |     130 |     130 |     130 |     120 |      70 |      20 |       0 |       0 |       0 |       0 |       0 |       0 |       0 |      20 |      70 |     120 |     130 |     130 |     130 |     130 |     130 |     130 |     130 |     130 |     130 |     130 |     130 |     120 |      70 |      20 |       0 |       0 |       0 |       0 |       0 |       0 |       0 |      20 |      70 |     120 |     130 |     130 |     130 |     130 |     130 |     130 |     130 |     130 |     130 |     130 |     130 |     130 |     130 |     130 |
    4 |      70 |      20 |       0 |       0 |       0 |       0 |       0 |      20 |      70 |     120 |     130 |     130 |     130 |     130 |     130 |     130 |     130 |     130 |     130 |     130 |     130 |     130 |     130 |     120 |      70 |      20 |       0 |       0 |       0 |       0 |       0 |      20 |      70 |     120 |     130 |     130 |     130 |     130 |     130 |     130 |     130 |     130 |     130 |     130 |     130 |     130 |     130 |     120 |      70 |      20 |       0 |       0 |       0 |       0 |       0 |      20 |      70 |     120 |     130 |     130 |     130 |     130 |     130 |     130 |     130 |     130 |     130 |     130 |     130 |     130 |     130 |     130 |
    5 |      85 |  40.352 |   52.24 |      25 |      25 |      25 |  32.944 |  79.608 |   82.96 |    71.6 |   82.64 |   98.16 |   82.64 |    71.6 |  57.384 |  77.568 |     102 |     162 |     162 |  150.76 |   129.2 |  123.68 |   96.08 |   98.48 |  121.92 |    78.8 |   52.24 |      25 |      25 |      25 |  32.944 |  79.608 |   93.68 |    91.6 |   82.64 |   98.16 |   82.64 |    71.6 |  57.384 |  77.568 |     102 |     162 |     162 |  150.76 |   129.2 |  123.68 |   96.08 |   98.48 |  121.92 |    78.8 |   52.24 |      25 |      25 |      25 |  32.944 |  79.608 |   93.68 |    91.6 |   82.64 |   98.16 |   82.64 |    71.6 |  57.384 |  77.568 |     102 |     162 |     162 |  150.76 |   129.2 |  113.68 |   53.68 |      25 |
    6 |      80 |      20 |       0 |       0 |       0 |       0 |       0 |       0 |       0 |      20 |      20 |      20 |      20 |       0 |       0 |       0 |      20 |   55.32 |    39.8 |      20 |      20 |      20 |      20 |       0 |       0 |       0 |       0 |       0 |       0 |       0 |       0 |       0 |       0 |       0 |      20 |      20 |      20 |       0 |       0 |       0 |      20 |   55.32 |    39.8 |      20 |      20 |      20 |      20 |       0 |       0 |       0 |       0 |       0 |       0 |       0 |       0 |       0 |       0 |       0 |      20 |      20 |      20 |       0 |       0 |       0 |      20 |   55.32 |    39.8 |      20 |      20 |      20 |      20 |       0 |
    7 |      25 |      25 |       0 |       0 |       0 |       0 |       0 |       0 |       0 |       0 |       0 |       0 |       0 |       0 |       0 |       0 |      25 |      25 |      25 |      25 |       0 |       0 |       0 |       0 |       0 |       0 |       0 |       0 |       0 |       0 |       0 |       0 |       0 |       0 |       0 |       0 |       0 |       0 |       0 |       0 |      25 |      25 |      25 |      25 |       0 |       0 |       0 |       0 |       0 |       0 |       0 |       0 |       0 |       0 |       0 |       0 |       0 |       0 |       0 |       0 |       0 |       0 |       0 |       0 |      25 |      25 |      25 |      25 |       0 |       0 |       0 |       0 |
    8 |   21.92 |      10 |       0 |       0 |       0 |       0 |       0 |       0 |       0 |       0 |       0 |       0 |       0 |       0 |       0 |       0 |       0 |       0 |       0 |       0 |       0 |       0 |       0 |       0 |       0 |       0 |       0 |       0 |       0 |       0 |       0 |       0 |       0 |       0 |       0 |       0 |       0 |       0 |       0 |       0 |       0 |       0 |       0 |       0 |       0 |       0 |       0 |       0 |       0 |       0 |       0 |       0 |       0 |       0 |       0 |       0 |       0 |       0 |       0 |       0 |       0 |       0 |       0 |       0 |       0 |       0 |       0 |       0 |       0 |       0 |       0 |       0 |
-------------------------------------------------------------------------------------------------------------------------------------------------------------------------------------------------------------------------------------------------------------------------------------------------------------------------------------------------------------------------------------------------------------------------------------------------------------------------------------------------------------------------------------------------------------------------------------------------------------------------------------------------------------------------------------------------------------------------------------------------------
Total | 1101.92 |  1008.8 |  962.24 |   931.2 |  900.16 |  900.16 |   931.2 |  993.28 | 1132.96 |  1241.6 | 1272.64 | 1288.16 | 1272.64 |  1241.6 | 1226.08 | 1226.08 | 1288.16 | 1412.32 |  1396.8 | 1365.76 |  1319.2 | 1303.68 | 1226.08 | 1148.48 | 1101.92 |  1008.8 |  962.24 |   931.2 |  900.16 |  900.16 |   931.2 |  993.28 | 1132.96 |  1241.6 | 1272.64 | 1288.16 | 1272.64 |  1241.6 | 1226.08 | 1226.08 | 1288.16 | 1412.32 |  1396.8 | 1365.76 |  1319.2 | 1303.68 | 1226.08 | 1148.48 | 1101.92 |  1008.8 |  962.24 |   931.2 |  900.16 |  900.16 |   931.2 |  993.28 | 1132.96 |  1241.6 | 1272.64 | 1288.16 | 1272.64 |  1241.6 | 1226.08 | 1226.08 | 1288.16 | 1412.32 |  1396.8 | 1365.76 |  1319.2 | 1303.68 | 1226.08 | 1148.48 |
Diff. |       0 |       0 |       0 |       0 |       0 |       0 |       0 |       0 |       0 |       0 |       0 |       0 |       0 |       0 |       0 |       0 |       0 |       0 |       0 |       0 |       0 |       0 |       0 |       0 |       0 |       0 |       0 |       0 |       0 |       0 |       0 |       0 |       0 |       0 |       0 |       0 |       0 |       0 |       0 |       0 |       0 |       0 |       0 |       0 |       0 |       0 |       0 |       0 |       0 |       0 |       0 |       0 |       0 |       0 |       0 |       0 |       0 |       0 |       0 |       0 |       0 |       0 |       0 |       0 |       0 |       0 |       0 |       0 |       0 |       0 |       0 |       0 |

=======================
Unit-Commitment-Problem
Fix-and-Optimize (combination)
Michael Tunder
=======================

Instanz: 8-gen (Case 4)
Planung: 8 Einheiten & 96 Stunden
Reserve: 5 Prozent
Abweichung von Nachfrage: nicht moeglich

Abbruchsgrund: Vollstaendige Loesung
Gesamtkosten [GE]: 2279360.117
Ganzzahlige Loesung
Bedarfsabweichungskosten [%]: --

Optimierungsdauer [s]: 2.594 (0.043min)
Maximale Dauer: 18000s / 300.000min / 5.00h
Optimalitaetsluecke [%]: --
Beste Schranke [GE]: --
Nebenbedingungen: 6295
Entscheidungsvariablen (gesamt): 5376
Kontinuierliche Variablen: 1536
Binaervariablen: 3840
Fixierte Binaervariablen: 3507
Verbleibende Binaervariablen: 333
Iterationen: 7
Ganzzahligkeitstoleranz: 0.01
Xpress-Version: 8.11.1

Schedule: Commitment-Status
===========================
 Time |    1  |    2  |    3  |    4  |    5  |    6  |    7  |    8  |    9  |   10  |   11  |   12  |   13  |   14  |   15  |   16  |   17  |   18  |   19  |   20  |   21  |   22  |   23  |   24  |   25  |   26  |   27  |   28  |   29  |   30  |   31  |   32  |   33  |   34  |   35  |   36  |   37  |   38  |   39  |   40  |   41  |   42  |   43  |   44  |   45  |   46  |   47  |   48  |   49  |   50  |   51  |   52  |   53  |   54  |   55  |   56  |   57  |   58  |   59  |   60  |   61  |   62  |   63  |   64  |   65  |   66  |   67  |   68  |   69  |   70  |   71  |   72  |   73  |   74  |   75  |   76  |   77  |   78  |   79  |   80  |   81  |   82  |   83  |   84  |   85  |   86  |   87  |   88  |   89  |   90  |   91  |   92  |   93  |   94  |   95  |   96  |
 Unit |       |       |       |       |       |       |       |       |       |       |       |       |       |       |       |       |       |       |       |       |       |       |       |       |       |       |       |       |       |       |       |       |       |       |       |       |       |       |       |       |       |       |       |       |       |       |       |       |       |       |       |       |       |       |       |       |       |       |       |       |       |       |       |       |       |       |       |       |       |       |       |       |       |       |       |       |       |       |       |       |       |       |       |       |       |       |       |       |       |       |       |       |       |       |       |       |
-------------------------------------------------------------------------------------------------------------------------------------------------------------------------------------------------------------------------------------------------------------------------------------------------------------------------------------------------------------------------------------------------------------------------------------------------------------------------------------------------------------------------------------------------------------------------------------------------------------------------------------------------------------------------------------------------------------------------------------------------------------------------------------------------------
    1 |   X   |   X   |   X   |   X   |   X   |   X   |   X   |   X   |   X   |   X   |   X   |   X   |   X   |   X   |   X   |   X   |   X   |   X   |   X   |   X   |   X   |   X   |   X   |   X   |   X   |   X   |   X   |   X   |   X   |   X   |   X   |   X   |   X   |   X   |   X   |   X   |   X   |   X   |   X   |   X   |   X   |   X   |   X   |   X   |   X   |   X   |   X   |   X   |   X   |   X   |   X   |   X   |   X   |   X   |   X   |   X   |   X   |   X   |   X   |   X   |   X   |   X   |   X   |   X   |   X   |   X   |   X   |   X   |   X   |   X   |   X   |   X   |   X   |   X   |   X   |   X   |   X   |   X   |   X   |   X   |   X   |   X   |   X   |   X   |   X   |   X   |   X   |   X   |   X   |   X   |   X   |   X   |   X   |   X   |   X   |   X   |
    2 |   X   |   X   |   X   |   X   |   X   |   X   |   X   |   X   |   X   |   X   |   X   |   X   |   X   |   X   |   X   |   X   |   X   |   X   |   X   |   X   |   X   |   X   |   X   |   X   |   X   |   X   |   X   |   X   |   X   |   X   |   X   |   X   |   X   |   X   |   X   |   X   |   X   |   X   |   X   |   X   |   X   |   X   |   X   |   X   |   X   |   X   |   X   |   X   |   X   |   X   |   X   |   X   |   X   |   X   |   X   |   X   |   X   |   X   |   X   |   X   |   X   |   X   |   X   |   X   |   X   |   X   |   X   |   X   |   X   |   X   |   X   |   X   |   X   |   X   |   X   |   X   |   X   |   X   |   X   |   X   |   X   |   X   |   X   |   X   |   X   |   X   |   X   |   X   |   X   |   X   |   X   |   X   |   X   |   X   |   X   |   X   |
    3 |   X   |   X   |   -   |   -   |   -   |   -   |   -   |   X   |   X   |   X   |   X   |   X   |   X   |   X   |   X   |   X   |   X   |   X   |   X   |   X   |   X   |   X   |   X   |   X   |   -   |   -   |   -   |   -   |   -   |   -   |   -   |   X   |   X   |   X   |   X   |   X   |   X   |   X   |   X   |   X   |   X   |   X   |   X   |   X   |   X   |   X   |   X   |   X   |   -   |   -   |   -   |   -   |   -   |   -   |   -   |   X   |   X   |   X   |   X   |   X   |   X   |   X   |   X   |   X   |   X   |   X   |   X   |   X   |   X   |   X   |   X   |   X   |   -   |   -   |   -   |   -   |   -   |   -   |   -   |   X   |   X   |   X   |   X   |   X   |   X   |   X   |   X   |   X   |   X   |   X   |   X   |   X   |   X   |   X   |   X   |   X   |
    4 |   X   |   X   |   -   |   -   |   -   |   -   |   -   |   X   |   X   |   X   |   X   |   X   |   X   |   X   |   X   |   X   |   X   |   X   |   X   |   X   |   X   |   X   |   X   |   X   |   X   |   X   |   -   |   -   |   -   |   -   |   -   |   X   |   X   |   X   |   X   |   X   |   X   |   X   |   X   |   X   |   X   |   X   |   X   |   X   |   X   |   X   |   X   |   X   |   X   |   X   |   -   |   -   |   -   |   -   |   -   |   X   |   X   |   X   |   X   |   X   |   X   |   X   |   X   |   X   |   X   |   X   |   X   |   X   |   X   |   X   |   X   |   X   |   X   |   X   |   -   |   -   |   -   |   -   |   -   |   X   |   X   |   X   |   X   |   X   |   X   |   X   |   X   |   X   |   X   |   X   |   X   |   X   |   X   |   X   |   X   |   X   |
    5 |   X   |   X   |   X   |   X   |   X   |   X   |   X   |   X   |   X   |   X   |   X   |   X   |   X   |   X   |   X   |   X   |   X   |   X   |   X   |   X   |   X   |   X   |   X   |   X   |   X   |   X   |   X   |   X   |   X   |   X   |   X   |   X   |   X   |   X   |   X   |   X   |   X   |   X   |   X   |   X   |   X   |   X   |   X   |   X   |   X   |   X   |   X   |   X   |   X   |   X   |   X   |   X   |   X   |   X   |   X   |   X   |   X   |   X   |   X   |   X   |   X   |   X   |   X   |   X   |   X   |   X   |   X   |   X   |   X   |   X   |   X   |   X   |   X   |   X   |   X   |   X   |   X   |   X   |   X   |   X   |   X   |   X   |   X   |   X   |   X   |   X   |   X   |   X   |   X   |   X   |   X   |   X   |   X   |   X   |   X   |   X   |
    6 |   X   |   X   |   -   |   -   |   -   |   -   |   -   |   -   |   -   |   X   |   X   |   X   |   X   |   -   |   -   |   -   |   X   |   X   |   X   |   X   |   X   |   X   |   X   |   -   |   -   |   -   |   -   |   -   |   -   |   -   |   -   |   -   |   -   |   -   |   X   |   X   |   X   |   -   |   -   |   -   |   X   |   X   |   X   |   X   |   X   |   X   |   X   |   -   |   -   |   -   |   -   |   -   |   -   |   -   |   -   |   -   |   -   |   -   |   X   |   X   |   X   |   -   |   -   |   -   |   X   |   X   |   X   |   X   |   X   |   X   |   X   |   -   |   -   |   -   |   -   |   -   |   -   |   -   |   -   |   -   |   -   |   -   |   X   |   X   |   X   |   -   |   -   |   -   |   X   |   X   |   X   |   X   |   X   |   X   |   X   |   -   |
    7 |   X   |   X   |   -   |   -   |   -   |   -   |   -   |   -   |   -   |   -   |   -   |   -   |   -   |   -   |   -   |   -   |   X   |   X   |   X   |   X   |   -   |   -   |   -   |   -   |   -   |   -   |   -   |   -   |   -   |   -   |   -   |   -   |   -   |   -   |   -   |   -   |   -   |   -   |   -   |   -   |   X   |   X   |   X   |   X   |   -   |   -   |   -   |   -   |   -   |   -   |   -   |   -   |   -   |   -   |   -   |   -   |   -   |   -   |   -   |   -   |   -   |   -   |   -   |   -   |   X   |   X   |   X   |   X   |   -   |   -   |   -   |   -   |   -   |   -   |   -   |   -   |   -   |   -   |   -   |   -   |   -   |   -   |   -   |   -   |   -   |   -   |   -   |   -   |   X   |   X   |   X   |   X   |   -   |   -   |   -   |   -   |
    8 |   X   |   X   |   -   |   -   |   -   |   -   |   -   |   -   |   -   |   -   |   -   |   -   |   -   |   -   |   -   |   -   |   -   |   -   |   -   |   -   |   -   |   -   |   -   |   -   |   -   |   -   |   -   |   -   |   -   |   -   |   -   |   -   |   -   |   -   |   -   |   -   |   -   |   -   |   -   |   -   |   -   |   -   |   -   |   -   |   -   |   -   |   -   |   -   |   -   |   -   |   -   |   -   |   -   |   -   |   -   |   -   |   -   |   -   |   -   |   -   |   -   |   -   |   -   |   -   |   -   |   -   |   -   |   -   |   -   |   -   |   -   |   -   |   -   |   -   |   -   |   -   |   -   |   -   |   -   |   -   |   -   |   -   |   -   |   -   |   -   |   -   |   -   |   -   |   -   |   -   |   -   |   -   |   -   |   -   |   -   |   -   |
-------------------------------------------------------------------------------------------------------------------------------------------------------------------------------------------------------------------------------------------------------------------------------------------------------------------------------------------------------------------------------------------------------------------------------------------------------------------------------------------------------------------------------------------------------------------------------------------------------------------------------------------------------------------------------------------------------------------------------------------------------------------------------------------------------
Total |   8   |   8   |   3   |   3   |   3   |   3   |   3   |   5   |   5   |   6   |   6   |   6   |   6   |   5   |   5   |   5   |   7   |   7   |   7   |   7   |   6   |   6   |   6   |   5   |   4   |   4   |   3   |   3   |   3   |   3   |   3   |   5   |   5   |   5   |   6   |   6   |   6   |   5   |   5   |   5   |   7   |   7   |   7   |   7   |   6   |   6   |   6   |   5   |   4   |   4   |   3   |   3   |   3   |   3   |   3   |   5   |   5   |   5   |   6   |   6   |   6   |   5   |   5   |   5   |   7   |   7   |   7   |   7   |   6   |   6   |   6   |   5   |   4   |   4   |   3   |   3   |   3   |   3   |   3   |   5   |   5   |   5   |   6   |   6   |   6   |   5   |   5   |   5   |   7   |   7   |   7   |   7   |   6   |   6   |   6   |   5   |

Schedule: Leistungs-Output [MW]
===============================
 Time |     1   |     2   |     3   |     4   |     5   |     6   |     7   |     8   |     9   |    10   |    11   |    12   |    13   |    14   |    15   |    16   |    17   |    18   |    19   |    20   |    21   |    22   |    23   |    24   |    25   |    26   |    27   |    28   |    29   |    30   |    31   |    32   |    33   |    34   |    35   |    36   |    37   |    38   |    39   |    40   |    41   |    42   |    43   |    44   |    45   |    46   |    47   |    48   |    49   |    50   |    51   |    52   |    53   |    54   |    55   |    56   |    57   |    58   |    59   |    60   |    61   |    62   |    63   |    64   |    65   |    66   |    67   |    68   |    69   |    70   |    71   |    72   |    73   |    74   |    75   |    76   |    77   |    78   |    79   |    80   |    81   |    82   |    83   |    84   |    85   |    86   |    87   |    88   |    89   |    90   |    91   |    92   |    93   |    94   |    95   |    96   |
 Unit |         |         |         |         |         |         |         |         |         |         |         |         |         |         |         |         |         |         |         |         |         |         |         |         |         |         |         |         |         |         |         |         |         |         |         |         |         |         |         |         |         |         |         |         |         |         |         |         |         |         |         |         |         |         |         |         |         |         |         |         |         |         |         |         |         |         |         |         |         |         |         |         |         |         |         |         |         |         |         |         |         |         |         |         |         |         |         |         |         |         |         |         |         |         |         |         |
-------------------------------------------------------------------------------------------------------------------------------------------------------------------------------------------------------------------------------------------------------------------------------------------------------------------------------------------------------------------------------------------------------------------------------------------------------------------------------------------------------------------------------------------------------------------------------------------------------------------------------------------------------------------------------------------------------------------------------------------------------------------------------------------------------------------------------------------------------------------------------------------------------------------------------------------------------------------------------------------------------
    1 |     375 |     455 |     455 |     455 |     455 |     455 |     455 |     455 |     455 |     455 |     455 |     455 |     455 |     455 |     455 |     455 |     455 |     455 |     455 |     455 |     455 |     455 |     455 |     455 |     455 |     455 |     455 |     455 |     455 |     455 |     455 |     455 |     455 |     455 |     455 |     455 |     455 |     455 |     455 |     455 |     455 |     455 |     455 |     455 |     455 |     455 |     455 |     455 |     455 |     455 |     455 |     455 |     455 |     455 |     455 |     455 |     455 |     455 |     455 |     455 |     455 |     455 |     455 |     455 |     455 |     455 |     455 |     455 |     455 |     455 |     455 |     455 |     455 |     455 |     455 |     455 |     455 |     455 |     455 |     455 |     455 |     455 |     455 |     455 |     455 |     455 |     455 |     455 |     455 |     455 |     455 |     455 |     455 |     455 |     455 |     455 |
    2 |     375 | 418.448 |     455 |   451.2 |  420.16 |  420.16 | 443.256 | 418.672 |     455 |     455 |     455 |     455 |     455 |     455 | 453.696 | 433.512 |  426.16 |     455 |     455 |     455 |     455 |     455 |     455 |     455 |     455 |     455 |     455 |   451.2 |  420.16 |  420.16 | 443.256 | 418.672 |  444.28 |     455 |     455 |     455 |     455 |     455 | 453.696 | 433.512 |  426.16 |     455 |     455 |     455 |     455 |     455 |     455 |     455 |     455 |     455 |     455 |   451.2 |  420.16 |  420.16 | 443.256 | 418.672 |  444.28 |     455 |     455 |     455 |     455 |     455 | 453.696 | 433.512 |  426.16 |     455 |     455 |     455 |     455 |     455 |     455 |     455 |     455 |     455 |     455 |   451.2 |  420.16 |  420.16 | 443.256 | 418.672 |  444.28 |     455 |     455 |     455 |     455 |     455 | 453.696 | 433.512 |  426.16 |     455 |     455 |     455 |     455 |     455 |   437.4 |  408.48 |
    3 |      70 |      20 |       0 |       0 |       0 |       0 |       0 |      20 |      70 |     120 |     130 |     130 |     130 |     130 |     130 |     130 |     130 |     130 |     130 |     130 |     130 |     120 |      70 |      20 |       0 |       0 |       0 |       0 |       0 |       0 |       0 |      20 |      70 |     120 |     130 |     130 |     130 |     130 |     130 |     130 |     130 |     130 |     130 |     130 |     130 |     120 |      70 |      20 |       0 |       0 |       0 |       0 |       0 |       0 |       0 |      20 |      70 |     120 |     130 |     130 |     130 |     130 |     130 |     130 |     130 |     130 |     130 |     130 |     130 |     120 |      70 |      20 |       0 |       0 |       0 |       0 |       0 |       0 |       0 |      20 |      70 |     120 |     130 |     130 |     130 |     130 |     130 |     130 |     130 |     130 |     130 |     130 |     130 |     130 |     130 |     130 |
    4 |      70 |      20 |       0 |       0 |       0 |       0 |       0 |      20 |      70 |     120 |     130 |     130 |     130 |     130 |     130 |     130 |     130 |     130 |     130 |     130 |     130 |     130 |     130 |     120 |      70 |      20 |       0 |       0 |       0 |       0 |       0 |      20 |      70 |     120 |     130 |     130 |     130 |     130 |     130 |     130 |     130 |     130 |     130 |     130 |     130 |     130 |     130 |     120 |      70 |      20 |       0 |       0 |       0 |       0 |       0 |      20 |      70 |     120 |     130 |     130 |     130 |     130 |     130 |     130 |     130 |     130 |     130 |     130 |     130 |     130 |     130 |     120 |      70 |      20 |       0 |       0 |       0 |       0 |       0 |      20 |      70 |     120 |     130 |     130 |     130 |     130 |     130 |     130 |     130 |     130 |     130 |     130 |     130 |     130 |     130 |     130 |
    5 |      85 |  40.352 |   52.24 |      25 |      25 |      25 |  32.944 |  79.608 |   82.96 |    71.6 |   82.64 |   98.16 |   82.64 |    71.6 |  57.384 |  77.568 |     102 |     162 |     162 |  150.76 |   129.2 |  123.68 |   96.08 |   98.48 |  121.92 |    78.8 |   52.24 |      25 |      25 |      25 |  32.944 |  79.608 |   93.68 |    91.6 |   82.64 |   98.16 |   82.64 |    71.6 |  57.384 |  77.568 |     102 |     162 |     162 |  150.76 |   129.2 |  123.68 |   96.08 |   98.48 |  121.92 |    78.8 |   52.24 |      25 |      25 |      25 |  32.944 |  79.608 |   93.68 |    91.6 |   82.64 |   98.16 |   82.64 |    71.6 |  57.384 |  77.568 |     102 |     162 |     162 |  150.76 |   129.2 |  123.68 |   96.08 |   98.48 |  121.92 |    78.8 |   52.24 |      25 |      25 |      25 |  32.944 |  79.608 |   93.68 |    91.6 |   82.64 |   98.16 |   82.64 |    71.6 |  57.384 |  77.568 |     102 |     162 |     162 |  150.76 |   129.2 |  113.68 |   53.68 |      25 |
    6 |      80 |      20 |       0 |       0 |       0 |       0 |       0 |       0 |       0 |      20 |      20 |      20 |      20 |       0 |       0 |       0 |      20 |   55.32 |    39.8 |      20 |      20 |      20 |      20 |       0 |       0 |       0 |       0 |       0 |       0 |       0 |       0 |       0 |       0 |       0 |      20 |      20 |      20 |       0 |       0 |       0 |      20 |   55.32 |    39.8 |      20 |      20 |      20 |      20 |       0 |       0 |       0 |       0 |       0 |       0 |       0 |       0 |       0 |       0 |       0 |      20 |      20 |      20 |       0 |       0 |       0 |      20 |   55.32 |    39.8 |      20 |      20 |      20 |      20 |       0 |       0 |       0 |       0 |       0 |       0 |       0 |       0 |       0 |       0 |       0 |      20 |      20 |      20 |       0 |       0 |       0 |      20 |   55.32 |    39.8 |      20 |      20 |      20 |      20 |       0 |
    7 |      25 |      25 |       0 |       0 |       0 |       0 |       0 |       0 |       0 |       0 |       0 |       0 |       0 |       0 |       0 |       0 |      25 |      25 |      25 |      25 |       0 |       0 |       0 |       0 |       0 |       0 |       0 |       0 |       0 |       0 |       0 |       0 |       0 |       0 |       0 |       0 |       0 |       0 |       0 |       0 |      25 |      25 |      25 |      25 |       0 |       0 |       0 |       0 |       0 |       0 |       0 |       0 |       0 |       0 |       0 |       0 |       0 |       0 |       0 |       0 |       0 |       0 |       0 |       0 |      25 |      25 |      25 |      25 |       0 |       0 |       0 |       0 |       0 |       0 |       0 |       0 |       0 |       0 |       0 |       0 |       0 |       0 |       0 |       0 |       0 |       0 |       0 |       0 |      25 |      25 |      25 |      25 |       0 |       0 |       0 |       0 |
    8 |   21.92 |      10 |       0 |       0 |       0 |       0 |       0 |       0 |       0 |       0 |       0 |       0 |       0 |       0 |       0 |       0 |       0 |       0 |       0 |       0 |       0 |       0 |       0 |       0 |       0 |       0 |       0 |       0 |       0 |       0 |       0 |       0 |       0 |       0 |       0 |       0 |       0 |       0 |       0 |       0 |       0 |       0 |       0 |       0 |       0 |       0 |       0 |       0 |       0 |       0 |       0 |       0 |       0 |       0 |       0 |       0 |       0 |       0 |       0 |       0 |       0 |       0 |       0 |       0 |       0 |       0 |       0 |       0 |       0 |       0 |       0 |       0 |       0 |       0 |       0 |       0 |       0 |       0 |       0 |       0 |       0 |       0 |       0 |       0 |       0 |       0 |       0 |       0 |       0 |       0 |       0 |       0 |       0 |       0 |       0 |       0 |
-------------------------------------------------------------------------------------------------------------------------------------------------------------------------------------------------------------------------------------------------------------------------------------------------------------------------------------------------------------------------------------------------------------------------------------------------------------------------------------------------------------------------------------------------------------------------------------------------------------------------------------------------------------------------------------------------------------------------------------------------------------------------------------------------------------------------------------------------------------------------------------------------------------------------------------------------------------------------------------------------------
Total | 1101.92 |  1008.8 |  962.24 |   931.2 |  900.16 |  900.16 |   931.2 |  993.28 | 1132.96 |  1241.6 | 1272.64 | 1288.16 | 1272.64 |  1241.6 | 1226.08 | 1226.08 | 1288.16 | 1412.32 |  1396.8 | 1365.76 |  1319.2 | 1303.68 | 1226.08 | 1148.48 | 1101.92 |  1008.8 |  962.24 |   931.2 |  900.16 |  900.16 |   931.2 |  993.28 | 1132.96 |  1241.6 | 1272.64 | 1288.16 | 1272.64 |  1241.6 | 1226.08 | 1226.08 | 1288.16 | 1412.32 |  1396.8 | 1365.76 |  1319.2 | 1303.68 | 1226.08 | 1148.48 | 1101.92 |  1008.8 |  962.24 |   931.2 |  900.16 |  900.16 |   931.2 |  993.28 | 1132.96 |  1241.6 | 1272.64 | 1288.16 | 1272.64 |  1241.6 | 1226.08 | 1226.08 | 1288.16 | 1412.32 |  1396.8 | 1365.76 |  1319.2 | 1303.68 | 1226.08 | 1148.48 | 1101.92 |  1008.8 |  962.24 |   931.2 |  900.16 |  900.16 |   931.2 |  993.28 | 1132.96 |  1241.6 | 1272.64 | 1288.16 | 1272.64 |  1241.6 | 1226.08 | 1226.08 | 1288.16 | 1412.32 |  1396.8 | 1365.76 |  1319.2 | 1303.68 | 1226.08 | 1148.48 |
Diff. |       0 |       0 |       0 |       0 |       0 |       0 |       0 |       0 |       0 |       0 |       0 |       0 |       0 |       0 |       0 |       0 |       0 |       0 |       0 |       0 |       0 |       0 |       0 |       0 |       0 |       0 |       0 |       0 |       0 |       0 |       0 |       0 |       0 |       0 |       0 |       0 |       0 |       0 |       0 |       0 |       0 |       0 |       0 |       0 |       0 |       0 |       0 |       0 |       0 |       0 |       0 |       0 |       0 |       0 |       0 |       0 |       0 |       0 |       0 |       0 |       0 |       0 |       0 |       0 |       0 |       0 |       0 |       0 |       0 |       0 |       0 |       0 |       0 |       0 |       0 |       0 |       0 |       0 |       0 |       0 |       0 |       0 |       0 |       0 |       0 |       0 |       0 |       0 |       0 |       0 |       0 |       0 |       0 |       0 |       0 |       0 |

=======================
Unit-Commitment-Problem
Fix-and-Optimize (combination)
Michael Tunder
=======================

Instanz: 8-gen (Case 5)
Planung: 8 Einheiten & 120 Stunden
Reserve: 5 Prozent
Abweichung von Nachfrage: nicht moeglich

Abbruchsgrund: Vollstaendige Loesung
Gesamtkosten [GE]: 2847861.59
Ganzzahlige Loesung
Bedarfsabweichungskosten [%]: --

Optimierungsdauer [s]: 3.734 (0.062min)
Maximale Dauer: 18000s / 300.000min / 5.00h
Optimalitaetsluecke [%]: --
Beste Schranke [GE]: --
Nebenbedingungen: 7903
Entscheidungsvariablen (gesamt): 6720
Kontinuierliche Variablen: 1920
Binaervariablen: 4800
Fixierte Binaervariablen: 4394
Verbleibende Binaervariablen: 406
Iterationen: 9
Ganzzahligkeitstoleranz: 0.01
Xpress-Version: 8.11.1

Schedule: Commitment-Status
===========================
 Time |    1  |    2  |    3  |    4  |    5  |    6  |    7  |    8  |    9  |   10  |   11  |   12  |   13  |   14  |   15  |   16  |   17  |   18  |   19  |   20  |   21  |   22  |   23  |   24  |   25  |   26  |   27  |   28  |   29  |   30  |   31  |   32  |   33  |   34  |   35  |   36  |   37  |   38  |   39  |   40  |   41  |   42  |   43  |   44  |   45  |   46  |   47  |   48  |   49  |   50  |   51  |   52  |   53  |   54  |   55  |   56  |   57  |   58  |   59  |   60  |   61  |   62  |   63  |   64  |   65  |   66  |   67  |   68  |   69  |   70  |   71  |   72  |   73  |   74  |   75  |   76  |   77  |   78  |   79  |   80  |   81  |   82  |   83  |   84  |   85  |   86  |   87  |   88  |   89  |   90  |   91  |   92  |   93  |   94  |   95  |   96  |   97  |   98  |   99  |  100  |  101  |  102  |  103  |  104  |  105  |  106  |  107  |  108  |  109  |  110  |  111  |  112  |  113  |  114  |  115  |  116  |  117  |  118  |  119  |  120  |
 Unit |       |       |       |       |       |       |       |       |       |       |       |       |       |       |       |       |       |       |       |       |       |       |       |       |       |       |       |       |       |       |       |       |       |       |       |       |       |       |       |       |       |       |       |       |       |       |       |       |       |       |       |       |       |       |       |       |       |       |       |       |       |       |       |       |       |       |       |       |       |       |       |       |       |       |       |       |       |       |       |       |       |       |       |       |       |       |       |       |       |       |       |       |       |       |       |       |       |       |       |       |       |       |       |       |       |       |       |       |       |       |       |       |       |       |       |       |       |       |       |       |
-------------------------------------------------------------------------------------------------------------------------------------------------------------------------------------------------------------------------------------------------------------------------------------------------------------------------------------------------------------------------------------------------------------------------------------------------------------------------------------------------------------------------------------------------------------------------------------------------------------------------------------------------------------------------------------------------------------------------------------------------------------------------------------------------------------------------------------------------------------------------------------------------------------------------------------------------------------------------------------------------------
    1 |   X   |   X   |   X   |   X   |   X   |   X   |   X   |   X   |   X   |   X   |   X   |   X   |   X   |   X   |   X   |   X   |   X   |   X   |   X   |   X   |   X   |   X   |   X   |   X   |   X   |   X   |   X   |   X   |   X   |   X   |   X   |   X   |   X   |   X   |   X   |   X   |   X   |   X   |   X   |   X   |   X   |   X   |   X   |   X   |   X   |   X   |   X   |   X   |   X   |   X   |   X   |   X   |   X   |   X   |   X   |   X   |   X   |   X   |   X   |   X   |   X   |   X   |   X   |   X   |   X   |   X   |   X   |   X   |   X   |   X   |   X   |   X   |   X   |   X   |   X   |   X   |   X   |   X   |   X   |   X   |   X   |   X   |   X   |   X   |   X   |   X   |   X   |   X   |   X   |   X   |   X   |   X   |   X   |   X   |   X   |   X   |   X   |   X   |   X   |   X   |   X   |   X   |   X   |   X   |   X   |   X   |   X   |   X   |   X   |   X   |   X   |   X   |   X   |   X   |   X   |   X   |   X   |   X   |   X   |   X   |
    2 |   X   |   X   |   X   |   X   |   X   |   X   |   X   |   X   |   X   |   X   |   X   |   X   |   X   |   X   |   X   |   X   |   X   |   X   |   X   |   X   |   X   |   X   |   X   |   X   |   X   |   X   |   X   |   X   |   X   |   X   |   X   |   X   |   X   |   X   |   X   |   X   |   X   |   X   |   X   |   X   |   X   |   X   |   X   |   X   |   X   |   X   |   X   |   X   |   X   |   X   |   X   |   X   |   X   |   X   |   X   |   X   |   X   |   X   |   X   |   X   |   X   |   X   |   X   |   X   |   X   |   X   |   X   |   X   |   X   |   X   |   X   |   X   |   X   |   X   |   X   |   X   |   X   |   X   |   X   |   X   |   X   |   X   |   X   |   X   |   X   |   X   |   X   |   X   |   X   |   X   |   X   |   X   |   X   |   X   |   X   |   X   |   X   |   X   |   X   |   X   |   X   |   X   |   X   |   X   |   X   |   X   |   X   |   X   |   X   |   X   |   X   |   X   |   X   |   X   |   X   |   X   |   X   |   X   |   X   |   X   |
    3 |   X   |   X   |   -   |   -   |   -   |   -   |   -   |   X   |   X   |   X   |   X   |   X   |   X   |   X   |   X   |   X   |   X   |   X   |   X   |   X   |   X   |   X   |   X   |   X   |   -   |   -   |   -   |   -   |   -   |   -   |   -   |   X   |   X   |   X   |   X   |   X   |   X   |   X   |   X   |   X   |   X   |   X   |   X   |   X   |   X   |   X   |   X   |   X   |   -   |   -   |   -   |   -   |   -   |   -   |   -   |   X   |   X   |   X   |   X   |   X   |   X   |   X   |   X   |   X   |   X   |   X   |   X   |   X   |   X   |   X   |   X   |   X   |   -   |   -   |   -   |   -   |   -   |   -   |   -   |   X   |   X   |   X   |   X   |   X   |   X   |   X   |   X   |   X   |   X   |   X   |   X   |   X   |   X   |   X   |   X   |   X   |   -   |   -   |   -   |   -   |   -   |   -   |   -   |   X   |   X   |   X   |   X   |   X   |   X   |   X   |   X   |   X   |   X   |   X   |   X   |   X   |   X   |   X   |   X   |   X   |
    4 |   X   |   X   |   -   |   -   |   -   |   -   |   -   |   X   |   X   |   X   |   X   |   X   |   X   |   X   |   X   |   X   |   X   |   X   |   X   |   X   |   X   |   X   |   X   |   X   |   X   |   X   |   -   |   -   |   -   |   -   |   -   |   X   |   X   |   X   |   X   |   X   |   X   |   X   |   X   |   X   |   X   |   X   |   X   |   X   |   X   |   X   |   X   |   X   |   X   |   X   |   -   |   -   |   -   |   -   |   -   |   X   |   X   |   X   |   X   |   X   |   X   |   X   |   X   |   X   |   X   |   X   |   X   |   X   |   X   |   X   |   X   |   X   |   X   |   X   |   -   |   -   |   -   |   -   |   -   |   X   |   X   |   X   |   X   |   X   |   X   |   X   |   X   |   X   |   X   |   X   |   X   |   X   |   X   |   X   |   X   |   X   |   X   |   X   |   -   |   -   |   -   |   -   |   -   |   X   |   X   |   X   |   X   |   X   |   X   |   X   |   X   |   X   |   X   |   X   |   X   |   X   |   X   |   X   |   X   |   X   |
    5 |   X   |   X   |   X   |   X   |   X   |   X   |   X   |   X   |   X   |   X   |   X   |   X   |   X   |   X   |   X   |   X   |   X   |   X   |   X   |   X   |   X   |   X   |   X   |   X   |   X   |   X   |   X   |   X   |   X   |   X   |   X   |   X   |   X   |   X   |   X   |   X   |   X   |   X   |   X   |   X   |   X   |   X   |   X   |   X   |   X   |   X   |   X   |   X   |   X   |   X   |   X   |   X   |   X   |   X   |   X   |   X   |   X   |   X   |   X   |   X   |   X   |   X   |   X   |   X   |   X   |   X   |   X   |   X   |   X   |   X   |   X   |   X   |   X   |   X   |   X   |   X   |   X   |   X   |   X   |   X   |   X   |   X   |   X   |   X   |   X   |   X   |   X   |   X   |   X   |   X   |   X   |   X   |   X   |   X   |   X   |   X   |   X   |   X   |   X   |   X   |   X   |   X   |   X   |   X   |   X   |   X   |   X   |   X   |   X   |   X   |   X   |   X   |   X   |   X   |   X   |   X   |   X   |   X   |   X   |   X   |
    6 |   X   |   X   |   -   |   -   |   -   |   -   |   -   |   -   |   -   |   X   |   X   |   X   |   X   |   -   |   -   |   -   |   X   |   X   |   X   |   X   |   X   |   X   |   X   |   -   |   -   |   -   |   -   |   -   |   -   |   -   |   -   |   -   |   -   |   -   |   X   |   X   |   X   |   -   |   -   |   -   |   X   |   X   |   X   |   X   |   X   |   X   |   X   |   -   |   -   |   -   |   -   |   -   |   -   |   -   |   -   |   -   |   -   |   -   |   X   |   X   |   X   |   -   |   -   |   -   |   X   |   X   |   X   |   X   |   X   |   X   |   X   |   -   |   -   |   -   |   -   |   -   |   -   |   -   |   -   |   -   |   -   |   -   |   X   |   X   |   X   |   -   |   -   |   -   |   X   |   X   |   X   |   X   |   X   |   X   |   X   |   -   |   -   |   -   |   -   |   -   |   -   |   -   |   -   |   -   |   -   |   -   |   X   |   X   |   X   |   -   |   -   |   -   |   X   |   X   |   X   |   X   |   X   |   X   |   X   |   -   |
    7 |   X   |   X   |   -   |   -   |   -   |   -   |   -   |   -   |   -   |   -   |   -   |   -   |   -   |   -   |   -   |   -   |   X   |   X   |   X   |   X   |   -   |   -   |   -   |   -   |   -   |   -   |   -   |   -   |   -   |   -   |   -   |   -   |   -   |   -   |   -   |   -   |   -   |   -   |   -   |   -   |   X   |   X   |   X   |   X   |   -   |   -   |   -   |   -   |   -   |   -   |   -   |   -   |   -   |   -   |   -   |   -   |   -   |   -   |   -   |   -   |   -   |   -   |   -   |   -   |   X   |   X   |   X   |   X   |   -   |   -   |   -   |   -   |   -   |   -   |   -   |   -   |   -   |   -   |   -   |   -   |   -   |   -   |   -   |   -   |   -   |   -   |   -   |   -   |   X   |   X   |   X   |   X   |   -   |   -   |   -   |   -   |   -   |   -   |   -   |   -   |   -   |   -   |   -   |   -   |   -   |   -   |   -   |   -   |   -   |   -   |   -   |   -   |   X   |   X   |   X   |   X   |   -   |   -   |   -   |   -   |
    8 |   X   |   X   |   -   |   -   |   -   |   -   |   -   |   -   |   -   |   -   |   -   |   -   |   -   |   -   |   -   |   -   |   -   |   -   |   -   |   -   |   -   |   -   |   -   |   -   |   -   |   -   |   -   |   -   |   -   |   -   |   -   |   -   |   -   |   -   |   -   |   -   |   -   |   -   |   -   |   -   |   -   |   -   |   -   |   -   |   -   |   -   |   -   |   -   |   -   |   -   |   -   |   -   |   -   |   -   |   -   |   -   |   -   |   -   |   -   |   -   |   -   |   -   |   -   |   -   |   -   |   -   |   -   |   -   |   -   |   -   |   -   |   -   |   -   |   -   |   -   |   -   |   -   |   -   |   -   |   -   |   -   |   -   |   -   |   -   |   -   |   -   |   -   |   -   |   -   |   -   |   -   |   -   |   -   |   -   |   -   |   -   |   -   |   -   |   -   |   -   |   -   |   -   |   -   |   -   |   -   |   -   |   -   |   -   |   -   |   -   |   -   |   -   |   -   |   -   |   -   |   -   |   -   |   -   |   -   |   -   |
-------------------------------------------------------------------------------------------------------------------------------------------------------------------------------------------------------------------------------------------------------------------------------------------------------------------------------------------------------------------------------------------------------------------------------------------------------------------------------------------------------------------------------------------------------------------------------------------------------------------------------------------------------------------------------------------------------------------------------------------------------------------------------------------------------------------------------------------------------------------------------------------------------------------------------------------------------------------------------------------------------
Total |   8   |   8   |   3   |   3   |   3   |   3   |   3   |   5   |   5   |   6   |   6   |   6   |   6   |   5   |   5   |   5   |   7   |   7   |   7   |   7   |   6   |   6   |   6   |   5   |   4   |   4   |   3   |   3   |   3   |   3   |   3   |   5   |   5   |   5   |   6   |   6   |   6   |   5   |   5   |   5   |   7   |   7   |   7   |   7   |   6   |   6   |   6   |   5   |   4   |   4   |   3   |   3   |   3   |   3   |   3   |   5   |   5   |   5   |   6   |   6   |   6   |   5   |   5   |   5   |   7   |   7   |   7   |   7   |   6   |   6   |   6   |   5   |   4   |   4   |   3   |   3   |   3   |   3   |   3   |   5   |   5   |   5   |   6   |   6   |   6   |   5   |   5   |   5   |   7   |   7   |   7   |   7   |   6   |   6   |   6   |   5   |   4   |   4   |   3   |   3   |   3   |   3   |   3   |   5   |   5   |   5   |   6   |   6   |   6   |   5   |   5   |   5   |   7   |   7   |   7   |   7   |   6   |   6   |   6   |   5   |

Schedule: Leistungs-Output [MW]
===============================
 Time |     1   |     2   |     3   |     4   |     5   |     6   |     7   |     8   |     9   |    10   |    11   |    12   |    13   |    14   |    15   |    16   |    17   |    18   |    19   |    20   |    21   |    22   |    23   |    24   |    25   |    26   |    27   |    28   |    29   |    30   |    31   |    32   |    33   |    34   |    35   |    36   |    37   |    38   |    39   |    40   |    41   |    42   |    43   |    44   |    45   |    46   |    47   |    48   |    49   |    50   |    51   |    52   |    53   |    54   |    55   |    56   |    57   |    58   |    59   |    60   |    61   |    62   |    63   |    64   |    65   |    66   |    67   |    68   |    69   |    70   |    71   |    72   |    73   |    74   |    75   |    76   |    77   |    78   |    79   |    80   |    81   |    82   |    83   |    84   |    85   |    86   |    87   |    88   |    89   |    90   |    91   |    92   |    93   |    94   |    95   |    96   |    97   |    98   |    99   |   100   |   101   |   102   |   103   |   104   |   105   |   106   |   107   |   108   |   109   |   110   |   111   |   112   |   113   |   114   |   115   |   116   |   117   |   118   |   119   |   120   |
 Unit |         |         |         |         |         |         |         |         |         |         |         |         |         |         |         |         |         |         |         |         |         |         |         |         |         |         |         |         |         |         |         |         |         |         |         |         |         |         |         |         |         |         |         |         |         |         |         |         |         |         |         |         |         |         |         |         |         |         |         |         |         |         |         |         |         |         |         |         |         |         |         |         |         |         |         |         |         |         |         |         |         |         |         |         |         |         |         |         |         |         |         |         |         |         |         |         |         |         |         |         |         |         |         |         |         |         |         |         |         |         |         |         |         |         |         |         |         |         |         |         |
-------------------------------------------------------------------------------------------------------------------------------------------------------------------------------------------------------------------------------------------------------------------------------------------------------------------------------------------------------------------------------------------------------------------------------------------------------------------------------------------------------------------------------------------------------------------------------------------------------------------------------------------------------------------------------------------------------------------------------------------------------------------------------------------------------------------------------------------------------------------------------------------------------------------------------------------------------------------------------------------------------------------------------------------------------------------------------------------------------------------------------------------------------------------------------------------------------------------------------------------------------
    1 |     375 |     455 |     455 |     455 |     455 |     455 |     455 |     455 |     455 |     455 |     455 |     455 |     455 |     455 |     455 |     455 |     455 |     455 |     455 |     455 |     455 |     455 |     455 |     455 |     455 |     455 |     455 |     455 |     455 |     455 |     455 |     455 |     455 |     455 |     455 |     455 |     455 |     455 |     455 |     455 |     455 |     455 |     455 |     455 |     455 |     455 |     455 |     455 |     455 |     455 |     455 |     455 |     455 |     455 |     455 |     455 |     455 |     455 |     455 |     455 |     455 |     455 |     455 |     455 |     455 |     455 |     455 |     455 |     455 |     455 |     455 |     455 |     455 |     455 |     455 |     455 |     455 |     455 |     455 |     455 |     455 |     455 |     455 |     455 |     455 |     455 |     455 |     455 |     455 |     455 |     455 |     455 |     455 |     455 |     455 |     455 |     455 |     455 |     455 |     455 |     455 |     455 |     455 |     455 |     455 |     455 |     455 |     455 |     455 |     455 |     455 |     455 |     455 |     455 |     455 |     455 |     455 |     455 |     455 |     455 |
    2 |     375 | 418.448 |     455 |   451.2 |  420.16 |  420.16 | 443.256 | 418.672 |     455 |     455 |     455 |     455 |     455 |     455 | 453.696 | 433.512 |  426.16 |     455 |     455 |     455 |     455 |     455 |     455 |     455 |     455 |     455 |     455 |   451.2 |  420.16 |  420.16 | 443.256 | 418.672 |  444.28 |     455 |     455 |     455 |     455 |     455 | 453.696 | 433.512 |  426.16 |     455 |     455 |     455 |     455 |     455 |     455 |     455 |     455 |     455 |     455 |   451.2 |  420.16 |  420.16 | 443.256 | 418.672 |  444.28 |     455 |     455 |     455 |     455 |     455 | 453.696 | 433.512 |  426.16 |     455 |     455 |     455 |     455 |     455 |     455 |     455 |     455 |     455 |     455 |   451.2 |  420.16 |  420.16 | 443.256 | 418.672 |  444.28 |     455 |     455 |     455 |     455 |     455 | 453.696 | 433.512 |  426.16 |     455 |     455 |     455 |     455 |     455 |     455 |     455 |     455 |     455 |     455 |   451.2 |  420.16 |  420.16 | 443.256 | 418.672 |  444.28 |     455 |     455 |     455 |     455 |     455 | 453.696 | 433.512 |  426.16 |     455 |     455 |     455 |     455 |     455 |   437.4 |  408.48 |
    3 |      70 |      20 |       0 |       0 |       0 |       0 |       0 |      20 |      70 |     120 |     130 |     130 |     130 |     130 |     130 |     130 |     130 |     130 |     130 |     130 |     130 |     120 |      70 |      20 |       0 |       0 |       0 |       0 |       0 |       0 |       0 |      20 |      70 |     120 |     130 |     130 |     130 |     130 |     130 |     130 |     130 |     130 |     130 |     130 |     130 |     120 |      70 |      20 |       0 |       0 |       0 |       0 |       0 |       0 |       0 |      20 |      70 |     120 |     130 |     130 |     130 |     130 |     130 |     130 |     130 |     130 |     130 |     130 |     130 |     120 |      70 |      20 |       0 |       0 |       0 |       0 |       0 |       0 |       0 |      20 |      70 |     120 |     130 |     130 |     130 |     130 |     130 |     130 |     130 |     130 |     130 |     130 |     130 |     120 |      70 |      20 |       0 |       0 |       0 |       0 |       0 |       0 |       0 |      20 |      70 |     120 |     130 |     130 |     130 |     130 |     130 |     130 |     130 |     130 |     130 |     130 |     130 |     130 |     130 |     130 |
    4 |      70 |      20 |       0 |       0 |       0 |       0 |       0 |      20 |      70 |     120 |     130 |     130 |     130 |     130 |     130 |     130 |     130 |     130 |     130 |     130 |     130 |     130 |     130 |     120 |      70 |      20 |       0 |       0 |       0 |       0 |       0 |      20 |      70 |     120 |     130 |     130 |     130 |     130 |     130 |     130 |     130 |     130 |     130 |     130 |     130 |     130 |     130 |     120 |      70 |      20 |       0 |       0 |       0 |       0 |       0 |      20 |      70 |     120 |     130 |     130 |     130 |     130 |     130 |     130 |     130 |     130 |     130 |     130 |     130 |     130 |     130 |     120 |      70 |      20 |       0 |       0 |       0 |       0 |       0 |      20 |      70 |     120 |     130 |     130 |     130 |     130 |     130 |     130 |     130 |     130 |     130 |     130 |     130 |     130 |     130 |     120 |      70 |      20 |       0 |       0 |       0 |       0 |       0 |      20 |      70 |     120 |     130 |     130 |     130 |     130 |     130 |     130 |     130 |     130 |     130 |     130 |     130 |     130 |     130 |     130 |
    5 |      85 |  40.352 |   52.24 |      25 |      25 |      25 |  32.944 |  79.608 |   82.96 |    71.6 |   82.64 |   98.16 |   82.64 |    71.6 |  57.384 |  77.568 |     102 |     162 |     162 |  150.76 |   129.2 |  123.68 |   96.08 |   98.48 |  121.92 |    78.8 |   52.24 |      25 |      25 |      25 |  32.944 |  79.608 |   93.68 |    91.6 |   82.64 |   98.16 |   82.64 |    71.6 |  57.384 |  77.568 |     102 |     162 |     162 |  150.76 |   129.2 |  123.68 |   96.08 |   98.48 |  121.92 |    78.8 |   52.24 |      25 |      25 |      25 |  32.944 |  79.608 |   93.68 |    91.6 |   82.64 |   98.16 |   82.64 |    71.6 |  57.384 |  77.568 |     102 |     162 |     162 |  150.76 |   129.2 |  123.68 |   96.08 |   98.48 |  121.92 |    78.8 |   52.24 |      25 |      25 |      25 |  32.944 |  79.608 |   93.68 |    91.6 |   82.64 |   98.16 |   82.64 |    71.6 |  57.384 |  77.568 |     102 |     162 |     162 |  150.76 |   129.2 |  123.68 |   96.08 |   98.48 |  121.92 |    78.8 |   52.24 |      25 |      25 |      25 |  32.944 |  79.608 |   93.68 |    91.6 |   82.64 |   98.16 |   82.64 |    71.6 |  57.384 |  77.568 |     102 |     162 |     162 |  150.76 |   129.2 |  113.68 |   53.68 |      25 |
    6 |      80 |      20 |       0 |       0 |       0 |       0 |       0 |       0 |       0 |      20 |      20 |      20 |      20 |       0 |       0 |       0 |      20 |   55.32 |    39.8 |      20 |      20 |      20 |      20 |       0 |       0 |       0 |       0 |       0 |       0 |       0 |       0 |       0 |       0 |       0 |      20 |      20 |      20 |       0 |       0 |       0 |      20 |   55.32 |    39.8 |      20 |      20 |      20 |      20 |       0 |       0 |       0 |       0 |       0 |       0 |       0 |       0 |       0 |       0 |       0 |      20 |      20 |      20 |       0 |       0 |       0 |      20 |   55.32 |    39.8 |      20 |      20 |      20 |      20 |       0 |       0 |       0 |       0 |       0 |       0 |       0 |       0 |       0 |       0 |       0 |      20 |      20 |      20 |       0 |       0 |       0 |      20 |   55.32 |    39.8 |      20 |      20 |      20 |      20 |       0 |       0 |       0 |       0 |       0 |       0 |       0 |       0 |       0 |       0 |       0 |      20 |      20 |      20 |       0 |       0 |       0 |      20 |   55.32 |    39.8 |      20 |      20 |      20 |      20 |       0 |
    7 |      25 |      25 |       0 |       0 |       0 |       0 |       0 |       0 |       0 |       0 |       0 |       0 |       0 |       0 |       0 |       0 |      25 |      25 |      25 |      25 |       0 |       0 |       0 |       0 |       0 |       0 |       0 |       0 |       0 |       0 |       0 |       0 |       0 |       0 |       0 |       0 |       0 |       0 |       0 |       0 |      25 |      25 |      25 |      25 |       0 |       0 |       0 |       0 |       0 |       0 |       0 |       0 |       0 |       0 |       0 |       0 |       0 |       0 |       0 |       0 |       0 |       0 |       0 |       0 |      25 |      25 |      25 |      25 |       0 |       0 |       0 |       0 |       0 |       0 |       0 |       0 |       0 |       0 |       0 |       0 |       0 |       0 |       0 |       0 |       0 |       0 |       0 |       0 |      25 |      25 |      25 |      25 |       0 |       0 |       0 |       0 |       0 |       0 |       0 |       0 |       0 |       0 |       0 |       0 |       0 |       0 |       0 |       0 |       0 |       0 |       0 |       0 |      25 |      25 |      25 |      25 |       0 |       0 |       0 |       0 |
    8 |   21.92 |      10 |       0 |       0 |       0 |       0 |       0 |       0 |       0 |       0 |       0 |       0 |       0 |       0 |       0 |       0 |       0 |       0 |       0 |       0 |       0 |       0 |       0 |       0 |       0 |       0 |       0 |       0 |       0 |       0 |       0 |       0 |       0 |       0 |       0 |       0 |       0 |       0 |       0 |       0 |       0 |       0 |       0 |       0 |       0 |       0 |       0 |       0 |       0 |       0 |       0 |       0 |       0 |       0 |       0 |       0 |       0 |       0 |       0 |       0 |       0 |       0 |       0 |       0 |       0 |       0 |       0 |       0 |       0 |       0 |       0 |       0 |       0 |       0 |       0 |       0 |       0 |       0 |       0 |       0 |       0 |       0 |       0 |       0 |       0 |       0 |       0 |       0 |       0 |       0 |       0 |       0 |       0 |       0 |       0 |       0 |       0 |       0 |       0 |       0 |       0 |       0 |       0 |       0 |       0 |       0 |       0 |       0 |       0 |       0 |       0 |       0 |       0 |       0 |       0 |       0 |       0 |       0 |       0 |       0 |
-------------------------------------------------------------------------------------------------------------------------------------------------------------------------------------------------------------------------------------------------------------------------------------------------------------------------------------------------------------------------------------------------------------------------------------------------------------------------------------------------------------------------------------------------------------------------------------------------------------------------------------------------------------------------------------------------------------------------------------------------------------------------------------------------------------------------------------------------------------------------------------------------------------------------------------------------------------------------------------------------------------------------------------------------------------------------------------------------------------------------------------------------------------------------------------------------------------------------------------------------------
Total | 1101.92 |  1008.8 |  962.24 |   931.2 |  900.16 |  900.16 |   931.2 |  993.28 | 1132.96 |  1241.6 | 1272.64 | 1288.16 | 1272.64 |  1241.6 | 1226.08 | 1226.08 | 1288.16 | 1412.32 |  1396.8 | 1365.76 |  1319.2 | 1303.68 | 1226.08 | 1148.48 | 1101.92 |  1008.8 |  962.24 |   931.2 |  900.16 |  900.16 |   931.2 |  993.28 | 1132.96 |  1241.6 | 1272.64 | 1288.16 | 1272.64 |  1241.6 | 1226.08 | 1226.08 | 1288.16 | 1412.32 |  1396.8 | 1365.76 |  1319.2 | 1303.68 | 1226.08 | 1148.48 | 1101.92 |  1008.8 |  962.24 |   931.2 |  900.16 |  900.16 |   931.2 |  993.28 | 1132.96 |  1241.6 | 1272.64 | 1288.16 | 1272.64 |  1241.6 | 1226.08 | 1226.08 | 1288.16 | 1412.32 |  1396.8 | 1365.76 |  1319.2 | 1303.68 | 1226.08 | 1148.48 | 1101.92 |  1008.8 |  962.24 |   931.2 |  900.16 |  900.16 |   931.2 |  993.28 | 1132.96 |  1241.6 | 1272.64 | 1288.16 | 1272.64 |  1241.6 | 1226.08 | 1226.08 | 1288.16 | 1412.32 |  1396.8 | 1365.76 |  1319.2 | 1303.68 | 1226.08 | 1148.48 | 1101.92 |  1008.8 |  962.24 |   931.2 |  900.16 |  900.16 |   931.2 |  993.28 | 1132.96 |  1241.6 | 1272.64 | 1288.16 | 1272.64 |  1241.6 | 1226.08 | 1226.08 | 1288.16 | 1412.32 |  1396.8 | 1365.76 |  1319.2 | 1303.68 | 1226.08 | 1148.48 |
Diff. |       0 |       0 |       0 |       0 |       0 |       0 |       0 |       0 |       0 |       0 |       0 |       0 |       0 |       0 |       0 |       0 |       0 |       0 |       0 |       0 |       0 |       0 |       0 |       0 |       0 |       0 |       0 |       0 |       0 |       0 |       0 |       0 |       0 |       0 |       0 |       0 |       0 |       0 |       0 |       0 |       0 |       0 |       0 |       0 |       0 |       0 |       0 |       0 |       0 |       0 |       0 |       0 |       0 |       0 |       0 |       0 |       0 |       0 |       0 |       0 |       0 |       0 |       0 |       0 |       0 |       0 |       0 |       0 |       0 |       0 |       0 |       0 |       0 |       0 |       0 |       0 |       0 |       0 |       0 |       0 |       0 |       0 |       0 |       0 |       0 |       0 |       0 |       0 |       0 |       0 |       0 |       0 |       0 |       0 |       0 |       0 |       0 |       0 |       0 |       0 |       0 |       0 |       0 |       0 |       0 |       0 |       0 |       0 |       0 |       0 |       0 |       0 |       0 |       0 |       0 |       0 |       0 |       0 |       0 |       0 |

