case;units;timespan;cost_total;optimal;integer;duration;opt_gap;constrains;variables_total;variables_reell;variables_bin;variables_bin_fixed;iterations;tolerance
1;28;168;25727029.71;999999;1;18003.152;999999;37255;33096;9576;23520;13660;4;0.01
2;35;168;32388488.74;999999;1;18002.783;999999;46638;41328;11928;29400;14975;6;0.01
3;44;168;34514781.7;999999;1;18003.29;999999;58957;51912;14952;36960;23375;6;0.01
4;45;168;32300470.78;999999;1;18002.775;999999;60364;53088;15288;37800;26883;6;0.01
5;49;168;36354268.89;999999;1;18002.849;999999;65233;57792;16632;41160;28163;6;0.01
6;50;168;29739776.12;999999;1;18257.009;999999;67413;58968;16968;42000;37320;10;0.01
7;51;168;39306287.92;999999;1;18003.952;999999;68423;60144;17304;42840;27373;4;0.01
8;51;168;34935186.42;999999;1;18006.595;999999;69004;60144;17304;42840;31370;7;0.01
9;52;168;37960236.72;999999;1;18015.14;999999;69915;61320;17640;43680;35040;14;0.01
10;54;168;34236863.58;999999;1;18004.078;999999;72850;63672;18312;45360;39660;13;0.01
11;132;168;106549035;999999;1;18006.18;999999;177483;155400;44520;110880;73385;8;0.01
12;156;168;116122883.9;999999;1;18008.701;999999;208797;183624;52584;131040;86095;8;0.01
13;156;168;113905070.5;999999;1;18009.916;999999;209150;183624;52584;131040;89875;6;0.01
14;165;168;135693701.1;999999;1;18008.346;999999;218194;194208;55608;138600;85905;14;0.01
15;167;168;117110096.6;999999;1;18014.292;999999;223195;196560;56280;140280;119595;17;0.01
16;172;168;131469356.2;999999;1;18007.984;999999;230583;202440;57960;144480;89840;7;0.01
17;182;168;132707344.2;999999;1;18009.895;999999;242940;214200;61320;152880;128060;42;0.01
18;182;168;132157761.6;999999;1;18011.849;999999;242769;214200;61320;152880;129863;14;0.01
19;183;168;135517545.6;999999;1;18009.905;999999;244238;215376;61656;153720;107128;9;0.01
20;187;168;132884260.6;999999;1;18011.361;999999;249460;220080;63000;157080;133428;20;0.01
