unit;t;status;output;reserve
1;1;1;455;0
1;2;1;455;0
1;3;1;455;0
1;4;1;455;0
1;5;1;455;0
1;6;1;455;0
1;7;1;455;0
1;8;1;455;0
1;9;1;455;0
1;10;1;455;0
1;11;1;455;0
1;12;1;455;0
1;13;1;455;0
1;14;1;455;0
1;15;1;455;0
1;16;1;455;0
1;17;1;455;0
1;18;1;455;0
1;19;1;455;0
1;20;1;455;0
1;21;1;455;0
1;22;1;455;0
1;23;1;455;0
1;24;1;455;0
1;25;1;455;0
1;26;1;455;0
1;27;1;455;0
1;28;1;455;0
1;29;1;455;0
1;30;1;455;0
1;31;1;455;0
1;32;1;455;0
1;33;1;455;0
1;34;1;455;0
1;35;1;455;0
1;36;1;455;0
1;37;1;455;0
1;38;1;455;0
1;39;1;455;0
1;40;1;455;0
1;41;1;455;0
1;42;1;455;0
1;43;1;455;0
1;44;1;455;0
1;45;1;455;0
1;46;1;455;0
1;47;1;455;0
1;48;1;455;0
1;49;1;455;0
1;50;1;455;0
1;51;1;455;0
1;52;1;455;0
1;53;1;455;0
1;54;1;455;0
1;55;1;455;0
1;56;1;455;0
1;57;1;455;0
1;58;1;455;0
1;59;1;455;0
1;60;1;455;0
1;61;1;455;0
1;62;1;455;0
1;63;1;455;0
1;64;1;455;0
1;65;1;455;0
1;66;1;455;0
1;67;1;455;0
1;68;1;455;0
1;69;1;455;0
1;70;1;455;0
1;71;1;455;0
1;72;1;455;0
1;73;1;455;0
1;74;1;455;0
1;75;1;455;0
1;76;1;455;0
1;77;1;455;0
1;78;1;455;0
1;79;1;455;0
1;80;1;455;0
1;81;1;455;0
1;82;1;455;0
1;83;1;455;0
1;84;1;455;0
1;85;1;455;0
1;86;1;455;0
1;87;1;455;0
1;88;1;455;0
1;89;1;455;0
1;90;1;455;0
1;91;1;455;0
1;92;1;455;0
1;93;1;455;0
1;94;1;455;0
1;95;1;455;0
1;96;1;455;0
1;97;1;455;0
1;98;1;455;0
1;99;1;455;0
1;100;1;455;0
1;101;1;455;0
1;102;1;455;0
1;103;1;455;0
1;104;1;455;0
1;105;1;455;0
1;106;1;455;0
1;107;1;455;0
1;108;1;455;0
1;109;1;455;0
1;110;1;455;0
1;111;1;455;0
1;112;1;455;0
1;113;1;455;0
1;114;1;455;0
1;115;1;455;0
1;116;1;455;0
1;117;1;455;0
1;118;1;455;0
1;119;1;455;0
1;120;1;455;0
1;121;1;455;0
1;122;1;455;0
1;123;1;455;0
1;124;1;448.2646154;6.735
1;125;1;431.3993846;23.601
1;126;1;431.3993846;14.294
1;127;1;448.2646154;6.735
1;128;1;455;0
1;129;1;455;0
1;130;1;455;0
1;131;1;455;0
1;132;1;455;0
1;133;1;455;0
1;134;1;455;0
1;135;1;455;0
1;136;1;455;0
1;137;1;455;0
1;138;1;455;0
1;139;1;455;0
1;140;1;455;0
1;141;1;455;0
1;142;1;455;0
1;143;1;455;0
1;144;1;455;0
1;145;1;455;0
1;146;1;455;0
1;147;1;455;0
1;148;1;455;0
1;149;1;442.9378462;9.491
1;150;1;442.9378462;12.062
1;151;1;455;0
1;152;1;455;0
1;153;1;455;0
1;154;1;455;0
1;155;1;455;0
1;156;1;455;0
1;157;1;455;0
1;158;1;455;0
1;159;1;455;0
1;160;1;455;0
1;161;1;455;0
1;162;1;455;0
1;163;1;455;0
1;164;1;455;0
1;165;1;455;0
1;166;1;455;0
1;167;1;455;0
1;168;1;455;0
2;1;1;455;0
2;2;1;455;0
2;3;1;455;0
2;4;1;455;0
2;5;1;455;0
2;6;1;455;0
2;7;1;455;0
2;8;1;455;0
2;9;1;455;0
2;10;1;455;0
2;11;1;455;0
2;12;1;455;0
2;13;1;455;0
2;14;1;455;0
2;15;1;455;0
2;16;1;455;0
2;17;1;455;0
2;18;1;455;0
2;19;1;455;0
2;20;1;455;0
2;21;1;455;0
2;22;1;455;0
2;23;1;455;0
2;24;1;455;0
2;25;1;455;0
2;26;1;455;0
2;27;1;455;0
2;28;1;455;0
2;29;1;455;0
2;30;1;455;0
2;31;1;455;0
2;32;1;455;0
2;33;1;455;0
2;34;1;455;0
2;35;1;455;0
2;36;1;455;0
2;37;1;455;0
2;38;1;455;0
2;39;1;455;0
2;40;1;455;0
2;41;1;455;0
2;42;1;455;0
2;43;1;455;0
2;44;1;455;0
2;45;1;455;0
2;46;1;455;0
2;47;1;455;0
2;48;1;455;0
2;49;1;455;0
2;50;1;455;0
2;51;1;455;0
2;52;1;455;0
2;53;1;455;0
2;54;1;455;0
2;55;1;455;0
2;56;1;455;0
2;57;1;455;0
2;58;1;455;0
2;59;1;455;0
2;60;1;455;0
2;61;1;455;0
2;62;1;455;0
2;63;1;455;0
2;64;1;455;0
2;65;1;455;0
2;66;1;455;0
2;67;1;455;0
2;68;1;455;0
2;69;1;455;0
2;70;1;455;0
2;71;1;455;0
2;72;1;455;0
2;73;1;455;0
2;74;1;455;0
2;75;1;455;0
2;76;1;455;0
2;77;1;455;0
2;78;1;455;0
2;79;1;455;0
2;80;1;455;0
2;81;1;455;0
2;82;1;455;0
2;83;1;455;0
2;84;1;455;0
2;85;1;455;0
2;86;1;455;0
2;87;1;455;0
2;88;1;455;0
2;89;1;455;0
2;90;1;455;0
2;91;1;455;0
2;92;1;455;0
2;93;1;455;0
2;94;1;455;0
2;95;1;455;0
2;96;1;455;0
2;97;1;455;0
2;98;1;455;0
2;99;1;455;0
2;100;1;455;0
2;101;1;455;0
2;102;1;455;0
2;103;1;455;0
2;104;1;455;0
2;105;1;455;0
2;106;1;455;0
2;107;1;455;0
2;108;1;455;0
2;109;1;455;0
2;110;1;455;0
2;111;1;455;0
2;112;1;455;0
2;113;1;455;0
2;114;1;455;0
2;115;1;455;0
2;116;1;455;0
2;117;1;455;0
2;118;1;455;0
2;119;1;455;0
2;120;1;455;0
2;121;1;455;0
2;122;1;455;0
2;123;1;455;0
2;124;1;448.2646154;6.735
2;125;1;431.3993846;23.601
2;126;1;431.3993846;14.294
2;127;1;448.2646154;6.735
2;128;1;455;0
2;129;1;455;0
2;130;1;455;0
2;131;1;455;0
2;132;1;455;0
2;133;1;455;0
2;134;1;455;0
2;135;1;455;0
2;136;1;455;0
2;137;1;455;0
2;138;1;455;0
2;139;1;455;0
2;140;1;455;0
2;141;1;455;0
2;142;1;455;0
2;143;1;455;0
2;144;1;455;0
2;145;1;455;0
2;146;1;455;0
2;147;1;455;0
2;148;1;455;0
2;149;1;442.9378462;9.491
2;150;1;442.9378462;12.062
2;151;1;455;0
2;152;1;455;0
2;153;1;455;0
2;154;1;455;0
2;155;1;455;0
2;156;1;455;0
2;157;1;455;0
2;158;1;455;0
2;159;1;455;0
2;160;1;455;0
2;161;1;455;0
2;162;1;455;0
2;163;1;455;0
2;164;1;455;0
2;165;1;455;0
2;166;1;455;0
2;167;1;455;0
2;168;1;455;0
3;1;1;455;0
3;2;1;455;0
3;3;1;455;0
3;4;1;455;0
3;5;1;455;0
3;6;1;455;0
3;7;1;455;0
3;8;1;455;0
3;9;1;455;0
3;10;1;455;0
3;11;1;455;0
3;12;1;455;0
3;13;1;455;0
3;14;1;455;0
3;15;1;455;0
3;16;1;455;0
3;17;1;455;0
3;18;1;455;0
3;19;1;455;0
3;20;1;455;0
3;21;1;455;0
3;22;1;455;0
3;23;1;455;0
3;24;1;455;0
3;25;1;455;0
3;26;1;455;0
3;27;1;455;0
3;28;1;455;0
3;29;1;455;0
3;30;1;455;0
3;31;1;455;0
3;32;1;455;0
3;33;1;455;0
3;34;1;455;0
3;35;1;455;0
3;36;1;455;0
3;37;1;455;0
3;38;1;455;0
3;39;1;455;0
3;40;1;455;0
3;41;1;455;0
3;42;1;455;0
3;43;1;455;0
3;44;1;455;0
3;45;1;455;0
3;46;1;455;0
3;47;1;455;0
3;48;1;455;0
3;49;1;455;0
3;50;1;455;0
3;51;1;455;0
3;52;1;455;0
3;53;1;455;0
3;54;1;455;0
3;55;1;455;0
3;56;1;455;0
3;57;1;455;0
3;58;1;455;0
3;59;1;455;0
3;60;1;455;0
3;61;1;455;0
3;62;1;455;0
3;63;1;455;0
3;64;1;455;0
3;65;1;455;0
3;66;1;455;0
3;67;1;455;0
3;68;1;455;0
3;69;1;455;0
3;70;1;455;0
3;71;1;455;0
3;72;1;455;0
3;73;1;455;0
3;74;1;455;0
3;75;1;455;0
3;76;1;455;0
3;77;1;455;0
3;78;1;455;0
3;79;1;455;0
3;80;1;455;0
3;81;1;455;0
3;82;1;455;0
3;83;1;455;0
3;84;1;455;0
3;85;1;455;0
3;86;1;455;0
3;87;1;455;0
3;88;1;455;0
3;89;1;455;0
3;90;1;455;0
3;91;1;455;0
3;92;1;455;0
3;93;1;455;0
3;94;1;455;0
3;95;1;455;0
3;96;1;455;0
3;97;1;455;0
3;98;1;455;0
3;99;1;455;0
3;100;1;455;0
3;101;1;455;0
3;102;1;455;0
3;103;1;455;0
3;104;1;455;0
3;105;1;455;0
3;106;1;455;0
3;107;1;455;0
3;108;1;455;0
3;109;1;455;0
3;110;1;455;0
3;111;1;455;0
3;112;1;455;0
3;113;1;455;0
3;114;1;455;0
3;115;1;455;0
3;116;1;455;0
3;117;1;455;0
3;118;1;455;0
3;119;1;455;0
3;120;1;455;0
3;121;1;455;0
3;122;1;455;0
3;123;1;455;0
3;124;1;448.2646154;6.735
3;125;1;431.3993846;23.601
3;126;1;431.3993846;14.294
3;127;1;448.2646154;6.735
3;128;1;455;0
3;129;1;455;0
3;130;1;455;0
3;131;1;455;0
3;132;1;455;0
3;133;1;455;0
3;134;1;455;0
3;135;1;455;0
3;136;1;455;0
3;137;1;455;0
3;138;1;455;0
3;139;1;455;0
3;140;1;455;0
3;141;1;455;0
3;142;1;455;0
3;143;1;455;0
3;144;1;455;0
3;145;1;455;0
3;146;1;455;0
3;147;1;455;0
3;148;1;455;0
3;149;1;442.9378462;9.491
3;150;1;442.9378462;12.062
3;151;1;455;0
3;152;1;455;0
3;153;1;455;0
3;154;1;455;0
3;155;1;455;0
3;156;1;455;0
3;157;1;455;0
3;158;1;455;0
3;159;1;455;0
3;160;1;455;0
3;161;1;455;0
3;162;1;455;0
3;163;1;455;0
3;164;1;455;0
3;165;1;455;0
3;166;1;455;0
3;167;1;455;0
3;168;1;455;0
4;1;1;455;0
4;2;1;455;0
4;3;1;455;0
4;4;1;455;0
4;5;1;455;0
4;6;1;455;0
4;7;1;455;0
4;8;1;455;0
4;9;1;455;0
4;10;1;455;0
4;11;1;455;0
4;12;1;455;0
4;13;1;455;0
4;14;1;455;0
4;15;1;455;0
4;16;1;455;0
4;17;1;455;0
4;18;1;455;0
4;19;1;455;0
4;20;1;455;0
4;21;1;455;0
4;22;1;455;0
4;23;1;455;0
4;24;1;455;0
4;25;1;455;0
4;26;1;455;0
4;27;1;455;0
4;28;1;455;0
4;29;1;455;0
4;30;1;455;0
4;31;1;455;0
4;32;1;455;0
4;33;1;455;0
4;34;1;455;0
4;35;1;455;0
4;36;1;455;0
4;37;1;455;0
4;38;1;455;0
4;39;1;455;0
4;40;1;455;0
4;41;1;455;0
4;42;1;455;0
4;43;1;455;0
4;44;1;455;0
4;45;1;455;0
4;46;1;455;0
4;47;1;455;0
4;48;1;455;0
4;49;1;455;0
4;50;1;455;0
4;51;1;455;0
4;52;1;455;0
4;53;1;455;0
4;54;1;455;0
4;55;1;455;0
4;56;1;455;0
4;57;1;455;0
4;58;1;455;0
4;59;1;455;0
4;60;1;455;0
4;61;1;455;0
4;62;1;455;0
4;63;1;455;0
4;64;1;455;0
4;65;1;455;0
4;66;1;455;0
4;67;1;455;0
4;68;1;455;0
4;69;1;455;0
4;70;1;455;0
4;71;1;455;0
4;72;1;455;0
4;73;1;455;0
4;74;1;455;0
4;75;1;455;0
4;76;1;455;0
4;77;1;455;0
4;78;1;455;0
4;79;1;455;0
4;80;1;455;0
4;81;1;455;0
4;82;1;455;0
4;83;1;455;0
4;84;1;455;0
4;85;1;455;0
4;86;1;455;0
4;87;1;455;0
4;88;1;455;0
4;89;1;455;0
4;90;1;455;0
4;91;1;455;0
4;92;1;455;0
4;93;1;455;0
4;94;1;455;0
4;95;1;455;0
4;96;1;455;0
4;97;1;455;0
4;98;1;455;0
4;99;1;455;0
4;100;1;455;0
4;101;1;455;0
4;102;1;455;0
4;103;1;455;0
4;104;1;455;0
4;105;1;455;0
4;106;1;455;0
4;107;1;455;0
4;108;1;455;0
4;109;1;455;0
4;110;1;455;0
4;111;1;455;0
4;112;1;455;0
4;113;1;455;0
4;114;1;455;0
4;115;1;455;0
4;116;1;455;0
4;117;1;455;0
4;118;1;455;0
4;119;1;455;0
4;120;1;455;0
4;121;1;455;0
4;122;1;455;0
4;123;1;455;0
4;124;1;448.2646154;6.735
4;125;1;431.3993846;23.601
4;126;1;431.3993846;14.294
4;127;1;448.2646154;6.735
4;128;1;455;0
4;129;1;455;0
4;130;1;455;0
4;131;1;455;0
4;132;1;455;0
4;133;1;455;0
4;134;1;455;0
4;135;1;455;0
4;136;1;455;0
4;137;1;455;0
4;138;1;455;0
4;139;1;455;0
4;140;1;455;0
4;141;1;455;0
4;142;1;455;0
4;143;1;455;0
4;144;1;455;0
4;145;1;455;0
4;146;1;455;0
4;147;1;455;0
4;148;1;455;0
4;149;1;442.9378462;9.491
4;150;1;442.9378462;12.062
4;151;1;455;0
4;152;1;455;0
4;153;1;455;0
4;154;1;455;0
4;155;1;455;0
4;156;1;455;0
4;157;1;455;0
4;158;1;455;0
4;159;1;455;0
4;160;1;455;0
4;161;1;455;0
4;162;1;455;0
4;163;1;455;0
4;164;1;455;0
4;165;1;455;0
4;166;1;455;0
4;167;1;455;0
4;168;1;455;0
5;1;1;455;0
5;2;1;455;0
5;3;1;455;0
5;4;1;455;0
5;5;1;455;0
5;6;1;455;0
5;7;1;455;0
5;8;1;455;0
5;9;1;455;0
5;10;1;455;0
5;11;1;455;0
5;12;1;455;0
5;13;1;455;0
5;14;1;455;0
5;15;1;455;0
5;16;1;455;0
5;17;1;455;0
5;18;1;455;0
5;19;1;455;0
5;20;1;455;0
5;21;1;455;0
5;22;1;455;0
5;23;1;455;0
5;24;1;455;0
5;25;1;455;0
5;26;1;455;0
5;27;1;455;0
5;28;1;455;0
5;29;1;455;0
5;30;1;455;0
5;31;1;455;0
5;32;1;455;0
5;33;1;455;0
5;34;1;455;0
5;35;1;455;0
5;36;1;455;0
5;37;1;455;0
5;38;1;455;0
5;39;1;455;0
5;40;1;455;0
5;41;1;455;0
5;42;1;455;0
5;43;1;455;0
5;44;1;455;0
5;45;1;455;0
5;46;1;455;0
5;47;1;455;0
5;48;1;455;0
5;49;1;455;0
5;50;1;455;0
5;51;1;455;0
5;52;1;455;0
5;53;1;455;0
5;54;1;455;0
5;55;1;455;0
5;56;1;455;0
5;57;1;455;0
5;58;1;455;0
5;59;1;455;0
5;60;1;455;0
5;61;1;455;0
5;62;1;455;0
5;63;1;455;0
5;64;1;455;0
5;65;1;455;0
5;66;1;455;0
5;67;1;455;0
5;68;1;455;0
5;69;1;455;0
5;70;1;455;0
5;71;1;455;0
5;72;1;455;0
5;73;1;455;0
5;74;1;455;0
5;75;1;455;0
5;76;1;455;0
5;77;1;455;0
5;78;1;455;0
5;79;1;455;0
5;80;1;455;0
5;81;1;455;0
5;82;1;455;0
5;83;1;455;0
5;84;1;455;0
5;85;1;455;0
5;86;1;455;0
5;87;1;455;0
5;88;1;455;0
5;89;1;455;0
5;90;1;455;0
5;91;1;455;0
5;92;1;455;0
5;93;1;455;0
5;94;1;455;0
5;95;1;455;0
5;96;1;455;0
5;97;1;455;0
5;98;1;455;0
5;99;1;455;0
5;100;1;455;0
5;101;1;455;0
5;102;1;455;0
5;103;1;455;0
5;104;1;455;0
5;105;1;455;0
5;106;1;455;0
5;107;1;455;0
5;108;1;455;0
5;109;1;455;0
5;110;1;455;0
5;111;1;455;0
5;112;1;455;0
5;113;1;455;0
5;114;1;455;0
5;115;1;455;0
5;116;1;455;0
5;117;1;455;0
5;118;1;455;0
5;119;1;455;0
5;120;1;455;0
5;121;1;455;0
5;122;1;455;0
5;123;1;455;0
5;124;1;448.2646154;6.735
5;125;1;431.3993846;23.601
5;126;1;431.3993846;14.294
5;127;1;448.2646154;6.735
5;128;1;455;0
5;129;1;455;0
5;130;1;455;0
5;131;1;455;0
5;132;1;455;0
5;133;1;455;0
5;134;1;455;0
5;135;1;455;0
5;136;1;455;0
5;137;1;455;0
5;138;1;455;0
5;139;1;455;0
5;140;1;455;0
5;141;1;455;0
5;142;1;455;0
5;143;1;455;0
5;144;1;455;0
5;145;1;455;0
5;146;1;455;0
5;147;1;455;0
5;148;1;455;0
5;149;1;442.9378462;9.491
5;150;1;442.9378462;12.062
5;151;1;455;0
5;152;1;455;0
5;153;1;455;0
5;154;1;455;0
5;155;1;455;0
5;156;1;455;0
5;157;1;455;0
5;158;1;455;0
5;159;1;455;0
5;160;1;455;0
5;161;1;455;0
5;162;1;455;0
5;163;1;455;0
5;164;1;455;0
5;165;1;455;0
5;166;1;455;0
5;167;1;455;0
5;168;1;455;0
6;1;1;455;0
6;2;1;455;0
6;3;1;455;0
6;4;1;455;0
6;5;1;455;0
6;6;1;455;0
6;7;1;455;0
6;8;1;455;0
6;9;1;455;0
6;10;1;455;0
6;11;1;455;0
6;12;1;455;0
6;13;1;455;0
6;14;1;455;0
6;15;1;455;0
6;16;1;455;0
6;17;1;455;0
6;18;1;455;0
6;19;1;455;0
6;20;1;455;0
6;21;1;455;0
6;22;1;455;0
6;23;1;455;0
6;24;1;455;0
6;25;1;455;0
6;26;1;455;0
6;27;1;455;0
6;28;1;455;0
6;29;1;455;0
6;30;1;455;0
6;31;1;455;0
6;32;1;455;0
6;33;1;455;0
6;34;1;455;0
6;35;1;455;0
6;36;1;455;0
6;37;1;455;0
6;38;1;455;0
6;39;1;455;0
6;40;1;455;0
6;41;1;455;0
6;42;1;455;0
6;43;1;455;0
6;44;1;455;0
6;45;1;455;0
6;46;1;455;0
6;47;1;455;0
6;48;1;455;0
6;49;1;455;0
6;50;1;455;0
6;51;1;455;0
6;52;1;455;0
6;53;1;455;0
6;54;1;455;0
6;55;1;455;0
6;56;1;455;0
6;57;1;455;0
6;58;1;455;0
6;59;1;455;0
6;60;1;455;0
6;61;1;455;0
6;62;1;455;0
6;63;1;455;0
6;64;1;455;0
6;65;1;455;0
6;66;1;455;0
6;67;1;455;0
6;68;1;455;0
6;69;1;455;0
6;70;1;455;0
6;71;1;455;0
6;72;1;455;0
6;73;1;455;0
6;74;1;455;0
6;75;1;455;0
6;76;1;455;0
6;77;1;455;0
6;78;1;455;0
6;79;1;455;0
6;80;1;455;0
6;81;1;455;0
6;82;1;455;0
6;83;1;455;0
6;84;1;455;0
6;85;1;455;0
6;86;1;455;0
6;87;1;455;0
6;88;1;455;0
6;89;1;455;0
6;90;1;455;0
6;91;1;455;0
6;92;1;455;0
6;93;1;455;0
6;94;1;455;0
6;95;1;455;0
6;96;1;455;0
6;97;1;455;0
6;98;1;455;0
6;99;1;455;0
6;100;1;455;0
6;101;1;455;0
6;102;1;455;0
6;103;1;455;0
6;104;1;455;0
6;105;1;455;0
6;106;1;455;0
6;107;1;455;0
6;108;1;455;0
6;109;1;455;0
6;110;1;455;0
6;111;1;455;0
6;112;1;455;0
6;113;1;455;0
6;114;1;455;0
6;115;1;455;0
6;116;1;455;0
6;117;1;455;0
6;118;1;455;0
6;119;1;455;0
6;120;1;455;0
6;121;1;455;0
6;122;1;455;0
6;123;1;455;0
6;124;1;448.2646154;6.735
6;125;1;431.3993846;23.601
6;126;1;431.3993846;14.294
6;127;1;448.2646154;6.735
6;128;1;455;0
6;129;1;455;0
6;130;1;455;0
6;131;1;455;0
6;132;1;455;0
6;133;1;455;0
6;134;1;455;0
6;135;1;455;0
6;136;1;455;0
6;137;1;455;0
6;138;1;455;0
6;139;1;455;0
6;140;1;455;0
6;141;1;455;0
6;142;1;455;0
6;143;1;455;0
6;144;1;455;0
6;145;1;455;0
6;146;1;455;0
6;147;1;455;0
6;148;1;455;0
6;149;1;442.9378462;9.491
6;150;1;442.9378462;12.062
6;151;1;455;0
6;152;1;455;0
6;153;1;455;0
6;154;1;455;0
6;155;1;455;0
6;156;1;455;0
6;157;1;455;0
6;158;1;455;0
6;159;1;455;0
6;160;1;455;0
6;161;1;455;0
6;162;1;455;0
6;163;1;455;0
6;164;1;455;0
6;165;1;455;0
6;166;1;455;0
6;167;1;455;0
6;168;1;455;0
7;1;1;455;0
7;2;1;455;0
7;3;1;455;0
7;4;1;455;0
7;5;1;455;0
7;6;1;455;0
7;7;1;455;0
7;8;1;455;0
7;9;1;455;0
7;10;1;455;0
7;11;1;455;0
7;12;1;455;0
7;13;1;455;0
7;14;1;455;0
7;15;1;455;0
7;16;1;455;0
7;17;1;455;0
7;18;1;455;0
7;19;1;455;0
7;20;1;455;0
7;21;1;455;0
7;22;1;455;0
7;23;1;455;0
7;24;1;455;0
7;25;1;455;0
7;26;1;455;0
7;27;1;455;0
7;28;1;455;0
7;29;1;455;0
7;30;1;455;0
7;31;1;455;0
7;32;1;455;0
7;33;1;455;0
7;34;1;455;0
7;35;1;455;0
7;36;1;455;0
7;37;1;455;0
7;38;1;455;0
7;39;1;455;0
7;40;1;455;0
7;41;1;455;0
7;42;1;455;0
7;43;1;455;0
7;44;1;455;0
7;45;1;455;0
7;46;1;455;0
7;47;1;455;0
7;48;1;455;0
7;49;1;455;0
7;50;1;455;0
7;51;1;455;0
7;52;1;455;0
7;53;1;455;0
7;54;1;455;0
7;55;1;455;0
7;56;1;455;0
7;57;1;455;0
7;58;1;455;0
7;59;1;455;0
7;60;1;455;0
7;61;1;455;0
7;62;1;455;0
7;63;1;455;0
7;64;1;455;0
7;65;1;455;0
7;66;1;455;0
7;67;1;455;0
7;68;1;455;0
7;69;1;455;0
7;70;1;455;0
7;71;1;455;0
7;72;1;455;0
7;73;1;455;0
7;74;1;455;0
7;75;1;455;0
7;76;1;455;0
7;77;1;455;0
7;78;1;455;0
7;79;1;455;0
7;80;1;455;0
7;81;1;455;0
7;82;1;455;0
7;83;1;455;0
7;84;1;455;0
7;85;1;455;0
7;86;1;455;0
7;87;1;455;0
7;88;1;455;0
7;89;1;455;0
7;90;1;455;0
7;91;1;455;0
7;92;1;455;0
7;93;1;455;0
7;94;1;455;0
7;95;1;455;0
7;96;1;455;0
7;97;1;455;0
7;98;1;455;0
7;99;1;455;0
7;100;1;455;0
7;101;1;455;0
7;102;1;455;0
7;103;1;455;0
7;104;1;455;0
7;105;1;455;0
7;106;1;455;0
7;107;1;455;0
7;108;1;455;0
7;109;1;455;0
7;110;1;455;0
7;111;1;455;0
7;112;1;455;0
7;113;1;455;0
7;114;1;455;0
7;115;1;455;0
7;116;1;455;0
7;117;1;455;0
7;118;1;455;0
7;119;1;455;0
7;120;1;455;0
7;121;1;455;0
7;122;1;455;0
7;123;1;455;0
7;124;1;448.2646154;6.735
7;125;1;431.3993846;23.601
7;126;1;431.3993846;14.294
7;127;1;448.2646154;6.735
7;128;1;455;0
7;129;1;455;0
7;130;1;455;0
7;131;1;455;0
7;132;1;455;0
7;133;1;455;0
7;134;1;455;0
7;135;1;455;0
7;136;1;455;0
7;137;1;455;0
7;138;1;455;0
7;139;1;455;0
7;140;1;455;0
7;141;1;455;0
7;142;1;455;0
7;143;1;455;0
7;144;1;455;0
7;145;1;455;0
7;146;1;455;0
7;147;1;455;0
7;148;1;455;0
7;149;1;442.9378462;9.491
7;150;1;442.9378462;12.062
7;151;1;455;0
7;152;1;455;0
7;153;1;455;0
7;154;1;455;0
7;155;1;455;0
7;156;1;455;0
7;157;1;455;0
7;158;1;455;0
7;159;1;455;0
7;160;1;455;0
7;161;1;455;0
7;162;1;455;0
7;163;1;455;0
7;164;1;455;0
7;165;1;455;0
7;166;1;455;0
7;167;1;455;0
7;168;1;455;0
8;1;1;455;0
8;2;1;455;0
8;3;1;455;0
8;4;1;455;0
8;5;1;455;0
8;6;1;455;0
8;7;1;455;0
8;8;1;455;0
8;9;1;455;0
8;10;1;455;0
8;11;1;455;0
8;12;1;455;0
8;13;1;455;0
8;14;1;455;0
8;15;1;455;0
8;16;1;455;0
8;17;1;455;0
8;18;1;455;0
8;19;1;455;0
8;20;1;455;0
8;21;1;455;0
8;22;1;455;0
8;23;1;455;0
8;24;1;455;0
8;25;1;455;0
8;26;1;455;0
8;27;1;455;0
8;28;1;455;0
8;29;1;455;0
8;30;1;455;0
8;31;1;455;0
8;32;1;455;0
8;33;1;455;0
8;34;1;455;0
8;35;1;455;0
8;36;1;455;0
8;37;1;455;0
8;38;1;455;0
8;39;1;455;0
8;40;1;455;0
8;41;1;455;0
8;42;1;455;0
8;43;1;455;0
8;44;1;455;0
8;45;1;455;0
8;46;1;455;0
8;47;1;455;0
8;48;1;455;0
8;49;1;455;0
8;50;1;455;0
8;51;1;455;0
8;52;1;455;0
8;53;1;455;0
8;54;1;455;0
8;55;1;455;0
8;56;1;455;0
8;57;1;455;0
8;58;1;455;0
8;59;1;455;0
8;60;1;455;0
8;61;1;455;0
8;62;1;455;0
8;63;1;455;0
8;64;1;455;0
8;65;1;455;0
8;66;1;455;0
8;67;1;455;0
8;68;1;455;0
8;69;1;455;0
8;70;1;455;0
8;71;1;455;0
8;72;1;455;0
8;73;1;455;0
8;74;1;455;0
8;75;1;455;0
8;76;1;455;0
8;77;1;455;0
8;78;1;455;0
8;79;1;455;0
8;80;1;455;0
8;81;1;455;0
8;82;1;455;0
8;83;1;455;0
8;84;1;455;0
8;85;1;455;0
8;86;1;455;0
8;87;1;455;0
8;88;1;455;0
8;89;1;455;0
8;90;1;455;0
8;91;1;455;0
8;92;1;455;0
8;93;1;455;0
8;94;1;455;0
8;95;1;455;0
8;96;1;455;0
8;97;1;455;0
8;98;1;455;0
8;99;1;455;0
8;100;1;455;0
8;101;1;455;0
8;102;1;455;0
8;103;1;455;0
8;104;1;455;0
8;105;1;455;0
8;106;1;455;0
8;107;1;455;0
8;108;1;455;0
8;109;1;455;0
8;110;1;455;0
8;111;1;455;0
8;112;1;455;0
8;113;1;455;0
8;114;1;455;0
8;115;1;455;0
8;116;1;455;0
8;117;1;455;0
8;118;1;455;0
8;119;1;455;0
8;120;1;455;0
8;121;1;455;0
8;122;1;455;0
8;123;1;455;0
8;124;1;448.2646154;6.735
8;125;1;431.3993846;23.601
8;126;1;431.3993846;14.294
8;127;1;448.2646154;6.735
8;128;1;455;0
8;129;1;455;0
8;130;1;455;0
8;131;1;455;0
8;132;1;455;0
8;133;1;455;0
8;134;1;455;0
8;135;1;455;0
8;136;1;455;0
8;137;1;455;0
8;138;1;455;0
8;139;1;455;0
8;140;1;455;0
8;141;1;455;0
8;142;1;455;0
8;143;1;455;0
8;144;1;455;0
8;145;1;455;0
8;146;1;455;0
8;147;1;455;0
8;148;1;455;0
8;149;1;442.9378462;9.491
8;150;1;442.9378462;12.062
8;151;1;455;0
8;152;1;455;0
8;153;1;455;0
8;154;1;455;0
8;155;1;455;0
8;156;1;455;0
8;157;1;455;0
8;158;1;455;0
8;159;1;455;0
8;160;1;455;0
8;161;1;455;0
8;162;1;455;0
8;163;1;455;0
8;164;1;455;0
8;165;1;455;0
8;166;1;455;0
8;167;1;455;0
8;168;1;455;0
9;1;1;455;0
9;2;1;455;0
9;3;1;455;0
9;4;1;455;0
9;5;1;455;0
9;6;1;455;0
9;7;1;455;0
9;8;1;455;0
9;9;1;455;0
9;10;1;455;0
9;11;1;455;0
9;12;1;455;0
9;13;1;455;0
9;14;1;455;0
9;15;1;455;0
9;16;1;455;0
9;17;1;455;0
9;18;1;455;0
9;19;1;455;0
9;20;1;455;0
9;21;1;455;0
9;22;1;455;0
9;23;1;455;0
9;24;1;455;0
9;25;1;455;0
9;26;1;455;0
9;27;1;455;0
9;28;1;455;0
9;29;1;455;0
9;30;1;455;0
9;31;1;455;0
9;32;1;455;0
9;33;1;455;0
9;34;1;455;0
9;35;1;455;0
9;36;1;455;0
9;37;1;455;0
9;38;1;455;0
9;39;1;455;0
9;40;1;455;0
9;41;1;455;0
9;42;1;455;0
9;43;1;455;0
9;44;1;455;0
9;45;1;455;0
9;46;1;455;0
9;47;1;455;0
9;48;1;455;0
9;49;1;455;0
9;50;1;455;0
9;51;1;455;0
9;52;1;455;0
9;53;1;455;0
9;54;1;455;0
9;55;1;455;0
9;56;1;455;0
9;57;1;455;0
9;58;1;455;0
9;59;1;455;0
9;60;1;455;0
9;61;1;455;0
9;62;1;455;0
9;63;1;455;0
9;64;1;455;0
9;65;1;455;0
9;66;1;455;0
9;67;1;455;0
9;68;1;455;0
9;69;1;455;0
9;70;1;455;0
9;71;1;455;0
9;72;1;455;0
9;73;1;455;0
9;74;1;455;0
9;75;1;455;0
9;76;1;455;0
9;77;1;455;0
9;78;1;455;0
9;79;1;455;0
9;80;1;455;0
9;81;1;455;0
9;82;1;455;0
9;83;1;455;0
9;84;1;455;0
9;85;1;455;0
9;86;1;455;0
9;87;1;455;0
9;88;1;455;0
9;89;1;455;0
9;90;1;455;0
9;91;1;455;0
9;92;1;455;0
9;93;1;455;0
9;94;1;455;0
9;95;1;455;0
9;96;1;455;0
9;97;1;455;0
9;98;1;455;0
9;99;1;455;0
9;100;1;455;0
9;101;1;455;0
9;102;1;455;0
9;103;1;455;0
9;104;1;455;0
9;105;1;455;0
9;106;1;455;0
9;107;1;455;0
9;108;1;455;0
9;109;1;455;0
9;110;1;455;0
9;111;1;455;0
9;112;1;455;0
9;113;1;455;0
9;114;1;455;0
9;115;1;455;0
9;116;1;455;0
9;117;1;455;0
9;118;1;455;0
9;119;1;455;0
9;120;1;455;0
9;121;1;455;0
9;122;1;455;0
9;123;1;455;0
9;124;1;448.2646154;6.735
9;125;1;431.3993846;23.601
9;126;1;431.3993846;14.294
9;127;1;448.2646154;6.735
9;128;1;455;0
9;129;1;455;0
9;130;1;455;0
9;131;1;455;0
9;132;1;455;0
9;133;1;455;0
9;134;1;455;0
9;135;1;455;0
9;136;1;455;0
9;137;1;455;0
9;138;1;455;0
9;139;1;455;0
9;140;1;455;0
9;141;1;455;0
9;142;1;455;0
9;143;1;455;0
9;144;1;455;0
9;145;1;455;0
9;146;1;455;0
9;147;1;455;0
9;148;1;455;0
9;149;1;442.9378462;9.491
9;150;1;442.9378462;12.062
9;151;1;455;0
9;152;1;455;0
9;153;1;455;0
9;154;1;455;0
9;155;1;455;0
9;156;1;455;0
9;157;1;455;0
9;158;1;455;0
9;159;1;455;0
9;160;1;455;0
9;161;1;455;0
9;162;1;455;0
9;163;1;455;0
9;164;1;455;0
9;165;1;455;0
9;166;1;455;0
9;167;1;455;0
9;168;1;455;0
10;1;1;455;0
10;2;1;455;0
10;3;1;455;0
10;4;1;455;0
10;5;1;455;0
10;6;1;455;0
10;7;1;455;0
10;8;1;455;0
10;9;1;455;0
10;10;1;455;0
10;11;1;455;0
10;12;1;455;0
10;13;1;455;0
10;14;1;455;0
10;15;1;455;0
10;16;1;455;0
10;17;1;455;0
10;18;1;455;0
10;19;1;455;0
10;20;1;455;0
10;21;1;455;0
10;22;1;455;0
10;23;1;455;0
10;24;1;455;0
10;25;1;455;0
10;26;1;455;0
10;27;1;455;0
10;28;1;455;0
10;29;1;455;0
10;30;1;455;0
10;31;1;455;0
10;32;1;455;0
10;33;1;455;0
10;34;1;455;0
10;35;1;455;0
10;36;1;455;0
10;37;1;455;0
10;38;1;455;0
10;39;1;455;0
10;40;1;455;0
10;41;1;455;0
10;42;1;455;0
10;43;1;455;0
10;44;1;455;0
10;45;1;455;0
10;46;1;455;0
10;47;1;455;0
10;48;1;455;0
10;49;1;455;0
10;50;1;455;0
10;51;1;455;0
10;52;1;455;0
10;53;1;455;0
10;54;1;455;0
10;55;1;455;0
10;56;1;455;0
10;57;1;455;0
10;58;1;455;0
10;59;1;455;0
10;60;1;455;0
10;61;1;455;0
10;62;1;455;0
10;63;1;455;0
10;64;1;455;0
10;65;1;455;0
10;66;1;455;0
10;67;1;455;0
10;68;1;455;0
10;69;1;455;0
10;70;1;455;0
10;71;1;455;0
10;72;1;455;0
10;73;1;455;0
10;74;1;455;0
10;75;1;455;0
10;76;1;455;0
10;77;1;455;0
10;78;1;455;0
10;79;1;455;0
10;80;1;455;0
10;81;1;455;0
10;82;1;455;0
10;83;1;455;0
10;84;1;455;0
10;85;1;455;0
10;86;1;455;0
10;87;1;455;0
10;88;1;455;0
10;89;1;455;0
10;90;1;455;0
10;91;1;455;0
10;92;1;455;0
10;93;1;455;0
10;94;1;455;0
10;95;1;455;0
10;96;1;455;0
10;97;1;455;0
10;98;1;455;0
10;99;1;455;0
10;100;1;455;0
10;101;1;455;0
10;102;1;455;0
10;103;1;455;0
10;104;1;455;0
10;105;1;455;0
10;106;1;455;0
10;107;1;455;0
10;108;1;455;0
10;109;1;455;0
10;110;1;455;0
10;111;1;455;0
10;112;1;455;0
10;113;1;455;0
10;114;1;455;0
10;115;1;455;0
10;116;1;455;0
10;117;1;455;0
10;118;1;455;0
10;119;1;455;0
10;120;1;455;0
10;121;1;455;0
10;122;1;455;0
10;123;1;455;0
10;124;1;448.2646154;6.735
10;125;1;431.3993846;23.601
10;126;1;431.3993846;14.294
10;127;1;448.2646154;6.735
10;128;1;455;0
10;129;1;455;0
10;130;1;455;0
10;131;1;455;0
10;132;1;455;0
10;133;1;455;0
10;134;1;455;0
10;135;1;455;0
10;136;1;455;0
10;137;1;455;0
10;138;1;455;0
10;139;1;455;0
10;140;1;455;0
10;141;1;455;0
10;142;1;455;0
10;143;1;455;0
10;144;1;455;0
10;145;1;455;0
10;146;1;455;0
10;147;1;455;0
10;148;1;455;0
10;149;1;442.9378462;9.491
10;150;1;442.9378462;12.062
10;151;1;455;0
10;152;1;455;0
10;153;1;455;0
10;154;1;455;0
10;155;1;455;0
10;156;1;455;0
10;157;1;455;0
10;158;1;455;0
10;159;1;455;0
10;160;1;455;0
10;161;1;455;0
10;162;1;455;0
10;163;1;455;0
10;164;1;455;0
10;165;1;455;0
10;166;1;455;0
10;167;1;455;0
10;168;1;455;0
11;1;1;455;0
11;2;1;455;0
11;3;1;455;0
11;4;1;455;0
11;5;1;455;0
11;6;1;455;0
11;7;1;455;0
11;8;1;455;0
11;9;1;455;0
11;10;1;455;0
11;11;1;455;0
11;12;1;455;0
11;13;1;455;0
11;14;1;455;0
11;15;1;455;0
11;16;1;455;0
11;17;1;455;0
11;18;1;455;0
11;19;1;455;0
11;20;1;455;0
11;21;1;455;0
11;22;1;455;0
11;23;1;455;0
11;24;1;455;0
11;25;1;455;0
11;26;1;455;0
11;27;1;455;0
11;28;1;455;0
11;29;1;455;0
11;30;1;455;0
11;31;1;455;0
11;32;1;455;0
11;33;1;455;0
11;34;1;455;0
11;35;1;455;0
11;36;1;455;0
11;37;1;455;0
11;38;1;455;0
11;39;1;455;0
11;40;1;455;0
11;41;1;455;0
11;42;1;455;0
11;43;1;455;0
11;44;1;455;0
11;45;1;455;0
11;46;1;455;0
11;47;1;455;0
11;48;1;455;0
11;49;1;455;0
11;50;1;455;0
11;51;1;455;0
11;52;1;455;0
11;53;1;455;0
11;54;1;455;0
11;55;1;455;0
11;56;1;455;0
11;57;1;455;0
11;58;1;455;0
11;59;1;455;0
11;60;1;455;0
11;61;1;455;0
11;62;1;455;0
11;63;1;455;0
11;64;1;455;0
11;65;1;455;0
11;66;1;455;0
11;67;1;455;0
11;68;1;455;0
11;69;1;455;0
11;70;1;455;0
11;71;1;455;0
11;72;1;455;0
11;73;1;455;0
11;74;1;455;0
11;75;1;455;0
11;76;1;455;0
11;77;1;455;0
11;78;1;455;0
11;79;1;455;0
11;80;1;455;0
11;81;1;455;0
11;82;1;455;0
11;83;1;455;0
11;84;1;455;0
11;85;1;455;0
11;86;1;455;0
11;87;1;455;0
11;88;1;455;0
11;89;1;455;0
11;90;1;455;0
11;91;1;455;0
11;92;1;455;0
11;93;1;455;0
11;94;1;455;0
11;95;1;455;0
11;96;1;455;0
11;97;1;455;0
11;98;1;455;0
11;99;1;455;0
11;100;1;455;0
11;101;1;455;0
11;102;1;455;0
11;103;1;455;0
11;104;1;455;0
11;105;1;455;0
11;106;1;455;0
11;107;1;455;0
11;108;1;455;0
11;109;1;455;0
11;110;1;455;0
11;111;1;455;0
11;112;1;455;0
11;113;1;455;0
11;114;1;455;0
11;115;1;455;0
11;116;1;455;0
11;117;1;455;0
11;118;1;455;0
11;119;1;455;0
11;120;1;455;0
11;121;1;455;0
11;122;1;455;0
11;123;1;455;0
11;124;1;448.2646154;6.735
11;125;1;431.3993846;23.601
11;126;1;431.3993846;14.294
11;127;1;448.2646154;6.735
11;128;1;455;0
11;129;1;455;0
11;130;1;455;0
11;131;1;455;0
11;132;1;455;0
11;133;1;455;0
11;134;1;455;0
11;135;1;455;0
11;136;1;455;0
11;137;1;455;0
11;138;1;455;0
11;139;1;455;0
11;140;1;455;0
11;141;1;455;0
11;142;1;455;0
11;143;1;455;0
11;144;1;455;0
11;145;1;455;0
11;146;1;455;0
11;147;1;455;0
11;148;1;455;0
11;149;1;442.9378462;9.491
11;150;1;442.9378462;12.062
11;151;1;455;0
11;152;1;455;0
11;153;1;455;0
11;154;1;455;0
11;155;1;455;0
11;156;1;455;0
11;157;1;455;0
11;158;1;455;0
11;159;1;455;0
11;160;1;455;0
11;161;1;455;0
11;162;1;455;0
11;163;1;455;0
11;164;1;455;0
11;165;1;455;0
11;166;1;455;0
11;167;1;455;0
11;168;1;455;0
12;1;1;455;0
12;2;1;455;0
12;3;1;455;0
12;4;1;455;0
12;5;1;455;0
12;6;1;455;0
12;7;1;455;0
12;8;1;455;0
12;9;1;455;0
12;10;1;455;0
12;11;1;455;0
12;12;1;455;0
12;13;1;455;0
12;14;1;455;0
12;15;1;455;0
12;16;1;455;0
12;17;1;455;0
12;18;1;455;0
12;19;1;455;0
12;20;1;455;0
12;21;1;455;0
12;22;1;455;0
12;23;1;455;0
12;24;1;455;0
12;25;1;455;0
12;26;1;455;0
12;27;1;455;0
12;28;1;455;0
12;29;1;455;0
12;30;1;455;0
12;31;1;455;0
12;32;1;455;0
12;33;1;455;0
12;34;1;455;0
12;35;1;455;0
12;36;1;455;0
12;37;1;455;0
12;38;1;455;0
12;39;1;455;0
12;40;1;455;0
12;41;1;455;0
12;42;1;455;0
12;43;1;455;0
12;44;1;455;0
12;45;1;455;0
12;46;1;455;0
12;47;1;455;0
12;48;1;455;0
12;49;1;455;0
12;50;1;455;0
12;51;1;455;0
12;52;1;455;0
12;53;1;455;0
12;54;1;455;0
12;55;1;455;0
12;56;1;455;0
12;57;1;455;0
12;58;1;455;0
12;59;1;455;0
12;60;1;455;0
12;61;1;455;0
12;62;1;455;0
12;63;1;455;0
12;64;1;455;0
12;65;1;455;0
12;66;1;455;0
12;67;1;455;0
12;68;1;455;0
12;69;1;455;0
12;70;1;455;0
12;71;1;455;0
12;72;1;455;0
12;73;1;455;0
12;74;1;455;0
12;75;1;455;0
12;76;1;455;0
12;77;1;455;0
12;78;1;455;0
12;79;1;455;0
12;80;1;455;0
12;81;1;455;0
12;82;1;455;0
12;83;1;455;0
12;84;1;455;0
12;85;1;455;0
12;86;1;455;0
12;87;1;455;0
12;88;1;455;0
12;89;1;455;0
12;90;1;455;0
12;91;1;455;0
12;92;1;455;0
12;93;1;455;0
12;94;1;455;0
12;95;1;455;0
12;96;1;455;0
12;97;1;455;0
12;98;1;455;0
12;99;1;455;0
12;100;1;455;0
12;101;1;455;0
12;102;1;455;0
12;103;1;455;0
12;104;1;455;0
12;105;1;455;0
12;106;1;455;0
12;107;1;455;0
12;108;1;455;0
12;109;1;455;0
12;110;1;455;0
12;111;1;455;0
12;112;1;455;0
12;113;1;455;0
12;114;1;455;0
12;115;1;455;0
12;116;1;455;0
12;117;1;455;0
12;118;1;455;0
12;119;1;455;0
12;120;1;455;0
12;121;1;455;0
12;122;1;455;0
12;123;1;455;0
12;124;1;448.2646154;6.735
12;125;1;431.3993846;23.601
12;126;1;431.3993846;14.294
12;127;1;448.2646154;6.735
12;128;1;455;0
12;129;1;455;0
12;130;1;455;0
12;131;1;455;0
12;132;1;455;0
12;133;1;455;0
12;134;1;455;0
12;135;1;455;0
12;136;1;455;0
12;137;1;455;0
12;138;1;455;0
12;139;1;455;0
12;140;1;455;0
12;141;1;455;0
12;142;1;455;0
12;143;1;455;0
12;144;1;455;0
12;145;1;455;0
12;146;1;455;0
12;147;1;455;0
12;148;1;455;0
12;149;1;442.9378462;9.491
12;150;1;442.9378462;12.062
12;151;1;455;0
12;152;1;455;0
12;153;1;455;0
12;154;1;455;0
12;155;1;455;0
12;156;1;455;0
12;157;1;455;0
12;158;1;455;0
12;159;1;455;0
12;160;1;455;0
12;161;1;455;0
12;162;1;455;0
12;163;1;455;0
12;164;1;455;0
12;165;1;455;0
12;166;1;455;0
12;167;1;455;0
12;168;1;455;0
13;1;1;455;0
13;2;1;455;0
13;3;1;455;0
13;4;1;455;0
13;5;1;455;0
13;6;1;455;0
13;7;1;455;0
13;8;1;455;0
13;9;1;455;0
13;10;1;455;0
13;11;1;455;0
13;12;1;455;0
13;13;1;455;0
13;14;1;455;0
13;15;1;455;0
13;16;1;455;0
13;17;1;455;0
13;18;1;455;0
13;19;1;455;0
13;20;1;455;0
13;21;1;455;0
13;22;1;455;0
13;23;1;455;0
13;24;1;455;0
13;25;1;455;0
13;26;1;455;0
13;27;1;455;0
13;28;1;455;0
13;29;1;455;0
13;30;1;455;0
13;31;1;455;0
13;32;1;455;0
13;33;1;455;0
13;34;1;455;0
13;35;1;455;0
13;36;1;455;0
13;37;1;455;0
13;38;1;455;0
13;39;1;455;0
13;40;1;455;0
13;41;1;455;0
13;42;1;455;0
13;43;1;455;0
13;44;1;455;0
13;45;1;455;0
13;46;1;455;0
13;47;1;455;0
13;48;1;455;0
13;49;1;455;0
13;50;1;455;0
13;51;1;455;0
13;52;1;455;0
13;53;1;455;0
13;54;1;455;0
13;55;1;455;0
13;56;1;455;0
13;57;1;455;0
13;58;1;455;0
13;59;1;455;0
13;60;1;455;0
13;61;1;455;0
13;62;1;455;0
13;63;1;455;0
13;64;1;455;0
13;65;1;455;0
13;66;1;455;0
13;67;1;455;0
13;68;1;455;0
13;69;1;455;0
13;70;1;455;0
13;71;1;455;0
13;72;1;455;0
13;73;1;455;0
13;74;1;455;0
13;75;1;455;0
13;76;1;455;0
13;77;1;455;0
13;78;1;455;0
13;79;1;455;0
13;80;1;455;0
13;81;1;455;0
13;82;1;455;0
13;83;1;455;0
13;84;1;455;0
13;85;1;455;0
13;86;1;455;0
13;87;1;455;0
13;88;1;455;0
13;89;1;455;0
13;90;1;455;0
13;91;1;455;0
13;92;1;455;0
13;93;1;455;0
13;94;1;455;0
13;95;1;455;0
13;96;1;455;0
13;97;1;455;0
13;98;1;455;0
13;99;1;455;0
13;100;1;455;0
13;101;1;455;0
13;102;1;455;0
13;103;1;455;0
13;104;1;455;0
13;105;1;455;0
13;106;1;455;0
13;107;1;455;0
13;108;1;455;0
13;109;1;455;0
13;110;1;455;0
13;111;1;455;0
13;112;1;455;0
13;113;1;455;0
13;114;1;455;0
13;115;1;455;0
13;116;1;455;0
13;117;1;455;0
13;118;1;455;0
13;119;1;455;0
13;120;1;455;0
13;121;1;455;0
13;122;1;455;0
13;123;1;455;0
13;124;1;448.2646154;6.735
13;125;1;431.3993846;23.601
13;126;1;431.3993846;14.294
13;127;1;448.2646154;6.735
13;128;1;455;0
13;129;1;455;0
13;130;1;455;0
13;131;1;455;0
13;132;1;455;0
13;133;1;455;0
13;134;1;455;0
13;135;1;455;0
13;136;1;455;0
13;137;1;455;0
13;138;1;455;0
13;139;1;455;0
13;140;1;455;0
13;141;1;455;0
13;142;1;455;0
13;143;1;455;0
13;144;1;455;0
13;145;1;455;0
13;146;1;455;0
13;147;1;455;0
13;148;1;455;0
13;149;1;442.9378462;9.491
13;150;1;442.9378462;12.062
13;151;1;455;0
13;152;1;455;0
13;153;1;455;0
13;154;1;455;0
13;155;1;455;0
13;156;1;455;0
13;157;1;455;0
13;158;1;455;0
13;159;1;455;0
13;160;1;455;0
13;161;1;455;0
13;162;1;455;0
13;163;1;455;0
13;164;1;455;0
13;165;1;455;0
13;166;1;455;0
13;167;1;455;0
13;168;1;455;0
14;1;1;375;0
14;2;1;150;305
14;3;1;250.86;124.14
14;4;1;150;0
14;5;1;150;225
14;6;1;150;225
14;7;1;150;0
14;8;1;375;0
14;9;1;230;225
14;10;1;230;225
14;11;1;455;0
14;12;1;230;225
14;13;1;150;305
14;14;1;150;225
14;15;1;375;0
14;16;1;455;0
14;17;1;230;225
14;18;1;280.057;174.943
14;19;1;230;225
14;20;1;455;0
14;21;1;455;0
14;22;1;230;225
14;23;1;455;0
14;24;1;455;0
14;25;1;455;0
14;26;1;455;0
14;27;1;375;80
14;28;1;150;305
14;29;1;375;0
14;30;1;455;0
14;31;1;439.92;0
14;32;1;214.92;240.08
14;33;1;230;209.92
14;34;1;455;0
14;35;1;455;0
14;36;1;455;0
14;37;1;455;0
14;38;1;313.76;141.24
14;39;1;455;0
14;40;1;399.463;0
14;41;1;230;225
14;42;1;230;225
14;43;1;268.196;186.804
14;44;1;455;0
14;45;1;230;225
14;46;1;375;80
14;47;1;150;0
14;48;0;0;0
14;49;0;0;0
14;50;0;0;0
14;51;0;0;0
14;52;0;0;0
14;53;0;0;0
14;54;0;0;0
14;55;0;0;0
14;56;1;150;0
14;57;1;375;0
14;58;1;455;0
14;59;1;230;225
14;60;1;455;0
14;61;1;455;0
14;62;1;455;0
14;63;1;455;0
14;64;1;455;0
14;65;1;230;225
14;66;1;230;225
14;67;1;268.196;186.804
14;68;1;230;225
14;69;1;455;0
14;70;1;455;0
14;71;1;230;225
14;72;1;207.913;244.022
14;73;1;375;57.913
14;74;1;150;305
14;75;1;150;225
14;76;1;150;0
14;77;1;150;0
14;78;1;150;225
14;79;1;375;0
14;80;1;230;225
14;81;1;455;0
14;82;1;230;213.64
14;83;1;230;225
14;84;1;455;0
14;85;1;455;0
14;86;1;375;0
14;87;1;150;305
14;88;1;287.37;87.63
14;89;1;230;107.349
14;90;1;230;225
14;91;1;230;225
14;92;1;455;0
14;93;1;455;0
14;94;1;375;80
14;95;1;150;0
14;96;0;0;0
14;97;0;0;0
14;98;0;0;0
14;99;0;0;0
14;100;0;0;0
14;101;0;0;0
14;102;0;0;0
14;103;0;0;0
14;104;0;0;0
14;105;1;150;0
14;106;1;230;145
14;107;1;230;225
14;108;1;455;0
14;109;1;366.354;88.646
14;110;1;230;225
14;111;1;455;0
14;112;1;455;0
14;113;1;230;225
14;114;1;230;225
14;115;1;230;225
14;116;1;455;0
14;117;1;455;0
14;118;1;455;0
14;119;1;375;0
14;120;1;150;0
14;121;0;0;0
14;122;0;0;0
14;123;0;0;0
14;124;0;0;0
14;125;0;0;0
14;126;0;0;0
14;127;0;0;0
14;128;0;0;0
14;129;1;150;0
14;130;1;364.36;0
14;131;1;230;225
14;132;1;316.204;138.796
14;133;1;455;0
14;134;1;455;0
14;135;1;455;0
14;136;1;455;0
14;137;1;230;104.879
14;138;1;455;0
14;139;1;455;0
14;140;1;455;0
14;141;1;375;0
14;142;1;150;0
14;143;0;0;0
14;144;0;0;0
14;145;0;0;0
14;146;0;0;0
14;147;0;0;0
14;148;0;0;0
14;149;0;0;0
14;150;0;0;0
14;151;0;0;0
14;152;0;0;0
14;153;1;150;0
14;154;1;375;0
14;155;1;414.168;0
14;156;1;455;0
14;157;1;455;0
14;158;1;455;0
14;159;1;375;80
14;160;1;150;305
14;161;1;375;0
14;162;1;431.2136;23.786
14;163;1;317.776;0
14;164;1;371.6032;0
14;165;1;363.04;0
14;166;1;455;0
14;167;1;455;0
14;168;1;230;225
15;1;1;150;0
15;2;0;0;0
15;3;0;0;0
15;4;0;0;0
15;5;0;0;0
15;6;0;0;0
15;7;0;0;0
15;8;0;0;0
15;9;0;0;0
15;10;1;150;0
15;11;1;230;145
15;12;1;230;225
15;13;1;455;0
15;14;1;455;0
15;15;1;230;225
15;16;1;455;0
15;17;1;455;0
15;18;1;455;0
15;19;1;455;0
15;20;1;455;0
15;21;1;230;225
15;22;1;455;0
15;23;1;230;225
15;24;1;455;0
15;25;1;455;0
15;26;1;271.95;55.695
15;27;1;410.446;0
15;28;1;375;0
15;29;1;150;305
15;30;1;150;225
15;31;1;361.88;0
15;32;1;150;305
15;33;1;375;0
15;34;1;455;0
15;35;1;230;225
15;36;1;455;0
15;37;1;455;0
15;38;1;455;0
15;39;1;455;0
15;40;1;455;0
15;41;1;230;225
15;42;1;455;0
15;43;1;455;0
15;44;1;230;225
15;45;1;230;225
15;46;1;455;0
15;47;1;375;80
15;48;1;150;0
15;49;0;0;0
15;50;0;0;0
15;51;0;0;0
15;52;0;0;0
15;53;0;0;0
15;54;0;0;0
15;55;0;0;0
15;56;0;0;0
15;57;1;150;0
15;58;1;230;145
15;59;1;455;0
15;60;1;455;0
15;61;1;455;0
15;62;1;455;0
15;63;1;455;0
15;64;1;230;0
15;65;1;230;225
15;66;1;455;0
15;67;1;455;0
15;68;1;230;225
15;69;1;455;0
15;70;1;455;0
15;71;1;230;182.907
15;72;1;455;0
15;73;1;419.13;0
15;74;1;455;0
15;75;1;230;225
15;76;1;150;305
15;77;1;375;0
15;78;1;455;0
15;79;1;279.06;175.94
15;80;1;455;0
15;81;1;455;0
15;82;1;455;0
15;83;1;455;0
15;84;1;230;225
15;85;1;455;0
15;86;1;455;0
15;87;1;455;0
15;88;1;455;0
15;89;1;455;0
15;90;1;455;0
15;91;1;455;0
15;92;1;455;0
15;93;1;230;225
15;94;1;455;0
15;95;1;230;102.907
15;96;1;420.978;34.022
15;97;1;455;0
15;98;1;431.95;0
15;99;1;330.86;0
15;100;1;375;0
15;101;1;150;0
15;102;1;150;0
15;103;1;150;225
15;104;1;183.509;191.491
15;105;1;230;178.509
15;106;1;455;0
15;107;1;455;0
15;108;1;375;80
15;109;1;150;305
15;110;1;375;0
15;111;1;455;0
15;112;1;455;0
15;113;1;455;0
15;114;1;455;0
15;115;1;455;0
15;116;1;258.64;196.36
15;117;1;230;225
15;118;1;455;0
15;119;1;455;0
15;120;1;455;0
15;121;1;230;225
15;122;1;150;0
15;123;0;0;0
15;124;0;0;0
15;125;0;0;0
15;126;0;0;0
15;127;0;0;0
15;128;0;0;0
15;129;0;0;0
15;130;0;0;0
15;131;0;0;0
15;132;0;0;0
15;133;0;0;0
15;134;0;0;0
15;135;0;0;0
15;136;1;150;0
15;137;1;375;0
15;138;1;455;0
15;139;1;230;225
15;140;1;230;225
15;141;1;230;225
15;142;1;338.416;116.584
15;143;1;150;206.326
15;144;1;150;0
15;145;0;0;0
15;146;0;0;0
15;147;0;0;0
15;148;0;0;0
15;149;0;0;0
15;150;0;0;0
15;151;0;0;0
15;152;0;0;0
15;153;1;150;0
15;154;1;375;0
15;155;1;230;225
15;156;1;300.1208;154.879
15;157;1;150;263.085
15;158;1;150;225
15;159;1;150;225
15;160;1;150;225
15;161;1;230;145
15;162;1;150;305
15;163;1;150;0
15;164;0;0;0
15;165;0;0;0
15;166;0;0;0
15;167;0;0;0
15;168;0;0;0
16;1;1;375;0
16;2;1;150;305
16;3;1;150;115.446
16;4;1;150;0
16;5;1;232.74;0
16;6;1;150;0
16;7;1;150;225
16;8;1;150;225
16;9;1;375;0
16;10;1;415.051;0
16;11;1;455;0
16;12;1;455;0
16;13;1;455;0
16;14;1;455;0
16;15;1;455;0
16;16;1;455;0
16;17;1;230;225
16;18;1;230;225
16;19;1;230;225
16;20;1;455;0
16;21;1;455;0
16;22;1;455;0
16;23;1;375;0
16;24;1;150;0
16;25;0;0;0
16;26;0;0;0
16;27;0;0;0
16;28;0;0;0
16;29;0;0;0
16;30;0;0;0
16;31;0;0;0
16;32;0;0;0
16;33;1;150;0
16;34;1;375;0
16;35;1;455;0
16;36;1;455;0
16;37;1;455;0
16;38;1;378.64;0
16;39;1;153.64;301.36
16;40;1;150;0
16;41;1;230;0
16;42;1;230;225
16;43;1;230;225
16;44;1;455;0
16;45;1;435.978;0
16;46;1;455;0
16;47;1;375;80
16;48;1;150;305
16;49;1;150;225
16;50;1;150;0
16;51;1;150;14.586
16;52;1;150;0
16;53;1;150;42.514
16;54;1;150;225
16;55;1;150;225
16;56;1;150;41.912
16;57;1;328.509;0
16;58;1;455;0
16;59;1;455;0
16;60;1;455;0
16;61;1;455;0
16;62;1;455;0
16;63;1;235.37;219.63
16;64;1;455;0
16;65;1;230;0
16;66;1;230;225
16;67;1;230;225
16;68;1;455;0
16;69;1;230;225
16;70;1;455;0
16;71;1;455;0
16;72;1;455;0
16;73;1;455;0
16;74;1;351.95;103.05
16;75;1;455;0
16;76;1;230;0
16;77;1;150;0
16;78;1;150;225
16;79;1;150;0
16;80;1;150;225
16;81;1;230;145
16;82;1;455;0
16;83;1;230;219.485
16;84;1;455;0
16;85;1;455;0
16;86;1;455;0
16;87;1;455;0
16;88;1;455;0
16;89;1;230;225
16;90;1;280.057;174.943
16;91;1;230;225
16;92;1;455;0
16;93;1;455;0
16;94;1;455;0
16;95;1;455;0
16;96;1;230;225
16;97;1;375;22.043
16;98;1;150;280.695
16;99;1;375;0
16;100;1;281.8;0
16;101;1;415.226;0
16;102;1;455;0
16;103;1;307.82;147.18
16;104;1;455;0
16;105;1;455;0
16;106;1;455;0
16;107;1;230;225
16;108;1;230;225
16;109;1;455;0
16;110;1;232.03;222.97
16;111;1;455;0
16;112;1;287.37;167.63
16;113;1;230;225
16;114;1;230;225
16;115;1;328.196;126.804
16;116;1;455;0
16;117;1;230;225
16;118;1;365.52;89.48
16;119;1;230;225
16;120;1;375;80
16;121;1;150;305
16;122;1;150;37.556
16;123;1;150;225
16;124;1;150;40.184
16;125;1;150;104.011
16;126;1;150;0
16;127;1;150;120.184
16;128;1;150;134.401
16;129;1;230;145
16;130;1;188.0848;266.915
16;131;1;230;183.085
16;132;1;455;0
16;133;1;375;80
16;134;1;150;305
16;135;1;150;111.03
16;136;1;150;0
16;137;1;150;225
16;138;1;230;145
16;139;1;455;0
16;140;1;455;0
16;141;1;455;0
16;142;1;455;0
16;143;1;455;0
16;144;1;455;0
16;145;1;375;80
16;146;1;150;305
16;147;1;150;225
16;148;1;150;225
16;149;1;150;0
16;150;1;150;0
16;151;1;150;45.184
16;152;1;150;225
16;153;1;230;145
16;154;1;150;305
16;155;1;375;0
16;156;1;150;305
16;157;1;150;225
16;158;1;150;225
16;159;1;150;225
16;160;1;150;0
16;161;1;230;0
16;162;1;455;0
16;163;1;455;0
16;164;1;230;225
16;165;1;150;0
16;166;0;0;0
16;167;0;0;0
16;168;0;0;0
17;1;1;455;0
17;2;1;455;0
17;3;1;230;0
17;4;1;150;305
17;5;1;150;225
17;6;1;150;225
17;7;1;150;225
17;8;1;150;225
17;9;1;230;145
17;10;1;387.349;67.651
17;11;1;455;0
17;12;1;455;0
17;13;1;455;0
17;14;1;455;0
17;15;1;455;0
17;16;1;455;0
17;17;1;455;0
17;18;1;455;0
17;19;1;268.196;186.804
17;20;1;230;225
17;21;1;455;0
17;22;1;375;80
17;23;1;150;0
17;24;0;0;0
17;25;0;0;0
17;26;0;0;0
17;27;0;0;0
17;28;0;0;0
17;29;0;0;0
17;30;0;0;0
17;31;0;0;0
17;32;1;150;0
17;33;1;375;0
17;34;1;455;0
17;35;1;230;225
17;36;1;150;305
17;37;1;150;225
17;38;1;150;225
17;39;1;375;0
17;40;1;230;225
17;41;1;455;0
17;42;1;455;0
17;43;1;230;225
17;44;1;375;80
17;45;1;150;176.823
17;46;1;150;0
17;47;0;0;0
17;48;0;0;0
17;49;0;0;0
17;50;0;0;0
17;51;0;0;0
17;52;0;0;0
17;53;0;0;0
17;54;0;0;0
17;55;0;0;0
17;56;0;0;0
17;57;1;150;0
17;58;1;352.098;22.902
17;59;1;230;225
17;60;1;455;0
17;61;1;230;225
17;62;1;455;0
17;63;1;455;0
17;64;1;455;0
17;65;1;455;0
17;66;1;455;0
17;67;1;455;0
17;68;1;455;0
17;69;1;230;225
17;70;1;150;0
17;71;0;0;0
17;72;0;0;0
17;73;0;0;0
17;74;0;0;0
17;75;0;0;0
17;76;0;0;0
17;77;0;0;0
17;78;0;0;0
17;79;0;0;0
17;80;0;0;0
17;81;1;150;0
17;82;1;375;0
17;83;1;455;0
17;84;1;455;0
17;85;1;455;0
17;86;1;382.4;0
17;87;1;157.4;297.6
17;88;1;150;232.4
17;89;1;375;0
17;90;1;455;0
17;91;1;268.196;186.804
17;92;1;230;225
17;93;1;455;0
17;94;1;455;0
17;95;1;455;0
17;96;1;455;0
17;97;1;455;0
17;98;1;455;0
17;99;1;375;14.586
17;100;1;150;0
17;101;1;150;225
17;102;1;150;225
17;103;1;150;225
17;104;1;375;0
17;105;1;201.24;253.76
17;106;1;230;196.24
17;107;1;230;225
17;108;1;150;305
17;109;1;150;225
17;110;1;375;0
17;111;1;375;80
17;112;1;150;305
17;113;1;230;145
17;114;1;455;0
17;115;1;455;0
17;116;1;455;0
17;117;1;230;225
17;118;1;230;225
17;119;1;455;0
17;120;1;375;80
17;121;1;150;0
17;122;0;0;0
17;123;0;0;0
17;124;0;0;0
17;125;0;0;0
17;126;0;0;0
17;127;0;0;0
17;128;0;0;0
17;129;0;0;0
17;130;0;0;0
17;131;0;0;0
17;132;0;0;0
17;133;0;0;0
17;134;0;0;0
17;135;0;0;0
17;136;0;0;0
17;137;0;0;0
17;138;0;0;0
17;139;0;0;0
17;140;0;0;0
17;141;0;0;0
17;142;0;0;0
17;143;0;0;0
17;144;0;0;0
17;145;0;0;0
17;146;0;0;0
17;147;0;0;0
17;148;0;0;0
17;149;0;0;0
17;150;0;0;0
17;151;0;0;0
17;152;0;0;0
17;153;0;0;0
17;154;0;0;0
17;155;0;0;0
17;156;0;0;0
17;157;0;0;0
17;158;0;0;0
17;159;0;0;0
17;160;0;0;0
17;161;0;0;0
17;162;1;150;0
17;163;1;230;145
17;164;1;230;225
17;165;1;230;225
17;166;1;230;225
17;167;1;150;305
17;168;1;150;225
18;1;1;150;305
18;2;1;375;0
18;3;1;150;305
18;4;1;150;0
18;5;1;150;225
18;6;1;150;0
18;7;1;150;0
18;8;1;150;0
18;9;1;230;145
18;10;1;455;0
18;11;1;316.46;138.54
18;12;1;455;0
18;13;1;455;0
18;14;1;455;0
18;15;1;455;0
18;16;1;455;0
18;17;1;230;0
18;18;1;230;225
18;19;1;455;0
18;20;1;230;225
18;21;1;230;225
18;22;1;455;0
18;23;1;455;0
18;24;1;455;0
18;25;1;455;0
18;26;1;455;0
18;27;1;375;0
18;28;1;150;305
18;29;1;232.74;142.26
18;30;1;150;264.774
18;31;1;150;225
18;32;1;375;0
18;33;1;230;225
18;34;1;455;0
18;35;1;455;0
18;36;1;455;0
18;37;1;455;0
18;38;1;455;0
18;39;1;455;0
18;40;1;455;0
18;41;1;455;0
18;42;1;455;0
18;43;1;455;0
18;44;1;230;225
18;45;1;455;0
18;46;1;455;0
18;47;1;230;225
18;48;1;455;0
18;49;1;431.95;0
18;50;1;206.95;248.05
18;51;1;395.86;0
18;52;1;413.98;0
18;53;1;232.74;222.26
18;54;1;377.74;0
18;55;1;426.8;0
18;56;1;230;225
18;57;1;230;225
18;58;1;200.621;254.379
18;59;1;425.621;0
18;60;1;455;0
18;61;1;375;80
18;62;1;150;305
18;63;1;375;0
18;64;1;230;225
18;65;1;455;0
18;66;1;455;0
18;67;1;455;0
18;68;1;455;0
18;69;1;455;0
18;70;1;455;0
18;71;1;375;0
18;72;1;150;0
18;73;0;0;0
18;74;0;0;0
18;75;0;0;0
18;76;0;0;0
18;77;0;0;0
18;78;0;0;0
18;79;0;0;0
18;80;0;0;0
18;81;1;150;0
18;82;1;375;0
18;83;1;230;225
18;84;1;230;225
18;85;1;375;80
18;86;1;150;305
18;87;1;375;0
18;88;1;150;305
18;89;1;230;0
18;90;1;455;0
18;91;1;455;0
18;92;1;455;0
18;93;1;230;225
18;94;1;455;0
18;95;1;455;0
18;96;1;230;225
18;97;1;150;305
18;98;1;150;0
18;99;0;0;0
18;100;0;0;0
18;101;0;0;0
18;102;0;0;0
18;103;0;0;0
18;104;0;0;0
18;105;0;0;0
18;106;0;0;0
18;107;0;0;0
18;108;0;0;0
18;109;0;0;0
18;110;0;0;0
18;111;0;0;0
18;112;1;150;0
18;113;1;375;0
18;114;1;455;0
18;115;1;455;0
18;116;1;455;0
18;117;1;455;0
18;118;1;455;0
18;119;1;230;162.907
18;120;1;375;80
18;121;1;150;0
18;122;0;0;0
18;123;0;0;0
18;124;0;0;0
18;125;0;0;0
18;126;0;0;0
18;127;0;0;0
18;128;0;0;0
18;129;0;0;0
18;130;0;0;0
18;131;0;0;0
18;132;0;0;0
18;133;0;0;0
18;134;0;0;0
18;135;0;0;0
18;136;0;0;0
18;137;0;0;0
18;138;0;0;0
18;139;0;0;0
18;140;0;0;0
18;141;0;0;0
18;142;0;0;0
18;143;0;0;0
18;144;0;0;0
18;145;0;0;0
18;146;0;0;0
18;147;0;0;0
18;148;0;0;0
18;149;0;0;0
18;150;0;0;0
18;151;0;0;0
18;152;0;0;0
18;153;0;0;0
18;154;0;0;0
18;155;0;0;0
18;156;0;0;0
18;157;0;0;0
18;158;0;0;0
18;159;0;0;0
18;160;0;0;0
18;161;0;0;0
18;162;0;0;0
18;163;0;0;0
18;164;0;0;0
18;165;0;0;0
18;166;0;0;0
18;167;0;0;0
18;168;0;0;0
19;1;1;375;0
19;2;1;150;0
19;3;1;150;0
19;4;1;150;0
19;5;1;150;0
19;6;1;150;0
19;7;1;150;225
19;8;1;230;0
19;9;1;230;225
19;10;1;150;305
19;11;1;375;0
19;12;1;230;157.349
19;13;1;455;0
19;14;1;362.4;0
19;15;1;267.907;0
19;16;1;230;225
19;17;1;455;0
19;18;1;455;0
19;19;1;455;0
19;20;1;455;0
19;21;1;455;0
19;22;1;371.572;0
19;23;1;455;0
19;24;1;375;80
19;25;1;150;305
19;26;1;150;225
19;27;1;215.414;159.586
19;28;1;150;38.98
19;29;1;150;0
19;30;1;152.74;0
19;31;1;150;0
19;32;1;375;0
19;33;1;455;0
19;34;1;230;225
19;35;1;230;225
19;36;1;248.49;206.51
19;37;1;150;305
19;38;1;375;0
19;39;1;455;0
19;40;1;455;0
19;41;1;455;0
19;42;1;455;0
19;43;1;455;0
19;44;1;455;0
19;45;1;455;0
19;46;1;455;0
19;47;1;230;225
19;48;1;455;0
19;49;1;455;0
19;50;1;375;80
19;51;1;150;305
19;52;1;150;0
19;53;1;150;0
19;54;1;150;0
19;55;1;375;0
19;56;1;455;0
19;57;1;455;0
19;58;1;455;0
19;59;1;455;0
19;60;1;455;0
19;61;1;455;0
19;62;1;455;0
19;63;1;455;0
19;64;1;287.37;0
19;65;1;455;0
19;66;1;280.057;174.943
19;67;1;455;0
19;68;1;284.136;170.864
19;69;1;355.978;99.022
19;70;1;150;305
19;71;1;150;0
19;72;0;0;0
19;73;0;0;0
19;74;0;0;0
19;75;0;0;0
19;76;0;0;0
19;77;0;0;0
19;78;0;0;0
19;79;0;0;0
19;80;1;150;0
19;81;1;375;0
19;82;1;455;0
19;83;1;230;225
19;84;1;455;0
19;85;1;230;225
19;86;1;150;305
19;87;1;150;225
19;88;1;230;0
19;89;1;455;0
19;90;1;455;0
19;91;1;455;0
19;92;1;455;0
19;93;1;455;0
19;94;1;230;225
19;95;1;150;305
19;96;1;150;0
19;97;0;0;0
19;98;0;0;0
19;99;0;0;0
19;100;0;0;0
19;101;0;0;0
19;102;0;0;0
19;103;0;0;0
19;104;0;0;0
19;105;1;150;0
19;106;1;375;0
19;107;1;295.515;159.485
19;108;1;455;0
19;109;1;455;0
19;110;1;455;0
19;111;1;455;0
19;112;1;230;153.907
19;113;1;455;0
19;114;1;455;0
19;115;1;455;0
19;116;1;455;0
19;117;1;455;0
19;118;1;455;0
19;119;1;455;0
19;120;1;455;0
19;121;1;230;0
19;122;1;150;0
19;123;0;0;0
19;124;0;0;0
19;125;0;0;0
19;126;0;0;0
19;127;0;0;0
19;128;0;0;0
19;129;0;0;0
19;130;0;0;0
19;131;0;0;0
19;132;0;0;0
19;133;0;0;0
19;134;0;0;0
19;135;0;0;0
19;136;1;150;0
19;137;1;230;145
19;138;1;455;0
19;139;1;455;0
19;140;1;230;225
19;141;1;223.04;231.96
19;142;1;230;218.04
19;143;1;455;0
19;144;1;230;203.394
19;145;1;150;221.634
19;146;1;150;0
19;147;0;0;0
19;148;0;0;0
19;149;0;0;0
19;150;0;0;0
19;151;0;0;0
19;152;0;0;0
19;153;0;0;0
19;154;0;0;0
19;155;0;0;0
19;156;0;0;0
19;157;0;0;0
19;158;0;0;0
19;159;0;0;0
19;160;1;150;0
19;161;1;230;145
19;162;1;455;0
19;163;1;230;225
19;164;1;230;225
19;165;1;455;0
19;166;1;455;0
19;167;1;455;0
19;168;1;455;0
20;1;1;375;0
20;2;1;150;0
20;3;1;150;225
20;4;1;375;0
20;5;1;150;0
20;6;1;150;0
20;7;1;150;147.18
20;8;1;150;0
20;9;1;375;0
20;10;1;455;0
20;11;1;230;165.106
20;12;1;150;305
20;13;1;150;225
20;14;1;375;0
20;15;1;375;0
20;16;1;150;161.537
20;17;1;230;145
20;18;1;230;225
20;19;1;230;225
20;20;1;455;0
20;21;1;455;0
20;22;1;230;225
20;23;1;150;305
20;24;1;375;0
20;25;1;375;22.043
20;26;1;150;0
20;27;0;0;0
20;28;0;0;0
20;29;0;0;0
20;30;0;0;0
20;31;0;0;0
20;32;0;0;0
20;33;0;0;0
20;34;0;0;0
20;35;0;0;0
20;36;0;0;0
20;37;0;0;0
20;38;0;0;0
20;39;0;0;0
20;40;1;150;0
20;41;1;230;145
20;42;1;230;225
20;43;1;230;225
20;44;1;455;0
20;45;1;455;0
20;46;1;235.52;219.48
20;47;1;165.37;247.537
20;48;1;390.37;0
20;49;1;282.18;57.913
20;50;1;150;0
20;51;0;0;0
20;52;0;0;0
20;53;0;0;0
20;54;0;0;0
20;55;0;0;0
20;56;0;0;0
20;57;0;0;0
20;58;0;0;0
20;59;0;0;0
20;60;0;0;0
20;61;0;0;0
20;62;0;0;0
20;63;0;0;0
20;64;1;150;0
20;65;1;230;0
20;66;1;230;225
20;67;1;230;225
20;68;1;455;0
20;69;1;455;0
20;70;1;455;0
20;71;1;455;0
20;72;1;455;0
20;73;1;455;0
20;74;1;455;0
20;75;1;455;0
20;76;1;455;0
20;77;1;455;0
20;78;1;377.74;0
20;79;1;152.74;302.26
20;80;1;230;26.912
20;81;1;230;225
20;82;1;455;0
20;83;1;455;0
20;84;1;455;0
20;85;1;455;0
20;86;1;455;0
20;87;1;455;0
20;88;1;455;0
20;89;1;230;225
20;90;1;455;0
20;91;1;230;225
20;92;1;455;0
20;93;1;435.978;0
20;94;1;455;0
20;95;1;455;0
20;96;1;455;0
20;97;1;455;0
20;98;1;375;0
20;99;1;150;305
20;100;1;375;0
20;101;1;150;0
20;102;1;150;225
20;103;1;375;0
20;104;1;150;305
20;105;1;230;145
20;106;1;230;225
20;107;1;455;0
20;108;1;343.384;111.616
20;109;1;150;305
20;110;1;375;0
20;111;1;150;167.537
20;112;1;375;0
20;113;1;230;225
20;114;1;230;225
20;115;1;230;225
20;116;1;455;0
20;117;1;455;0
20;118;1;455;0
20;119;1;230;225
20;120;1;370.978;84.022
20;121;1;150;0
20;122;1;150;225
20;123;1;281.688;0
20;124;1;150;305
20;125;1;150;0
20;126;1;150;0
20;127;1;150;225
20;128;1;243.1288;0
20;129;1;455;0
20;130;1;342.4752;112.525
20;131;1;375;80
20;132;1;150;305
20;133;1;150;225
20;134;1;150;225
20;135;1;150;225
20;136;1;150;225
20;137;1;230;145
20;138;1;230;225
20;139;1;455;0
20;140;1;455;0
20;141;1;455;0
20;142;1;455;0
20;143;1;230;225
20;144;1;230;225
20;145;1;455;0
20;146;1;235.56;182.556
20;147;1;206.688;248.312
20;148;1;212.44;0
20;149;1;150;287.44
20;150;1;150;225
20;151;1;150;225
20;152;1;230;145
20;153;1;230;225
20;154;1;230;225
20;155;1;455;0
20;156;1;455;0
20;157;1;349.168;105.832
20;158;1;150;305
20;159;1;375;0
20;160;1;423.9704;31.03
20;161;1;230;163.671
20;162;1;455;0
20;163;1;455;0
20;164;1;455;0
20;165;1;230;31.804
20;166;1;150;0
20;167;0;0;0
20;168;0;0;0
21;1;1;455;0
21;2;1;455;0
21;3;1;375;80
21;4;1;150;212.18
21;5;1;150;0
21;6;1;150;119.774
21;7;1;150;0
21;8;1;375;0
21;9;1;455;0
21;10;1;455;0
21;11;1;455;0
21;12;1;455;0
21;13;1;455;0
21;14;1;455;0
21;15;1;455;0
21;16;1;455;0
21;17;1;230;172.349
21;18;1;455;0
21;19;1;455;0
21;20;1;455;0
21;21;1;455;0
21;22;1;375;0
21;23;1;150;0
21;24;0;0;0
21;25;0;0;0
21;26;0;0;0
21;27;0;0;0
21;28;0;0;0
21;29;0;0;0
21;30;0;0;0
21;31;0;0;0
21;32;0;0;0
21;33;1;150;0
21;34;1;230;145
21;35;1;455;0
21;36;1;230;225
21;37;1;375;80
21;38;1;150;305
21;39;1;150;0
21;40;1;150;0
21;41;1;230;0
21;42;1;455;0
21;43;1;455;0
21;44;1;230;225
21;45;1;455;0
21;46;1;455;0
21;47;1;375;0
21;48;1;150;0
21;49;0;0;0
21;50;0;0;0
21;51;0;0;0
21;52;0;0;0
21;53;0;0;0
21;54;0;0;0
21;55;0;0;0
21;56;0;0;0
21;57;1;150;0
21;58;1;375;0
21;59;1;230;225
21;60;1;230;225
21;61;1;455;0
21;62;1;382.4;72.6
21;63;1;455;0
21;64;1;455;0
21;65;1;230;172.349
21;66;1;455;0
21;67;1;455;0
21;68;1;455;0
21;69;1;455;0
21;70;1;230;225
21;71;1;230;225
21;72;1;375;80
21;73;1;150;305
21;74;1;150;0
21;75;1;150;225
21;76;1;150;0
21;77;1;150;0
21;78;1;150;117.034
21;79;1;150;0
21;80;1;230;0
21;81;1;230;225
21;82;1;200.621;254.379
21;83;1;425.621;0
21;84;1;455;0
21;85;1;375;80
21;86;1;150;305
21;87;1;257.907;0
21;88;1;455;0
21;89;1;310.49;0
21;90;1;455;0
21;91;1;455;0
21;92;1;455;0
21;93;1;230;225
21;94;1;230;225
21;95;1;230;225
21;96;1;455;0
21;97;1;455;0
21;98;1;375;0
21;99;1;150;305
21;100;1;375;0
21;101;1;192.514;0
21;102;1;377.74;39.774
21;103;1;348.98;0
21;104;1;406.411;0
21;105;1;230;225
21;106;1;230;225
21;107;1;455;0
21;108;1;455;0
21;109;1;455;0
21;110;1;455;0
21;111;1;455;0
21;112;1;455;0
21;113;1;230;0
21;114;1;455;0
21;115;1;455;0
21;116;1;230;225
21;117;1;455;0
21;118;1;230;225
21;119;1;375;80
21;120;1;150;305
21;121;1;150;225
21;122;1;160.56;0
21;123;1;150;4.669
21;124;1;150;225
21;125;1;150;0
21;126;1;150;225
21;127;1;150;0
21;128;1;230;145
21;129;1;150;305
21;130;1;375;0
21;131;1;455;0
21;132;1;455;0
21;133;1;455;0
21;134;1;455;0
21;135;1;230;225
21;136;1;150;305
21;137;1;230;145
21;138;1;455;0
21;139;1;381.16;73.84
21;140;1;241.912;209.691
21;141;1;375;24.844
21;142;1;150;305
21;143;1;150;225
21;144;1;150;0
21;145;0;0;0
21;146;0;0;0
21;147;0;0;0
21;148;0;0;0
21;149;0;0;0
21;150;0;0;0
21;151;0;0;0
21;152;0;0;0
21;153;1;150;0
21;154;1;253.008;121.992
21;155;1;230;225
21;156;1;455;0
21;157;1;455;0
21;158;1;455;0
21;159;1;375;80
21;160;1;150;305
21;161;1;375;0
21;162;1;455;0
21;163;1;455;0
21;164;1;230;0
21;165;1;375;0
21;166;1;150;305
21;167;1;150;0
21;168;0;0;0
22;1;1;150;305
22;2;1;150;55.695
22;3;1;150;0
22;4;1;150;0
22;5;1;150;0
22;6;1;150;0
22;7;1;201.8;0
22;8;1;150;201.992
22;9;1;259.681;115.319
22;10;1;150;305
22;11;1;375;0
22;12;1;375;0
22;13;1;150;208.646
22;14;1;150;36.24
22;15;1;375;0
22;16;1;150;0
22;17;1;375;0
22;18;1;455;0
22;19;1;455;0
22;20;1;455;0
22;21;1;455;0
22;22;1;455;0
22;23;1;455;0
22;24;1;455;0
22;25;1;455;0
22;26;1;375;80
22;27;1;150;305
22;28;1;375;0
22;29;1;150;305
22;30;1;375;0
22;31;1;150;305
22;32;1;375;0
22;33;1;455;0
22;34;1;341.779;113.221
22;35;1;230;223.646
22;36;1;455;0
22;37;1;455;0
22;38;1;375;0
22;39;1;150;305
22;40;1;375;0
22;41;1;455;0
22;42;1;455;0
22;43;1;455;0
22;44;1;455;0
22;45;1;230;225
22;46;1;455;0
22;47;1;455;0
22;48;1;455;0
22;49;1;455;0
22;50;1;455;0
22;51;1;455;0
22;52;1;455;0
22;53;1;375;0
22;54;1;150;305
22;55;1;150;225
22;56;1;279.92;95.08
22;57;1;449.485;5.515
22;58;1;224.485;230.515
22;59;1;230;219.485
22;60;1;230;225
22;61;1;455;0
22;62;1;455;0
22;63;1;455;0
22;64;1;455;0
22;65;1;230;225
22;66;1;455;0
22;67;1;455;0
22;68;1;455;0
22;69;1;455;0
22;70;1;455;0
22;71;1;455;0
22;72;1;455;0
22;73;1;375;80
22;74;1;150;305
22;75;1;150;0
22;76;1;150;225
22;77;1;150;225
22;78;1;150;0
22;79;1;375;0
22;80;1;455;0
22;81;1;455;0
22;82;1;230;225
22;83;1;455;0
22;84;1;455;0
22;85;1;455;0
22;86;1;455;0
22;87;1;455;0
22;88;1;455;0
22;89;1;455;0
22;90;1;230;225
22;91;1;455;0
22;92;1;455;0
22;93;1;230;225
22;94;1;455;0
22;95;1;230;225
22;96;1;230;225
22;97;1;150;305
22;98;1;150;0
22;99;1;150;0
22;100;1;150;0
22;101;1;150;0
22;102;1;150;0
22;103;1;150;0
22;104;1;230;0
22;105;1;336.95;118.05
22;106;1;455;0
22;107;1;455;0
22;108;1;455;0
22;109;1;375;80
22;110;1;150;305
22;111;1;150;225
22;112;1;150;0
22;113;1;310.49;0
22;114;1;455;0
22;115;1;455;0
22;116;1;455;0
22;117;1;375;80
22;118;1;150;305
22;119;1;150;225
22;120;1;150;0
22;121;0;0;0
22;122;0;0;0
22;123;0;0;0
22;124;0;0;0
22;125;0;0;0
22;126;0;0;0
22;127;0;0;0
22;128;0;0;0
22;129;1;150;0
22;130;1;375;0
22;131;1;230;225
22;132;1;230;225
22;133;1;150;305
22;134;1;375;0
22;135;1;375;0
22;136;1;150;0
22;137;1;150;0
22;138;1;150;0
22;139;0;0;0
22;140;0;0;0
22;141;0;0;0
22;142;0;0;0
22;143;0;0;0
22;144;0;0;0
22;145;0;0;0
22;146;0;0;0
22;147;0;0;0
22;148;0;0;0
22;149;0;0;0
22;150;0;0;0
22;151;0;0;0
22;152;0;0;0
22;153;0;0;0
22;154;0;0;0
22;155;0;0;0
22;156;0;0;0
22;157;0;0;0
22;158;0;0;0
22;159;0;0;0
22;160;0;0;0
22;161;0;0;0
22;162;0;0;0
22;163;0;0;0
22;164;0;0;0
22;165;0;0;0
22;166;0;0;0
22;167;0;0;0
22;168;0;0;0
23;1;1;204.13;0
23;2;1;356.95;0
23;3;1;375;0
23;4;1;150;305
23;5;1;150;0
23;6;1;150;0
23;7;1;150;0
23;8;1;219.92;0
23;9;1;444.92;0
23;10;1;455;0
23;11;1;455;0
23;12;1;455;0
23;13;1;375;80
23;14;1;150;305
23;15;1;150;225
23;16;1;375;0
23;17;1;325.49;0
23;18;1;455;0
23;19;1;455;0
23;20;1;455;0
23;21;1;230;225
23;22;1;455;0
23;23;1;455;0
23;24;1;455;0
23;25;1;455;0
23;26;1;455;0
23;27;1;455;0
23;28;1;281.8;173.2
23;29;1;375;0
23;30;1;150;305
23;31;1;150;67.18
23;32;1;230;145
23;33;1;230;225
23;34;1;230;225
23;35;1;455;0
23;36;1;455;0
23;37;1;455;0
23;38;1;455;0
23;39;1;455;0
23;40;1;455;0
23;41;1;455;0
23;42;1;455;0
23;43;1;455;0
23;44;1;455;0
23;45;1;455;0
23;46;1;455;0
23;47;1;455;0
23;48;1;419.85;34.022
23;49;1;455;0
23;50;1;375;0
23;51;1;150;305
23;52;1;150;225
23;53;1;150;225
23;54;1;230;145
23;55;1;455;0
23;56;1;455;0
23;57;1;230;225
23;58;1;455;0
23;59;1;230;225
23;60;1;150;305
23;61;1;375;0
23;62;1;375;0
23;63;1;150;305
23;64;1;375;0
23;65;1;390.49;0
23;66;1;455;0
23;67;1;230;225
23;68;1;455;0
23;69;1;230;225
23;70;1;455;0
23;71;1;230;225
23;72;1;150;305
23;73;1;150;225
23;74;1;150;0
23;75;0;0;0
23;76;0;0;0
23;77;0;0;0
23;78;0;0;0
23;79;0;0;0
23;80;0;0;0
23;81;0;0;0
23;82;0;0;0
23;83;0;0;0
23;84;0;0;0
23;85;0;0;0
23;86;0;0;0
23;87;0;0;0
23;88;1;150;0
23;89;1;230;145
23;90;1;455;0
23;91;1;455;0
23;92;1;230;225
23;93;1;455;0
23;94;1;455;0
23;95;1;375;80
23;96;1;150;0
23;97;0;0;0
23;98;0;0;0
23;99;0;0;0
23;100;0;0;0
23;101;0;0;0
23;102;0;0;0
23;103;0;0;0
23;104;0;0;0
23;105;1;150;0
23;106;1;375;0
23;107;1;440.106;0
23;108;1;215.106;239.894
23;109;1;440.106;0
23;110;1;455;0
23;111;1;455;0
23;112;1;455;0
23;113;1;455;0
23;114;1;455;0
23;115;1;455;0
23;116;1;455;0
23;117;1;455;0
23;118;1;455;0
23;119;1;455;0
23;120;1;389.242;0
23;121;1;208.304;23.33
23;122;1;150;0
23;123;0;0;0
23;124;0;0;0
23;125;0;0;0
23;126;0;0;0
23;127;0;0;0
23;128;0;0;0
23;129;0;0;0
23;130;0;0;0
23;131;0;0;0
23;132;0;0;0
23;133;0;0;0
23;134;0;0;0
23;135;0;0;0
23;136;1;150;0
23;137;1;218.792;0
23;138;1;230;213.792
23;139;1;230;225
23;140;1;455;0
23;141;1;230;225
23;142;1;150;281.218
23;143;1;150;0
23;144;0;0;0
23;145;0;0;0
23;146;0;0;0
23;147;0;0;0
23;148;0;0;0
23;149;0;0;0
23;150;0;0;0
23;151;0;0;0
23;152;1;150;0
23;153;1;150;225
23;154;1;375;0
23;155;1;455;0
23;156;1;230;225
23;157;1;150;305
23;158;1;150;121.992
23;159;1;150;61.326
23;160;1;150;0
23;161;1;230;0
23;162;1;230;225
23;163;1;230;225
23;164;1;230;225
23;165;1;455;0
23;166;1;307.3864;116.871
23;167;1;150;305
23;168;1;375;0
24;1;1;150;0
24;2;1;150;0
24;3;1;150;0
24;4;1;281.8;0
24;5;1;150;0
24;6;1;150;0
24;7;1;150;0
24;8;1;150;0
24;9;1;198.589;0
24;10;1;230;193.589
24;11;1;230;225
24;12;1;455;0
24;13;1;251.46;0
24;14;1;150;305
24;15;1;150;225
24;16;1;150;0
24;17;1;375;0
24;18;1;455;0
24;19;1;455;0
24;20;1;284.136;170.864
24;21;1;455;0
24;22;1;343.948;111.052
24;23;1;230;225
24;24;1;150;305
24;25;1;150;225
24;26;1;150;0
24;27;1;150;0
24;28;1;150;0
24;29;1;150;0
24;30;1;150;0
24;31;1;230;0
24;32;1;455;0
24;33;1;230;225
24;34;1;455;0
24;35;1;455;0
24;36;1;230;225
24;37;1;150;305
24;38;1;375;0
24;39;1;150;305
24;40;1;375;0
24;41;1;230;204.442
24;42;1;280.057;174.943
24;43;1;455;0
24;44;1;455;0
24;45;1;455;0
24;46;1;455;0
24;47;1;455;0
24;48;1;230;225
24;49;1;375;80
24;50;1;150;305
24;51;1;375;0
24;52;1;150;305
24;53;1;375;0
24;54;1;375;0
24;55;1;150;0
24;56;1;375;0
24;57;1;200.196;254.804
24;58;1;425.196;0
24;59;1;455;0
24;60;1;455;0
24;61;1;230;225
24;62;1;455;0
24;63;1;375;0
24;64;1;150;305
24;65;1;230;145
24;66;1;455;0
24;67;1;455;0
24;68;1;455;0
24;69;1;230;77.801
24;70;1;230;225
24;71;1;310.37;144.63
24;72;1;150;0
24;73;0;0;0
24;74;0;0;0
24;75;0;0;0
24;76;0;0;0
24;77;0;0;0
24;78;0;0;0
24;79;0;0;0
24;80;0;0;0
24;81;1;150;0
24;82;1;375;0
24;83;1;230;225
24;84;1;150;305
24;85;1;230;145
24;86;1;455;0
24;87;1;230;225
24;88;1;150;66.507
24;89;1;230;145
24;90;1;455;0
24;91;1;455;0
24;92;1;230;225
24;93;1;230;176.823
24;94;1;455;0
24;95;1;455;0
24;96;1;455;0
24;97;1;339.13;115.87
24;98;1;150;305
24;99;1;150;225
24;100;1;150;0
24;101;1;150;225
24;102;1;150;0
24;103;1;150;0
24;104;1;230;145
24;105;1;455;0
24;106;1;455;0
24;107;1;230;225
24;108;1;455;0
24;109;1;455;0
24;110;1;380.37;0
24;111;1;155.37;0
24;112;1;150;0
24;113;1;230;0
24;114;1;455;0
24;115;1;455;0
24;116;1;230;225
24;117;1;455;0
24;118;1;375;1.572
24;119;1;150;0
24;120;0;0;0
24;121;0;0;0
24;122;0;0;0
24;123;0;0;0
24;124;0;0;0
24;125;0;0;0
24;126;0;0;0
24;127;0;0;0
24;128;1;150;0
24;129;1;375;0
24;130;1;230;225
24;131;1;455;0
24;132;1;455;0
24;133;1;455;0
24;134;1;289.92;121.992
24;135;1;405.296;0
24;136;1;405.296;0
24;137;1;230;0
24;138;1;455;0
24;139;1;455;0
24;140;1;455;0
24;141;1;230;225
24;142;1;455;0
24;143;1;455;0
24;144;1;455;0
24;145;1;455;0
24;146;1;375;0
24;147;1;150;206.357
24;148;1;150;225
24;149;1;150;225
24;150;1;150;225
24;151;1;212.44;162.56
24;152;1;210.6808;226.759
24;153;1;435.6808;0
24;154;1;455;0
24;155;1;230;225
24;156;1;230;225
24;157;1;455;0
24;158;1;455;0
24;159;1;455;0
24;160;1;455;0
24;161;1;455;0
24;162;1;364.5704;0
24;163;1;455;0
24;164;1;390.3088;64.691
24;165;1;230;225
24;166;1;455;0
24;167;1;375;0
24;168;1;150;305
25;1;1;150;0
25;2;1;150;0
25;3;1;150;0
25;4;1;150;0
25;5;1;150;119.774
25;6;1;150;225
25;7;1;150;0
25;8;1;150;0
25;9;1;230;145
25;10;1;455;0
25;11;1;455;0
25;12;1;230;225
25;13;1;150;305
25;14;1;150;225
25;15;1;375;0
25;16;1;150;305
25;17;1;230;145
25;18;1;455;0
25;19;1;455;0
25;20;1;230;225
25;21;1;412.55;42.45
25;22;1;230;225
25;23;1;455;0
25;24;1;230;225
25;25;1;455;0
25;26;1;230;0
25;27;1;150;305
25;28;1;150;0
25;29;1;150;42.514
25;30;1;150;0
25;31;1;150;0
25;32;1;230;0
25;33;1;455;0
25;34;1;230;225
25;35;1;455;0
25;36;1;455;0
25;37;1;455;0
25;38;1;455;0
25;39;1;343.823;111.177
25;40;1;455;0
25;41;1;310.49;0
25;42;1;455;0
25;43;1;455;0
25;44;1;455;0
25;45;1;455;0
25;46;1;230;225
25;47;1;455;0
25;48;1;455;0
25;49;1;455;0
25;50;1;455;0
25;51;1;455;0
25;52;1;230;225
25;53;1;150;305
25;54;1;150;119.774
25;55;1;150;225
25;56;1;150;225
25;57;1;230;145
25;58;1;230;225
25;59;1;455;0
25;60;1;455;0
25;61;1;351.46;88.646
25;62;1;150;305
25;63;1;375;0
25;64;1;150;305
25;65;1;375;0
25;66;1;455;0
25;67;1;455;0
25;68;1;455;0
25;69;1;230;225
25;70;1;455;0
25;71;1;455;0
25;72;1;455;0
25;73;1;455;0
25;74;1;455;0
25;75;1;455;0
25;76;1;346.8;67.18
25;77;1;152.74;0
25;78;1;150;227.74
25;79;1;375;0
25;80;1;199.92;255.08
25;81;1;230;194.92
25;82;1;455;0
25;83;1;455;0
25;84;1;455;0
25;85;1;230;225
25;86;1;455;0
25;87;1;455;0
25;88;1;455;0
25;89;1;455;0
25;90;1;455;0
25;91;1;455;0
25;92;1;455;0
25;93;1;455;0
25;94;1;230;225
25;95;1;455;0
25;96;1;455;0
25;97;1;455;0
25;98;1;455;0
25;99;1;375;0
25;100;1;150;305
25;101;1;150;225
25;102;1;150;0
25;103;1;375;0
25;104;1;150;10.501
25;105;1;375;0
25;106;1;455;0
25;107;1;455;0
25;108;1;455;0
25;109;1;455;0
25;110;1;455;0
25;111;1;455;0
25;112;1;455;0
25;113;1;230;172.349
25;114;1;455;0
25;115;1;455;0
25;116;1;455;0
25;117;1;230;202.305
25;118;1;455;0
25;119;1;455;0
25;120;1;375;80
25;121;1;150;0
25;122;0;0;0
25;123;0;0;0
25;124;0;0;0
25;125;0;0;0
25;126;0;0;0
25;127;0;0;0
25;128;0;0;0
25;129;0;0;0
25;130;0;0;0
25;131;0;0;0
25;132;0;0;0
25;133;0;0;0
25;134;0;0;0
25;135;0;0;0
25;136;0;0;0
25;137;0;0;0
25;138;0;0;0
25;139;0;0;0
25;140;0;0;0
25;141;0;0;0
25;142;0;0;0
25;143;0;0;0
25;144;0;0;0
25;145;0;0;0
25;146;0;0;0
25;147;0;0;0
25;148;0;0;0
25;149;0;0;0
25;150;0;0;0
25;151;0;0;0
25;152;0;0;0
25;153;0;0;0
25;154;0;0;0
25;155;0;0;0
25;156;0;0;0
25;157;0;0;0
25;158;0;0;0
25;159;0;0;0
25;160;0;0;0
25;161;0;0;0
25;162;0;0;0
25;163;0;0;0
25;164;0;0;0
25;165;0;0;0
25;166;0;0;0
25;167;0;0;0
25;168;0;0;0
26;1;1;150;57.913
26;2;1;150;225
26;3;1;150;0
26;4;1;150;0
26;5;1;150;0
26;6;1;232.74;0
26;7;1;455;0
26;8;1;455;0
26;9;1;455;0
26;10;1;455;0
26;11;1;455;0
26;12;1;455;0
26;13;1;455;0
26;14;1;375;0
26;15;1;150;0
26;16;1;367.37;0
26;17;1;230;225
26;18;1;455;0
26;19;1;455;0
26;20;1;455;0
26;21;1;230;154.801
26;22;1;455;0
26;23;1;375;0
26;24;1;150;0
26;25;0;0;0
26;26;0;0;0
26;27;0;0;0
26;28;0;0;0
26;29;0;0;0
26;30;0;0;0
26;31;0;0;0
26;32;0;0;0
26;33;1;150;0
26;34;1;200.621;163.019
26;35;1;425.621;0
26;36;1;455;0
26;37;1;455;0
26;38;1;455;0
26;39;1;375;0
26;40;1;150;305
26;41;1;230;145
26;42;1;455;0
26;43;1;455;0
26;44;1;455;0
26;45;1;455;0
26;46;1;455;0
26;47;1;230;225
26;48;1;455;0
26;49;1;455;0
26;50;1;375;0
26;51;1;150;0
26;52;1;150;0
26;53;1;150;0
26;54;1;150;0
26;55;1;150;0
26;56;1;230;145
26;57;1;455;0
26;58;1;230;218.444
26;59;1;455;0
26;60;1;455;0
26;61;1;375;80
26;62;1;150;68.64
26;63;1;150;0
26;64;1;150;161.537
26;65;1;230;145
26;66;1;455;0
26;67;1;455;0
26;68;1;455;0
26;69;1;455;0
26;70;1;455;0
26;71;1;375;80
26;72;1;150;305
26;73;1;375;0
26;74;1;150;177.645
26;75;1;150;35.446
26;76;1;150;0
26;77;1;150;39.774
26;78;1;150;0
26;79;1;150;0
26;80;1;150;0
26;81;1;278.589;0
26;82;1;455;0
26;83;1;455;0
26;84;1;248.49;206.51
26;85;1;375;80
26;86;1;150;121.24
26;87;1;375;0
26;88;1;150;0
26;89;1;230;145
26;90;1;455;0
26;91;1;455;0
26;92;1;455;0
26;93;1;375;0
26;94;1;150;0
26;95;0;0;0
26;96;0;0;0
26;97;0;0;0
26;98;0;0;0
26;99;0;0;0
26;100;0;0;0
26;101;0;0;0
26;102;0;0;0
26;103;0;0;0
26;104;1;150;0
26;105;1;375;0
26;106;1;455;0
26;107;1;455;0
26;108;1;455;0
26;109;1;455;0
26;110;1;455;0
26;111;1;455;0
26;112;1;455;0
26;113;1;455;0
26;114;1;270.057;184.943
26;115;1;230;225
26;116;1;230;225
26;117;1;247.55;207.45
26;118;1;375;80
26;119;1;150;0
26;120;0;0;0
26;121;0;0;0
26;122;0;0;0
26;123;0;0;0
26;124;0;0;0
26;125;0;0;0
26;126;0;0;0
26;127;0;0;0
26;128;0;0;0
26;129;1;150;0
26;130;1;375;0
26;131;1;455;0
26;132;1;455;0
26;133;1;429.168;0
26;134;1;455;0
26;135;1;455;0
26;136;1;230;111.03
26;137;1;455;0
26;138;1;449.5704;0
26;139;1;375;12.776
26;140;1;150;0
26;141;0;0;0
26;142;0;0;0
26;143;0;0;0
26;144;0;0;0
26;145;0;0;0
26;146;0;0;0
26;147;0;0;0
26;148;0;0;0
26;149;0;0;0
26;150;0;0;0
26;151;0;0;0
26;152;1;150;0
26;153;1;361.8712;0
26;154;1;411.912;0
26;155;1;230;223.917
26;156;1;455;0
26;157;1;455;0
26;158;1;434.92;0
26;159;1;455;0
26;160;1;367.5336;0
26;161;1;230;225
26;162;1;455;0
26;163;1;230;225
26;164;1;455;0
26;165;1;230;225
26;166;1;455;0
26;167;1;455;0
26;168;1;230;56.218
27;1;1;150;0
27;2;0;0;0
27;3;0;0;0
27;4;0;0;0
27;5;0;0;0
27;6;0;0;0
27;7;0;0;0
27;8;0;0;0
27;9;0;0;0
27;10;1;150;0
27;11;1;150;225
27;12;1;373.49;0
27;13;1;455;0
27;14;1;455;0
27;15;1;230;225
27;16;1;150;305
27;17;1;375;0
27;18;1;455;0
27;19;1;455;0
27;20;1;455;0
27;21;1;455;0
27;22;1;230;225
27;23;1;230;225
27;24;1;345.22;109.78
27;25;1;259.13;195.87
27;26;1;150;305
27;27;1;150;0
27;28;1;150;0
27;29;1;150;0
27;30;1;150;0
27;31;1;375;0
27;32;1;150;186.912
27;33;1;259.601;115.399
27;34;1;455;0
27;35;1;230;225
27;36;1;455;0
27;37;1;455;0
27;38;1;455;0
27;39;1;422.907;0
27;40;1;197.907;257.093
27;41;1;230;192.907
27;42;1;455;0
27;43;1;455;0
27;44;1;364.136;90.864
27;45;1;230;225
27;46;1;230;225
27;47;1;455;0
27;48;1;230;225
27;49;1;150;305
27;50;1;150;32.645
27;51;1;150;0
27;52;1;150;0
27;53;1;150;0
27;54;1;150;0
27;55;1;150;147.18
27;56;1;150;0
27;57;1;230;145
27;58;1;455;0
27;59;1;455;0
27;60;1;455;0
27;61;1;455;0
27;62;1;455;0
27;63;1;230;212.907
27;64;1;455;0
27;65;1;455;0
27;66;1;455;0
27;67;1;455;0
27;68;1;455;0
27;69;1;455;0
27;70;1;455;0
27;71;1;455;0
27;72;1;392.307;0
27;73;1;455;0
27;74;1;375;0
27;75;1;150;0
27;76;1;150;225
27;77;1;150;225
27;78;1;150;0
27;79;1;150;225
27;80;1;375;0
27;81;1;244.601;210.399
27;82;1;276.779;178.221
27;83;1;455;0
27;84;1;455;0
27;85;1;271.46;168.646
27;86;1;455;0
27;87;1;425.063;29.937
27;88;1;455;0
27;89;1;455;0
27;90;1;230;225
27;91;1;455;0
27;92;1;284.136;170.864
27;93;1;455;0
27;94;1;235.52;219.48
27;95;1;310.37;144.63
27;96;1;150;305
27;97;1;150;225
27;98;1;150;0
27;99;1;150;0
27;100;1;150;225
27;101;1;150;119.774
27;102;1;150;0
27;103;1;150;225
27;104;1;375;0
27;105;1;375;80
27;106;1;150;305
27;107;1;375;0
27;108;1;455;0
27;109;1;455;0
27;110;1;375;80
27;111;1;150;305
27;112;1;150;225
27;113;1;230;145
27;114;1;455;0
27;115;1;455;0
27;116;1;455;0
27;117;1;455;0
27;118;1;455;0
27;119;1;455;0
27;120;1;230;225
27;121;1;150;0
27;122;1;150;225
27;123;1;150;225
27;124;1;150;0
27;125;1;150;225
27;126;1;150;225
27;127;1;150;0
27;128;1;150;225
27;129;1;197.552;177.448
27;130;1;150;272.552
27;131;1;375;0
27;132;1;453.6712;0
27;133;1;455;0
27;134;1;375;0
27;135;1;150;305
27;136;1;150;225
27;137;1;230;145
27;138;1;230;225
27;139;1;230;225
27;140;1;150;305
27;141;1;375;0
27;142;1;455;0
27;143;1;245.296;209.704
27;144;1;297.176;157.824
27;145;1;150;305
27;146;1;150;225
27;147;1;375;0
27;148;1;150;207.744
27;149;1;150;0
27;150;1;150;29.011
27;151;1;150;225
27;152;1;210.2552;104.834
27;153;1;230;205.255
27;154;1;230;225
27;155;1;455;0
27;156;1;453.6712;0
27;157;1;455;0
27;158;1;455;0
27;159;1;260.296;194.704
27;160;1;448.792;0
27;161;1;223.792;231.208
27;162;1;230;218.792
27;163;1;455;0
27;164;1;455;0
27;165;1;455;0
27;166;1;455;0
27;167;1;405.296;0
27;168;1;455;0
28;1;1;150;305
28;2;1;150;0
28;3;1;150;0
28;4;1;150;0
28;5;1;150;0
28;6;1;150;0
28;7;1;150;0
28;8;1;150;225
28;9;1;375;0
28;10;1;455;0
28;11;1;230;225
28;12;1;455;0
28;13;1;455;0
28;14;1;455;0
28;15;1;272.463;182.537
28;16;1;150;0
28;17;1;375;0
28;18;1;455;0
28;19;1;455;0
28;20;1;455;0
28;21;1;230;225
28;22;1;455;0
28;23;1;265.37;42.537
28;24;1;150;294.242
28;25;1;150;225
28;26;1;150;225
28;27;1;150;0
28;28;1;375;0
28;29;1;150;0
28;30;1;150;0
28;31;1;150;225
28;32;1;150;0
28;33;1;343.589;0
28;34;1;455;0
28;35;1;455;0
28;36;1;455;0
28;37;1;351.46;88.646
28;38;1;150;305
28;39;1;375;0
28;40;1;150;166.444
28;41;1;375;0
28;42;1;455;0
28;43;1;455;0
28;44;1;455;0
28;45;1;455;0
28;46;1;230;225
28;47;1;455;0
28;48;1;230;225
28;49;1;150;305
28;50;1;150;225
28;51;1;150;225
28;52;1;307.82;67.18
28;53;1;150;0
28;54;1;150;0
28;55;1;150;0
28;56;1;230;145
28;57;1;455;0
28;58;1;455;0
28;59;1;455;0
28;60;1;248.49;206.51
28;61;1;150;305
28;62;1;150;225
28;63;1;150;225
28;64;1;150;0
28;65;1;375;0
28;66;1;455;0
28;67;1;455;0
28;68;1;230;225
28;69;1;455;0
28;70;1;235.52;219.48
28;71;1;455;0
28;72;1;375;80
28;73;1;150;305
28;74;1;150;0
28;75;1;235.86;139.14
28;76;1;375;0
28;77;1;150;305
28;78;1;150;0
28;79;1;150;225
28;80;1;230;145
28;81;1;455;0
28;82;1;230;225
28;83;1;455;0
28;84;1;455;0
28;85;1;455;0
28;86;1;455;0
28;87;1;375;0
28;88;1;150;305
28;89;1;230;145
28;90;1;455;0
28;91;1;455;0
28;92;1;455;0
28;93;1;455;0
28;94;1;455;0
28;95;1;455;0
28;96;1;389.242;0
28;97;1;375;0
28;98;1;150;305
28;99;1;375;0
28;100;1;150;292.18
28;101;1;375;0
28;102;1;150;305
28;103;1;150;0
28;104;1;150;225
28;105;1;375;0
28;106;1;447.4;0
28;107;1;455;0
28;108;1;455;0
28;109;1;455;0
28;110;1;230;203.27
28;111;1;150;305
28;112;1;230;145
28;113;1;455;0
28;114;1;455;0
28;115;1;455;0
28;116;1;455;0
28;117;1;455;0
28;118;1;230;225
28;119;1;290.37;164.63
28;120;1;375;80
28;121;1;150;0
28;122;1;150;225
28;123;1;150;225
28;124;1;150;0
28;125;1;150;0
28;126;1;150;0
28;127;1;150;225
28;128;1;177.8072;197.193
28;129;1;230;172.807
28;130;1;455;0
28;131;1;269.168;185.832
28;132;1;213.9168;241.083
28;133;1;150;288.917
28;134;1;150;225
28;135;1;375;0
28;136;1;455;0
28;137;1;455;0
28;138;1;266.2136;188.786
28;139;1;230;225
28;140;1;455;0
28;141;1;455;0
28;142;1;455;0
28;143;1;455;0
28;144;1;230;225
28;145;1;283.304;171.696
28;146;1;150;0
28;147;0;0;0
28;148;0;0;0
28;149;0;0;0
28;150;0;0;0
28;151;0;0;0
28;152;0;0;0
28;153;0;0;0
28;154;0;0;0
28;155;0;0;0
28;156;0;0;0
28;157;0;0;0
28;158;0;0;0
28;159;0;0;0
28;160;1;150;0
28;161;1;375;0
28;162;1;230;225
28;163;1;288.384;166.616
28;164;1;455;0
28;165;1;230;225
28;166;1;181.0296;273.97
28;167;1;150;256.03
28;168;1;152.176;0
29;1;0;0;0
29;2;0;0;0
29;3;0;0;0
29;4;0;0;0
29;5;0;0;0
29;6;0;0;0
29;7;0;0;0
29;8;0;0;0
29;9;0;0;0
29;10;0;0;0
29;11;0;0;0
29;12;0;0;0
29;13;0;0;0
29;14;0;0;0
29;15;1;20;0
29;16;1;70;0
29;17;1;120;0
29;18;1;120;10
29;19;1;70;60
29;20;1;20;0
29;21;0;0;0
29;22;0;0;0
29;23;0;0;0
29;24;0;0;0
29;25;0;0;0
29;26;0;0;0
29;27;0;0;0
29;28;0;0;0
29;29;0;0;0
29;30;0;0;0
29;31;0;0;0
29;32;0;0;0
29;33;0;0;0
29;34;0;0;0
29;35;0;0;0
29;36;0;0;0
29;37;0;0;0
29;38;0;0;0
29;39;1;20;0
29;40;1;70;0
29;41;1;120;0
29;42;1;120;10
29;43;1;70;60
29;44;1;20;0
29;45;0;0;0
29;46;0;0;0
29;47;0;0;0
29;48;0;0;0
29;49;0;0;0
29;50;0;0;0
29;51;0;0;0
29;52;0;0;0
29;53;0;0;0
29;54;0;0;0
29;55;0;0;0
29;56;0;0;0
29;57;0;0;0
29;58;0;0;0
29;59;0;0;0
29;60;0;0;0
29;61;0;0;0
29;62;0;0;0
29;63;1;20;0
29;64;1;70;0
29;65;1;120;0
29;66;1;120;10
29;67;1;70;60
29;68;1;20;0
29;69;0;0;0
29;70;0;0;0
29;71;0;0;0
29;72;0;0;0
29;73;0;0;0
29;74;0;0;0
29;75;0;0;0
29;76;0;0;0
29;77;0;0;0
29;78;0;0;0
29;79;0;0;0
29;80;0;0;0
29;81;0;0;0
29;82;0;0;0
29;83;0;0;0
29;84;0;0;0
29;85;0;0;0
29;86;0;0;0
29;87;1;20;0
29;88;1;70;0
29;89;1;120;0
29;90;1;120;10
29;91;1;70;60
29;92;1;20;0
29;93;0;0;0
29;94;0;0;0
29;95;0;0;0
29;96;0;0;0
29;97;0;0;0
29;98;0;0;0
29;99;0;0;0
29;100;0;0;0
29;101;0;0;0
29;102;0;0;0
29;103;0;0;0
29;104;0;0;0
29;105;0;0;0
29;106;0;0;0
29;107;0;0;0
29;108;0;0;0
29;109;0;0;0
29;110;0;0;0
29;111;1;20;0
29;112;1;70;0
29;113;1;120;0
29;114;1;130;0
29;115;1;120;10
29;116;1;70;60
29;117;1;20;0
29;118;0;0;0
29;119;0;0;0
29;120;0;0;0
29;121;0;0;0
29;122;0;0;0
29;123;0;0;0
29;124;0;0;0
29;125;0;0;0
29;126;0;0;0
29;127;0;0;0
29;128;0;0;0
29;129;0;0;0
29;130;0;0;0
29;131;0;0;0
29;132;0;0;0
29;133;0;0;0
29;134;0;0;0
29;135;0;0;0
29;136;0;0;0
29;137;0;0;0
29;138;0;0;0
29;139;0;0;0
29;140;0;0;0
29;141;0;0;0
29;142;0;0;0
29;143;0;0;0
29;144;0;0;0
29;145;0;0;0
29;146;0;0;0
29;147;0;0;0
29;148;0;0;0
29;149;0;0;0
29;150;0;0;0
29;151;0;0;0
29;152;0;0;0
29;153;0;0;0
29;154;0;0;0
29;155;0;0;0
29;156;0;0;0
29;157;0;0;0
29;158;0;0;0
29;159;0;0;0
29;160;0;0;0
29;161;0;0;0
29;162;0;0;0
29;163;0;0;0
29;164;0;0;0
29;165;0;0;0
29;166;0;0;0
29;167;0;0;0
29;168;0;0;0
30;1;0;0;0
30;2;0;0;0
30;3;0;0;0
30;4;0;0;0
30;5;0;0;0
30;6;0;0;0
30;7;0;0;0
30;8;0;0;0
30;9;0;0;0
30;10;0;0;0
30;11;0;0;0
30;12;0;0;0
30;13;0;0;0
30;14;0;0;0
30;15;1;20;0
30;16;1;70;0
30;17;1;120;0
30;18;1;120;10
30;19;1;70;60
30;20;1;20;0
30;21;0;0;0
30;22;0;0;0
30;23;0;0;0
30;24;0;0;0
30;25;0;0;0
30;26;0;0;0
30;27;0;0;0
30;28;0;0;0
30;29;0;0;0
30;30;0;0;0
30;31;0;0;0
30;32;0;0;0
30;33;0;0;0
30;34;0;0;0
30;35;0;0;0
30;36;0;0;0
30;37;0;0;0
30;38;0;0;0
30;39;1;20;0
30;40;1;70;0
30;41;1;120;0
30;42;1;120;10
30;43;1;70;60
30;44;1;20;0
30;45;0;0;0
30;46;0;0;0
30;47;0;0;0
30;48;0;0;0
30;49;0;0;0
30;50;0;0;0
30;51;0;0;0
30;52;0;0;0
30;53;0;0;0
30;54;0;0;0
30;55;0;0;0
30;56;0;0;0
30;57;0;0;0
30;58;0;0;0
30;59;0;0;0
30;60;0;0;0
30;61;0;0;0
30;62;0;0;0
30;63;1;20;0
30;64;1;70;0
30;65;1;120;0
30;66;1;120;10
30;67;1;70;60
30;68;1;20;0
30;69;0;0;0
30;70;0;0;0
30;71;0;0;0
30;72;0;0;0
30;73;0;0;0
30;74;0;0;0
30;75;0;0;0
30;76;0;0;0
30;77;0;0;0
30;78;0;0;0
30;79;0;0;0
30;80;0;0;0
30;81;0;0;0
30;82;0;0;0
30;83;0;0;0
30;84;0;0;0
30;85;0;0;0
30;86;0;0;0
30;87;1;20;0
30;88;1;70;0
30;89;1;120;0
30;90;1;120;10
30;91;1;70;60
30;92;1;20;0
30;93;0;0;0
30;94;0;0;0
30;95;0;0;0
30;96;0;0;0
30;97;0;0;0
30;98;0;0;0
30;99;0;0;0
30;100;0;0;0
30;101;0;0;0
30;102;0;0;0
30;103;0;0;0
30;104;0;0;0
30;105;0;0;0
30;106;0;0;0
30;107;0;0;0
30;108;0;0;0
30;109;0;0;0
30;110;0;0;0
30;111;1;20;0
30;112;1;70;0
30;113;1;120;0
30;114;1;120;10
30;115;1;70;60
30;116;1;20;0
30;117;0;0;0
30;118;0;0;0
30;119;0;0;0
30;120;0;0;0
30;121;0;0;0
30;122;0;0;0
30;123;0;0;0
30;124;0;0;0
30;125;0;0;0
30;126;0;0;0
30;127;0;0;0
30;128;0;0;0
30;129;0;0;0
30;130;0;0;0
30;131;0;0;0
30;132;0;0;0
30;133;0;0;0
30;134;0;0;0
30;135;0;0;0
30;136;0;0;0
30;137;0;0;0
30;138;0;0;0
30;139;0;0;0
30;140;0;0;0
30;141;0;0;0
30;142;0;0;0
30;143;0;0;0
30;144;0;0;0
30;145;0;0;0
30;146;0;0;0
30;147;0;0;0
30;148;0;0;0
30;149;0;0;0
30;150;0;0;0
30;151;0;0;0
30;152;0;0;0
30;153;0;0;0
30;154;0;0;0
30;155;0;0;0
30;156;0;0;0
30;157;0;0;0
30;158;0;0;0
30;159;0;0;0
30;160;0;0;0
30;161;0;0;0
30;162;0;0;0
30;163;0;0;0
30;164;0;0;0
30;165;0;0;0
30;166;0;0;0
30;167;0;0;0
30;168;0;0;0
31;1;0;0;0
31;2;0;0;0
31;3;0;0;0
31;4;0;0;0
31;5;0;0;0
31;6;0;0;0
31;7;0;0;0
31;8;0;0;0
31;9;0;0;0
31;10;0;0;0
31;11;0;0;0
31;12;0;0;0
31;13;0;0;0
31;14;0;0;0
31;15;1;25;0
31;16;1;42;43
31;17;1;102;0
31;18;1;42;120
31;19;1;102;0
31;20;1;42;120
31;21;1;25;0
31;22;0;0;0
31;23;0;0;0
31;24;0;0;0
31;25;0;0;0
31;26;0;0;0
31;27;0;0;0
31;28;0;0;0
31;29;0;0;0
31;30;0;0;0
31;31;0;0;0
31;32;0;0;0
31;33;0;0;0
31;34;0;0;0
31;35;0;0;0
31;36;0;0;0
31;37;0;0;0
31;38;0;0;0
31;39;1;25;0
31;40;1;42;43
31;41;1;102;0
31;42;1;86.97;75.03
31;43;1;92.504;54.466
31;44;1;32.504;120
31;45;1;81.572;10.932
31;46;1;25;116.572
31;47;1;25;0
31;48;0;0;0
31;49;0;0;0
31;50;0;0;0
31;51;0;0;0
31;52;0;0;0
31;53;0;0;0
31;54;0;0;0
31;55;0;0;0
31;56;0;0;0
31;57;0;0;0
31;58;1;25;0
31;59;1;25;0
31;60;1;25;60
31;61;1;25;60
31;62;1;25;60
31;63;1;25;60
31;64;1;42;43
31;65;1;102;0
31;66;1;69.97;92.03
31;67;1;85;44.97
31;68;1;25;120
31;69;1;25;0
31;70;0;0;0
31;71;0;0;0
31;72;0;0;0
31;73;0;0;0
31;74;0;0;0
31;75;0;0;0
31;76;0;0;0
31;77;0;0;0
31;78;0;0;0
31;79;0;0;0
31;80;0;0;0
31;81;0;0;0
31;82;0;0;0
31;83;0;0;0
31;84;0;0;0
31;85;0;0;0
31;86;0;0;0
31;87;1;25;0
31;88;1;42;43
31;89;1;102;0
31;90;1;102;60
31;91;1;85;77
31;92;1;25;120
31;93;1;25;0
31;94;0;0;0
31;95;0;0;0
31;96;0;0;0
31;97;0;0;0
31;98;0;0;0
31;99;0;0;0
31;100;0;0;0
31;101;0;0;0
31;102;0;0;0
31;103;0;0;0
31;104;0;0;0
31;105;0;0;0
31;106;0;0;0
31;107;0;0;0
31;108;0;0;0
31;109;0;0;0
31;110;0;0;0
31;111;1;25;0
31;112;1;42;43
31;113;1;102;0
31;114;1;42;120
31;115;1;85;17
31;116;1;25;120
31;117;1;25;0
31;118;0;0;0
31;119;0;0;0
31;120;0;0;0
31;121;0;0;0
31;122;0;0;0
31;123;0;0;0
31;124;0;0;0
31;125;0;0;0
31;126;0;0;0
31;127;0;0;0
31;128;0;0;0
31;129;0;0;0
31;130;0;0;0
31;131;0;0;0
31;132;0;0;0
31;133;0;0;0
31;134;0;0;0
31;135;0;0;0
31;136;0;0;0
31;137;0;0;0
31;138;0;0;0
31;139;0;0;0
31;140;0;0;0
31;141;0;0;0
31;142;0;0;0
31;143;0;0;0
31;144;0;0;0
31;145;0;0;0
31;146;0;0;0
31;147;0;0;0
31;148;0;0;0
31;149;0;0;0
31;150;0;0;0
31;151;0;0;0
31;152;0;0;0
31;153;0;0;0
31;154;0;0;0
31;155;0;0;0
31;156;0;0;0
31;157;0;0;0
31;158;0;0;0
31;159;0;0;0
31;160;0;0;0
31;161;0;0;0
31;162;0;0;0
31;163;0;0;0
31;164;0;0;0
31;165;0;0;0
31;166;0;0;0
31;167;0;0;0
31;168;0;0;0
32;1;0;0;0
32;2;0;0;0
32;3;0;0;0
32;4;0;0;0
32;5;0;0;0
32;6;0;0;0
32;7;0;0;0
32;8;0;0;0
32;9;0;0;0
32;10;0;0;0
32;11;0;0;0
32;12;0;0;0
32;13;0;0;0
32;14;0;0;0
32;15;1;25;0
32;16;1;42;0
32;17;1;102;0
32;18;1;86.97;75.03
32;19;1;92.504;54.466
32;20;1;32.504;120
32;21;1;25;67.504
32;22;1;25;60
32;23;1;25;60
32;24;1;25;0
32;25;0;0;0
32;26;0;0;0
32;27;0;0;0
32;28;0;0;0
32;29;0;0;0
32;30;0;0;0
32;31;0;0;0
32;32;0;0;0
32;33;0;0;0
32;34;1;25;0
32;35;1;80.839;0
32;36;1;25;115.839
32;37;1;25;60
32;38;1;25;60
32;39;1;25;0
32;40;1;42;43
32;41;1;102;0
32;42;1;85;77
32;43;1;25;120
32;44;1;25;0
32;45;0;0;0
32;46;0;0;0
32;47;0;0;0
32;48;0;0;0
32;49;0;0;0
32;50;0;0;0
32;51;0;0;0
32;52;0;0;0
32;53;0;0;0
32;54;0;0;0
32;55;0;0;0
32;56;0;0;0
32;57;0;0;0
32;58;0;0;0
32;59;0;0;0
32;60;0;0;0
32;61;0;0;0
32;62;0;0;0
32;63;1;25;0
32;64;1;42;0
32;65;1;102;0
32;66;1;42;120
32;67;1;25;77
32;68;1;25;0
32;69;0;0;0
32;70;0;0;0
32;71;0;0;0
32;72;0;0;0
32;73;0;0;0
32;74;0;0;0
32;75;0;0;0
32;76;0;0;0
32;77;0;0;0
32;78;0;0;0
32;79;0;0;0
32;80;0;0;0
32;81;0;0;0
32;82;0;0;0
32;83;0;0;0
32;84;0;0;0
32;85;0;0;0
32;86;0;0;0
32;87;1;25;0
32;88;1;42;0
32;89;1;102;0
32;90;1;42;120
32;91;1;92.504;9.496
32;92;1;32.504;120
32;93;1;81.572;10.932
32;94;1;25;116.572
32;95;1;25;0
32;96;0;0;0
32;97;0;0;0
32;98;0;0;0
32;99;0;0;0
32;100;0;0;0
32;101;0;0;0
32;102;0;0;0
32;103;0;0;0
32;104;0;0;0
32;105;0;0;0
32;106;1;25;0
32;107;1;25;60
32;108;1;25;60
32;109;1;25;60
32;110;1;25;60
32;111;1;25;0
32;112;1;42;0
32;113;1;102;0
32;114;1;86.97;75.03
32;115;1;26.97;120
32;116;1;25;61.97
32;117;1;25;0
32;118;0;0;0
32;119;0;0;0
32;120;0;0;0
32;121;0;0;0
32;122;0;0;0
32;123;0;0;0
32;124;0;0;0
32;125;0;0;0
32;126;0;0;0
32;127;0;0;0
32;128;0;0;0
32;129;0;0;0
32;130;0;0;0
32;131;0;0;0
32;132;0;0;0
32;133;0;0;0
32;134;0;0;0
32;135;0;0;0
32;136;0;0;0
32;137;0;0;0
32;138;0;0;0
32;139;0;0;0
32;140;0;0;0
32;141;0;0;0
32;142;0;0;0
32;143;0;0;0
32;144;0;0;0
32;145;0;0;0
32;146;0;0;0
32;147;0;0;0
32;148;0;0;0
32;149;0;0;0
32;150;0;0;0
32;151;0;0;0
32;152;0;0;0
32;153;0;0;0
32;154;0;0;0
32;155;0;0;0
32;156;0;0;0
32;157;0;0;0
32;158;0;0;0
32;159;0;0;0
32;160;0;0;0
32;161;0;0;0
32;162;0;0;0
32;163;0;0;0
32;164;0;0;0
32;165;0;0;0
32;166;0;0;0
32;167;0;0;0
32;168;0;0;0
33;1;0;0;0
33;2;0;0;0
33;3;0;0;0
33;4;0;0;0
33;5;0;0;0
33;6;0;0;0
33;7;0;0;0
33;8;0;0;0
33;9;0;0;0
33;10;0;0;0
33;11;0;0;0
33;12;0;0;0
33;13;0;0;0
33;14;0;0;0
33;15;1;25;0
33;16;1;42;0
33;17;1;102;0
33;18;1;85;77
33;19;1;25;120
33;20;1;25;0
33;21;0;0;0
33;22;0;0;0
33;23;0;0;0
33;24;0;0;0
33;25;0;0;0
33;26;0;0;0
33;27;0;0;0
33;28;0;0;0
33;29;0;0;0
33;30;0;0;0
33;31;0;0;0
33;32;0;0;0
33;33;0;0;0
33;34;0;0;0
33;35;0;0;0
33;36;0;0;0
33;37;0;0;0
33;38;0;0;0
33;39;1;25;0
33;40;1;42;43
33;41;1;102;0
33;42;1;42;120
33;43;1;102;0
33;44;1;42;120
33;45;1;25;77
33;46;1;25;60
33;47;1;25;0
33;48;0;0;0
33;49;0;0;0
33;50;0;0;0
33;51;0;0;0
33;52;0;0;0
33;53;0;0;0
33;54;0;0;0
33;55;0;0;0
33;56;0;0;0
33;57;0;0;0
33;58;1;25;0
33;59;1;80.839;4.161
33;60;1;25;115.839
33;61;1;25;60
33;62;1;25;60
33;63;1;25;60
33;64;1;42;0
33;65;1;102;0
33;66;1;102;60
33;67;1;92.504;69.496
33;68;1;32.504;120
33;69;1;81.572;10.932
33;70;1;25;116.572
33;71;1;25;0
33;72;0;0;0
33;73;0;0;0
33;74;0;0;0
33;75;0;0;0
33;76;0;0;0
33;77;0;0;0
33;78;0;0;0
33;79;0;0;0
33;80;0;0;0
33;81;0;0;0
33;82;0;0;0
33;83;1;25;0
33;84;1;25;60
33;85;1;25;60
33;86;1;25;0
33;87;1;25;0
33;88;1;42;43
33;89;1;102;0
33;90;1;85;77
33;91;1;25;120
33;92;1;25;0
33;93;0;0;0
33;94;0;0;0
33;95;0;0;0
33;96;0;0;0
33;97;0;0;0
33;98;0;0;0
33;99;0;0;0
33;100;0;0;0
33;101;0;0;0
33;102;0;0;0
33;103;0;0;0
33;104;0;0;0
33;105;0;0;0
33;106;0;0;0
33;107;0;0;0
33;108;0;0;0
33;109;0;0;0
33;110;0;0;0
33;111;1;25;0
33;112;1;42;0
33;113;1;102;0
33;114;1;85;77
33;115;1;25;120
33;116;1;25;0
33;117;0;0;0
33;118;0;0;0
33;119;0;0;0
33;120;0;0;0
33;121;0;0;0
33;122;0;0;0
33;123;0;0;0
33;124;0;0;0
33;125;0;0;0
33;126;0;0;0
33;127;0;0;0
33;128;0;0;0
33;129;0;0;0
33;130;0;0;0
33;131;0;0;0
33;132;0;0;0
33;133;0;0;0
33;134;0;0;0
33;135;0;0;0
33;136;0;0;0
33;137;0;0;0
33;138;0;0;0
33;139;0;0;0
33;140;0;0;0
33;141;0;0;0
33;142;0;0;0
33;143;0;0;0
33;144;0;0;0
33;145;0;0;0
33;146;0;0;0
33;147;0;0;0
33;148;0;0;0
33;149;0;0;0
33;150;0;0;0
33;151;0;0;0
33;152;0;0;0
33;153;0;0;0
33;154;0;0;0
33;155;0;0;0
33;156;0;0;0
33;157;0;0;0
33;158;0;0;0
33;159;0;0;0
33;160;0;0;0
33;161;0;0;0
33;162;0;0;0
33;163;0;0;0
33;164;0;0;0
33;165;0;0;0
33;166;0;0;0
33;167;0;0;0
33;168;0;0;0
34;1;0;0;0
34;2;0;0;0
34;3;0;0;0
34;4;0;0;0
34;5;0;0;0
34;6;0;0;0
34;7;0;0;0
34;8;0;0;0
34;9;0;0;0
34;10;0;0;0
34;11;0;0;0
34;12;0;0;0
34;13;0;0;0
34;14;0;0;0
34;15;1;25;0
34;16;1;42;43
34;17;1;102;0
34;18;1;102;60
34;19;1;85;77
34;20;1;25;120
34;21;1;25;0
34;22;0;0;0
34;23;0;0;0
34;24;0;0;0
34;25;0;0;0
34;26;0;0;0
34;27;0;0;0
34;28;0;0;0
34;29;0;0;0
34;30;0;0;0
34;31;0;0;0
34;32;0;0;0
34;33;0;0;0
34;34;0;0;0
34;35;1;25;0
34;36;1;25;60
34;37;1;25;60
34;38;1;25;60
34;39;1;25;60
34;40;1;42;0
34;41;1;102;0
34;42;1;102;60
34;43;1;85;77
34;44;1;25;120
34;45;1;25;0
34;46;0;0;0
34;47;0;0;0
34;48;0;0;0
34;49;0;0;0
34;50;0;0;0
34;51;0;0;0
34;52;0;0;0
34;53;0;0;0
34;54;0;0;0
34;55;0;0;0
34;56;0;0;0
34;57;0;0;0
34;58;0;0;0
34;59;0;0;0
34;60;0;0;0
34;61;0;0;0
34;62;0;0;0
34;63;1;25;0
34;64;1;42;43
34;65;1;102;0
34;66;1;102;60
34;67;1;102;60
34;68;1;42;120
34;69;1;25;77
34;70;1;25;60
34;71;1;25;0
34;72;0;0;0
34;73;0;0;0
34;74;0;0;0
34;75;0;0;0
34;76;0;0;0
34;77;0;0;0
34;78;0;0;0
34;79;0;0;0
34;80;0;0;0
34;81;0;0;0
34;82;1;25;0
34;83;1;80.839;4.161
34;84;1;25;115.839
34;85;1;25;60
34;86;1;25;60
34;87;1;25;0
34;88;1;42;0
34;89;1;102;0
34;90;1;86.97;75.03
34;91;1;102;44.97
34;92;1;42;120
34;93;1;25;77
34;94;1;25;60
34;95;1;25;0
34;96;0;0;0
34;97;0;0;0
34;98;0;0;0
34;99;0;0;0
34;100;0;0;0
34;101;0;0;0
34;102;0;0;0
34;103;0;0;0
34;104;0;0;0
34;105;0;0;0
34;106;1;25;0
34;107;1;80.839;4.161
34;108;1;25;115.839
34;109;1;25;60
34;110;1;25;0
34;111;1;25;0
34;112;1;42;43
34;113;1;102;0
34;114;1;102;60
34;115;1;57.534;104.466
34;116;1;25;92.534
34;117;1;25;0
34;118;0;0;0
34;119;0;0;0
34;120;0;0;0
34;121;0;0;0
34;122;0;0;0
34;123;0;0;0
34;124;0;0;0
34;125;0;0;0
34;126;0;0;0
34;127;0;0;0
34;128;0;0;0
34;129;0;0;0
34;130;0;0;0
34;131;0;0;0
34;132;0;0;0
34;133;0;0;0
34;134;0;0;0
34;135;0;0;0
34;136;0;0;0
34;137;0;0;0
34;138;0;0;0
34;139;0;0;0
34;140;0;0;0
34;141;0;0;0
34;142;0;0;0
34;143;0;0;0
34;144;0;0;0
34;145;0;0;0
34;146;0;0;0
34;147;0;0;0
34;148;0;0;0
34;149;0;0;0
34;150;0;0;0
34;151;0;0;0
34;152;0;0;0
34;153;0;0;0
34;154;0;0;0
34;155;0;0;0
34;156;0;0;0
34;157;0;0;0
34;158;0;0;0
34;159;0;0;0
34;160;0;0;0
34;161;0;0;0
34;162;0;0;0
34;163;0;0;0
34;164;0;0;0
34;165;0;0;0
34;166;0;0;0
34;167;0;0;0
34;168;0;0;0
35;1;0;0;0
35;2;0;0;0
35;3;0;0;0
35;4;0;0;0
35;5;0;0;0
35;6;0;0;0
35;7;0;0;0
35;8;0;0;0
35;9;0;0;0
35;10;0;0;0
35;11;0;0;0
35;12;0;0;0
35;13;0;0;0
35;14;0;0;0
35;15;0;0;0
35;16;0;0;0
35;17;1;10;0
35;18;1;10;45
35;19;1;10;0
35;20;0;0;0
35;21;0;0;0
35;22;0;0;0
35;23;0;0;0
35;24;0;0;0
35;25;0;0;0
35;26;0;0;0
35;27;0;0;0
35;28;0;0;0
35;29;0;0;0
35;30;0;0;0
35;31;0;0;0
35;32;0;0;0
35;33;0;0;0
35;34;0;0;0
35;35;0;0;0
35;36;0;0;0
35;37;0;0;0
35;38;0;0;0
35;39;0;0;0
35;40;0;0;0
35;41;1;10;0
35;42;1;10;45
35;43;1;10;0
35;44;0;0;0
35;45;0;0;0
35;46;0;0;0
35;47;0;0;0
35;48;0;0;0
35;49;0;0;0
35;50;0;0;0
35;51;0;0;0
35;52;0;0;0
35;53;0;0;0
35;54;0;0;0
35;55;0;0;0
35;56;0;0;0
35;57;0;0;0
35;58;0;0;0
35;59;0;0;0
35;60;0;0;0
35;61;0;0;0
35;62;0;0;0
35;63;0;0;0
35;64;0;0;0
35;65;1;10;0
35;66;1;10;45
35;67;1;10;0
35;68;0;0;0
35;69;0;0;0
35;70;0;0;0
35;71;0;0;0
35;72;0;0;0
35;73;0;0;0
35;74;0;0;0
35;75;0;0;0
35;76;0;0;0
35;77;0;0;0
35;78;0;0;0
35;79;0;0;0
35;80;0;0;0
35;81;0;0;0
35;82;0;0;0
35;83;0;0;0
35;84;0;0;0
35;85;0;0;0
35;86;0;0;0
35;87;0;0;0
35;88;0;0;0
35;89;1;10;0
35;90;1;10;45
35;91;1;10;0
35;92;0;0;0
35;93;0;0;0
35;94;0;0;0
35;95;0;0;0
35;96;0;0;0
35;97;0;0;0
35;98;0;0;0
35;99;0;0;0
35;100;0;0;0
35;101;0;0;0
35;102;0;0;0
35;103;0;0;0
35;104;0;0;0
35;105;0;0;0
35;106;0;0;0
35;107;0;0;0
35;108;0;0;0
35;109;0;0;0
35;110;0;0;0
35;111;0;0;0
35;112;0;0;0
35;113;1;10;0
35;114;1;10;45
35;115;1;10;0
35;116;0;0;0
35;117;0;0;0
35;118;0;0;0
35;119;0;0;0
35;120;0;0;0
35;121;0;0;0
35;122;0;0;0
35;123;0;0;0
35;124;0;0;0
35;125;0;0;0
35;126;0;0;0
35;127;0;0;0
35;128;0;0;0
35;129;0;0;0
35;130;0;0;0
35;131;0;0;0
35;132;0;0;0
35;133;0;0;0
35;134;0;0;0
35;135;0;0;0
35;136;0;0;0
35;137;0;0;0
35;138;0;0;0
35;139;0;0;0
35;140;0;0;0
35;141;0;0;0
35;142;0;0;0
35;143;0;0;0
35;144;0;0;0
35;145;0;0;0
35;146;0;0;0
35;147;0;0;0
35;148;0;0;0
35;149;0;0;0
35;150;0;0;0
35;151;0;0;0
35;152;0;0;0
35;153;0;0;0
35;154;0;0;0
35;155;0;0;0
35;156;0;0;0
35;157;0;0;0
35;158;0;0;0
35;159;0;0;0
35;160;0;0;0
35;161;0;0;0
35;162;0;0;0
35;163;0;0;0
35;164;0;0;0
35;165;0;0;0
35;166;0;0;0
35;167;0;0;0
35;168;0;0;0
