j;P_Turb;P_Pump;Eta_Turb;Eta_Pump;E_Max;E_Min;E_ini;E_fin;K_Pump;K_Turb
PSW1;422;211;0,92;0,85;2954;211;1055;1055;10;11
PSW2;633;316;0,94;0,9;4431;317;1583;1583;10,5;11,5
PSW3;211;105;0,89;0,8;1477;106;528;528;9,5;10
