i;PMax;PMin;MUT;MDT;Kvar;Kfix;K_Warmstart;K_Coldstart;Beta;Prioritšt;SZInit;BZInit;uInit;Marginalcosts
i1;455;150;8;8;16,19;3428,5;4500;9000;14;1;0;8;1;18,3898021978022
i2;455;150;8;8;17,26;3559;5000;10000;14;2;0;8;1;19,3948681318681
i3;130;20;5;5;16,6;1032;550;1100;10;4;5;0;0;21,9886153846154
i4;130;20;5;5;16,5;1010;560;1120;10;3;5;0;0;21,7357692307692
i5;162;25;6;6;19,7;942,5;900;1800;11;5;6;0;0;22,4837777777778
i6;80;20;3;3;22,26;815,2;170;340;6;6;3;0;0;26,892
i7;85;25;3;3;27,74;1173,5;260;520;6;7;3;0;0;33,3950588235294
i8;55;10;1;1;25,92;919,2;30;60;2;8;1;0;0;37,929
i9;55;10;1;1;27,27;937,7;30;60;2;9;1;0;0;39,3709090909091
i10;55;10;1;1;27,79;947,9;30;60;2;10;1;0;0;39,9828181818182
