t;Dt;Rt
t1;4200;420
t2;4500;450
t3;5100;510
t4;5700;570
t5;6000;600
t6;6600;660
t7;6900;690
t8;7200;720
t9;7800;780
t10;8400;840
t11;8700;870
t12;9000;900
t13;8400;840
t14;7800;780
t15;7200;720
t16;6300;630
t17;6000;600
t18;6600;660
t19;7200;720
t20;8400;840
t21;7800;780
t22;6600;660
t23;5400;540
t24;4800;480
t25;4200;420
t26;4500;450
t27;5100;510
t28;5700;570
t29;6000;600
t30;6600;660
t31;6900;690
t32;7200;720
t33;7800;780
t34;8400;840
t35;8700;870
t36;9000;900
t37;8400;840
t38;7800;780
t39;7200;720
t40;6300;630
t41;6000;600
t42;6600;660
t43;7200;720
t44;8400;840
t45;7800;780
t46;6600;660
t47;5400;540
t48;4800;480
t49;4200;420
t50;4500;450
t51;5100;510
t52;5700;570
t53;6000;600
t54;6600;660
t55;6900;690
t56;7200;720
t57;7800;780
t58;8400;840
t59;8700;870
t60;9000;900
t61;8400;840
t62;7800;780
t63;7200;720
t64;6300;630
t65;6000;600
t66;6600;660
t67;7200;720
t68;8400;840
t69;7800;780
t70;6600;660
t71;5400;540
t72;4800;480
t73;4200;420
t74;4500;450
t75;5100;510
t76;5700;570
t77;6000;600
t78;6600;660
t79;6900;690
t80;7200;720
t81;7800;780
t82;8400;840
t83;8700;870
t84;9000;900
t85;8400;840
t86;7800;780
t87;7200;720
t88;6300;630
t89;6000;600
t90;6600;660
t91;7200;720
t92;8400;840
t93;7800;780
t94;6600;660
t95;5400;540
t96;4800;480
t97;4200;420
t98;4500;450
t99;5100;510
t100;5700;570
t101;6000;600
t102;6600;660
t103;6900;690
t104;7200;720
t105;7800;780
t106;8400;840
t107;8700;870
t108;9000;900
t109;8400;840
t110;7800;780
t111;7200;720
t112;6300;630
t113;6000;600
t114;6600;660
t115;7200;720
t116;8400;840
t117;7800;780
t118;6600;660
t119;5400;540
t120;4800;480
t121;3360;336
t122;3600;360
t123;4080;408
t124;4560;456
t125;4800;480
t126;5280;528
t127;5520;552
t128;5760;576
t129;6240;624
t130;6720;672
t131;6960;696
t132;7200;720
t133;6720;672
t134;6240;624
t135;5760;576
t136;5040;504
t137;4800;480
t138;5280;528
t139;5760;576
t140;6720;672
t141;6240;624
t142;5280;528
t143;4320;432
t144;3840;384
t145;3360;336
t146;3600;360
t147;4080;408
t148;4560;456
t149;4800;480
t150;5280;528
t151;5520;552
t152;5760;576
t153;6240;624
t154;6720;672
t155;6960;696
t156;7200;720
t157;6720;672
t158;6240;624
t159;5760;576
t160;5040;504
t161;4800;480
t162;5280;528
t163;5760;576
t164;6720;672
t165;6240;624
t166;5280;528
t167;4320;432
t168;3840;384
t169;4200;420
t170;4500;450
t171;5100;510
t172;5700;570
t173;6000;600
t174;6600;660
t175;6900;690
t176;7200;720
t177;7800;780
t178;8400;840
t179;8700;870
t180;9000;900
t181;8400;840
t182;7800;780
t183;7200;720
t184;6300;630
t185;6000;600
t186;6600;660
t187;7200;720
t188;8400;840
t189;7800;780
t190;6600;660
t191;5400;540
t192;4800;480
t193;4200;420
t194;4500;450
t195;5100;510
t196;5700;570
t197;6000;600
t198;6600;660
t199;6900;690
t200;7200;720
t201;7800;780
t202;8400;840
t203;8700;870
t204;9000;900
t205;8400;840
t206;7800;780
t207;7200;720
t208;6300;630
t209;6000;600
t210;6600;660
t211;7200;720
t212;8400;840
t213;7800;780
t214;6600;660
t215;5400;540
t216;4800;480
t217;4200;420
t218;4500;450
t219;5100;510
t220;5700;570
t221;6000;600
t222;6600;660
t223;6900;690
t224;7200;720
t225;7800;780
t226;8400;840
t227;8700;870
t228;9000;900
t229;8400;840
t230;7800;780
t231;7200;720
t232;6300;630
t233;6000;600
t234;6600;660
t235;7200;720
t236;8400;840
t237;7800;780
t238;6600;660
t239;5400;540
t240;4800;480
t241;4200;420
t242;4500;450
t243;5100;510
t244;5700;570
t245;6000;600
t246;6600;660
t247;6900;690
t248;7200;720
t249;7800;780
t250;8400;840
t251;8700;870
t252;9000;900
t253;8400;840
t254;7800;780
t255;7200;720
t256;6300;630
t257;6000;600
t258;6600;660
t259;7200;720
t260;8400;840
t261;7800;780
t262;6600;660
t263;5400;540
t264;4800;480
t265;4200;420
t266;4500;450
t267;5100;510
t268;5700;570
t269;6000;600
t270;6600;660
t271;6900;690
t272;7200;720
t273;7800;780
t274;8400;840
t275;8700;870
t276;9000;900
t277;8400;840
t278;7800;780
t279;7200;720
t280;6300;630
t281;6000;600
t282;6600;660
t283;7200;720
t284;8400;840
t285;7800;780
t286;6600;660
t287;5400;540
t288;4800;480
t289;3360;336
t290;3600;360
t291;4080;408
t292;4560;456
t293;4800;480
t294;5280;528
t295;5520;552
t296;5760;576
t297;6240;624
t298;6720;672
t299;6960;696
t300;7200;720
t301;6720;672
t302;6240;624
t303;5760;576
t304;5040;504
t305;4800;480
t306;5280;528
t307;5760;576
t308;6720;672
t309;6240;624
t310;5280;528
t311;4320;432
t312;3840;384
t313;3360;336
t314;3600;360
t315;4080;408
t316;4560;456
t317;4800;480
t318;5280;528
t319;5520;552
t320;5760;576
t321;6240;624
t322;6720;672
t323;6960;696
t324;7200;720
t325;6720;672
t326;6240;624
t327;5760;576
t328;5040;504
t329;4800;480
t330;5280;528
t331;5760;576
t332;6720;672
t333;6240;624
t334;5280;528
t335;4320;432
t336;3840;384
t337;4200;420
t338;4500;450
t339;5100;510
t340;5700;570
t341;6000;600
t342;6600;660
t343;6900;690
t344;7200;720
t345;7800;780
t346;8400;840
t347;8700;870
t348;9000;900
t349;8400;840
t350;7800;780
t351;7200;720
t352;6300;630
t353;6000;600
t354;6600;660
t355;7200;720
t356;8400;840
t357;7800;780
t358;6600;660
t359;5400;540
t360;4800;480
t361;4200;420
t362;4500;450
t363;5100;510
t364;5700;570
t365;6000;600
t366;6600;660
t367;6900;690
t368;7200;720
t369;7800;780
t370;8400;840
t371;8700;870
t372;9000;900
t373;8400;840
t374;7800;780
t375;7200;720
t376;6300;630
t377;6000;600
t378;6600;660
t379;7200;720
t380;8400;840
t381;7800;780
t382;6600;660
t383;5400;540
t384;4800;480
t385;4200;420
t386;4500;450
t387;5100;510
t388;5700;570
t389;6000;600
t390;6600;660
t391;6900;690
t392;7200;720
t393;7800;780
t394;8400;840
t395;8700;870
t396;9000;900
t397;8400;840
t398;7800;780
t399;7200;720
t400;6300;630
t401;6000;600
t402;6600;660
t403;7200;720
t404;8400;840
t405;7800;780
t406;6600;660
t407;5400;540
t408;4800;480
t409;4200;420
t410;4500;450
t411;5100;510
t412;5700;570
t413;6000;600
t414;6600;660
t415;6900;690
t416;7200;720
t417;7800;780
t418;8400;840
t419;8700;870
t420;9000;900
t421;8400;840
t422;7800;780
t423;7200;720
t424;6300;630
t425;6000;600
t426;6600;660
t427;7200;720
t428;8400;840
t429;7800;780
t430;6600;660
t431;5400;540
t432;4800;480
t433;4200;420
t434;4500;450
t435;5100;510
t436;5700;570
t437;6000;600
t438;6600;660
t439;6900;690
t440;7200;720
t441;7800;780
t442;8400;840
t443;8700;870
t444;9000;900
t445;8400;840
t446;7800;780
t447;7200;720
t448;6300;630
t449;6000;600
t450;6600;660
t451;7200;720
t452;8400;840
t453;7800;780
t454;6600;660
t455;5400;540
t456;4800;480
t457;3360;336
t458;3600;360
t459;4080;408
t460;4560;456
t461;4800;480
t462;5280;528
t463;5520;552
t464;5760;576
t465;6240;624
t466;6720;672
t467;6960;696
t468;7200;720
t469;6720;672
t470;6240;624
t471;5760;576
t472;5040;504
t473;4800;480
t474;5280;528
t475;5760;576
t476;6720;672
t477;6240;624
t478;5280;528
t479;4320;432
t480;3840;384
t481;3360;336
t482;3600;360
t483;4080;408
t484;4560;456
t485;4800;480
t486;5280;528
t487;5520;552
t488;5760;576
t489;6240;624
t490;6720;672
t491;6960;696
t492;7200;720
t493;6720;672
t494;6240;624
t495;5760;576
t496;5040;504
t497;4800;480
t498;5280;528
t499;5760;576
t500;6720;672
t501;6240;624
t502;5280;528
t503;4320;432
t504;3840;384
t505;4200;420
t506;4500;450
t507;5100;510
t508;5700;570
t509;6000;600
t510;6600;660
t511;6900;690
t512;7200;720
t513;7800;780
t514;8400;840
t515;8700;870
t516;9000;900
t517;8400;840
t518;7800;780
t519;7200;720
t520;6300;630
t521;6000;600
t522;6600;660
t523;7200;720
t524;8400;840
t525;7800;780
t526;6600;660
t527;5400;540
t528;4800;480
t529;4200;420
t530;4500;450
t531;5100;510
t532;5700;570
t533;6000;600
t534;6600;660
t535;6900;690
t536;7200;720
t537;7800;780
t538;8400;840
t539;8700;870
t540;9000;900
t541;8400;840
t542;7800;780
t543;7200;720
t544;6300;630
t545;6000;600
t546;6600;660
t547;7200;720
t548;8400;840
t549;7800;780
t550;6600;660
t551;5400;540
t552;4800;480
t553;4200;420
t554;4500;450
t555;5100;510
t556;5700;570
t557;6000;600
t558;6600;660
t559;6900;690
t560;7200;720
t561;7800;780
t562;8400;840
t563;8700;870
t564;9000;900
t565;8400;840
t566;7800;780
t567;7200;720
t568;6300;630
t569;6000;600
t570;6600;660
t571;7200;720
t572;8400;840
t573;7800;780
t574;6600;660
t575;5400;540
t576;4800;480
t577;4200;420
t578;4500;450
t579;5100;510
t580;5700;570
t581;6000;600
t582;6600;660
t583;6900;690
t584;7200;720
t585;7800;780
t586;8400;840
t587;8700;870
t588;9000;900
t589;8400;840
t590;7800;780
t591;7200;720
t592;6300;630
t593;6000;600
t594;6600;660
t595;7200;720
t596;8400;840
t597;7800;780
t598;6600;660
t599;5400;540
t600;4800;480
t601;4200;420
t602;4500;450
t603;5100;510
t604;5700;570
t605;6000;600
t606;6600;660
t607;6900;690
t608;7200;720
t609;7800;780
t610;8400;840
t611;8700;870
t612;9000;900
t613;8400;840
t614;7800;780
t615;7200;720
t616;6300;630
t617;6000;600
t618;6600;660
t619;7200;720
t620;8400;840
t621;7800;780
t622;6600;660
t623;5400;540
t624;4800;480
t625;3360;336
t626;3600;360
t627;4080;408
t628;4560;456
t629;4800;480
t630;5280;528
t631;5520;552
t632;5760;576
t633;6240;624
t634;6720;672
t635;6960;696
t636;7200;720
t637;6720;672
t638;6240;624
t639;5760;576
t640;5040;504
t641;4800;480
t642;5280;528
t643;5760;576
t644;6720;672
t645;6240;624
t646;5280;528
t647;4320;432
t648;3840;384
t649;3360;336
t650;3600;360
t651;4080;408
t652;4560;456
t653;4800;480
t654;5280;528
t655;5520;552
t656;5760;576
t657;6240;624
t658;6720;672
t659;6960;696
t660;7200;720
t661;6720;672
t662;6240;624
t663;5760;576
t664;5040;504
t665;4800;480
t666;5280;528
t667;5760;576
t668;6720;672
t669;6240;624
t670;5280;528
t671;4320;432
t672;3840;384
t673;4200;420
t674;4500;450
t675;5100;510
t676;5700;570
t677;6000;600
t678;6600;660
t679;6900;690
t680;7200;720
t681;7800;780
t682;8400;840
t683;8700;870
t684;9000;900
t685;8400;840
t686;7800;780
t687;7200;720
t688;6300;630
t689;6000;600
t690;6600;660
t691;7200;720
t692;8400;840
t693;7800;780
t694;6600;660
t695;5400;540
t696;4800;480
t697;4200;420
t698;4500;450
t699;5100;510
t700;5700;570
t701;6000;600
t702;6600;660
t703;6900;690
t704;7200;720
t705;7800;780
t706;8400;840
t707;8700;870
t708;9000;900
t709;8400;840
t710;7800;780
t711;7200;720
t712;6300;630
t713;6000;600
t714;6600;660
t715;7200;720
t716;8400;840
t717;7800;780
t718;6600;660
t719;5400;540
t720;4800;480
t721;4200;420
t722;4500;450
t723;5100;510
t724;5700;570
t725;6000;600
t726;6600;660
t727;6900;690
t728;7200;720
t729;7800;780
t730;8400;840
t731;8700;870
t732;9000;900
t733;8400;840
t734;7800;780
t735;7200;720
t736;6300;630
t737;6000;600
t738;6600;660
t739;7200;720
t740;8400;840
t741;7800;780
t742;6600;660
t743;5400;540
t744;4800;480
t745;4200;420
t746;4500;450
t747;5100;510
t748;5700;570
t749;6000;600
t750;6600;660
t751;6900;690
t752;7200;720
t753;7800;780
t754;8400;840
t755;8700;870
t756;9000;900
t757;8400;840
t758;7800;780
t759;7200;720
t760;6300;630
t761;6000;600
t762;6600;660
t763;7200;720
t764;8400;840
t765;7800;780
t766;6600;660
t767;5400;540
t768;4800;480
t769;4200;420
t770;4500;450
t771;5100;510
t772;5700;570
t773;6000;600
t774;6600;660
t775;6900;690
t776;7200;720
t777;7800;780
t778;8400;840
t779;8700;870
t780;9000;900
t781;8400;840
t782;7800;780
t783;7200;720
t784;6300;630
t785;6000;600
t786;6600;660
t787;7200;720
t788;8400;840
t789;7800;780
t790;6600;660
t791;5400;540
t792;4800;480
t793;3360;336
t794;3600;360
t795;4080;408
t796;4560;456
t797;4800;480
t798;5280;528
t799;5520;552
t800;5760;576
t801;6240;624
t802;6720;672
t803;6960;696
t804;7200;720
t805;6720;672
t806;6240;624
t807;5760;576
t808;5040;504
t809;4800;480
t810;5280;528
t811;5760;576
t812;6720;672
t813;6240;624
t814;5280;528
t815;4320;432
t816;3840;384
t817;3360;336
t818;3600;360
t819;4080;408
t820;4560;456
t821;4800;480
t822;5280;528
t823;5520;552
t824;5760;576
t825;6240;624
t826;6720;672
t827;6960;696
t828;7200;720
t829;6720;672
t830;6240;624
t831;5760;576
t832;5040;504
t833;4800;480
t834;5280;528
t835;5760;576
t836;6720;672
t837;6240;624
t838;5280;528
t839;4320;432
t840;3840;384
t841;4200;420
t842;4500;450
t843;5100;510
t844;5700;570
t845;6000;600
t846;6600;660
t847;6900;690
t848;7200;720
t849;7800;780
t850;8400;840
t851;8700;870
t852;9000;900
t853;8400;840
t854;7800;780
t855;7200;720
t856;6300;630
t857;6000;600
t858;6600;660
t859;7200;720
t860;8400;840
t861;7800;780
t862;6600;660
t863;5400;540
t864;4800;480
t865;4200;420
t866;4500;450
t867;5100;510
t868;5700;570
t869;6000;600
t870;6600;660
t871;6900;690
t872;7200;720
t873;7800;780
t874;8400;840
t875;8700;870
t876;9000;900
t877;8400;840
t878;7800;780
t879;7200;720
t880;6300;630
t881;6000;600
t882;6600;660
t883;7200;720
t884;8400;840
t885;7800;780
t886;6600;660
t887;5400;540
t888;4800;480
t889;4200;420
t890;4500;450
t891;5100;510
t892;5700;570
t893;6000;600
t894;6600;660
t895;6900;690
t896;7200;720
t897;7800;780
t898;8400;840
t899;8700;870
t900;9000;900
t901;8400;840
t902;7800;780
t903;7200;720
t904;6300;630
t905;6000;600
t906;6600;660
t907;7200;720
t908;8400;840
t909;7800;780
t910;6600;660
t911;5400;540
t912;4800;480
t913;4200;420
t914;4500;450
t915;5100;510
t916;5700;570
t917;6000;600
t918;6600;660
t919;6900;690
t920;7200;720
t921;7800;780
t922;8400;840
t923;8700;870
t924;9000;900
t925;8400;840
t926;7800;780
t927;7200;720
t928;6300;630
t929;6000;600
t930;6600;660
t931;7200;720
t932;8400;840
t933;7800;780
t934;6600;660
t935;5400;540
t936;4800;480
t937;4200;420
t938;4500;450
t939;5100;510
t940;5700;570
t941;6000;600
t942;6600;660
t943;6900;690
t944;7200;720
t945;7800;780
t946;8400;840
t947;8700;870
t948;9000;900
t949;8400;840
t950;7800;780
t951;7200;720
t952;6300;630
t953;6000;600
t954;6600;660
t955;7200;720
t956;8400;840
t957;7800;780
t958;6600;660
t959;5400;540
t960;4800;480
t961;3360;336
t962;3600;360
t963;4080;408
t964;4560;456
t965;4800;480
t966;5280;528
t967;5520;552
t968;5760;576
t969;6240;624
t970;6720;672
t971;6960;696
t972;7200;720
t973;6720;672
t974;6240;624
t975;5760;576
t976;5040;504
t977;4800;480
t978;5280;528
t979;5760;576
t980;6720;672
t981;6240;624
t982;5280;528
t983;4320;432
t984;3840;384
t985;3360;336
t986;3600;360
t987;4080;408
t988;4560;456
t989;4800;480
t990;5280;528
t991;5520;552
t992;5760;576
t993;6240;624
t994;6720;672
t995;6960;696
t996;7200;720
t997;6720;672
t998;6240;624
t999;5760;576
t1000;5040;504
t1001;4800;480
t1002;5280;528
t1003;5760;576
t1004;6720;672
t1005;6240;624
t1006;5280;528
t1007;4320;432
t1008;3840;384
t1009;4200;420
t1010;4500;450
t1011;5100;510
t1012;5700;570
t1013;6000;600
t1014;6600;660
t1015;6900;690
t1016;7200;720
t1017;7800;780
t1018;8400;840
t1019;8700;870
t1020;9000;900
t1021;8400;840
t1022;7800;780
t1023;7200;720
t1024;6300;630
t1025;6000;600
t1026;6600;660
t1027;7200;720
t1028;8400;840
t1029;7800;780
t1030;6600;660
t1031;5400;540
t1032;4800;480
t1033;4200;420
t1034;4500;450
t1035;5100;510
t1036;5700;570
t1037;6000;600
t1038;6600;660
t1039;6900;690
t1040;7200;720
t1041;7800;780
t1042;8400;840
t1043;8700;870
t1044;9000;900
t1045;8400;840
t1046;7800;780
t1047;7200;720
t1048;6300;630
t1049;6000;600
t1050;6600;660
t1051;7200;720
t1052;8400;840
t1053;7800;780
t1054;6600;660
t1055;5400;540
t1056;4800;480
t1057;4200;420
t1058;4500;450
t1059;5100;510
t1060;5700;570
t1061;6000;600
t1062;6600;660
t1063;6900;690
t1064;7200;720
t1065;7800;780
t1066;8400;840
t1067;8700;870
t1068;9000;900
t1069;8400;840
t1070;7800;780
t1071;7200;720
t1072;6300;630
t1073;6000;600
t1074;6600;660
t1075;7200;720
t1076;8400;840
t1077;7800;780
t1078;6600;660
t1079;5400;540
t1080;4800;480
t1081;4200;420
t1082;4500;450
t1083;5100;510
t1084;5700;570
t1085;6000;600
t1086;6600;660
t1087;6900;690
t1088;7200;720
t1089;7800;780
t1090;8400;840
t1091;8700;870
t1092;9000;900
t1093;8400;840
t1094;7800;780
t1095;7200;720
t1096;6300;630
t1097;6000;600
t1098;6600;660
t1099;7200;720
t1100;8400;840
t1101;7800;780
t1102;6600;660
t1103;5400;540
t1104;4800;480
t1105;4200;420
t1106;4500;450
t1107;5100;510
t1108;5700;570
t1109;6000;600
t1110;6600;660
t1111;6900;690
t1112;7200;720
t1113;7800;780
t1114;8400;840
t1115;8700;870
t1116;9000;900
t1117;8400;840
t1118;7800;780
t1119;7200;720
t1120;6300;630
t1121;6000;600
t1122;6600;660
t1123;7200;720
t1124;8400;840
t1125;7800;780
t1126;6600;660
t1127;5400;540
t1128;4800;480
t1129;3360;336
t1130;3600;360
t1131;4080;408
t1132;4560;456
t1133;4800;480
t1134;5280;528
t1135;5520;552
t1136;5760;576
t1137;6240;624
t1138;6720;672
t1139;6960;696
t1140;7200;720
t1141;6720;672
t1142;6240;624
t1143;5760;576
t1144;5040;504
t1145;4800;480
t1146;5280;528
t1147;5760;576
t1148;6720;672
t1149;6240;624
t1150;5280;528
t1151;4320;432
t1152;3840;384
t1153;3360;336
t1154;3600;360
t1155;4080;408
t1156;4560;456
t1157;4800;480
t1158;5280;528
t1159;5520;552
t1160;5760;576
t1161;6240;624
t1162;6720;672
t1163;6960;696
t1164;7200;720
t1165;6720;672
t1166;6240;624
t1167;5760;576
t1168;5040;504
t1169;4800;480
t1170;5280;528
t1171;5760;576
t1172;6720;672
t1173;6240;624
t1174;5280;528
t1175;4320;432
t1176;3840;384
t1177;4200;420
t1178;4500;450
t1179;5100;510
t1180;5700;570
t1181;6000;600
t1182;6600;660
t1183;6900;690
t1184;7200;720
t1185;7800;780
t1186;8400;840
t1187;8700;870
t1188;9000;900
t1189;8400;840
t1190;7800;780
t1191;7200;720
t1192;6300;630
t1193;6000;600
t1194;6600;660
t1195;7200;720
t1196;8400;840
t1197;7800;780
t1198;6600;660
t1199;5400;540
t1200;4800;480
t1201;4200;420
t1202;4500;450
t1203;5100;510
t1204;5700;570
t1205;6000;600
t1206;6600;660
t1207;6900;690
t1208;7200;720
t1209;7800;780
t1210;8400;840
t1211;8700;870
t1212;9000;900
t1213;8400;840
t1214;7800;780
t1215;7200;720
t1216;6300;630
t1217;6000;600
t1218;6600;660
t1219;7200;720
t1220;8400;840
t1221;7800;780
t1222;6600;660
t1223;5400;540
t1224;4800;480
t1225;4200;420
t1226;4500;450
t1227;5100;510
t1228;5700;570
t1229;6000;600
t1230;6600;660
t1231;6900;690
t1232;7200;720
t1233;7800;780
t1234;8400;840
t1235;8700;870
t1236;9000;900
t1237;8400;840
t1238;7800;780
t1239;7200;720
t1240;6300;630
t1241;6000;600
t1242;6600;660
t1243;7200;720
t1244;8400;840
t1245;7800;780
t1246;6600;660
t1247;5400;540
t1248;4800;480
t1249;4200;420
t1250;4500;450
t1251;5100;510
t1252;5700;570
t1253;6000;600
t1254;6600;660
t1255;6900;690
t1256;7200;720
t1257;7800;780
t1258;8400;840
t1259;8700;870
t1260;9000;900
t1261;8400;840
t1262;7800;780
t1263;7200;720
t1264;6300;630
t1265;6000;600
t1266;6600;660
t1267;7200;720
t1268;8400;840
t1269;7800;780
t1270;6600;660
t1271;5400;540
t1272;4800;480
t1273;4200;420
t1274;4500;450
t1275;5100;510
t1276;5700;570
t1277;6000;600
t1278;6600;660
t1279;6900;690
t1280;7200;720
t1281;7800;780
t1282;8400;840
t1283;8700;870
t1284;9000;900
t1285;8400;840
t1286;7800;780
t1287;7200;720
t1288;6300;630
t1289;6000;600
t1290;6600;660
t1291;7200;720
t1292;8400;840
t1293;7800;780
t1294;6600;660
t1295;5400;540
t1296;4800;480
t1297;3360;336
t1298;3600;360
t1299;4080;408
t1300;4560;456
t1301;4800;480
t1302;5280;528
t1303;5520;552
t1304;5760;576
t1305;6240;624
t1306;6720;672
t1307;6960;696
t1308;7200;720
t1309;6720;672
t1310;6240;624
t1311;5760;576
t1312;5040;504
t1313;4800;480
t1314;5280;528
t1315;5760;576
t1316;6720;672
t1317;6240;624
t1318;5280;528
t1319;4320;432
t1320;3840;384
t1321;3360;336
t1322;3600;360
t1323;4080;408
t1324;4560;456
t1325;4800;480
t1326;5280;528
t1327;5520;552
t1328;5760;576
t1329;6240;624
t1330;6720;672
t1331;6960;696
t1332;7200;720
t1333;6720;672
t1334;6240;624
t1335;5760;576
t1336;5040;504
t1337;4800;480
t1338;5280;528
t1339;5760;576
t1340;6720;672
t1341;6240;624
t1342;5280;528
t1343;4320;432
t1344;3840;384
t1345;4200;420
t1346;4500;450
t1347;5100;510
t1348;5700;570
t1349;6000;600
t1350;6600;660
t1351;6900;690
t1352;7200;720
t1353;7800;780
t1354;8400;840
t1355;8700;870
t1356;9000;900
t1357;8400;840
t1358;7800;780
t1359;7200;720
t1360;6300;630
t1361;6000;600
t1362;6600;660
t1363;7200;720
t1364;8400;840
t1365;7800;780
t1366;6600;660
t1367;5400;540
t1368;4800;480
t1369;4200;420
t1370;4500;450
t1371;5100;510
t1372;5700;570
t1373;6000;600
t1374;6600;660
t1375;6900;690
t1376;7200;720
t1377;7800;780
t1378;8400;840
t1379;8700;870
t1380;9000;900
t1381;8400;840
t1382;7800;780
t1383;7200;720
t1384;6300;630
t1385;6000;600
t1386;6600;660
t1387;7200;720
t1388;8400;840
t1389;7800;780
t1390;6600;660
t1391;5400;540
t1392;4800;480
t1393;4200;420
t1394;4500;450
t1395;5100;510
t1396;5700;570
t1397;6000;600
t1398;6600;660
t1399;6900;690
t1400;7200;720
t1401;7800;780
t1402;8400;840
t1403;8700;870
t1404;9000;900
t1405;8400;840
t1406;7800;780
t1407;7200;720
t1408;6300;630
t1409;6000;600
t1410;6600;660
t1411;7200;720
t1412;8400;840
t1413;7800;780
t1414;6600;660
t1415;5400;540
t1416;4800;480
t1417;4200;420
t1418;4500;450
t1419;5100;510
t1420;5700;570
t1421;6000;600
t1422;6600;660
t1423;6900;690
t1424;7200;720
t1425;7800;780
t1426;8400;840
t1427;8700;870
t1428;9000;900
t1429;8400;840
t1430;7800;780
t1431;7200;720
t1432;6300;630
t1433;6000;600
t1434;6600;660
t1435;7200;720
t1436;8400;840
t1437;7800;780
t1438;6600;660
t1439;5400;540
t1440;4800;480
t1441;4200;420
t1442;4500;450
t1443;5100;510
t1444;5700;570
t1445;6000;600
t1446;6600;660
t1447;6900;690
t1448;7200;720
t1449;7800;780
t1450;8400;840
t1451;8700;870
t1452;9000;900
t1453;8400;840
t1454;7800;780
t1455;7200;720
t1456;6300;630
t1457;6000;600
t1458;6600;660
t1459;7200;720
t1460;8400;840
t1461;7800;780
t1462;6600;660
t1463;5400;540
t1464;4800;480
t1465;3360;336
t1466;3600;360
t1467;4080;408
t1468;4560;456
t1469;4800;480
t1470;5280;528
t1471;5520;552
t1472;5760;576
t1473;6240;624
t1474;6720;672
t1475;6960;696
t1476;7200;720
t1477;6720;672
t1478;6240;624
t1479;5760;576
t1480;5040;504
t1481;4800;480
t1482;5280;528
t1483;5760;576
t1484;6720;672
t1485;6240;624
t1486;5280;528
t1487;4320;432
t1488;3840;384
t1489;3360;336
t1490;3600;360
t1491;4080;408
t1492;4560;456
t1493;4800;480
t1494;5280;528
t1495;5520;552
t1496;5760;576
t1497;6240;624
t1498;6720;672
t1499;6960;696
t1500;7200;720
t1501;6720;672
t1502;6240;624
t1503;5760;576
t1504;5040;504
t1505;4800;480
t1506;5280;528
t1507;5760;576
t1508;6720;672
t1509;6240;624
t1510;5280;528
t1511;4320;432
t1512;3840;384
t1513;4200;420
t1514;4500;450
t1515;5100;510
t1516;5700;570
t1517;6000;600
t1518;6600;660
t1519;6900;690
t1520;7200;720
t1521;7800;780
t1522;8400;840
t1523;8700;870
t1524;9000;900
t1525;8400;840
t1526;7800;780
t1527;7200;720
t1528;6300;630
t1529;6000;600
t1530;6600;660
t1531;7200;720
t1532;8400;840
t1533;7800;780
t1534;6600;660
t1535;5400;540
t1536;4800;480
t1537;4200;420
t1538;4500;450
t1539;5100;510
t1540;5700;570
t1541;6000;600
t1542;6600;660
t1543;6900;690
t1544;7200;720
t1545;7800;780
t1546;8400;840
t1547;8700;870
t1548;9000;900
t1549;8400;840
t1550;7800;780
t1551;7200;720
t1552;6300;630
t1553;6000;600
t1554;6600;660
t1555;7200;720
t1556;8400;840
t1557;7800;780
t1558;6600;660
t1559;5400;540
t1560;4800;480
t1561;4200;420
t1562;4500;450
t1563;5100;510
t1564;5700;570
t1565;6000;600
t1566;6600;660
t1567;6900;690
t1568;7200;720
t1569;7800;780
t1570;8400;840
t1571;8700;870
t1572;9000;900
t1573;8400;840
t1574;7800;780
t1575;7200;720
t1576;6300;630
t1577;6000;600
t1578;6600;660
t1579;7200;720
t1580;8400;840
t1581;7800;780
t1582;6600;660
t1583;5400;540
t1584;4800;480
t1585;4200;420
t1586;4500;450
t1587;5100;510
t1588;5700;570
t1589;6000;600
t1590;6600;660
t1591;6900;690
t1592;7200;720
t1593;7800;780
t1594;8400;840
t1595;8700;870
t1596;9000;900
t1597;8400;840
t1598;7800;780
t1599;7200;720
t1600;6300;630
t1601;6000;600
t1602;6600;660
t1603;7200;720
t1604;8400;840
t1605;7800;780
t1606;6600;660
t1607;5400;540
t1608;4800;480
t1609;4200;420
t1610;4500;450
t1611;5100;510
t1612;5700;570
t1613;6000;600
t1614;6600;660
t1615;6900;690
t1616;7200;720
t1617;7800;780
t1618;8400;840
t1619;8700;870
t1620;9000;900
t1621;8400;840
t1622;7800;780
t1623;7200;720
t1624;6300;630
t1625;6000;600
t1626;6600;660
t1627;7200;720
t1628;8400;840
t1629;7800;780
t1630;6600;660
t1631;5400;540
t1632;4800;480
t1633;3360;336
t1634;3600;360
t1635;4080;408
t1636;4560;456
t1637;4800;480
t1638;5280;528
t1639;5520;552
t1640;5760;576
t1641;6240;624
t1642;6720;672
t1643;6960;696
t1644;7200;720
t1645;6720;672
t1646;6240;624
t1647;5760;576
t1648;5040;504
t1649;4800;480
t1650;5280;528
t1651;5760;576
t1652;6720;672
t1653;6240;624
t1654;5280;528
t1655;4320;432
t1656;3840;384
t1657;3360;336
t1658;3600;360
t1659;4080;408
t1660;4560;456
t1661;4800;480
t1662;5280;528
t1663;5520;552
t1664;5760;576
t1665;6240;624
t1666;6720;672
t1667;6960;696
t1668;7200;720
t1669;6720;672
t1670;6240;624
t1671;5760;576
t1672;5040;504
t1673;4800;480
t1674;5280;528
t1675;5760;576
t1676;6720;672
t1677;6240;624
t1678;5280;528
t1679;4320;432
t1680;3840;384
t1681;4200;420
t1682;4500;450
t1683;5100;510
t1684;5700;570
t1685;6000;600
t1686;6600;660
t1687;6900;690
t1688;7200;720
t1689;7800;780
t1690;8400;840
t1691;8700;870
t1692;9000;900
t1693;8400;840
t1694;7800;780
t1695;7200;720
t1696;6300;630
t1697;6000;600
t1698;6600;660
t1699;7200;720
t1700;8400;840
t1701;7800;780
t1702;6600;660
t1703;5400;540
t1704;4800;480
t1705;4200;420
t1706;4500;450
t1707;5100;510
t1708;5700;570
t1709;6000;600
t1710;6600;660
t1711;6900;690
t1712;7200;720
t1713;7800;780
t1714;8400;840
t1715;8700;870
t1716;9000;900
t1717;8400;840
t1718;7800;780
t1719;7200;720
t1720;6300;630
t1721;6000;600
t1722;6600;660
t1723;7200;720
t1724;8400;840
t1725;7800;780
t1726;6600;660
t1727;5400;540
t1728;4800;480
t1729;4200;420
t1730;4500;450
t1731;5100;510
t1732;5700;570
t1733;6000;600
t1734;6600;660
t1735;6900;690
t1736;7200;720
t1737;7800;780
t1738;8400;840
t1739;8700;870
t1740;9000;900
t1741;8400;840
t1742;7800;780
t1743;7200;720
t1744;6300;630
t1745;6000;600
t1746;6600;660
t1747;7200;720
t1748;8400;840
t1749;7800;780
t1750;6600;660
t1751;5400;540
t1752;4800;480
t1753;4200;420
t1754;4500;450
t1755;5100;510
t1756;5700;570
t1757;6000;600
t1758;6600;660
t1759;6900;690
t1760;7200;720
t1761;7800;780
t1762;8400;840
t1763;8700;870
t1764;9000;900
t1765;8400;840
t1766;7800;780
t1767;7200;720
t1768;6300;630
t1769;6000;600
t1770;6600;660
t1771;7200;720
t1772;8400;840
t1773;7800;780
t1774;6600;660
t1775;5400;540
t1776;4800;480
t1777;4200;420
t1778;4500;450
t1779;5100;510
t1780;5700;570
t1781;6000;600
t1782;6600;660
t1783;6900;690
t1784;7200;720
t1785;7800;780
t1786;8400;840
t1787;8700;870
t1788;9000;900
t1789;8400;840
t1790;7800;780
t1791;7200;720
t1792;6300;630
t1793;6000;600
t1794;6600;660
t1795;7200;720
t1796;8400;840
t1797;7800;780
t1798;6600;660
t1799;5400;540
t1800;4800;480
t1801;3360;336
t1802;3600;360
t1803;4080;408
t1804;4560;456
t1805;4800;480
t1806;5280;528
t1807;5520;552
t1808;5760;576
t1809;6240;624
t1810;6720;672
t1811;6960;696
t1812;7200;720
t1813;6720;672
t1814;6240;624
t1815;5760;576
t1816;5040;504
t1817;4800;480
t1818;5280;528
t1819;5760;576
t1820;6720;672
t1821;6240;624
t1822;5280;528
t1823;4320;432
t1824;3840;384
t1825;3360;336
t1826;3600;360
t1827;4080;408
t1828;4560;456
t1829;4800;480
t1830;5280;528
t1831;5520;552
t1832;5760;576
t1833;6240;624
t1834;6720;672
t1835;6960;696
t1836;7200;720
t1837;6720;672
t1838;6240;624
t1839;5760;576
t1840;5040;504
t1841;4800;480
t1842;5280;528
t1843;5760;576
t1844;6720;672
t1845;6240;624
t1846;5280;528
t1847;4320;432
t1848;3840;384
t1849;4200;420
t1850;4500;450
t1851;5100;510
t1852;5700;570
t1853;6000;600
t1854;6600;660
t1855;6900;690
t1856;7200;720
t1857;7800;780
t1858;8400;840
t1859;8700;870
t1860;9000;900
t1861;8400;840
t1862;7800;780
t1863;7200;720
t1864;6300;630
t1865;6000;600
t1866;6600;660
t1867;7200;720
t1868;8400;840
t1869;7800;780
t1870;6600;660
t1871;5400;540
t1872;4800;480
t1873;4200;420
t1874;4500;450
t1875;5100;510
t1876;5700;570
t1877;6000;600
t1878;6600;660
t1879;6900;690
t1880;7200;720
t1881;7800;780
t1882;8400;840
t1883;8700;870
t1884;9000;900
t1885;8400;840
t1886;7800;780
t1887;7200;720
t1888;6300;630
t1889;6000;600
t1890;6600;660
t1891;7200;720
t1892;8400;840
t1893;7800;780
t1894;6600;660
t1895;5400;540
t1896;4800;480
t1897;4200;420
t1898;4500;450
t1899;5100;510
t1900;5700;570
t1901;6000;600
t1902;6600;660
t1903;6900;690
t1904;7200;720
t1905;7800;780
t1906;8400;840
t1907;8700;870
t1908;9000;900
t1909;8400;840
t1910;7800;780
t1911;7200;720
t1912;6300;630
t1913;6000;600
t1914;6600;660
t1915;7200;720
t1916;8400;840
t1917;7800;780
t1918;6600;660
t1919;5400;540
t1920;4800;480
t1921;4200;420
t1922;4500;450
t1923;5100;510
t1924;5700;570
t1925;6000;600
t1926;6600;660
t1927;6900;690
t1928;7200;720
t1929;7800;780
t1930;8400;840
t1931;8700;870
t1932;9000;900
t1933;8400;840
t1934;7800;780
t1935;7200;720
t1936;6300;630
t1937;6000;600
t1938;6600;660
t1939;7200;720
t1940;8400;840
t1941;7800;780
t1942;6600;660
t1943;5400;540
t1944;4800;480
t1945;4200;420
t1946;4500;450
t1947;5100;510
t1948;5700;570
t1949;6000;600
t1950;6600;660
t1951;6900;690
t1952;7200;720
t1953;7800;780
t1954;8400;840
t1955;8700;870
t1956;9000;900
t1957;8400;840
t1958;7800;780
t1959;7200;720
t1960;6300;630
t1961;6000;600
t1962;6600;660
t1963;7200;720
t1964;8400;840
t1965;7800;780
t1966;6600;660
t1967;5400;540
t1968;4800;480
t1969;3360;336
t1970;3600;360
t1971;4080;408
t1972;4560;456
t1973;4800;480
t1974;5280;528
t1975;5520;552
t1976;5760;576
t1977;6240;624
t1978;6720;672
t1979;6960;696
t1980;7200;720
t1981;6720;672
t1982;6240;624
t1983;5760;576
t1984;5040;504
t1985;4800;480
t1986;5280;528
t1987;5760;576
t1988;6720;672
t1989;6240;624
t1990;5280;528
t1991;4320;432
t1992;3840;384
t1993;3360;336
t1994;3600;360
t1995;4080;408
t1996;4560;456
t1997;4800;480
t1998;5280;528
t1999;5520;552
t2000;5760;576
t2001;6240;624
t2002;6720;672
t2003;6960;696
t2004;7200;720
t2005;6720;672
t2006;6240;624
t2007;5760;576
t2008;5040;504
t2009;4800;480
t2010;5280;528
t2011;5760;576
t2012;6720;672
t2013;6240;624
t2014;5280;528
t2015;4320;432
t2016;3840;384
t2017;4200;420
t2018;4500;450
t2019;5100;510
t2020;5700;570
t2021;6000;600
t2022;6600;660
t2023;6900;690
t2024;7200;720
t2025;7800;780
t2026;8400;840
t2027;8700;870
t2028;9000;900
t2029;8400;840
t2030;7800;780
t2031;7200;720
t2032;6300;630
t2033;6000;600
t2034;6600;660
t2035;7200;720
t2036;8400;840
t2037;7800;780
t2038;6600;660
t2039;5400;540
t2040;4800;480
t2041;4200;420
t2042;4500;450
t2043;5100;510
t2044;5700;570
t2045;6000;600
t2046;6600;660
t2047;6900;690
t2048;7200;720
t2049;7800;780
t2050;8400;840
t2051;8700;870
t2052;9000;900
t2053;8400;840
t2054;7800;780
t2055;7200;720
t2056;6300;630
t2057;6000;600
t2058;6600;660
t2059;7200;720
t2060;8400;840
t2061;7800;780
t2062;6600;660
t2063;5400;540
t2064;4800;480
t2065;4200;420
t2066;4500;450
t2067;5100;510
t2068;5700;570
t2069;6000;600
t2070;6600;660
t2071;6900;690
t2072;7200;720
t2073;7800;780
t2074;8400;840
t2075;8700;870
t2076;9000;900
t2077;8400;840
t2078;7800;780
t2079;7200;720
t2080;6300;630
t2081;6000;600
t2082;6600;660
t2083;7200;720
t2084;8400;840
t2085;7800;780
t2086;6600;660
t2087;5400;540
t2088;4800;480
t2089;4200;420
t2090;4500;450
t2091;5100;510
t2092;5700;570
t2093;6000;600
t2094;6600;660
t2095;6900;690
t2096;7200;720
t2097;7800;780
t2098;8400;840
t2099;8700;870
t2100;9000;900
t2101;8400;840
t2102;7800;780
t2103;7200;720
t2104;6300;630
t2105;6000;600
t2106;6600;660
t2107;7200;720
t2108;8400;840
t2109;7800;780
t2110;6600;660
t2111;5400;540
t2112;4800;480
t2113;4200;420
t2114;4500;450
t2115;5100;510
t2116;5700;570
t2117;6000;600
t2118;6600;660
t2119;6900;690
t2120;7200;720
t2121;7800;780
t2122;8400;840
t2123;8700;870
t2124;9000;900
t2125;8400;840
t2126;7800;780
t2127;7200;720
t2128;6300;630
t2129;6000;600
t2130;6600;660
t2131;7200;720
t2132;8400;840
t2133;7800;780
t2134;6600;660
t2135;5400;540
t2136;4800;480
t2137;3360;336
t2138;3600;360
t2139;4080;408
t2140;4560;456
t2141;4800;480
t2142;5280;528
t2143;5520;552
t2144;5760;576
t2145;6240;624
t2146;6720;672
t2147;6960;696
t2148;7200;720
t2149;6720;672
t2150;6240;624
t2151;5760;576
t2152;5040;504
t2153;4800;480
t2154;5280;528
t2155;5760;576
t2156;6720;672
t2157;6240;624
t2158;5280;528
t2159;4320;432
t2160;3840;384
t2161;3360;336
t2162;3600;360
t2163;4080;408
t2164;4560;456
t2165;4800;480
t2166;5280;528
t2167;5520;552
t2168;5760;576
t2169;6240;624
t2170;6720;672
t2171;6960;696
t2172;7200;720
t2173;6720;672
t2174;6240;624
t2175;5760;576
t2176;5040;504
t2177;4800;480
t2178;5280;528
t2179;5760;576
t2180;6720;672
t2181;6240;624
t2182;5280;528
t2183;4320;432
t2184;3840;384
t2185;4200;420
t2186;4500;450
t2187;5100;510
t2188;5700;570
t2189;6000;600
t2190;6600;660
t2191;6900;690
t2192;7200;720
t2193;7800;780
t2194;8400;840
t2195;8700;870
t2196;9000;900
t2197;8400;840
t2198;7800;780
t2199;7200;720
t2200;6300;630
t2201;6000;600
t2202;6600;660
t2203;7200;720
t2204;8400;840
t2205;7800;780
t2206;6600;660
t2207;5400;540
t2208;4800;480
t2209;4200;420
t2210;4500;450
t2211;5100;510
t2212;5700;570
t2213;6000;600
t2214;6600;660
t2215;6900;690
t2216;7200;720
t2217;7800;780
t2218;8400;840
t2219;8700;870
t2220;9000;900
t2221;8400;840
t2222;7800;780
t2223;7200;720
t2224;6300;630
t2225;6000;600
t2226;6600;660
t2227;7200;720
t2228;8400;840
t2229;7800;780
t2230;6600;660
t2231;5400;540
t2232;4800;480
t2233;4200;420
t2234;4500;450
t2235;5100;510
t2236;5700;570
t2237;6000;600
t2238;6600;660
t2239;6900;690
t2240;7200;720
t2241;7800;780
t2242;8400;840
t2243;8700;870
t2244;9000;900
t2245;8400;840
t2246;7800;780
t2247;7200;720
t2248;6300;630
t2249;6000;600
t2250;6600;660
t2251;7200;720
t2252;8400;840
t2253;7800;780
t2254;6600;660
t2255;5400;540
t2256;4800;480
t2257;4200;420
t2258;4500;450
t2259;5100;510
t2260;5700;570
t2261;6000;600
t2262;6600;660
t2263;6900;690
t2264;7200;720
t2265;7800;780
t2266;8400;840
t2267;8700;870
t2268;9000;900
t2269;8400;840
t2270;7800;780
t2271;7200;720
t2272;6300;630
t2273;6000;600
t2274;6600;660
t2275;7200;720
t2276;8400;840
t2277;7800;780
t2278;6600;660
t2279;5400;540
t2280;4800;480
t2281;4200;420
t2282;4500;450
t2283;5100;510
t2284;5700;570
t2285;6000;600
t2286;6600;660
t2287;6900;690
t2288;7200;720
t2289;7800;780
t2290;8400;840
t2291;8700;870
t2292;9000;900
t2293;8400;840
t2294;7800;780
t2295;7200;720
t2296;6300;630
t2297;6000;600
t2298;6600;660
t2299;7200;720
t2300;8400;840
t2301;7800;780
t2302;6600;660
t2303;5400;540
t2304;4800;480
t2305;3360;336
t2306;3600;360
t2307;4080;408
t2308;4560;456
t2309;4800;480
t2310;5280;528
t2311;5520;552
t2312;5760;576
t2313;6240;624
t2314;6720;672
t2315;6960;696
t2316;7200;720
t2317;6720;672
t2318;6240;624
t2319;5760;576
t2320;5040;504
t2321;4800;480
t2322;5280;528
t2323;5760;576
t2324;6720;672
t2325;6240;624
t2326;5280;528
t2327;4320;432
t2328;3840;384
t2329;3360;336
t2330;3600;360
t2331;4080;408
t2332;4560;456
t2333;4800;480
t2334;5280;528
t2335;5520;552
t2336;5760;576
t2337;6240;624
t2338;6720;672
t2339;6960;696
t2340;7200;720
t2341;6720;672
t2342;6240;624
t2343;5760;576
t2344;5040;504
t2345;4800;480
t2346;5280;528
t2347;5760;576
t2348;6720;672
t2349;6240;624
t2350;5280;528
t2351;4320;432
t2352;3840;384
t2353;4200;420
t2354;4500;450
t2355;5100;510
t2356;5700;570
t2357;6000;600
t2358;6600;660
t2359;6900;690
t2360;7200;720
t2361;7800;780
t2362;8400;840
t2363;8700;870
t2364;9000;900
t2365;8400;840
t2366;7800;780
t2367;7200;720
t2368;6300;630
t2369;6000;600
t2370;6600;660
t2371;7200;720
t2372;8400;840
t2373;7800;780
t2374;6600;660
t2375;5400;540
t2376;4800;480
t2377;4200;420
t2378;4500;450
t2379;5100;510
t2380;5700;570
t2381;6000;600
t2382;6600;660
t2383;6900;690
t2384;7200;720
t2385;7800;780
t2386;8400;840
t2387;8700;870
t2388;9000;900
t2389;8400;840
t2390;7800;780
t2391;7200;720
t2392;6300;630
t2393;6000;600
t2394;6600;660
t2395;7200;720
t2396;8400;840
t2397;7800;780
t2398;6600;660
t2399;5400;540
t2400;4800;480
t2401;4200;420
t2402;4500;450
t2403;5100;510
t2404;5700;570
t2405;6000;600
t2406;6600;660
t2407;6900;690
t2408;7200;720
t2409;7800;780
t2410;8400;840
t2411;8700;870
t2412;9000;900
t2413;8400;840
t2414;7800;780
t2415;7200;720
t2416;6300;630
t2417;6000;600
t2418;6600;660
t2419;7200;720
t2420;8400;840
t2421;7800;780
t2422;6600;660
t2423;5400;540
t2424;4800;480
t2425;4200;420
t2426;4500;450
t2427;5100;510
t2428;5700;570
t2429;6000;600
t2430;6600;660
t2431;6900;690
t2432;7200;720
t2433;7800;780
t2434;8400;840
t2435;8700;870
t2436;9000;900
t2437;8400;840
t2438;7800;780
t2439;7200;720
t2440;6300;630
t2441;6000;600
t2442;6600;660
t2443;7200;720
t2444;8400;840
t2445;7800;780
t2446;6600;660
t2447;5400;540
t2448;4800;480
t2449;4200;420
t2450;4500;450
t2451;5100;510
t2452;5700;570
t2453;6000;600
t2454;6600;660
t2455;6900;690
t2456;7200;720
t2457;7800;780
t2458;8400;840
t2459;8700;870
t2460;9000;900
t2461;8400;840
t2462;7800;780
t2463;7200;720
t2464;6300;630
t2465;6000;600
t2466;6600;660
t2467;7200;720
t2468;8400;840
t2469;7800;780
t2470;6600;660
t2471;5400;540
t2472;4800;480
t2473;3360;336
t2474;3600;360
t2475;4080;408
t2476;4560;456
t2477;4800;480
t2478;5280;528
t2479;5520;552
t2480;5760;576
t2481;6240;624
t2482;6720;672
t2483;6960;696
t2484;7200;720
t2485;6720;672
t2486;6240;624
t2487;5760;576
t2488;5040;504
t2489;4800;480
t2490;5280;528
t2491;5760;576
t2492;6720;672
t2493;6240;624
t2494;5280;528
t2495;4320;432
t2496;3840;384
t2497;3360;336
t2498;3600;360
t2499;4080;408
t2500;4560;456
t2501;4800;480
t2502;5280;528
t2503;5520;552
t2504;5760;576
t2505;6240;624
t2506;6720;672
t2507;6960;696
t2508;7200;720
t2509;6720;672
t2510;6240;624
t2511;5760;576
t2512;5040;504
t2513;4800;480
t2514;5280;528
t2515;5760;576
t2516;6720;672
t2517;6240;624
t2518;5280;528
t2519;4320;432
t2520;3840;384
t2521;4200;420
t2522;4500;450
t2523;5100;510
t2524;5700;570
t2525;6000;600
t2526;6600;660
t2527;6900;690
t2528;7200;720
t2529;7800;780
t2530;8400;840
t2531;8700;870
t2532;9000;900
t2533;8400;840
t2534;7800;780
t2535;7200;720
t2536;6300;630
t2537;6000;600
t2538;6600;660
t2539;7200;720
t2540;8400;840
t2541;7800;780
t2542;6600;660
t2543;5400;540
t2544;4800;480
t2545;4200;420
t2546;4500;450
t2547;5100;510
t2548;5700;570
t2549;6000;600
t2550;6600;660
t2551;6900;690
t2552;7200;720
t2553;7800;780
t2554;8400;840
t2555;8700;870
t2556;9000;900
t2557;8400;840
t2558;7800;780
t2559;7200;720
t2560;6300;630
t2561;6000;600
t2562;6600;660
t2563;7200;720
t2564;8400;840
t2565;7800;780
t2566;6600;660
t2567;5400;540
t2568;4800;480
t2569;4200;420
t2570;4500;450
t2571;5100;510
t2572;5700;570
t2573;6000;600
t2574;6600;660
t2575;6900;690
t2576;7200;720
t2577;7800;780
t2578;8400;840
t2579;8700;870
t2580;9000;900
t2581;8400;840
t2582;7800;780
t2583;7200;720
t2584;6300;630
t2585;6000;600
t2586;6600;660
t2587;7200;720
t2588;8400;840
t2589;7800;780
t2590;6600;660
t2591;5400;540
t2592;4800;480
t2593;4200;420
t2594;4500;450
t2595;5100;510
t2596;5700;570
t2597;6000;600
t2598;6600;660
t2599;6900;690
t2600;7200;720
t2601;7800;780
t2602;8400;840
t2603;8700;870
t2604;9000;900
t2605;8400;840
t2606;7800;780
t2607;7200;720
t2608;6300;630
t2609;6000;600
t2610;6600;660
t2611;7200;720
t2612;8400;840
t2613;7800;780
t2614;6600;660
t2615;5400;540
t2616;4800;480
t2617;4200;420
t2618;4500;450
t2619;5100;510
t2620;5700;570
t2621;6000;600
t2622;6600;660
t2623;6900;690
t2624;7200;720
t2625;7800;780
t2626;8400;840
t2627;8700;870
t2628;9000;900
t2629;8400;840
t2630;7800;780
t2631;7200;720
t2632;6300;630
t2633;6000;600
t2634;6600;660
t2635;7200;720
t2636;8400;840
t2637;7800;780
t2638;6600;660
t2639;5400;540
t2640;4800;480
t2641;3360;336
t2642;3600;360
t2643;4080;408
t2644;4560;456
t2645;4800;480
t2646;5280;528
t2647;5520;552
t2648;5760;576
t2649;6240;624
t2650;6720;672
t2651;6960;696
t2652;7200;720
t2653;6720;672
t2654;6240;624
t2655;5760;576
t2656;5040;504
t2657;4800;480
t2658;5280;528
t2659;5760;576
t2660;6720;672
t2661;6240;624
t2662;5280;528
t2663;4320;432
t2664;3840;384
t2665;3360;336
t2666;3600;360
t2667;4080;408
t2668;4560;456
t2669;4800;480
t2670;5280;528
t2671;5520;552
t2672;5760;576
t2673;6240;624
t2674;6720;672
t2675;6960;696
t2676;7200;720
t2677;6720;672
t2678;6240;624
t2679;5760;576
t2680;5040;504
t2681;4800;480
t2682;5280;528
t2683;5760;576
t2684;6720;672
t2685;6240;624
t2686;5280;528
t2687;4320;432
t2688;3840;384
t2689;4200;420
t2690;4500;450
t2691;5100;510
t2692;5700;570
t2693;6000;600
t2694;6600;660
t2695;6900;690
t2696;7200;720
t2697;7800;780
t2698;8400;840
t2699;8700;870
t2700;9000;900
t2701;8400;840
t2702;7800;780
t2703;7200;720
t2704;6300;630
t2705;6000;600
t2706;6600;660
t2707;7200;720
t2708;8400;840
t2709;7800;780
t2710;6600;660
t2711;5400;540
t2712;4800;480
t2713;4200;420
t2714;4500;450
t2715;5100;510
t2716;5700;570
t2717;6000;600
t2718;6600;660
t2719;6900;690
t2720;7200;720
t2721;7800;780
t2722;8400;840
t2723;8700;870
t2724;9000;900
t2725;8400;840
t2726;7800;780
t2727;7200;720
t2728;6300;630
t2729;6000;600
t2730;6600;660
t2731;7200;720
t2732;8400;840
t2733;7800;780
t2734;6600;660
t2735;5400;540
t2736;4800;480
t2737;4200;420
t2738;4500;450
t2739;5100;510
t2740;5700;570
t2741;6000;600
t2742;6600;660
t2743;6900;690
t2744;7200;720
t2745;7800;780
t2746;8400;840
t2747;8700;870
t2748;9000;900
t2749;8400;840
t2750;7800;780
t2751;7200;720
t2752;6300;630
t2753;6000;600
t2754;6600;660
t2755;7200;720
t2756;8400;840
t2757;7800;780
t2758;6600;660
t2759;5400;540
t2760;4800;480
t2761;4200;420
t2762;4500;450
t2763;5100;510
t2764;5700;570
t2765;6000;600
t2766;6600;660
t2767;6900;690
t2768;7200;720
t2769;7800;780
t2770;8400;840
t2771;8700;870
t2772;9000;900
t2773;8400;840
t2774;7800;780
t2775;7200;720
t2776;6300;630
t2777;6000;600
t2778;6600;660
t2779;7200;720
t2780;8400;840
t2781;7800;780
t2782;6600;660
t2783;5400;540
t2784;4800;480
t2785;4200;420
t2786;4500;450
t2787;5100;510
t2788;5700;570
t2789;6000;600
t2790;6600;660
t2791;6900;690
t2792;7200;720
t2793;7800;780
t2794;8400;840
t2795;8700;870
t2796;9000;900
t2797;8400;840
t2798;7800;780
t2799;7200;720
t2800;6300;630
t2801;6000;600
t2802;6600;660
t2803;7200;720
t2804;8400;840
t2805;7800;780
t2806;6600;660
t2807;5400;540
t2808;4800;480
t2809;3360;336
t2810;3600;360
t2811;4080;408
t2812;4560;456
t2813;4800;480
t2814;5280;528
t2815;5520;552
t2816;5760;576
t2817;6240;624
t2818;6720;672
t2819;6960;696
t2820;7200;720
t2821;6720;672
t2822;6240;624
t2823;5760;576
t2824;5040;504
t2825;4800;480
t2826;5280;528
t2827;5760;576
t2828;6720;672
t2829;6240;624
t2830;5280;528
t2831;4320;432
t2832;3840;384
t2833;3360;336
t2834;3600;360
t2835;4080;408
t2836;4560;456
t2837;4800;480
t2838;5280;528
t2839;5520;552
t2840;5760;576
t2841;6240;624
t2842;6720;672
t2843;6960;696
t2844;7200;720
t2845;6720;672
t2846;6240;624
t2847;5760;576
t2848;5040;504
t2849;4800;480
t2850;5280;528
t2851;5760;576
t2852;6720;672
t2853;6240;624
t2854;5280;528
t2855;4320;432
t2856;3840;384
t2857;4200;420
t2858;4500;450
t2859;5100;510
t2860;5700;570
t2861;6000;600
t2862;6600;660
t2863;6900;690
t2864;7200;720
t2865;7800;780
t2866;8400;840
t2867;8700;870
t2868;9000;900
t2869;8400;840
t2870;7800;780
t2871;7200;720
t2872;6300;630
t2873;6000;600
t2874;6600;660
t2875;7200;720
t2876;8400;840
t2877;7800;780
t2878;6600;660
t2879;5400;540
t2880;4800;480
t2881;4200;420
t2882;4500;450
t2883;5100;510
t2884;5700;570
t2885;6000;600
t2886;6600;660
t2887;6900;690
t2888;7200;720
t2889;7800;780
t2890;8400;840
t2891;8700;870
t2892;9000;900
t2893;8400;840
t2894;7800;780
t2895;7200;720
t2896;6300;630
t2897;6000;600
t2898;6600;660
t2899;7200;720
t2900;8400;840
t2901;7800;780
t2902;6600;660
t2903;5400;540
t2904;4800;480
t2905;4200;420
t2906;4500;450
t2907;5100;510
t2908;5700;570
t2909;6000;600
t2910;6600;660
t2911;6900;690
t2912;7200;720
t2913;7800;780
t2914;8400;840
t2915;8700;870
t2916;9000;900
t2917;8400;840
t2918;7800;780
t2919;7200;720
t2920;6300;630
t2921;6000;600
t2922;6600;660
t2923;7200;720
t2924;8400;840
t2925;7800;780
t2926;6600;660
t2927;5400;540
t2928;4800;480
t2929;4200;420
t2930;4500;450
t2931;5100;510
t2932;5700;570
t2933;6000;600
t2934;6600;660
t2935;6900;690
t2936;7200;720
t2937;7800;780
t2938;8400;840
t2939;8700;870
t2940;9000;900
t2941;8400;840
t2942;7800;780
t2943;7200;720
t2944;6300;630
t2945;6000;600
t2946;6600;660
t2947;7200;720
t2948;8400;840
t2949;7800;780
t2950;6600;660
t2951;5400;540
t2952;4800;480
t2953;4200;420
t2954;4500;450
t2955;5100;510
t2956;5700;570
t2957;6000;600
t2958;6600;660
t2959;6900;690
t2960;7200;720
t2961;7800;780
t2962;8400;840
t2963;8700;870
t2964;9000;900
t2965;8400;840
t2966;7800;780
t2967;7200;720
t2968;6300;630
t2969;6000;600
t2970;6600;660
t2971;7200;720
t2972;8400;840
t2973;7800;780
t2974;6600;660
t2975;5400;540
t2976;4800;480
t2977;3360;336
t2978;3600;360
t2979;4080;408
t2980;4560;456
t2981;4800;480
t2982;5280;528
t2983;5520;552
t2984;5760;576
t2985;6240;624
t2986;6720;672
t2987;6960;696
t2988;7200;720
t2989;6720;672
t2990;6240;624
t2991;5760;576
t2992;5040;504
t2993;4800;480
t2994;5280;528
t2995;5760;576
t2996;6720;672
t2997;6240;624
t2998;5280;528
t2999;4320;432
t3000;3840;384
t3001;3360;336
t3002;3600;360
t3003;4080;408
t3004;4560;456
t3005;4800;480
t3006;5280;528
t3007;5520;552
t3008;5760;576
t3009;6240;624
t3010;6720;672
t3011;6960;696
t3012;7200;720
t3013;6720;672
t3014;6240;624
t3015;5760;576
t3016;5040;504
t3017;4800;480
t3018;5280;528
t3019;5760;576
t3020;6720;672
t3021;6240;624
t3022;5280;528
t3023;4320;432
t3024;3840;384
t3025;4200;420
t3026;4500;450
t3027;5100;510
t3028;5700;570
t3029;6000;600
t3030;6600;660
t3031;6900;690
t3032;7200;720
t3033;7800;780
t3034;8400;840
t3035;8700;870
t3036;9000;900
t3037;8400;840
t3038;7800;780
t3039;7200;720
t3040;6300;630
t3041;6000;600
t3042;6600;660
t3043;7200;720
t3044;8400;840
t3045;7800;780
t3046;6600;660
t3047;5400;540
t3048;4800;480
t3049;4200;420
t3050;4500;450
t3051;5100;510
t3052;5700;570
t3053;6000;600
t3054;6600;660
t3055;6900;690
t3056;7200;720
t3057;7800;780
t3058;8400;840
t3059;8700;870
t3060;9000;900
t3061;8400;840
t3062;7800;780
t3063;7200;720
t3064;6300;630
t3065;6000;600
t3066;6600;660
t3067;7200;720
t3068;8400;840
t3069;7800;780
t3070;6600;660
t3071;5400;540
t3072;4800;480
t3073;4200;420
t3074;4500;450
t3075;5100;510
t3076;5700;570
t3077;6000;600
t3078;6600;660
t3079;6900;690
t3080;7200;720
t3081;7800;780
t3082;8400;840
t3083;8700;870
t3084;9000;900
t3085;8400;840
t3086;7800;780
t3087;7200;720
t3088;6300;630
t3089;6000;600
t3090;6600;660
t3091;7200;720
t3092;8400;840
t3093;7800;780
t3094;6600;660
t3095;5400;540
t3096;4800;480
t3097;4200;420
t3098;4500;450
t3099;5100;510
t3100;5700;570
t3101;6000;600
t3102;6600;660
t3103;6900;690
t3104;7200;720
t3105;7800;780
t3106;8400;840
t3107;8700;870
t3108;9000;900
t3109;8400;840
t3110;7800;780
t3111;7200;720
t3112;6300;630
t3113;6000;600
t3114;6600;660
t3115;7200;720
t3116;8400;840
t3117;7800;780
t3118;6600;660
t3119;5400;540
t3120;4800;480
t3121;4200;420
t3122;4500;450
t3123;5100;510
t3124;5700;570
t3125;6000;600
t3126;6600;660
t3127;6900;690
t3128;7200;720
t3129;7800;780
t3130;8400;840
t3131;8700;870
t3132;9000;900
t3133;8400;840
t3134;7800;780
t3135;7200;720
t3136;6300;630
t3137;6000;600
t3138;6600;660
t3139;7200;720
t3140;8400;840
t3141;7800;780
t3142;6600;660
t3143;5400;540
t3144;4800;480
t3145;3360;336
t3146;3600;360
t3147;4080;408
t3148;4560;456
t3149;4800;480
t3150;5280;528
t3151;5520;552
t3152;5760;576
t3153;6240;624
t3154;6720;672
t3155;6960;696
t3156;7200;720
t3157;6720;672
t3158;6240;624
t3159;5760;576
t3160;5040;504
t3161;4800;480
t3162;5280;528
t3163;5760;576
t3164;6720;672
t3165;6240;624
t3166;5280;528
t3167;4320;432
t3168;3840;384
t3169;3360;336
t3170;3600;360
t3171;4080;408
t3172;4560;456
t3173;4800;480
t3174;5280;528
t3175;5520;552
t3176;5760;576
t3177;6240;624
t3178;6720;672
t3179;6960;696
t3180;7200;720
t3181;6720;672
t3182;6240;624
t3183;5760;576
t3184;5040;504
t3185;4800;480
t3186;5280;528
t3187;5760;576
t3188;6720;672
t3189;6240;624
t3190;5280;528
t3191;4320;432
t3192;3840;384
t3193;4200;420
t3194;4500;450
t3195;5100;510
t3196;5700;570
t3197;6000;600
t3198;6600;660
t3199;6900;690
t3200;7200;720
t3201;7800;780
t3202;8400;840
t3203;8700;870
t3204;9000;900
t3205;8400;840
t3206;7800;780
t3207;7200;720
t3208;6300;630
t3209;6000;600
t3210;6600;660
t3211;7200;720
t3212;8400;840
t3213;7800;780
t3214;6600;660
t3215;5400;540
t3216;4800;480
t3217;4200;420
t3218;4500;450
t3219;5100;510
t3220;5700;570
t3221;6000;600
t3222;6600;660
t3223;6900;690
t3224;7200;720
t3225;7800;780
t3226;8400;840
t3227;8700;870
t3228;9000;900
t3229;8400;840
t3230;7800;780
t3231;7200;720
t3232;6300;630
t3233;6000;600
t3234;6600;660
t3235;7200;720
t3236;8400;840
t3237;7800;780
t3238;6600;660
t3239;5400;540
t3240;4800;480
t3241;4200;420
t3242;4500;450
t3243;5100;510
t3244;5700;570
t3245;6000;600
t3246;6600;660
t3247;6900;690
t3248;7200;720
t3249;7800;780
t3250;8400;840
t3251;8700;870
t3252;9000;900
t3253;8400;840
t3254;7800;780
t3255;7200;720
t3256;6300;630
t3257;6000;600
t3258;6600;660
t3259;7200;720
t3260;8400;840
t3261;7800;780
t3262;6600;660
t3263;5400;540
t3264;4800;480
t3265;4200;420
t3266;4500;450
t3267;5100;510
t3268;5700;570
t3269;6000;600
t3270;6600;660
t3271;6900;690
t3272;7200;720
t3273;7800;780
t3274;8400;840
t3275;8700;870
t3276;9000;900
t3277;8400;840
t3278;7800;780
t3279;7200;720
t3280;6300;630
t3281;6000;600
t3282;6600;660
t3283;7200;720
t3284;8400;840
t3285;7800;780
t3286;6600;660
t3287;5400;540
t3288;4800;480
t3289;4200;420
t3290;4500;450
t3291;5100;510
t3292;5700;570
t3293;6000;600
t3294;6600;660
t3295;6900;690
t3296;7200;720
t3297;7800;780
t3298;8400;840
t3299;8700;870
t3300;9000;900
t3301;8400;840
t3302;7800;780
t3303;7200;720
t3304;6300;630
t3305;6000;600
t3306;6600;660
t3307;7200;720
t3308;8400;840
t3309;7800;780
t3310;6600;660
t3311;5400;540
t3312;4800;480
t3313;3360;336
t3314;3600;360
t3315;4080;408
t3316;4560;456
t3317;4800;480
t3318;5280;528
t3319;5520;552
t3320;5760;576
t3321;6240;624
t3322;6720;672
t3323;6960;696
t3324;7200;720
t3325;6720;672
t3326;6240;624
t3327;5760;576
t3328;5040;504
t3329;4800;480
t3330;5280;528
t3331;5760;576
t3332;6720;672
t3333;6240;624
t3334;5280;528
t3335;4320;432
t3336;3840;384
t3337;3360;336
t3338;3600;360
t3339;4080;408
t3340;4560;456
t3341;4800;480
t3342;5280;528
t3343;5520;552
t3344;5760;576
t3345;6240;624
t3346;6720;672
t3347;6960;696
t3348;7200;720
t3349;6720;672
t3350;6240;624
t3351;5760;576
t3352;5040;504
t3353;4800;480
t3354;5280;528
t3355;5760;576
t3356;6720;672
t3357;6240;624
t3358;5280;528
t3359;4320;432
t3360;3840;384
