t;Dt;Rt
t1;4900;490
t2;5250;525
t3;5950;595
t4;6650;665
t5;7000;700
t6;7700;770
t7;8050;805
t8;8400;840
t9;9100;910
t10;9800;980
t11;10150;1015
t12;10500;1050
t13;9800;980
t14;9100;910
t15;8400;840
t16;7350;735
t17;7000;700
t18;7700;770
t19;8400;840
t20;9800;980
t21;9100;910
t22;7700;770
t23;6300;630
t24;5600;560
t25;4900;490
t26;5250;525
t27;5950;595
t28;6650;665
t29;7000;700
t30;7700;770
t31;8050;805
t32;8400;840
t33;9100;910
t34;9800;980
t35;10150;1015
t36;10500;1050
t37;9800;980
t38;9100;910
t39;8400;840
t40;7350;735
t41;7000;700
t42;7700;770
t43;8400;840
t44;9800;980
t45;9100;910
t46;7700;770
t47;6300;630
t48;5600;560
t49;4900;490
t50;5250;525
t51;5950;595
t52;6650;665
t53;7000;700
t54;7700;770
t55;8050;805
t56;8400;840
t57;9100;910
t58;9800;980
t59;10150;1015
t60;10500;1050
t61;9800;980
t62;9100;910
t63;8400;840
t64;7350;735
t65;7000;700
t66;7700;770
t67;8400;840
t68;9800;980
t69;9100;910
t70;7700;770
t71;6300;630
t72;5600;560
t73;4900;490
t74;5250;525
t75;5950;595
t76;6650;665
t77;7000;700
t78;7700;770
t79;8050;805
t80;8400;840
t81;9100;910
t82;9800;980
t83;10150;1015
t84;10500;1050
t85;9800;980
t86;9100;910
t87;8400;840
t88;7350;735
t89;7000;700
t90;7700;770
t91;8400;840
t92;9800;980
t93;9100;910
t94;7700;770
t95;6300;630
t96;5600;560
t97;4900;490
t98;5250;525
t99;5950;595
t100;6650;665
t101;7000;700
t102;7700;770
t103;8050;805
t104;8400;840
t105;9100;910
t106;9800;980
t107;10150;1015
t108;10500;1050
t109;9800;980
t110;9100;910
t111;8400;840
t112;7350;735
t113;7000;700
t114;7700;770
t115;8400;840
t116;9800;980
t117;9100;910
t118;7700;770
t119;6300;630
t120;5600;560
t121;3920;392
t122;4200;420
t123;4760;476
t124;5320;532
t125;5600;560
t126;6160;616
t127;6440;644
t128;6720;672
t129;7280;728
t130;7840;784
t131;8120;812
t132;8400;840
t133;7840;784
t134;7280;728
t135;6720;672
t136;5880;588
t137;5600;560
t138;6160;616
t139;6720;672
t140;7840;784
t141;7280;728
t142;6160;616
t143;5040;504
t144;4480;448
t145;3920;392
t146;4200;420
t147;4760;476
t148;5320;532
t149;5600;560
t150;6160;616
t151;6440;644
t152;6720;672
t153;7280;728
t154;7840;784
t155;8120;812
t156;8400;840
t157;7840;784
t158;7280;728
t159;6720;672
t160;5880;588
t161;5600;560
t162;6160;616
t163;6720;672
t164;7840;784
t165;7280;728
t166;6160;616
t167;5040;504
t168;4480;448
