i;PMax;PMin;MUT;MDT;Kvar;Kfix;K_Warmstart;K_Coldstart;Beta;Prioritšt;SZInit;BZInit;uInit;Marginalcosts
i1;455;150;8;8;16,19;3428,5;4500;9000;14;1;0;8;1;18,3898021978022
i2;455;150;8;8;17,26;3559;5000;10000;14;9;0;8;1;19,3948681318681
i3;130;20;5;5;16,6;1032;550;1100;10;25;5;0;0;21,9886153846154
i4;130;20;5;5;16,5;1010;560;1120;10;17;5;0;0;21,7357692307692
i5;162;25;6;6;19,7;942,5;900;1800;11;33;6;0;0;22,4837777777778
i6;80;20;3;3;22,26;815,2;170;340;6;41;3;0;0;26,892
i7;85;25;3;3;27,74;1173,5;260;520;6;49;3;0;0;33,3950588235294
i8;55;10;1;1;25,92;919,2;30;60;2;57;1;0;0;37,929
i9;55;10;1;1;27,27;937,7;30;60;2;65;1;0;0;39,3709090909091
i10;55;10;1;1;27,79;947,9;30;60;2;73;1;0;0;39,9828181818182
i11;455;150;8;8;16,19;3428,5;4500;9000;14;2;0;8;1;18,3998021978022
i12;455;150;8;8;17,26;3559;5000;10000;14;10;0;8;1;19,4048681318681
i13;130;20;5;5;16,6;1032;550;1100;10;26;5;0;0;21,9986153846154
i14;130;20;5;5;16,5;1010;560;1120;10;18;5;0;0;21,7457692307692
i15;162;25;6;6;19,7;942,5;900;1800;11;34;6;0;0;22,4937777777778
i16;80;20;3;3;22,26;815,2;170;340;6;42;3;0;0;26,902
i17;85;25;3;3;27,74;1173,5;260;520;6;50;3;0;0;33,4050588235294
i18;55;10;1;1;25,92;919,2;30;60;2;58;1;0;0;37,939
i19;55;10;1;1;27,27;937,7;30;60;2;66;1;0;0;39,3809090909091
i20;55;10;1;1;27,79;947,9;30;60;2;74;1;0;0;39,9928181818182
i21;455;150;8;8;16,19;3428,5;4500;9000;14;3;0;8;1;18,4098021978022
i22;455;150;8;8;17,26;3559;5000;10000;14;11;0;8;1;19,4148681318681
i23;130;20;5;5;16,6;1032;550;1100;10;27;5;0;0;22,0086153846154
i24;130;20;5;5;16,5;1010;560;1120;10;19;5;0;0;21,7557692307692
i25;162;25;6;6;19,7;942,5;900;1800;11;35;6;0;0;22,5037777777778
i26;80;20;3;3;22,26;815,2;170;340;6;43;3;0;0;26,912
i27;85;25;3;3;27,74;1173,5;260;520;6;51;3;0;0;33,4150588235294
i28;55;10;1;1;25,92;919,2;30;60;2;59;1;0;0;37,949
i29;55;10;1;1;27,27;937,7;30;60;2;67;1;0;0;39,3909090909091
i30;55;10;1;1;27,79;947,9;30;60;2;75;1;0;0;40,0028181818182
i31;455;150;8;8;16,19;3428,5;4500;9000;14;4;0;8;1;18,4198021978022
i32;455;150;8;8;17,26;3559;5000;10000;14;12;0;8;1;19,4248681318681
i33;130;20;5;5;16,6;1032;550;1100;10;28;5;0;0;22,0186153846154
i34;130;20;5;5;16,5;1010;560;1120;10;20;5;0;0;21,7657692307692
i35;162;25;6;6;19,7;942,5;900;1800;11;36;6;0;0;22,5137777777778
i36;80;20;3;3;22,26;815,2;170;340;6;44;3;0;0;26,922
i37;85;25;3;3;27,74;1173,5;260;520;6;52;3;0;0;33,4250588235294
i38;55;10;1;1;25,92;919,2;30;60;2;60;1;0;0;37,959
i39;55;10;1;1;27,27;937,7;30;60;2;68;1;0;0;39,4009090909091
i40;55;10;1;1;27,79;947,9;30;60;2;76;1;0;0;40,0128181818182
i41;455;150;8;8;16,19;3428,5;4500;9000;14;5;0;8;1;18,4298021978022
i42;455;150;8;8;17,26;3559;5000;10000;14;13;0;8;1;19,4348681318681
i43;130;20;5;5;16,6;1032;550;1100;10;29;5;0;0;22,0286153846154
i44;130;20;5;5;16,5;1010;560;1120;10;21;5;0;0;21,7757692307692
i45;162;25;6;6;19,7;942,5;900;1800;11;37;6;0;0;22,5237777777778
i46;80;20;3;3;22,26;815,2;170;340;6;45;3;0;0;26,932
i47;85;25;3;3;27,74;1173,5;260;520;6;53;3;0;0;33,4350588235294
i48;55;10;1;1;25,92;919,2;30;60;2;61;1;0;0;37,969
i49;55;10;1;1;27,27;937,7;30;60;2;69;1;0;0;39,4109090909091
i50;55;10;1;1;27,79;947,9;30;60;2;77;1;0;0;40,0228181818182
i51;455;150;8;8;16,19;3428,5;4500;9000;14;6;0;8;1;18,4398021978022
i52;455;150;8;8;17,26;3559;5000;10000;14;14;0;8;1;19,4448681318681
i53;130;20;5;5;16,6;1032;550;1100;10;30;5;0;0;22,0386153846154
i54;130;20;5;5;16,5;1010;560;1120;10;22;5;0;0;21,7857692307692
i55;162;25;6;6;19,7;942,5;900;1800;11;38;6;0;0;22,5337777777778
i56;80;20;3;3;22,26;815,2;170;340;6;46;3;0;0;26,942
i57;85;25;3;3;27,74;1173,5;260;520;6;54;3;0;0;33,4450588235294
i58;55;10;1;1;25,92;919,2;30;60;2;62;1;0;0;37,979
i59;55;10;1;1;27,27;937,7;30;60;2;70;1;0;0;39,4209090909091
i60;55;10;1;1;27,79;947,9;30;60;2;78;1;0;0;40,0328181818182
i61;455;150;8;8;16,19;3428,5;4500;9000;14;7;0;8;1;18,4498021978022
i62;455;150;8;8;17,26;3559;5000;10000;14;15;0;8;1;19,4548681318681
i63;130;20;5;5;16,6;1032;550;1100;10;31;5;0;0;22,0486153846154
i64;130;20;5;5;16,5;1010;560;1120;10;23;5;0;0;21,7957692307692
i65;162;25;6;6;19,7;942,5;900;1800;11;39;6;0;0;22,5437777777778
i66;80;20;3;3;22,26;815,2;170;340;6;47;3;0;0;26,952
i67;85;25;3;3;27,74;1173,5;260;520;6;55;3;0;0;33,4550588235294
i68;55;10;1;1;25,92;919,2;30;60;2;63;1;0;0;37,989
i69;55;10;1;1;27,27;937,7;30;60;2;71;1;0;0;39,4309090909091
i70;55;10;1;1;27,79;947,9;30;60;2;79;1;0;0;40,0428181818182
i71;455;150;8;8;16,19;3428,5;4500;9000;14;8;0;8;1;18,4598021978022
i72;455;150;8;8;17,26;3559;5000;10000;14;16;0;8;1;19,4648681318681
i73;130;20;5;5;16,6;1032;550;1100;10;32;5;0;0;22,0586153846154
i74;130;20;5;5;16,5;1010;560;1120;10;24;5;0;0;21,8057692307692
i75;162;25;6;6;19,7;942,5;900;1800;11;40;6;0;0;22,5537777777778
i76;80;20;3;3;22,26;815,2;170;340;6;48;3;0;0;26,962
i77;85;25;3;3;27,74;1173,5;260;520;6;56;3;0;0;33,4650588235294
i78;55;10;1;1;25,92;919,2;30;60;2;64;1;0;0;37,999
i79;55;10;1;1;27,27;937,7;30;60;2;72;1;0;0;39,4409090909091
i80;55;10;1;1;27,79;947,9;30;60;2;80;1;0;0;40,0528181818182
