t;Dt;Rt
t1;5600;560
t2;6000;600
t3;6800;680
t4;7600;760
t5;8000;800
t6;8800;880
t7;9200;920
t8;9600;960
t9;10400;1040
t10;11200;1120
t11;11600;1160
t12;12000;1200
t13;11200;1120
t14;10400;1040
t15;9600;960
t16;8400;840
t17;8000;800
t18;8800;880
t19;9600;960
t20;11200;1120
t21;10400;1040
t22;8800;880
t23;7200;720
t24;6400;640
t25;5600;560
t26;6000;600
t27;6800;680
t28;7600;760
t29;8000;800
t30;8800;880
t31;9200;920
t32;9600;960
t33;10400;1040
t34;11200;1120
t35;11600;1160
t36;12000;1200
t37;11200;1120
t38;10400;1040
t39;9600;960
t40;8400;840
t41;8000;800
t42;8800;880
t43;9600;960
t44;11200;1120
t45;10400;1040
t46;8800;880
t47;7200;720
t48;6400;640
t49;5600;560
t50;6000;600
t51;6800;680
t52;7600;760
t53;8000;800
t54;8800;880
t55;9200;920
t56;9600;960
t57;10400;1040
t58;11200;1120
t59;11600;1160
t60;12000;1200
t61;11200;1120
t62;10400;1040
t63;9600;960
t64;8400;840
t65;8000;800
t66;8800;880
t67;9600;960
t68;11200;1120
t69;10400;1040
t70;8800;880
t71;7200;720
t72;6400;640
t73;5600;560
t74;6000;600
t75;6800;680
t76;7600;760
t77;8000;800
t78;8800;880
t79;9200;920
t80;9600;960
t81;10400;1040
t82;11200;1120
t83;11600;1160
t84;12000;1200
t85;11200;1120
t86;10400;1040
t87;9600;960
t88;8400;840
t89;8000;800
t90;8800;880
t91;9600;960
t92;11200;1120
t93;10400;1040
t94;8800;880
t95;7200;720
t96;6400;640
t97;5600;560
t98;6000;600
t99;6800;680
t100;7600;760
t101;8000;800
t102;8800;880
t103;9200;920
t104;9600;960
t105;10400;1040
t106;11200;1120
t107;11600;1160
t108;12000;1200
t109;11200;1120
t110;10400;1040
t111;9600;960
t112;8400;840
t113;8000;800
t114;8800;880
t115;9600;960
t116;11200;1120
t117;10400;1040
t118;8800;880
t119;7200;720
t120;6400;640
t121;4480;448
t122;4800;480
t123;5440;544
t124;6080;608
t125;6400;640
t126;7040;704
t127;7360;736
t128;7680;768
t129;8320;832
t130;8960;896
t131;9280;928
t132;9600;960
t133;8960;896
t134;8320;832
t135;7680;768
t136;6720;672
t137;6400;640
t138;7040;704
t139;7680;768
t140;8960;896
t141;8320;832
t142;7040;704
t143;5760;576
t144;5120;512
t145;4480;448
t146;4800;480
t147;5440;544
t148;6080;608
t149;6400;640
t150;7040;704
t151;7360;736
t152;7680;768
t153;8320;832
t154;8960;896
t155;9280;928
t156;9600;960
t157;8960;896
t158;8320;832
t159;7680;768
t160;6720;672
t161;6400;640
t162;7040;704
t163;7680;768
t164;8960;896
t165;8320;832
t166;7040;704
t167;5760;576
t168;5120;512
t169;5600;560
t170;6000;600
t171;6800;680
t172;7600;760
t173;8000;800
t174;8800;880
t175;9200;920
t176;9600;960
t177;10400;1040
t178;11200;1120
t179;11600;1160
t180;12000;1200
t181;11200;1120
t182;10400;1040
t183;9600;960
t184;8400;840
t185;8000;800
t186;8800;880
t187;9600;960
t188;11200;1120
t189;10400;1040
t190;8800;880
t191;7200;720
t192;6400;640
t193;5600;560
t194;6000;600
t195;6800;680
t196;7600;760
t197;8000;800
t198;8800;880
t199;9200;920
t200;9600;960
t201;10400;1040
t202;11200;1120
t203;11600;1160
t204;12000;1200
t205;11200;1120
t206;10400;1040
t207;9600;960
t208;8400;840
t209;8000;800
t210;8800;880
t211;9600;960
t212;11200;1120
t213;10400;1040
t214;8800;880
t215;7200;720
t216;6400;640
t217;5600;560
t218;6000;600
t219;6800;680
t220;7600;760
t221;8000;800
t222;8800;880
t223;9200;920
t224;9600;960
t225;10400;1040
t226;11200;1120
t227;11600;1160
t228;12000;1200
t229;11200;1120
t230;10400;1040
t231;9600;960
t232;8400;840
t233;8000;800
t234;8800;880
t235;9600;960
t236;11200;1120
t237;10400;1040
t238;8800;880
t239;7200;720
t240;6400;640
t241;5600;560
t242;6000;600
t243;6800;680
t244;7600;760
t245;8000;800
t246;8800;880
t247;9200;920
t248;9600;960
t249;10400;1040
t250;11200;1120
t251;11600;1160
t252;12000;1200
t253;11200;1120
t254;10400;1040
t255;9600;960
t256;8400;840
t257;8000;800
t258;8800;880
t259;9600;960
t260;11200;1120
t261;10400;1040
t262;8800;880
t263;7200;720
t264;6400;640
t265;5600;560
t266;6000;600
t267;6800;680
t268;7600;760
t269;8000;800
t270;8800;880
t271;9200;920
t272;9600;960
t273;10400;1040
t274;11200;1120
t275;11600;1160
t276;12000;1200
t277;11200;1120
t278;10400;1040
t279;9600;960
t280;8400;840
t281;8000;800
t282;8800;880
t283;9600;960
t284;11200;1120
t285;10400;1040
t286;8800;880
t287;7200;720
t288;6400;640
t289;4480;448
t290;4800;480
t291;5440;544
t292;6080;608
t293;6400;640
t294;7040;704
t295;7360;736
t296;7680;768
t297;8320;832
t298;8960;896
t299;9280;928
t300;9600;960
t301;8960;896
t302;8320;832
t303;7680;768
t304;6720;672
t305;6400;640
t306;7040;704
t307;7680;768
t308;8960;896
t309;8320;832
t310;7040;704
t311;5760;576
t312;5120;512
t313;4480;448
t314;4800;480
t315;5440;544
t316;6080;608
t317;6400;640
t318;7040;704
t319;7360;736
t320;7680;768
t321;8320;832
t322;8960;896
t323;9280;928
t324;9600;960
t325;8960;896
t326;8320;832
t327;7680;768
t328;6720;672
t329;6400;640
t330;7040;704
t331;7680;768
t332;8960;896
t333;8320;832
t334;7040;704
t335;5760;576
t336;5120;512
t337;5600;560
t338;6000;600
t339;6800;680
t340;7600;760
t341;8000;800
t342;8800;880
t343;9200;920
t344;9600;960
t345;10400;1040
t346;11200;1120
t347;11600;1160
t348;12000;1200
t349;11200;1120
t350;10400;1040
t351;9600;960
t352;8400;840
t353;8000;800
t354;8800;880
t355;9600;960
t356;11200;1120
t357;10400;1040
t358;8800;880
t359;7200;720
t360;6400;640
t361;5600;560
t362;6000;600
t363;6800;680
t364;7600;760
t365;8000;800
t366;8800;880
t367;9200;920
t368;9600;960
t369;10400;1040
t370;11200;1120
t371;11600;1160
t372;12000;1200
t373;11200;1120
t374;10400;1040
t375;9600;960
t376;8400;840
t377;8000;800
t378;8800;880
t379;9600;960
t380;11200;1120
t381;10400;1040
t382;8800;880
t383;7200;720
t384;6400;640
t385;5600;560
t386;6000;600
t387;6800;680
t388;7600;760
t389;8000;800
t390;8800;880
t391;9200;920
t392;9600;960
t393;10400;1040
t394;11200;1120
t395;11600;1160
t396;12000;1200
t397;11200;1120
t398;10400;1040
t399;9600;960
t400;8400;840
t401;8000;800
t402;8800;880
t403;9600;960
t404;11200;1120
t405;10400;1040
t406;8800;880
t407;7200;720
t408;6400;640
t409;5600;560
t410;6000;600
t411;6800;680
t412;7600;760
t413;8000;800
t414;8800;880
t415;9200;920
t416;9600;960
t417;10400;1040
t418;11200;1120
t419;11600;1160
t420;12000;1200
t421;11200;1120
t422;10400;1040
t423;9600;960
t424;8400;840
t425;8000;800
t426;8800;880
t427;9600;960
t428;11200;1120
t429;10400;1040
t430;8800;880
t431;7200;720
t432;6400;640
t433;5600;560
t434;6000;600
t435;6800;680
t436;7600;760
t437;8000;800
t438;8800;880
t439;9200;920
t440;9600;960
t441;10400;1040
t442;11200;1120
t443;11600;1160
t444;12000;1200
t445;11200;1120
t446;10400;1040
t447;9600;960
t448;8400;840
t449;8000;800
t450;8800;880
t451;9600;960
t452;11200;1120
t453;10400;1040
t454;8800;880
t455;7200;720
t456;6400;640
t457;4480;448
t458;4800;480
t459;5440;544
t460;6080;608
t461;6400;640
t462;7040;704
t463;7360;736
t464;7680;768
t465;8320;832
t466;8960;896
t467;9280;928
t468;9600;960
t469;8960;896
t470;8320;832
t471;7680;768
t472;6720;672
t473;6400;640
t474;7040;704
t475;7680;768
t476;8960;896
t477;8320;832
t478;7040;704
t479;5760;576
t480;5120;512
t481;4480;448
t482;4800;480
t483;5440;544
t484;6080;608
t485;6400;640
t486;7040;704
t487;7360;736
t488;7680;768
t489;8320;832
t490;8960;896
t491;9280;928
t492;9600;960
t493;8960;896
t494;8320;832
t495;7680;768
t496;6720;672
t497;6400;640
t498;7040;704
t499;7680;768
t500;8960;896
t501;8320;832
t502;7040;704
t503;5760;576
t504;5120;512
t505;5600;560
t506;6000;600
t507;6800;680
t508;7600;760
t509;8000;800
t510;8800;880
t511;9200;920
t512;9600;960
t513;10400;1040
t514;11200;1120
t515;11600;1160
t516;12000;1200
t517;11200;1120
t518;10400;1040
t519;9600;960
t520;8400;840
t521;8000;800
t522;8800;880
t523;9600;960
t524;11200;1120
t525;10400;1040
t526;8800;880
t527;7200;720
t528;6400;640
t529;5600;560
t530;6000;600
t531;6800;680
t532;7600;760
t533;8000;800
t534;8800;880
t535;9200;920
t536;9600;960
t537;10400;1040
t538;11200;1120
t539;11600;1160
t540;12000;1200
t541;11200;1120
t542;10400;1040
t543;9600;960
t544;8400;840
t545;8000;800
t546;8800;880
t547;9600;960
t548;11200;1120
t549;10400;1040
t550;8800;880
t551;7200;720
t552;6400;640
t553;5600;560
t554;6000;600
t555;6800;680
t556;7600;760
t557;8000;800
t558;8800;880
t559;9200;920
t560;9600;960
t561;10400;1040
t562;11200;1120
t563;11600;1160
t564;12000;1200
t565;11200;1120
t566;10400;1040
t567;9600;960
t568;8400;840
t569;8000;800
t570;8800;880
t571;9600;960
t572;11200;1120
t573;10400;1040
t574;8800;880
t575;7200;720
t576;6400;640
t577;5600;560
t578;6000;600
t579;6800;680
t580;7600;760
t581;8000;800
t582;8800;880
t583;9200;920
t584;9600;960
t585;10400;1040
t586;11200;1120
t587;11600;1160
t588;12000;1200
t589;11200;1120
t590;10400;1040
t591;9600;960
t592;8400;840
t593;8000;800
t594;8800;880
t595;9600;960
t596;11200;1120
t597;10400;1040
t598;8800;880
t599;7200;720
t600;6400;640
t601;5600;560
t602;6000;600
t603;6800;680
t604;7600;760
t605;8000;800
t606;8800;880
t607;9200;920
t608;9600;960
t609;10400;1040
t610;11200;1120
t611;11600;1160
t612;12000;1200
t613;11200;1120
t614;10400;1040
t615;9600;960
t616;8400;840
t617;8000;800
t618;8800;880
t619;9600;960
t620;11200;1120
t621;10400;1040
t622;8800;880
t623;7200;720
t624;6400;640
t625;4480;448
t626;4800;480
t627;5440;544
t628;6080;608
t629;6400;640
t630;7040;704
t631;7360;736
t632;7680;768
t633;8320;832
t634;8960;896
t635;9280;928
t636;9600;960
t637;8960;896
t638;8320;832
t639;7680;768
t640;6720;672
t641;6400;640
t642;7040;704
t643;7680;768
t644;8960;896
t645;8320;832
t646;7040;704
t647;5760;576
t648;5120;512
t649;4480;448
t650;4800;480
t651;5440;544
t652;6080;608
t653;6400;640
t654;7040;704
t655;7360;736
t656;7680;768
t657;8320;832
t658;8960;896
t659;9280;928
t660;9600;960
t661;8960;896
t662;8320;832
t663;7680;768
t664;6720;672
t665;6400;640
t666;7040;704
t667;7680;768
t668;8960;896
t669;8320;832
t670;7040;704
t671;5760;576
t672;5120;512
t673;5600;560
t674;6000;600
t675;6800;680
t676;7600;760
t677;8000;800
t678;8800;880
t679;9200;920
t680;9600;960
t681;10400;1040
t682;11200;1120
t683;11600;1160
t684;12000;1200
t685;11200;1120
t686;10400;1040
t687;9600;960
t688;8400;840
t689;8000;800
t690;8800;880
t691;9600;960
t692;11200;1120
t693;10400;1040
t694;8800;880
t695;7200;720
t696;6400;640
t697;5600;560
t698;6000;600
t699;6800;680
t700;7600;760
t701;8000;800
t702;8800;880
t703;9200;920
t704;9600;960
t705;10400;1040
t706;11200;1120
t707;11600;1160
t708;12000;1200
t709;11200;1120
t710;10400;1040
t711;9600;960
t712;8400;840
t713;8000;800
t714;8800;880
t715;9600;960
t716;11200;1120
t717;10400;1040
t718;8800;880
t719;7200;720
t720;6400;640
t721;5600;560
t722;6000;600
t723;6800;680
t724;7600;760
t725;8000;800
t726;8800;880
t727;9200;920
t728;9600;960
t729;10400;1040
t730;11200;1120
t731;11600;1160
t732;12000;1200
t733;11200;1120
t734;10400;1040
t735;9600;960
t736;8400;840
t737;8000;800
t738;8800;880
t739;9600;960
t740;11200;1120
t741;10400;1040
t742;8800;880
t743;7200;720
t744;6400;640
t745;5600;560
t746;6000;600
t747;6800;680
t748;7600;760
t749;8000;800
t750;8800;880
t751;9200;920
t752;9600;960
t753;10400;1040
t754;11200;1120
t755;11600;1160
t756;12000;1200
t757;11200;1120
t758;10400;1040
t759;9600;960
t760;8400;840
t761;8000;800
t762;8800;880
t763;9600;960
t764;11200;1120
t765;10400;1040
t766;8800;880
t767;7200;720
t768;6400;640
t769;5600;560
t770;6000;600
t771;6800;680
t772;7600;760
t773;8000;800
t774;8800;880
t775;9200;920
t776;9600;960
t777;10400;1040
t778;11200;1120
t779;11600;1160
t780;12000;1200
t781;11200;1120
t782;10400;1040
t783;9600;960
t784;8400;840
t785;8000;800
t786;8800;880
t787;9600;960
t788;11200;1120
t789;10400;1040
t790;8800;880
t791;7200;720
t792;6400;640
t793;4480;448
t794;4800;480
t795;5440;544
t796;6080;608
t797;6400;640
t798;7040;704
t799;7360;736
t800;7680;768
t801;8320;832
t802;8960;896
t803;9280;928
t804;9600;960
t805;8960;896
t806;8320;832
t807;7680;768
t808;6720;672
t809;6400;640
t810;7040;704
t811;7680;768
t812;8960;896
t813;8320;832
t814;7040;704
t815;5760;576
t816;5120;512
t817;4480;448
t818;4800;480
t819;5440;544
t820;6080;608
t821;6400;640
t822;7040;704
t823;7360;736
t824;7680;768
t825;8320;832
t826;8960;896
t827;9280;928
t828;9600;960
t829;8960;896
t830;8320;832
t831;7680;768
t832;6720;672
t833;6400;640
t834;7040;704
t835;7680;768
t836;8960;896
t837;8320;832
t838;7040;704
t839;5760;576
t840;5120;512
t841;5600;560
t842;6000;600
t843;6800;680
t844;7600;760
t845;8000;800
t846;8800;880
t847;9200;920
t848;9600;960
t849;10400;1040
t850;11200;1120
t851;11600;1160
t852;12000;1200
t853;11200;1120
t854;10400;1040
t855;9600;960
t856;8400;840
t857;8000;800
t858;8800;880
t859;9600;960
t860;11200;1120
t861;10400;1040
t862;8800;880
t863;7200;720
t864;6400;640
t865;5600;560
t866;6000;600
t867;6800;680
t868;7600;760
t869;8000;800
t870;8800;880
t871;9200;920
t872;9600;960
t873;10400;1040
t874;11200;1120
t875;11600;1160
t876;12000;1200
t877;11200;1120
t878;10400;1040
t879;9600;960
t880;8400;840
t881;8000;800
t882;8800;880
t883;9600;960
t884;11200;1120
t885;10400;1040
t886;8800;880
t887;7200;720
t888;6400;640
t889;5600;560
t890;6000;600
t891;6800;680
t892;7600;760
t893;8000;800
t894;8800;880
t895;9200;920
t896;9600;960
t897;10400;1040
t898;11200;1120
t899;11600;1160
t900;12000;1200
t901;11200;1120
t902;10400;1040
t903;9600;960
t904;8400;840
t905;8000;800
t906;8800;880
t907;9600;960
t908;11200;1120
t909;10400;1040
t910;8800;880
t911;7200;720
t912;6400;640
t913;5600;560
t914;6000;600
t915;6800;680
t916;7600;760
t917;8000;800
t918;8800;880
t919;9200;920
t920;9600;960
t921;10400;1040
t922;11200;1120
t923;11600;1160
t924;12000;1200
t925;11200;1120
t926;10400;1040
t927;9600;960
t928;8400;840
t929;8000;800
t930;8800;880
t931;9600;960
t932;11200;1120
t933;10400;1040
t934;8800;880
t935;7200;720
t936;6400;640
t937;5600;560
t938;6000;600
t939;6800;680
t940;7600;760
t941;8000;800
t942;8800;880
t943;9200;920
t944;9600;960
t945;10400;1040
t946;11200;1120
t947;11600;1160
t948;12000;1200
t949;11200;1120
t950;10400;1040
t951;9600;960
t952;8400;840
t953;8000;800
t954;8800;880
t955;9600;960
t956;11200;1120
t957;10400;1040
t958;8800;880
t959;7200;720
t960;6400;640
t961;4480;448
t962;4800;480
t963;5440;544
t964;6080;608
t965;6400;640
t966;7040;704
t967;7360;736
t968;7680;768
t969;8320;832
t970;8960;896
t971;9280;928
t972;9600;960
t973;8960;896
t974;8320;832
t975;7680;768
t976;6720;672
t977;6400;640
t978;7040;704
t979;7680;768
t980;8960;896
t981;8320;832
t982;7040;704
t983;5760;576
t984;5120;512
t985;4480;448
t986;4800;480
t987;5440;544
t988;6080;608
t989;6400;640
t990;7040;704
t991;7360;736
t992;7680;768
t993;8320;832
t994;8960;896
t995;9280;928
t996;9600;960
t997;8960;896
t998;8320;832
t999;7680;768
t1000;6720;672
t1001;6400;640
t1002;7040;704
t1003;7680;768
t1004;8960;896
t1005;8320;832
t1006;7040;704
t1007;5760;576
t1008;5120;512
t1009;5600;560
t1010;6000;600
t1011;6800;680
t1012;7600;760
t1013;8000;800
t1014;8800;880
t1015;9200;920
t1016;9600;960
t1017;10400;1040
t1018;11200;1120
t1019;11600;1160
t1020;12000;1200
t1021;11200;1120
t1022;10400;1040
t1023;9600;960
t1024;8400;840
t1025;8000;800
t1026;8800;880
t1027;9600;960
t1028;11200;1120
t1029;10400;1040
t1030;8800;880
t1031;7200;720
t1032;6400;640
t1033;5600;560
t1034;6000;600
t1035;6800;680
t1036;7600;760
t1037;8000;800
t1038;8800;880
t1039;9200;920
t1040;9600;960
t1041;10400;1040
t1042;11200;1120
t1043;11600;1160
t1044;12000;1200
t1045;11200;1120
t1046;10400;1040
t1047;9600;960
t1048;8400;840
t1049;8000;800
t1050;8800;880
t1051;9600;960
t1052;11200;1120
t1053;10400;1040
t1054;8800;880
t1055;7200;720
t1056;6400;640
t1057;5600;560
t1058;6000;600
t1059;6800;680
t1060;7600;760
t1061;8000;800
t1062;8800;880
t1063;9200;920
t1064;9600;960
t1065;10400;1040
t1066;11200;1120
t1067;11600;1160
t1068;12000;1200
t1069;11200;1120
t1070;10400;1040
t1071;9600;960
t1072;8400;840
t1073;8000;800
t1074;8800;880
t1075;9600;960
t1076;11200;1120
t1077;10400;1040
t1078;8800;880
t1079;7200;720
t1080;6400;640
t1081;5600;560
t1082;6000;600
t1083;6800;680
t1084;7600;760
t1085;8000;800
t1086;8800;880
t1087;9200;920
t1088;9600;960
t1089;10400;1040
t1090;11200;1120
t1091;11600;1160
t1092;12000;1200
t1093;11200;1120
t1094;10400;1040
t1095;9600;960
t1096;8400;840
t1097;8000;800
t1098;8800;880
t1099;9600;960
t1100;11200;1120
t1101;10400;1040
t1102;8800;880
t1103;7200;720
t1104;6400;640
t1105;5600;560
t1106;6000;600
t1107;6800;680
t1108;7600;760
t1109;8000;800
t1110;8800;880
t1111;9200;920
t1112;9600;960
t1113;10400;1040
t1114;11200;1120
t1115;11600;1160
t1116;12000;1200
t1117;11200;1120
t1118;10400;1040
t1119;9600;960
t1120;8400;840
t1121;8000;800
t1122;8800;880
t1123;9600;960
t1124;11200;1120
t1125;10400;1040
t1126;8800;880
t1127;7200;720
t1128;6400;640
t1129;4480;448
t1130;4800;480
t1131;5440;544
t1132;6080;608
t1133;6400;640
t1134;7040;704
t1135;7360;736
t1136;7680;768
t1137;8320;832
t1138;8960;896
t1139;9280;928
t1140;9600;960
t1141;8960;896
t1142;8320;832
t1143;7680;768
t1144;6720;672
t1145;6400;640
t1146;7040;704
t1147;7680;768
t1148;8960;896
t1149;8320;832
t1150;7040;704
t1151;5760;576
t1152;5120;512
t1153;4480;448
t1154;4800;480
t1155;5440;544
t1156;6080;608
t1157;6400;640
t1158;7040;704
t1159;7360;736
t1160;7680;768
t1161;8320;832
t1162;8960;896
t1163;9280;928
t1164;9600;960
t1165;8960;896
t1166;8320;832
t1167;7680;768
t1168;6720;672
t1169;6400;640
t1170;7040;704
t1171;7680;768
t1172;8960;896
t1173;8320;832
t1174;7040;704
t1175;5760;576
t1176;5120;512
t1177;5600;560
t1178;6000;600
t1179;6800;680
t1180;7600;760
t1181;8000;800
t1182;8800;880
t1183;9200;920
t1184;9600;960
t1185;10400;1040
t1186;11200;1120
t1187;11600;1160
t1188;12000;1200
t1189;11200;1120
t1190;10400;1040
t1191;9600;960
t1192;8400;840
t1193;8000;800
t1194;8800;880
t1195;9600;960
t1196;11200;1120
t1197;10400;1040
t1198;8800;880
t1199;7200;720
t1200;6400;640
t1201;5600;560
t1202;6000;600
t1203;6800;680
t1204;7600;760
t1205;8000;800
t1206;8800;880
t1207;9200;920
t1208;9600;960
t1209;10400;1040
t1210;11200;1120
t1211;11600;1160
t1212;12000;1200
t1213;11200;1120
t1214;10400;1040
t1215;9600;960
t1216;8400;840
t1217;8000;800
t1218;8800;880
t1219;9600;960
t1220;11200;1120
t1221;10400;1040
t1222;8800;880
t1223;7200;720
t1224;6400;640
t1225;5600;560
t1226;6000;600
t1227;6800;680
t1228;7600;760
t1229;8000;800
t1230;8800;880
t1231;9200;920
t1232;9600;960
t1233;10400;1040
t1234;11200;1120
t1235;11600;1160
t1236;12000;1200
t1237;11200;1120
t1238;10400;1040
t1239;9600;960
t1240;8400;840
t1241;8000;800
t1242;8800;880
t1243;9600;960
t1244;11200;1120
t1245;10400;1040
t1246;8800;880
t1247;7200;720
t1248;6400;640
t1249;5600;560
t1250;6000;600
t1251;6800;680
t1252;7600;760
t1253;8000;800
t1254;8800;880
t1255;9200;920
t1256;9600;960
t1257;10400;1040
t1258;11200;1120
t1259;11600;1160
t1260;12000;1200
t1261;11200;1120
t1262;10400;1040
t1263;9600;960
t1264;8400;840
t1265;8000;800
t1266;8800;880
t1267;9600;960
t1268;11200;1120
t1269;10400;1040
t1270;8800;880
t1271;7200;720
t1272;6400;640
t1273;5600;560
t1274;6000;600
t1275;6800;680
t1276;7600;760
t1277;8000;800
t1278;8800;880
t1279;9200;920
t1280;9600;960
t1281;10400;1040
t1282;11200;1120
t1283;11600;1160
t1284;12000;1200
t1285;11200;1120
t1286;10400;1040
t1287;9600;960
t1288;8400;840
t1289;8000;800
t1290;8800;880
t1291;9600;960
t1292;11200;1120
t1293;10400;1040
t1294;8800;880
t1295;7200;720
t1296;6400;640
t1297;4480;448
t1298;4800;480
t1299;5440;544
t1300;6080;608
t1301;6400;640
t1302;7040;704
t1303;7360;736
t1304;7680;768
t1305;8320;832
t1306;8960;896
t1307;9280;928
t1308;9600;960
t1309;8960;896
t1310;8320;832
t1311;7680;768
t1312;6720;672
t1313;6400;640
t1314;7040;704
t1315;7680;768
t1316;8960;896
t1317;8320;832
t1318;7040;704
t1319;5760;576
t1320;5120;512
t1321;4480;448
t1322;4800;480
t1323;5440;544
t1324;6080;608
t1325;6400;640
t1326;7040;704
t1327;7360;736
t1328;7680;768
t1329;8320;832
t1330;8960;896
t1331;9280;928
t1332;9600;960
t1333;8960;896
t1334;8320;832
t1335;7680;768
t1336;6720;672
t1337;6400;640
t1338;7040;704
t1339;7680;768
t1340;8960;896
t1341;8320;832
t1342;7040;704
t1343;5760;576
t1344;5120;512
t1345;5600;560
t1346;6000;600
t1347;6800;680
t1348;7600;760
t1349;8000;800
t1350;8800;880
t1351;9200;920
t1352;9600;960
t1353;10400;1040
t1354;11200;1120
t1355;11600;1160
t1356;12000;1200
t1357;11200;1120
t1358;10400;1040
t1359;9600;960
t1360;8400;840
t1361;8000;800
t1362;8800;880
t1363;9600;960
t1364;11200;1120
t1365;10400;1040
t1366;8800;880
t1367;7200;720
t1368;6400;640
t1369;5600;560
t1370;6000;600
t1371;6800;680
t1372;7600;760
t1373;8000;800
t1374;8800;880
t1375;9200;920
t1376;9600;960
t1377;10400;1040
t1378;11200;1120
t1379;11600;1160
t1380;12000;1200
t1381;11200;1120
t1382;10400;1040
t1383;9600;960
t1384;8400;840
t1385;8000;800
t1386;8800;880
t1387;9600;960
t1388;11200;1120
t1389;10400;1040
t1390;8800;880
t1391;7200;720
t1392;6400;640
t1393;5600;560
t1394;6000;600
t1395;6800;680
t1396;7600;760
t1397;8000;800
t1398;8800;880
t1399;9200;920
t1400;9600;960
t1401;10400;1040
t1402;11200;1120
t1403;11600;1160
t1404;12000;1200
t1405;11200;1120
t1406;10400;1040
t1407;9600;960
t1408;8400;840
t1409;8000;800
t1410;8800;880
t1411;9600;960
t1412;11200;1120
t1413;10400;1040
t1414;8800;880
t1415;7200;720
t1416;6400;640
t1417;5600;560
t1418;6000;600
t1419;6800;680
t1420;7600;760
t1421;8000;800
t1422;8800;880
t1423;9200;920
t1424;9600;960
t1425;10400;1040
t1426;11200;1120
t1427;11600;1160
t1428;12000;1200
t1429;11200;1120
t1430;10400;1040
t1431;9600;960
t1432;8400;840
t1433;8000;800
t1434;8800;880
t1435;9600;960
t1436;11200;1120
t1437;10400;1040
t1438;8800;880
t1439;7200;720
t1440;6400;640
t1441;5600;560
t1442;6000;600
t1443;6800;680
t1444;7600;760
t1445;8000;800
t1446;8800;880
t1447;9200;920
t1448;9600;960
t1449;10400;1040
t1450;11200;1120
t1451;11600;1160
t1452;12000;1200
t1453;11200;1120
t1454;10400;1040
t1455;9600;960
t1456;8400;840
t1457;8000;800
t1458;8800;880
t1459;9600;960
t1460;11200;1120
t1461;10400;1040
t1462;8800;880
t1463;7200;720
t1464;6400;640
t1465;4480;448
t1466;4800;480
t1467;5440;544
t1468;6080;608
t1469;6400;640
t1470;7040;704
t1471;7360;736
t1472;7680;768
t1473;8320;832
t1474;8960;896
t1475;9280;928
t1476;9600;960
t1477;8960;896
t1478;8320;832
t1479;7680;768
t1480;6720;672
t1481;6400;640
t1482;7040;704
t1483;7680;768
t1484;8960;896
t1485;8320;832
t1486;7040;704
t1487;5760;576
t1488;5120;512
t1489;4480;448
t1490;4800;480
t1491;5440;544
t1492;6080;608
t1493;6400;640
t1494;7040;704
t1495;7360;736
t1496;7680;768
t1497;8320;832
t1498;8960;896
t1499;9280;928
t1500;9600;960
t1501;8960;896
t1502;8320;832
t1503;7680;768
t1504;6720;672
t1505;6400;640
t1506;7040;704
t1507;7680;768
t1508;8960;896
t1509;8320;832
t1510;7040;704
t1511;5760;576
t1512;5120;512
t1513;5600;560
t1514;6000;600
t1515;6800;680
t1516;7600;760
t1517;8000;800
t1518;8800;880
t1519;9200;920
t1520;9600;960
t1521;10400;1040
t1522;11200;1120
t1523;11600;1160
t1524;12000;1200
t1525;11200;1120
t1526;10400;1040
t1527;9600;960
t1528;8400;840
t1529;8000;800
t1530;8800;880
t1531;9600;960
t1532;11200;1120
t1533;10400;1040
t1534;8800;880
t1535;7200;720
t1536;6400;640
t1537;5600;560
t1538;6000;600
t1539;6800;680
t1540;7600;760
t1541;8000;800
t1542;8800;880
t1543;9200;920
t1544;9600;960
t1545;10400;1040
t1546;11200;1120
t1547;11600;1160
t1548;12000;1200
t1549;11200;1120
t1550;10400;1040
t1551;9600;960
t1552;8400;840
t1553;8000;800
t1554;8800;880
t1555;9600;960
t1556;11200;1120
t1557;10400;1040
t1558;8800;880
t1559;7200;720
t1560;6400;640
t1561;5600;560
t1562;6000;600
t1563;6800;680
t1564;7600;760
t1565;8000;800
t1566;8800;880
t1567;9200;920
t1568;9600;960
t1569;10400;1040
t1570;11200;1120
t1571;11600;1160
t1572;12000;1200
t1573;11200;1120
t1574;10400;1040
t1575;9600;960
t1576;8400;840
t1577;8000;800
t1578;8800;880
t1579;9600;960
t1580;11200;1120
t1581;10400;1040
t1582;8800;880
t1583;7200;720
t1584;6400;640
t1585;5600;560
t1586;6000;600
t1587;6800;680
t1588;7600;760
t1589;8000;800
t1590;8800;880
t1591;9200;920
t1592;9600;960
t1593;10400;1040
t1594;11200;1120
t1595;11600;1160
t1596;12000;1200
t1597;11200;1120
t1598;10400;1040
t1599;9600;960
t1600;8400;840
t1601;8000;800
t1602;8800;880
t1603;9600;960
t1604;11200;1120
t1605;10400;1040
t1606;8800;880
t1607;7200;720
t1608;6400;640
t1609;5600;560
t1610;6000;600
t1611;6800;680
t1612;7600;760
t1613;8000;800
t1614;8800;880
t1615;9200;920
t1616;9600;960
t1617;10400;1040
t1618;11200;1120
t1619;11600;1160
t1620;12000;1200
t1621;11200;1120
t1622;10400;1040
t1623;9600;960
t1624;8400;840
t1625;8000;800
t1626;8800;880
t1627;9600;960
t1628;11200;1120
t1629;10400;1040
t1630;8800;880
t1631;7200;720
t1632;6400;640
t1633;4480;448
t1634;4800;480
t1635;5440;544
t1636;6080;608
t1637;6400;640
t1638;7040;704
t1639;7360;736
t1640;7680;768
t1641;8320;832
t1642;8960;896
t1643;9280;928
t1644;9600;960
t1645;8960;896
t1646;8320;832
t1647;7680;768
t1648;6720;672
t1649;6400;640
t1650;7040;704
t1651;7680;768
t1652;8960;896
t1653;8320;832
t1654;7040;704
t1655;5760;576
t1656;5120;512
t1657;4480;448
t1658;4800;480
t1659;5440;544
t1660;6080;608
t1661;6400;640
t1662;7040;704
t1663;7360;736
t1664;7680;768
t1665;8320;832
t1666;8960;896
t1667;9280;928
t1668;9600;960
t1669;8960;896
t1670;8320;832
t1671;7680;768
t1672;6720;672
t1673;6400;640
t1674;7040;704
t1675;7680;768
t1676;8960;896
t1677;8320;832
t1678;7040;704
t1679;5760;576
t1680;5120;512
t1681;5600;560
t1682;6000;600
t1683;6800;680
t1684;7600;760
t1685;8000;800
t1686;8800;880
t1687;9200;920
t1688;9600;960
t1689;10400;1040
t1690;11200;1120
t1691;11600;1160
t1692;12000;1200
t1693;11200;1120
t1694;10400;1040
t1695;9600;960
t1696;8400;840
t1697;8000;800
t1698;8800;880
t1699;9600;960
t1700;11200;1120
t1701;10400;1040
t1702;8800;880
t1703;7200;720
t1704;6400;640
t1705;5600;560
t1706;6000;600
t1707;6800;680
t1708;7600;760
t1709;8000;800
t1710;8800;880
t1711;9200;920
t1712;9600;960
t1713;10400;1040
t1714;11200;1120
t1715;11600;1160
t1716;12000;1200
t1717;11200;1120
t1718;10400;1040
t1719;9600;960
t1720;8400;840
t1721;8000;800
t1722;8800;880
t1723;9600;960
t1724;11200;1120
t1725;10400;1040
t1726;8800;880
t1727;7200;720
t1728;6400;640
t1729;5600;560
t1730;6000;600
t1731;6800;680
t1732;7600;760
t1733;8000;800
t1734;8800;880
t1735;9200;920
t1736;9600;960
t1737;10400;1040
t1738;11200;1120
t1739;11600;1160
t1740;12000;1200
t1741;11200;1120
t1742;10400;1040
t1743;9600;960
t1744;8400;840
t1745;8000;800
t1746;8800;880
t1747;9600;960
t1748;11200;1120
t1749;10400;1040
t1750;8800;880
t1751;7200;720
t1752;6400;640
t1753;5600;560
t1754;6000;600
t1755;6800;680
t1756;7600;760
t1757;8000;800
t1758;8800;880
t1759;9200;920
t1760;9600;960
t1761;10400;1040
t1762;11200;1120
t1763;11600;1160
t1764;12000;1200
t1765;11200;1120
t1766;10400;1040
t1767;9600;960
t1768;8400;840
t1769;8000;800
t1770;8800;880
t1771;9600;960
t1772;11200;1120
t1773;10400;1040
t1774;8800;880
t1775;7200;720
t1776;6400;640
t1777;5600;560
t1778;6000;600
t1779;6800;680
t1780;7600;760
t1781;8000;800
t1782;8800;880
t1783;9200;920
t1784;9600;960
t1785;10400;1040
t1786;11200;1120
t1787;11600;1160
t1788;12000;1200
t1789;11200;1120
t1790;10400;1040
t1791;9600;960
t1792;8400;840
t1793;8000;800
t1794;8800;880
t1795;9600;960
t1796;11200;1120
t1797;10400;1040
t1798;8800;880
t1799;7200;720
t1800;6400;640
t1801;4480;448
t1802;4800;480
t1803;5440;544
t1804;6080;608
t1805;6400;640
t1806;7040;704
t1807;7360;736
t1808;7680;768
t1809;8320;832
t1810;8960;896
t1811;9280;928
t1812;9600;960
t1813;8960;896
t1814;8320;832
t1815;7680;768
t1816;6720;672
t1817;6400;640
t1818;7040;704
t1819;7680;768
t1820;8960;896
t1821;8320;832
t1822;7040;704
t1823;5760;576
t1824;5120;512
t1825;4480;448
t1826;4800;480
t1827;5440;544
t1828;6080;608
t1829;6400;640
t1830;7040;704
t1831;7360;736
t1832;7680;768
t1833;8320;832
t1834;8960;896
t1835;9280;928
t1836;9600;960
t1837;8960;896
t1838;8320;832
t1839;7680;768
t1840;6720;672
t1841;6400;640
t1842;7040;704
t1843;7680;768
t1844;8960;896
t1845;8320;832
t1846;7040;704
t1847;5760;576
t1848;5120;512
t1849;5600;560
t1850;6000;600
t1851;6800;680
t1852;7600;760
t1853;8000;800
t1854;8800;880
t1855;9200;920
t1856;9600;960
t1857;10400;1040
t1858;11200;1120
t1859;11600;1160
t1860;12000;1200
t1861;11200;1120
t1862;10400;1040
t1863;9600;960
t1864;8400;840
t1865;8000;800
t1866;8800;880
t1867;9600;960
t1868;11200;1120
t1869;10400;1040
t1870;8800;880
t1871;7200;720
t1872;6400;640
t1873;5600;560
t1874;6000;600
t1875;6800;680
t1876;7600;760
t1877;8000;800
t1878;8800;880
t1879;9200;920
t1880;9600;960
t1881;10400;1040
t1882;11200;1120
t1883;11600;1160
t1884;12000;1200
t1885;11200;1120
t1886;10400;1040
t1887;9600;960
t1888;8400;840
t1889;8000;800
t1890;8800;880
t1891;9600;960
t1892;11200;1120
t1893;10400;1040
t1894;8800;880
t1895;7200;720
t1896;6400;640
t1897;5600;560
t1898;6000;600
t1899;6800;680
t1900;7600;760
t1901;8000;800
t1902;8800;880
t1903;9200;920
t1904;9600;960
t1905;10400;1040
t1906;11200;1120
t1907;11600;1160
t1908;12000;1200
t1909;11200;1120
t1910;10400;1040
t1911;9600;960
t1912;8400;840
t1913;8000;800
t1914;8800;880
t1915;9600;960
t1916;11200;1120
t1917;10400;1040
t1918;8800;880
t1919;7200;720
t1920;6400;640
t1921;5600;560
t1922;6000;600
t1923;6800;680
t1924;7600;760
t1925;8000;800
t1926;8800;880
t1927;9200;920
t1928;9600;960
t1929;10400;1040
t1930;11200;1120
t1931;11600;1160
t1932;12000;1200
t1933;11200;1120
t1934;10400;1040
t1935;9600;960
t1936;8400;840
t1937;8000;800
t1938;8800;880
t1939;9600;960
t1940;11200;1120
t1941;10400;1040
t1942;8800;880
t1943;7200;720
t1944;6400;640
t1945;5600;560
t1946;6000;600
t1947;6800;680
t1948;7600;760
t1949;8000;800
t1950;8800;880
t1951;9200;920
t1952;9600;960
t1953;10400;1040
t1954;11200;1120
t1955;11600;1160
t1956;12000;1200
t1957;11200;1120
t1958;10400;1040
t1959;9600;960
t1960;8400;840
t1961;8000;800
t1962;8800;880
t1963;9600;960
t1964;11200;1120
t1965;10400;1040
t1966;8800;880
t1967;7200;720
t1968;6400;640
t1969;4480;448
t1970;4800;480
t1971;5440;544
t1972;6080;608
t1973;6400;640
t1974;7040;704
t1975;7360;736
t1976;7680;768
t1977;8320;832
t1978;8960;896
t1979;9280;928
t1980;9600;960
t1981;8960;896
t1982;8320;832
t1983;7680;768
t1984;6720;672
t1985;6400;640
t1986;7040;704
t1987;7680;768
t1988;8960;896
t1989;8320;832
t1990;7040;704
t1991;5760;576
t1992;5120;512
t1993;4480;448
t1994;4800;480
t1995;5440;544
t1996;6080;608
t1997;6400;640
t1998;7040;704
t1999;7360;736
t2000;7680;768
t2001;8320;832
t2002;8960;896
t2003;9280;928
t2004;9600;960
t2005;8960;896
t2006;8320;832
t2007;7680;768
t2008;6720;672
t2009;6400;640
t2010;7040;704
t2011;7680;768
t2012;8960;896
t2013;8320;832
t2014;7040;704
t2015;5760;576
t2016;5120;512
