t;Dt;Rt
t1;6300;630
t2;6750;675
t3;7650;765
t4;8550;855
t5;9000;900
t6;9900;990
t7;10350;1035
t8;10800;1080
t9;11700;1170
t10;12600;1260
t11;13050;1305
t12;13500;1350
t13;12600;1260
t14;11700;1170
t15;10800;1080
t16;9450;945
t17;9000;900
t18;9900;990
t19;10800;1080
t20;12600;1260
t21;11700;1170
t22;9900;990
t23;8100;810
t24;7200;720
t25;6300;630
t26;6750;675
t27;7650;765
t28;8550;855
t29;9000;900
t30;9900;990
t31;10350;1035
t32;10800;1080
t33;11700;1170
t34;12600;1260
t35;13050;1305
t36;13500;1350
t37;12600;1260
t38;11700;1170
t39;10800;1080
t40;9450;945
t41;9000;900
t42;9900;990
t43;10800;1080
t44;12600;1260
t45;11700;1170
t46;9900;990
t47;8100;810
t48;7200;720
t49;6300;630
t50;6750;675
t51;7650;765
t52;8550;855
t53;9000;900
t54;9900;990
t55;10350;1035
t56;10800;1080
t57;11700;1170
t58;12600;1260
t59;13050;1305
t60;13500;1350
t61;12600;1260
t62;11700;1170
t63;10800;1080
t64;9450;945
t65;9000;900
t66;9900;990
t67;10800;1080
t68;12600;1260
t69;11700;1170
t70;9900;990
t71;8100;810
t72;7200;720
t73;6300;630
t74;6750;675
t75;7650;765
t76;8550;855
t77;9000;900
t78;9900;990
t79;10350;1035
t80;10800;1080
t81;11700;1170
t82;12600;1260
t83;13050;1305
t84;13500;1350
t85;12600;1260
t86;11700;1170
t87;10800;1080
t88;9450;945
t89;9000;900
t90;9900;990
t91;10800;1080
t92;12600;1260
t93;11700;1170
t94;9900;990
t95;8100;810
t96;7200;720
t97;6300;630
t98;6750;675
t99;7650;765
t100;8550;855
t101;9000;900
t102;9900;990
t103;10350;1035
t104;10800;1080
t105;11700;1170
t106;12600;1260
t107;13050;1305
t108;13500;1350
t109;12600;1260
t110;11700;1170
t111;10800;1080
t112;9450;945
t113;9000;900
t114;9900;990
t115;10800;1080
t116;12600;1260
t117;11700;1170
t118;9900;990
t119;8100;810
t120;7200;720
t121;5040;504
t122;5400;540
t123;6120;612
t124;6840;684
t125;7200;720
t126;7920;792
t127;8280;828
t128;8640;864
t129;9360;936
t130;10080;1008
t131;10440;1044
t132;10800;1080
t133;10080;1008
t134;9360;936
t135;8640;864
t136;7560;756
t137;7200;720
t138;7920;792
t139;8640;864
t140;10080;1008
t141;9360;936
t142;7920;792
t143;6480;648
t144;5760;576
t145;5040;504
t146;5400;540
t147;6120;612
t148;6840;684
t149;7200;720
t150;7920;792
t151;8280;828
t152;8640;864
t153;9360;936
t154;10080;1008
t155;10440;1044
t156;10800;1080
t157;10080;1008
t158;9360;936
t159;8640;864
t160;7560;756
t161;7200;720
t162;7920;792
t163;8640;864
t164;10080;1008
t165;9360;936
t166;7920;792
t167;6480;648
t168;5760;576
t169;6300;630
t170;6750;675
t171;7650;765
t172;8550;855
t173;9000;900
t174;9900;990
t175;10350;1035
t176;10800;1080
t177;11700;1170
t178;12600;1260
t179;13050;1305
t180;13500;1350
t181;12600;1260
t182;11700;1170
t183;10800;1080
t184;9450;945
t185;9000;900
t186;9900;990
t187;10800;1080
t188;12600;1260
t189;11700;1170
t190;9900;990
t191;8100;810
t192;7200;720
t193;6300;630
t194;6750;675
t195;7650;765
t196;8550;855
t197;9000;900
t198;9900;990
t199;10350;1035
t200;10800;1080
t201;11700;1170
t202;12600;1260
t203;13050;1305
t204;13500;1350
t205;12600;1260
t206;11700;1170
t207;10800;1080
t208;9450;945
t209;9000;900
t210;9900;990
t211;10800;1080
t212;12600;1260
t213;11700;1170
t214;9900;990
t215;8100;810
t216;7200;720
t217;6300;630
t218;6750;675
t219;7650;765
t220;8550;855
t221;9000;900
t222;9900;990
t223;10350;1035
t224;10800;1080
t225;11700;1170
t226;12600;1260
t227;13050;1305
t228;13500;1350
t229;12600;1260
t230;11700;1170
t231;10800;1080
t232;9450;945
t233;9000;900
t234;9900;990
t235;10800;1080
t236;12600;1260
t237;11700;1170
t238;9900;990
t239;8100;810
t240;7200;720
t241;6300;630
t242;6750;675
t243;7650;765
t244;8550;855
t245;9000;900
t246;9900;990
t247;10350;1035
t248;10800;1080
t249;11700;1170
t250;12600;1260
t251;13050;1305
t252;13500;1350
t253;12600;1260
t254;11700;1170
t255;10800;1080
t256;9450;945
t257;9000;900
t258;9900;990
t259;10800;1080
t260;12600;1260
t261;11700;1170
t262;9900;990
t263;8100;810
t264;7200;720
t265;6300;630
t266;6750;675
t267;7650;765
t268;8550;855
t269;9000;900
t270;9900;990
t271;10350;1035
t272;10800;1080
t273;11700;1170
t274;12600;1260
t275;13050;1305
t276;13500;1350
t277;12600;1260
t278;11700;1170
t279;10800;1080
t280;9450;945
t281;9000;900
t282;9900;990
t283;10800;1080
t284;12600;1260
t285;11700;1170
t286;9900;990
t287;8100;810
t288;7200;720
t289;5040;504
t290;5400;540
t291;6120;612
t292;6840;684
t293;7200;720
t294;7920;792
t295;8280;828
t296;8640;864
t297;9360;936
t298;10080;1008
t299;10440;1044
t300;10800;1080
t301;10080;1008
t302;9360;936
t303;8640;864
t304;7560;756
t305;7200;720
t306;7920;792
t307;8640;864
t308;10080;1008
t309;9360;936
t310;7920;792
t311;6480;648
t312;5760;576
t313;5040;504
t314;5400;540
t315;6120;612
t316;6840;684
t317;7200;720
t318;7920;792
t319;8280;828
t320;8640;864
t321;9360;936
t322;10080;1008
t323;10440;1044
t324;10800;1080
t325;10080;1008
t326;9360;936
t327;8640;864
t328;7560;756
t329;7200;720
t330;7920;792
t331;8640;864
t332;10080;1008
t333;9360;936
t334;7920;792
t335;6480;648
t336;5760;576
t337;6300;630
t338;6750;675
t339;7650;765
t340;8550;855
t341;9000;900
t342;9900;990
t343;10350;1035
t344;10800;1080
t345;11700;1170
t346;12600;1260
t347;13050;1305
t348;13500;1350
t349;12600;1260
t350;11700;1170
t351;10800;1080
t352;9450;945
t353;9000;900
t354;9900;990
t355;10800;1080
t356;12600;1260
t357;11700;1170
t358;9900;990
t359;8100;810
t360;7200;720
t361;6300;630
t362;6750;675
t363;7650;765
t364;8550;855
t365;9000;900
t366;9900;990
t367;10350;1035
t368;10800;1080
t369;11700;1170
t370;12600;1260
t371;13050;1305
t372;13500;1350
t373;12600;1260
t374;11700;1170
t375;10800;1080
t376;9450;945
t377;9000;900
t378;9900;990
t379;10800;1080
t380;12600;1260
t381;11700;1170
t382;9900;990
t383;8100;810
t384;7200;720
t385;6300;630
t386;6750;675
t387;7650;765
t388;8550;855
t389;9000;900
t390;9900;990
t391;10350;1035
t392;10800;1080
t393;11700;1170
t394;12600;1260
t395;13050;1305
t396;13500;1350
t397;12600;1260
t398;11700;1170
t399;10800;1080
t400;9450;945
t401;9000;900
t402;9900;990
t403;10800;1080
t404;12600;1260
t405;11700;1170
t406;9900;990
t407;8100;810
t408;7200;720
t409;6300;630
t410;6750;675
t411;7650;765
t412;8550;855
t413;9000;900
t414;9900;990
t415;10350;1035
t416;10800;1080
t417;11700;1170
t418;12600;1260
t419;13050;1305
t420;13500;1350
t421;12600;1260
t422;11700;1170
t423;10800;1080
t424;9450;945
t425;9000;900
t426;9900;990
t427;10800;1080
t428;12600;1260
t429;11700;1170
t430;9900;990
t431;8100;810
t432;7200;720
t433;6300;630
t434;6750;675
t435;7650;765
t436;8550;855
t437;9000;900
t438;9900;990
t439;10350;1035
t440;10800;1080
t441;11700;1170
t442;12600;1260
t443;13050;1305
t444;13500;1350
t445;12600;1260
t446;11700;1170
t447;10800;1080
t448;9450;945
t449;9000;900
t450;9900;990
t451;10800;1080
t452;12600;1260
t453;11700;1170
t454;9900;990
t455;8100;810
t456;7200;720
t457;5040;504
t458;5400;540
t459;6120;612
t460;6840;684
t461;7200;720
t462;7920;792
t463;8280;828
t464;8640;864
t465;9360;936
t466;10080;1008
t467;10440;1044
t468;10800;1080
t469;10080;1008
t470;9360;936
t471;8640;864
t472;7560;756
t473;7200;720
t474;7920;792
t475;8640;864
t476;10080;1008
t477;9360;936
t478;7920;792
t479;6480;648
t480;5760;576
t481;5040;504
t482;5400;540
t483;6120;612
t484;6840;684
t485;7200;720
t486;7920;792
t487;8280;828
t488;8640;864
t489;9360;936
t490;10080;1008
t491;10440;1044
t492;10800;1080
t493;10080;1008
t494;9360;936
t495;8640;864
t496;7560;756
t497;7200;720
t498;7920;792
t499;8640;864
t500;10080;1008
t501;9360;936
t502;7920;792
t503;6480;648
t504;5760;576
t505;6300;630
t506;6750;675
t507;7650;765
t508;8550;855
t509;9000;900
t510;9900;990
t511;10350;1035
t512;10800;1080
t513;11700;1170
t514;12600;1260
t515;13050;1305
t516;13500;1350
t517;12600;1260
t518;11700;1170
t519;10800;1080
t520;9450;945
t521;9000;900
t522;9900;990
t523;10800;1080
t524;12600;1260
t525;11700;1170
t526;9900;990
t527;8100;810
t528;7200;720
t529;6300;630
t530;6750;675
t531;7650;765
t532;8550;855
t533;9000;900
t534;9900;990
t535;10350;1035
t536;10800;1080
t537;11700;1170
t538;12600;1260
t539;13050;1305
t540;13500;1350
t541;12600;1260
t542;11700;1170
t543;10800;1080
t544;9450;945
t545;9000;900
t546;9900;990
t547;10800;1080
t548;12600;1260
t549;11700;1170
t550;9900;990
t551;8100;810
t552;7200;720
t553;6300;630
t554;6750;675
t555;7650;765
t556;8550;855
t557;9000;900
t558;9900;990
t559;10350;1035
t560;10800;1080
t561;11700;1170
t562;12600;1260
t563;13050;1305
t564;13500;1350
t565;12600;1260
t566;11700;1170
t567;10800;1080
t568;9450;945
t569;9000;900
t570;9900;990
t571;10800;1080
t572;12600;1260
t573;11700;1170
t574;9900;990
t575;8100;810
t576;7200;720
t577;6300;630
t578;6750;675
t579;7650;765
t580;8550;855
t581;9000;900
t582;9900;990
t583;10350;1035
t584;10800;1080
t585;11700;1170
t586;12600;1260
t587;13050;1305
t588;13500;1350
t589;12600;1260
t590;11700;1170
t591;10800;1080
t592;9450;945
t593;9000;900
t594;9900;990
t595;10800;1080
t596;12600;1260
t597;11700;1170
t598;9900;990
t599;8100;810
t600;7200;720
t601;6300;630
t602;6750;675
t603;7650;765
t604;8550;855
t605;9000;900
t606;9900;990
t607;10350;1035
t608;10800;1080
t609;11700;1170
t610;12600;1260
t611;13050;1305
t612;13500;1350
t613;12600;1260
t614;11700;1170
t615;10800;1080
t616;9450;945
t617;9000;900
t618;9900;990
t619;10800;1080
t620;12600;1260
t621;11700;1170
t622;9900;990
t623;8100;810
t624;7200;720
t625;5040;504
t626;5400;540
t627;6120;612
t628;6840;684
t629;7200;720
t630;7920;792
t631;8280;828
t632;8640;864
t633;9360;936
t634;10080;1008
t635;10440;1044
t636;10800;1080
t637;10080;1008
t638;9360;936
t639;8640;864
t640;7560;756
t641;7200;720
t642;7920;792
t643;8640;864
t644;10080;1008
t645;9360;936
t646;7920;792
t647;6480;648
t648;5760;576
t649;5040;504
t650;5400;540
t651;6120;612
t652;6840;684
t653;7200;720
t654;7920;792
t655;8280;828
t656;8640;864
t657;9360;936
t658;10080;1008
t659;10440;1044
t660;10800;1080
t661;10080;1008
t662;9360;936
t663;8640;864
t664;7560;756
t665;7200;720
t666;7920;792
t667;8640;864
t668;10080;1008
t669;9360;936
t670;7920;792
t671;6480;648
t672;5760;576
