t;Dt;Rt
t1;6300;630
t2;6750;675
t3;7650;765
t4;8550;855
t5;9000;900
t6;9900;990
t7;10350;1035
t8;10800;1080
t9;11700;1170
t10;12600;1260
t11;13050;1305
t12;13500;1350
t13;12600;1260
t14;11700;1170
t15;10800;1080
t16;9450;945
t17;9000;900
t18;9900;990
t19;10800;1080
t20;12600;1260
t21;11700;1170
t22;9900;990
t23;8100;810
t24;7200;720
t25;6300;630
t26;6750;675
t27;7650;765
t28;8550;855
t29;9000;900
t30;9900;990
t31;10350;1035
t32;10800;1080
t33;11700;1170
t34;12600;1260
t35;13050;1305
t36;13500;1350
t37;12600;1260
t38;11700;1170
t39;10800;1080
t40;9450;945
t41;9000;900
t42;9900;990
t43;10800;1080
t44;12600;1260
t45;11700;1170
t46;9900;990
t47;8100;810
t48;7200;720
t49;6300;630
t50;6750;675
t51;7650;765
t52;8550;855
t53;9000;900
t54;9900;990
t55;10350;1035
t56;10800;1080
t57;11700;1170
t58;12600;1260
t59;13050;1305
t60;13500;1350
t61;12600;1260
t62;11700;1170
t63;10800;1080
t64;9450;945
t65;9000;900
t66;9900;990
t67;10800;1080
t68;12600;1260
t69;11700;1170
t70;9900;990
t71;8100;810
t72;7200;720
t73;6300;630
t74;6750;675
t75;7650;765
t76;8550;855
t77;9000;900
t78;9900;990
t79;10350;1035
t80;10800;1080
t81;11700;1170
t82;12600;1260
t83;13050;1305
t84;13500;1350
t85;12600;1260
t86;11700;1170
t87;10800;1080
t88;9450;945
t89;9000;900
t90;9900;990
t91;10800;1080
t92;12600;1260
t93;11700;1170
t94;9900;990
t95;8100;810
t96;7200;720
t97;6300;630
t98;6750;675
t99;7650;765
t100;8550;855
t101;9000;900
t102;9900;990
t103;10350;1035
t104;10800;1080
t105;11700;1170
t106;12600;1260
t107;13050;1305
t108;13500;1350
t109;12600;1260
t110;11700;1170
t111;10800;1080
t112;9450;945
t113;9000;900
t114;9900;990
t115;10800;1080
t116;12600;1260
t117;11700;1170
t118;9900;990
t119;8100;810
t120;7200;720
t121;5040;504
t122;5400;540
t123;6120;612
t124;6840;684
t125;7200;720
t126;7920;792
t127;8280;828
t128;8640;864
t129;9360;936
t130;10080;1008
t131;10440;1044
t132;10800;1080
t133;10080;1008
t134;9360;936
t135;8640;864
t136;7560;756
t137;7200;720
t138;7920;792
t139;8640;864
t140;10080;1008
t141;9360;936
t142;7920;792
t143;6480;648
t144;5760;576
t145;5040;504
t146;5400;540
t147;6120;612
t148;6840;684
t149;7200;720
t150;7920;792
t151;8280;828
t152;8640;864
t153;9360;936
t154;10080;1008
t155;10440;1044
t156;10800;1080
t157;10080;1008
t158;9360;936
t159;8640;864
t160;7560;756
t161;7200;720
t162;7920;792
t163;8640;864
t164;10080;1008
t165;9360;936
t166;7920;792
t167;6480;648
t168;5760;576
t169;6300;630
t170;6750;675
t171;7650;765
t172;8550;855
t173;9000;900
t174;9900;990
t175;10350;1035
t176;10800;1080
t177;11700;1170
t178;12600;1260
t179;13050;1305
t180;13500;1350
t181;12600;1260
t182;11700;1170
t183;10800;1080
t184;9450;945
t185;9000;900
t186;9900;990
t187;10800;1080
t188;12600;1260
t189;11700;1170
t190;9900;990
t191;8100;810
t192;7200;720
t193;6300;630
t194;6750;675
t195;7650;765
t196;8550;855
t197;9000;900
t198;9900;990
t199;10350;1035
t200;10800;1080
t201;11700;1170
t202;12600;1260
t203;13050;1305
t204;13500;1350
t205;12600;1260
t206;11700;1170
t207;10800;1080
t208;9450;945
t209;9000;900
t210;9900;990
t211;10800;1080
t212;12600;1260
t213;11700;1170
t214;9900;990
t215;8100;810
t216;7200;720
t217;6300;630
t218;6750;675
t219;7650;765
t220;8550;855
t221;9000;900
t222;9900;990
t223;10350;1035
t224;10800;1080
t225;11700;1170
t226;12600;1260
t227;13050;1305
t228;13500;1350
t229;12600;1260
t230;11700;1170
t231;10800;1080
t232;9450;945
t233;9000;900
t234;9900;990
t235;10800;1080
t236;12600;1260
t237;11700;1170
t238;9900;990
t239;8100;810
t240;7200;720
t241;6300;630
t242;6750;675
t243;7650;765
t244;8550;855
t245;9000;900
t246;9900;990
t247;10350;1035
t248;10800;1080
t249;11700;1170
t250;12600;1260
t251;13050;1305
t252;13500;1350
t253;12600;1260
t254;11700;1170
t255;10800;1080
t256;9450;945
t257;9000;900
t258;9900;990
t259;10800;1080
t260;12600;1260
t261;11700;1170
t262;9900;990
t263;8100;810
t264;7200;720
t265;6300;630
t266;6750;675
t267;7650;765
t268;8550;855
t269;9000;900
t270;9900;990
t271;10350;1035
t272;10800;1080
t273;11700;1170
t274;12600;1260
t275;13050;1305
t276;13500;1350
t277;12600;1260
t278;11700;1170
t279;10800;1080
t280;9450;945
t281;9000;900
t282;9900;990
t283;10800;1080
t284;12600;1260
t285;11700;1170
t286;9900;990
t287;8100;810
t288;7200;720
t289;5040;504
t290;5400;540
t291;6120;612
t292;6840;684
t293;7200;720
t294;7920;792
t295;8280;828
t296;8640;864
t297;9360;936
t298;10080;1008
t299;10440;1044
t300;10800;1080
t301;10080;1008
t302;9360;936
t303;8640;864
t304;7560;756
t305;7200;720
t306;7920;792
t307;8640;864
t308;10080;1008
t309;9360;936
t310;7920;792
t311;6480;648
t312;5760;576
t313;5040;504
t314;5400;540
t315;6120;612
t316;6840;684
t317;7200;720
t318;7920;792
t319;8280;828
t320;8640;864
t321;9360;936
t322;10080;1008
t323;10440;1044
t324;10800;1080
t325;10080;1008
t326;9360;936
t327;8640;864
t328;7560;756
t329;7200;720
t330;7920;792
t331;8640;864
t332;10080;1008
t333;9360;936
t334;7920;792
t335;6480;648
t336;5760;576
t337;6300;630
t338;6750;675
t339;7650;765
t340;8550;855
t341;9000;900
t342;9900;990
t343;10350;1035
t344;10800;1080
t345;11700;1170
t346;12600;1260
t347;13050;1305
t348;13500;1350
t349;12600;1260
t350;11700;1170
t351;10800;1080
t352;9450;945
t353;9000;900
t354;9900;990
t355;10800;1080
t356;12600;1260
t357;11700;1170
t358;9900;990
t359;8100;810
t360;7200;720
t361;6300;630
t362;6750;675
t363;7650;765
t364;8550;855
t365;9000;900
t366;9900;990
t367;10350;1035
t368;10800;1080
t369;11700;1170
t370;12600;1260
t371;13050;1305
t372;13500;1350
t373;12600;1260
t374;11700;1170
t375;10800;1080
t376;9450;945
t377;9000;900
t378;9900;990
t379;10800;1080
t380;12600;1260
t381;11700;1170
t382;9900;990
t383;8100;810
t384;7200;720
t385;6300;630
t386;6750;675
t387;7650;765
t388;8550;855
t389;9000;900
t390;9900;990
t391;10350;1035
t392;10800;1080
t393;11700;1170
t394;12600;1260
t395;13050;1305
t396;13500;1350
t397;12600;1260
t398;11700;1170
t399;10800;1080
t400;9450;945
t401;9000;900
t402;9900;990
t403;10800;1080
t404;12600;1260
t405;11700;1170
t406;9900;990
t407;8100;810
t408;7200;720
t409;6300;630
t410;6750;675
t411;7650;765
t412;8550;855
t413;9000;900
t414;9900;990
t415;10350;1035
t416;10800;1080
t417;11700;1170
t418;12600;1260
t419;13050;1305
t420;13500;1350
t421;12600;1260
t422;11700;1170
t423;10800;1080
t424;9450;945
t425;9000;900
t426;9900;990
t427;10800;1080
t428;12600;1260
t429;11700;1170
t430;9900;990
t431;8100;810
t432;7200;720
t433;6300;630
t434;6750;675
t435;7650;765
t436;8550;855
t437;9000;900
t438;9900;990
t439;10350;1035
t440;10800;1080
t441;11700;1170
t442;12600;1260
t443;13050;1305
t444;13500;1350
t445;12600;1260
t446;11700;1170
t447;10800;1080
t448;9450;945
t449;9000;900
t450;9900;990
t451;10800;1080
t452;12600;1260
t453;11700;1170
t454;9900;990
t455;8100;810
t456;7200;720
t457;5040;504
t458;5400;540
t459;6120;612
t460;6840;684
t461;7200;720
t462;7920;792
t463;8280;828
t464;8640;864
t465;9360;936
t466;10080;1008
t467;10440;1044
t468;10800;1080
t469;10080;1008
t470;9360;936
t471;8640;864
t472;7560;756
t473;7200;720
t474;7920;792
t475;8640;864
t476;10080;1008
t477;9360;936
t478;7920;792
t479;6480;648
t480;5760;576
t481;5040;504
t482;5400;540
t483;6120;612
t484;6840;684
t485;7200;720
t486;7920;792
t487;8280;828
t488;8640;864
t489;9360;936
t490;10080;1008
t491;10440;1044
t492;10800;1080
t493;10080;1008
t494;9360;936
t495;8640;864
t496;7560;756
t497;7200;720
t498;7920;792
t499;8640;864
t500;10080;1008
t501;9360;936
t502;7920;792
t503;6480;648
t504;5760;576
t505;6300;630
t506;6750;675
t507;7650;765
t508;8550;855
t509;9000;900
t510;9900;990
t511;10350;1035
t512;10800;1080
t513;11700;1170
t514;12600;1260
t515;13050;1305
t516;13500;1350
t517;12600;1260
t518;11700;1170
t519;10800;1080
t520;9450;945
t521;9000;900
t522;9900;990
t523;10800;1080
t524;12600;1260
t525;11700;1170
t526;9900;990
t527;8100;810
t528;7200;720
t529;6300;630
t530;6750;675
t531;7650;765
t532;8550;855
t533;9000;900
t534;9900;990
t535;10350;1035
t536;10800;1080
t537;11700;1170
t538;12600;1260
t539;13050;1305
t540;13500;1350
t541;12600;1260
t542;11700;1170
t543;10800;1080
t544;9450;945
t545;9000;900
t546;9900;990
t547;10800;1080
t548;12600;1260
t549;11700;1170
t550;9900;990
t551;8100;810
t552;7200;720
t553;6300;630
t554;6750;675
t555;7650;765
t556;8550;855
t557;9000;900
t558;9900;990
t559;10350;1035
t560;10800;1080
t561;11700;1170
t562;12600;1260
t563;13050;1305
t564;13500;1350
t565;12600;1260
t566;11700;1170
t567;10800;1080
t568;9450;945
t569;9000;900
t570;9900;990
t571;10800;1080
t572;12600;1260
t573;11700;1170
t574;9900;990
t575;8100;810
t576;7200;720
t577;6300;630
t578;6750;675
t579;7650;765
t580;8550;855
t581;9000;900
t582;9900;990
t583;10350;1035
t584;10800;1080
t585;11700;1170
t586;12600;1260
t587;13050;1305
t588;13500;1350
t589;12600;1260
t590;11700;1170
t591;10800;1080
t592;9450;945
t593;9000;900
t594;9900;990
t595;10800;1080
t596;12600;1260
t597;11700;1170
t598;9900;990
t599;8100;810
t600;7200;720
t601;6300;630
t602;6750;675
t603;7650;765
t604;8550;855
t605;9000;900
t606;9900;990
t607;10350;1035
t608;10800;1080
t609;11700;1170
t610;12600;1260
t611;13050;1305
t612;13500;1350
t613;12600;1260
t614;11700;1170
t615;10800;1080
t616;9450;945
t617;9000;900
t618;9900;990
t619;10800;1080
t620;12600;1260
t621;11700;1170
t622;9900;990
t623;8100;810
t624;7200;720
t625;5040;504
t626;5400;540
t627;6120;612
t628;6840;684
t629;7200;720
t630;7920;792
t631;8280;828
t632;8640;864
t633;9360;936
t634;10080;1008
t635;10440;1044
t636;10800;1080
t637;10080;1008
t638;9360;936
t639;8640;864
t640;7560;756
t641;7200;720
t642;7920;792
t643;8640;864
t644;10080;1008
t645;9360;936
t646;7920;792
t647;6480;648
t648;5760;576
t649;5040;504
t650;5400;540
t651;6120;612
t652;6840;684
t653;7200;720
t654;7920;792
t655;8280;828
t656;8640;864
t657;9360;936
t658;10080;1008
t659;10440;1044
t660;10800;1080
t661;10080;1008
t662;9360;936
t663;8640;864
t664;7560;756
t665;7200;720
t666;7920;792
t667;8640;864
t668;10080;1008
t669;9360;936
t670;7920;792
t671;6480;648
t672;5760;576
t673;6300;630
t674;6750;675
t675;7650;765
t676;8550;855
t677;9000;900
t678;9900;990
t679;10350;1035
t680;10800;1080
t681;11700;1170
t682;12600;1260
t683;13050;1305
t684;13500;1350
t685;12600;1260
t686;11700;1170
t687;10800;1080
t688;9450;945
t689;9000;900
t690;9900;990
t691;10800;1080
t692;12600;1260
t693;11700;1170
t694;9900;990
t695;8100;810
t696;7200;720
t697;6300;630
t698;6750;675
t699;7650;765
t700;8550;855
t701;9000;900
t702;9900;990
t703;10350;1035
t704;10800;1080
t705;11700;1170
t706;12600;1260
t707;13050;1305
t708;13500;1350
t709;12600;1260
t710;11700;1170
t711;10800;1080
t712;9450;945
t713;9000;900
t714;9900;990
t715;10800;1080
t716;12600;1260
t717;11700;1170
t718;9900;990
t719;8100;810
t720;7200;720
t721;6300;630
t722;6750;675
t723;7650;765
t724;8550;855
t725;9000;900
t726;9900;990
t727;10350;1035
t728;10800;1080
t729;11700;1170
t730;12600;1260
t731;13050;1305
t732;13500;1350
t733;12600;1260
t734;11700;1170
t735;10800;1080
t736;9450;945
t737;9000;900
t738;9900;990
t739;10800;1080
t740;12600;1260
t741;11700;1170
t742;9900;990
t743;8100;810
t744;7200;720
t745;6300;630
t746;6750;675
t747;7650;765
t748;8550;855
t749;9000;900
t750;9900;990
t751;10350;1035
t752;10800;1080
t753;11700;1170
t754;12600;1260
t755;13050;1305
t756;13500;1350
t757;12600;1260
t758;11700;1170
t759;10800;1080
t760;9450;945
t761;9000;900
t762;9900;990
t763;10800;1080
t764;12600;1260
t765;11700;1170
t766;9900;990
t767;8100;810
t768;7200;720
t769;6300;630
t770;6750;675
t771;7650;765
t772;8550;855
t773;9000;900
t774;9900;990
t775;10350;1035
t776;10800;1080
t777;11700;1170
t778;12600;1260
t779;13050;1305
t780;13500;1350
t781;12600;1260
t782;11700;1170
t783;10800;1080
t784;9450;945
t785;9000;900
t786;9900;990
t787;10800;1080
t788;12600;1260
t789;11700;1170
t790;9900;990
t791;8100;810
t792;7200;720
t793;5040;504
t794;5400;540
t795;6120;612
t796;6840;684
t797;7200;720
t798;7920;792
t799;8280;828
t800;8640;864
t801;9360;936
t802;10080;1008
t803;10440;1044
t804;10800;1080
t805;10080;1008
t806;9360;936
t807;8640;864
t808;7560;756
t809;7200;720
t810;7920;792
t811;8640;864
t812;10080;1008
t813;9360;936
t814;7920;792
t815;6480;648
t816;5760;576
t817;5040;504
t818;5400;540
t819;6120;612
t820;6840;684
t821;7200;720
t822;7920;792
t823;8280;828
t824;8640;864
t825;9360;936
t826;10080;1008
t827;10440;1044
t828;10800;1080
t829;10080;1008
t830;9360;936
t831;8640;864
t832;7560;756
t833;7200;720
t834;7920;792
t835;8640;864
t836;10080;1008
t837;9360;936
t838;7920;792
t839;6480;648
t840;5760;576
t841;6300;630
t842;6750;675
t843;7650;765
t844;8550;855
t845;9000;900
t846;9900;990
t847;10350;1035
t848;10800;1080
t849;11700;1170
t850;12600;1260
t851;13050;1305
t852;13500;1350
t853;12600;1260
t854;11700;1170
t855;10800;1080
t856;9450;945
t857;9000;900
t858;9900;990
t859;10800;1080
t860;12600;1260
t861;11700;1170
t862;9900;990
t863;8100;810
t864;7200;720
t865;6300;630
t866;6750;675
t867;7650;765
t868;8550;855
t869;9000;900
t870;9900;990
t871;10350;1035
t872;10800;1080
t873;11700;1170
t874;12600;1260
t875;13050;1305
t876;13500;1350
t877;12600;1260
t878;11700;1170
t879;10800;1080
t880;9450;945
t881;9000;900
t882;9900;990
t883;10800;1080
t884;12600;1260
t885;11700;1170
t886;9900;990
t887;8100;810
t888;7200;720
t889;6300;630
t890;6750;675
t891;7650;765
t892;8550;855
t893;9000;900
t894;9900;990
t895;10350;1035
t896;10800;1080
t897;11700;1170
t898;12600;1260
t899;13050;1305
t900;13500;1350
t901;12600;1260
t902;11700;1170
t903;10800;1080
t904;9450;945
t905;9000;900
t906;9900;990
t907;10800;1080
t908;12600;1260
t909;11700;1170
t910;9900;990
t911;8100;810
t912;7200;720
t913;6300;630
t914;6750;675
t915;7650;765
t916;8550;855
t917;9000;900
t918;9900;990
t919;10350;1035
t920;10800;1080
t921;11700;1170
t922;12600;1260
t923;13050;1305
t924;13500;1350
t925;12600;1260
t926;11700;1170
t927;10800;1080
t928;9450;945
t929;9000;900
t930;9900;990
t931;10800;1080
t932;12600;1260
t933;11700;1170
t934;9900;990
t935;8100;810
t936;7200;720
t937;6300;630
t938;6750;675
t939;7650;765
t940;8550;855
t941;9000;900
t942;9900;990
t943;10350;1035
t944;10800;1080
t945;11700;1170
t946;12600;1260
t947;13050;1305
t948;13500;1350
t949;12600;1260
t950;11700;1170
t951;10800;1080
t952;9450;945
t953;9000;900
t954;9900;990
t955;10800;1080
t956;12600;1260
t957;11700;1170
t958;9900;990
t959;8100;810
t960;7200;720
t961;5040;504
t962;5400;540
t963;6120;612
t964;6840;684
t965;7200;720
t966;7920;792
t967;8280;828
t968;8640;864
t969;9360;936
t970;10080;1008
t971;10440;1044
t972;10800;1080
t973;10080;1008
t974;9360;936
t975;8640;864
t976;7560;756
t977;7200;720
t978;7920;792
t979;8640;864
t980;10080;1008
t981;9360;936
t982;7920;792
t983;6480;648
t984;5760;576
t985;5040;504
t986;5400;540
t987;6120;612
t988;6840;684
t989;7200;720
t990;7920;792
t991;8280;828
t992;8640;864
t993;9360;936
t994;10080;1008
t995;10440;1044
t996;10800;1080
t997;10080;1008
t998;9360;936
t999;8640;864
t1000;7560;756
t1001;7200;720
t1002;7920;792
t1003;8640;864
t1004;10080;1008
t1005;9360;936
t1006;7920;792
t1007;6480;648
t1008;5760;576
t1009;6300;630
t1010;6750;675
t1011;7650;765
t1012;8550;855
t1013;9000;900
t1014;9900;990
t1015;10350;1035
t1016;10800;1080
t1017;11700;1170
t1018;12600;1260
t1019;13050;1305
t1020;13500;1350
t1021;12600;1260
t1022;11700;1170
t1023;10800;1080
t1024;9450;945
t1025;9000;900
t1026;9900;990
t1027;10800;1080
t1028;12600;1260
t1029;11700;1170
t1030;9900;990
t1031;8100;810
t1032;7200;720
t1033;6300;630
t1034;6750;675
t1035;7650;765
t1036;8550;855
t1037;9000;900
t1038;9900;990
t1039;10350;1035
t1040;10800;1080
t1041;11700;1170
t1042;12600;1260
t1043;13050;1305
t1044;13500;1350
t1045;12600;1260
t1046;11700;1170
t1047;10800;1080
t1048;9450;945
t1049;9000;900
t1050;9900;990
t1051;10800;1080
t1052;12600;1260
t1053;11700;1170
t1054;9900;990
t1055;8100;810
t1056;7200;720
t1057;6300;630
t1058;6750;675
t1059;7650;765
t1060;8550;855
t1061;9000;900
t1062;9900;990
t1063;10350;1035
t1064;10800;1080
t1065;11700;1170
t1066;12600;1260
t1067;13050;1305
t1068;13500;1350
t1069;12600;1260
t1070;11700;1170
t1071;10800;1080
t1072;9450;945
t1073;9000;900
t1074;9900;990
t1075;10800;1080
t1076;12600;1260
t1077;11700;1170
t1078;9900;990
t1079;8100;810
t1080;7200;720
t1081;6300;630
t1082;6750;675
t1083;7650;765
t1084;8550;855
t1085;9000;900
t1086;9900;990
t1087;10350;1035
t1088;10800;1080
t1089;11700;1170
t1090;12600;1260
t1091;13050;1305
t1092;13500;1350
t1093;12600;1260
t1094;11700;1170
t1095;10800;1080
t1096;9450;945
t1097;9000;900
t1098;9900;990
t1099;10800;1080
t1100;12600;1260
t1101;11700;1170
t1102;9900;990
t1103;8100;810
t1104;7200;720
t1105;6300;630
t1106;6750;675
t1107;7650;765
t1108;8550;855
t1109;9000;900
t1110;9900;990
t1111;10350;1035
t1112;10800;1080
t1113;11700;1170
t1114;12600;1260
t1115;13050;1305
t1116;13500;1350
t1117;12600;1260
t1118;11700;1170
t1119;10800;1080
t1120;9450;945
t1121;9000;900
t1122;9900;990
t1123;10800;1080
t1124;12600;1260
t1125;11700;1170
t1126;9900;990
t1127;8100;810
t1128;7200;720
t1129;5040;504
t1130;5400;540
t1131;6120;612
t1132;6840;684
t1133;7200;720
t1134;7920;792
t1135;8280;828
t1136;8640;864
t1137;9360;936
t1138;10080;1008
t1139;10440;1044
t1140;10800;1080
t1141;10080;1008
t1142;9360;936
t1143;8640;864
t1144;7560;756
t1145;7200;720
t1146;7920;792
t1147;8640;864
t1148;10080;1008
t1149;9360;936
t1150;7920;792
t1151;6480;648
t1152;5760;576
t1153;5040;504
t1154;5400;540
t1155;6120;612
t1156;6840;684
t1157;7200;720
t1158;7920;792
t1159;8280;828
t1160;8640;864
t1161;9360;936
t1162;10080;1008
t1163;10440;1044
t1164;10800;1080
t1165;10080;1008
t1166;9360;936
t1167;8640;864
t1168;7560;756
t1169;7200;720
t1170;7920;792
t1171;8640;864
t1172;10080;1008
t1173;9360;936
t1174;7920;792
t1175;6480;648
t1176;5760;576
t1177;6300;630
t1178;6750;675
t1179;7650;765
t1180;8550;855
t1181;9000;900
t1182;9900;990
t1183;10350;1035
t1184;10800;1080
t1185;11700;1170
t1186;12600;1260
t1187;13050;1305
t1188;13500;1350
t1189;12600;1260
t1190;11700;1170
t1191;10800;1080
t1192;9450;945
t1193;9000;900
t1194;9900;990
t1195;10800;1080
t1196;12600;1260
t1197;11700;1170
t1198;9900;990
t1199;8100;810
t1200;7200;720
t1201;6300;630
t1202;6750;675
t1203;7650;765
t1204;8550;855
t1205;9000;900
t1206;9900;990
t1207;10350;1035
t1208;10800;1080
t1209;11700;1170
t1210;12600;1260
t1211;13050;1305
t1212;13500;1350
t1213;12600;1260
t1214;11700;1170
t1215;10800;1080
t1216;9450;945
t1217;9000;900
t1218;9900;990
t1219;10800;1080
t1220;12600;1260
t1221;11700;1170
t1222;9900;990
t1223;8100;810
t1224;7200;720
t1225;6300;630
t1226;6750;675
t1227;7650;765
t1228;8550;855
t1229;9000;900
t1230;9900;990
t1231;10350;1035
t1232;10800;1080
t1233;11700;1170
t1234;12600;1260
t1235;13050;1305
t1236;13500;1350
t1237;12600;1260
t1238;11700;1170
t1239;10800;1080
t1240;9450;945
t1241;9000;900
t1242;9900;990
t1243;10800;1080
t1244;12600;1260
t1245;11700;1170
t1246;9900;990
t1247;8100;810
t1248;7200;720
t1249;6300;630
t1250;6750;675
t1251;7650;765
t1252;8550;855
t1253;9000;900
t1254;9900;990
t1255;10350;1035
t1256;10800;1080
t1257;11700;1170
t1258;12600;1260
t1259;13050;1305
t1260;13500;1350
t1261;12600;1260
t1262;11700;1170
t1263;10800;1080
t1264;9450;945
t1265;9000;900
t1266;9900;990
t1267;10800;1080
t1268;12600;1260
t1269;11700;1170
t1270;9900;990
t1271;8100;810
t1272;7200;720
t1273;6300;630
t1274;6750;675
t1275;7650;765
t1276;8550;855
t1277;9000;900
t1278;9900;990
t1279;10350;1035
t1280;10800;1080
t1281;11700;1170
t1282;12600;1260
t1283;13050;1305
t1284;13500;1350
t1285;12600;1260
t1286;11700;1170
t1287;10800;1080
t1288;9450;945
t1289;9000;900
t1290;9900;990
t1291;10800;1080
t1292;12600;1260
t1293;11700;1170
t1294;9900;990
t1295;8100;810
t1296;7200;720
t1297;5040;504
t1298;5400;540
t1299;6120;612
t1300;6840;684
t1301;7200;720
t1302;7920;792
t1303;8280;828
t1304;8640;864
t1305;9360;936
t1306;10080;1008
t1307;10440;1044
t1308;10800;1080
t1309;10080;1008
t1310;9360;936
t1311;8640;864
t1312;7560;756
t1313;7200;720
t1314;7920;792
t1315;8640;864
t1316;10080;1008
t1317;9360;936
t1318;7920;792
t1319;6480;648
t1320;5760;576
t1321;5040;504
t1322;5400;540
t1323;6120;612
t1324;6840;684
t1325;7200;720
t1326;7920;792
t1327;8280;828
t1328;8640;864
t1329;9360;936
t1330;10080;1008
t1331;10440;1044
t1332;10800;1080
t1333;10080;1008
t1334;9360;936
t1335;8640;864
t1336;7560;756
t1337;7200;720
t1338;7920;792
t1339;8640;864
t1340;10080;1008
t1341;9360;936
t1342;7920;792
t1343;6480;648
t1344;5760;576
t1345;6300;630
t1346;6750;675
t1347;7650;765
t1348;8550;855
t1349;9000;900
t1350;9900;990
t1351;10350;1035
t1352;10800;1080
t1353;11700;1170
t1354;12600;1260
t1355;13050;1305
t1356;13500;1350
t1357;12600;1260
t1358;11700;1170
t1359;10800;1080
t1360;9450;945
t1361;9000;900
t1362;9900;990
t1363;10800;1080
t1364;12600;1260
t1365;11700;1170
t1366;9900;990
t1367;8100;810
t1368;7200;720
t1369;6300;630
t1370;6750;675
t1371;7650;765
t1372;8550;855
t1373;9000;900
t1374;9900;990
t1375;10350;1035
t1376;10800;1080
t1377;11700;1170
t1378;12600;1260
t1379;13050;1305
t1380;13500;1350
t1381;12600;1260
t1382;11700;1170
t1383;10800;1080
t1384;9450;945
t1385;9000;900
t1386;9900;990
t1387;10800;1080
t1388;12600;1260
t1389;11700;1170
t1390;9900;990
t1391;8100;810
t1392;7200;720
t1393;6300;630
t1394;6750;675
t1395;7650;765
t1396;8550;855
t1397;9000;900
t1398;9900;990
t1399;10350;1035
t1400;10800;1080
t1401;11700;1170
t1402;12600;1260
t1403;13050;1305
t1404;13500;1350
t1405;12600;1260
t1406;11700;1170
t1407;10800;1080
t1408;9450;945
t1409;9000;900
t1410;9900;990
t1411;10800;1080
t1412;12600;1260
t1413;11700;1170
t1414;9900;990
t1415;8100;810
t1416;7200;720
t1417;6300;630
t1418;6750;675
t1419;7650;765
t1420;8550;855
t1421;9000;900
t1422;9900;990
t1423;10350;1035
t1424;10800;1080
t1425;11700;1170
t1426;12600;1260
t1427;13050;1305
t1428;13500;1350
t1429;12600;1260
t1430;11700;1170
t1431;10800;1080
t1432;9450;945
t1433;9000;900
t1434;9900;990
t1435;10800;1080
t1436;12600;1260
t1437;11700;1170
t1438;9900;990
t1439;8100;810
t1440;7200;720
t1441;6300;630
t1442;6750;675
t1443;7650;765
t1444;8550;855
t1445;9000;900
t1446;9900;990
t1447;10350;1035
t1448;10800;1080
t1449;11700;1170
t1450;12600;1260
t1451;13050;1305
t1452;13500;1350
t1453;12600;1260
t1454;11700;1170
t1455;10800;1080
t1456;9450;945
t1457;9000;900
t1458;9900;990
t1459;10800;1080
t1460;12600;1260
t1461;11700;1170
t1462;9900;990
t1463;8100;810
t1464;7200;720
t1465;5040;504
t1466;5400;540
t1467;6120;612
t1468;6840;684
t1469;7200;720
t1470;7920;792
t1471;8280;828
t1472;8640;864
t1473;9360;936
t1474;10080;1008
t1475;10440;1044
t1476;10800;1080
t1477;10080;1008
t1478;9360;936
t1479;8640;864
t1480;7560;756
t1481;7200;720
t1482;7920;792
t1483;8640;864
t1484;10080;1008
t1485;9360;936
t1486;7920;792
t1487;6480;648
t1488;5760;576
t1489;5040;504
t1490;5400;540
t1491;6120;612
t1492;6840;684
t1493;7200;720
t1494;7920;792
t1495;8280;828
t1496;8640;864
t1497;9360;936
t1498;10080;1008
t1499;10440;1044
t1500;10800;1080
t1501;10080;1008
t1502;9360;936
t1503;8640;864
t1504;7560;756
t1505;7200;720
t1506;7920;792
t1507;8640;864
t1508;10080;1008
t1509;9360;936
t1510;7920;792
t1511;6480;648
t1512;5760;576
t1513;6300;630
t1514;6750;675
t1515;7650;765
t1516;8550;855
t1517;9000;900
t1518;9900;990
t1519;10350;1035
t1520;10800;1080
t1521;11700;1170
t1522;12600;1260
t1523;13050;1305
t1524;13500;1350
t1525;12600;1260
t1526;11700;1170
t1527;10800;1080
t1528;9450;945
t1529;9000;900
t1530;9900;990
t1531;10800;1080
t1532;12600;1260
t1533;11700;1170
t1534;9900;990
t1535;8100;810
t1536;7200;720
t1537;6300;630
t1538;6750;675
t1539;7650;765
t1540;8550;855
t1541;9000;900
t1542;9900;990
t1543;10350;1035
t1544;10800;1080
t1545;11700;1170
t1546;12600;1260
t1547;13050;1305
t1548;13500;1350
t1549;12600;1260
t1550;11700;1170
t1551;10800;1080
t1552;9450;945
t1553;9000;900
t1554;9900;990
t1555;10800;1080
t1556;12600;1260
t1557;11700;1170
t1558;9900;990
t1559;8100;810
t1560;7200;720
t1561;6300;630
t1562;6750;675
t1563;7650;765
t1564;8550;855
t1565;9000;900
t1566;9900;990
t1567;10350;1035
t1568;10800;1080
t1569;11700;1170
t1570;12600;1260
t1571;13050;1305
t1572;13500;1350
t1573;12600;1260
t1574;11700;1170
t1575;10800;1080
t1576;9450;945
t1577;9000;900
t1578;9900;990
t1579;10800;1080
t1580;12600;1260
t1581;11700;1170
t1582;9900;990
t1583;8100;810
t1584;7200;720
t1585;6300;630
t1586;6750;675
t1587;7650;765
t1588;8550;855
t1589;9000;900
t1590;9900;990
t1591;10350;1035
t1592;10800;1080
t1593;11700;1170
t1594;12600;1260
t1595;13050;1305
t1596;13500;1350
t1597;12600;1260
t1598;11700;1170
t1599;10800;1080
t1600;9450;945
t1601;9000;900
t1602;9900;990
t1603;10800;1080
t1604;12600;1260
t1605;11700;1170
t1606;9900;990
t1607;8100;810
t1608;7200;720
t1609;6300;630
t1610;6750;675
t1611;7650;765
t1612;8550;855
t1613;9000;900
t1614;9900;990
t1615;10350;1035
t1616;10800;1080
t1617;11700;1170
t1618;12600;1260
t1619;13050;1305
t1620;13500;1350
t1621;12600;1260
t1622;11700;1170
t1623;10800;1080
t1624;9450;945
t1625;9000;900
t1626;9900;990
t1627;10800;1080
t1628;12600;1260
t1629;11700;1170
t1630;9900;990
t1631;8100;810
t1632;7200;720
t1633;5040;504
t1634;5400;540
t1635;6120;612
t1636;6840;684
t1637;7200;720
t1638;7920;792
t1639;8280;828
t1640;8640;864
t1641;9360;936
t1642;10080;1008
t1643;10440;1044
t1644;10800;1080
t1645;10080;1008
t1646;9360;936
t1647;8640;864
t1648;7560;756
t1649;7200;720
t1650;7920;792
t1651;8640;864
t1652;10080;1008
t1653;9360;936
t1654;7920;792
t1655;6480;648
t1656;5760;576
t1657;5040;504
t1658;5400;540
t1659;6120;612
t1660;6840;684
t1661;7200;720
t1662;7920;792
t1663;8280;828
t1664;8640;864
t1665;9360;936
t1666;10080;1008
t1667;10440;1044
t1668;10800;1080
t1669;10080;1008
t1670;9360;936
t1671;8640;864
t1672;7560;756
t1673;7200;720
t1674;7920;792
t1675;8640;864
t1676;10080;1008
t1677;9360;936
t1678;7920;792
t1679;6480;648
t1680;5760;576
t1681;6300;630
t1682;6750;675
t1683;7650;765
t1684;8550;855
t1685;9000;900
t1686;9900;990
t1687;10350;1035
t1688;10800;1080
t1689;11700;1170
t1690;12600;1260
t1691;13050;1305
t1692;13500;1350
t1693;12600;1260
t1694;11700;1170
t1695;10800;1080
t1696;9450;945
t1697;9000;900
t1698;9900;990
t1699;10800;1080
t1700;12600;1260
t1701;11700;1170
t1702;9900;990
t1703;8100;810
t1704;7200;720
t1705;6300;630
t1706;6750;675
t1707;7650;765
t1708;8550;855
t1709;9000;900
t1710;9900;990
t1711;10350;1035
t1712;10800;1080
t1713;11700;1170
t1714;12600;1260
t1715;13050;1305
t1716;13500;1350
t1717;12600;1260
t1718;11700;1170
t1719;10800;1080
t1720;9450;945
t1721;9000;900
t1722;9900;990
t1723;10800;1080
t1724;12600;1260
t1725;11700;1170
t1726;9900;990
t1727;8100;810
t1728;7200;720
t1729;6300;630
t1730;6750;675
t1731;7650;765
t1732;8550;855
t1733;9000;900
t1734;9900;990
t1735;10350;1035
t1736;10800;1080
t1737;11700;1170
t1738;12600;1260
t1739;13050;1305
t1740;13500;1350
t1741;12600;1260
t1742;11700;1170
t1743;10800;1080
t1744;9450;945
t1745;9000;900
t1746;9900;990
t1747;10800;1080
t1748;12600;1260
t1749;11700;1170
t1750;9900;990
t1751;8100;810
t1752;7200;720
t1753;6300;630
t1754;6750;675
t1755;7650;765
t1756;8550;855
t1757;9000;900
t1758;9900;990
t1759;10350;1035
t1760;10800;1080
t1761;11700;1170
t1762;12600;1260
t1763;13050;1305
t1764;13500;1350
t1765;12600;1260
t1766;11700;1170
t1767;10800;1080
t1768;9450;945
t1769;9000;900
t1770;9900;990
t1771;10800;1080
t1772;12600;1260
t1773;11700;1170
t1774;9900;990
t1775;8100;810
t1776;7200;720
t1777;6300;630
t1778;6750;675
t1779;7650;765
t1780;8550;855
t1781;9000;900
t1782;9900;990
t1783;10350;1035
t1784;10800;1080
t1785;11700;1170
t1786;12600;1260
t1787;13050;1305
t1788;13500;1350
t1789;12600;1260
t1790;11700;1170
t1791;10800;1080
t1792;9450;945
t1793;9000;900
t1794;9900;990
t1795;10800;1080
t1796;12600;1260
t1797;11700;1170
t1798;9900;990
t1799;8100;810
t1800;7200;720
t1801;5040;504
t1802;5400;540
t1803;6120;612
t1804;6840;684
t1805;7200;720
t1806;7920;792
t1807;8280;828
t1808;8640;864
t1809;9360;936
t1810;10080;1008
t1811;10440;1044
t1812;10800;1080
t1813;10080;1008
t1814;9360;936
t1815;8640;864
t1816;7560;756
t1817;7200;720
t1818;7920;792
t1819;8640;864
t1820;10080;1008
t1821;9360;936
t1822;7920;792
t1823;6480;648
t1824;5760;576
t1825;5040;504
t1826;5400;540
t1827;6120;612
t1828;6840;684
t1829;7200;720
t1830;7920;792
t1831;8280;828
t1832;8640;864
t1833;9360;936
t1834;10080;1008
t1835;10440;1044
t1836;10800;1080
t1837;10080;1008
t1838;9360;936
t1839;8640;864
t1840;7560;756
t1841;7200;720
t1842;7920;792
t1843;8640;864
t1844;10080;1008
t1845;9360;936
t1846;7920;792
t1847;6480;648
t1848;5760;576
t1849;6300;630
t1850;6750;675
t1851;7650;765
t1852;8550;855
t1853;9000;900
t1854;9900;990
t1855;10350;1035
t1856;10800;1080
t1857;11700;1170
t1858;12600;1260
t1859;13050;1305
t1860;13500;1350
t1861;12600;1260
t1862;11700;1170
t1863;10800;1080
t1864;9450;945
t1865;9000;900
t1866;9900;990
t1867;10800;1080
t1868;12600;1260
t1869;11700;1170
t1870;9900;990
t1871;8100;810
t1872;7200;720
t1873;6300;630
t1874;6750;675
t1875;7650;765
t1876;8550;855
t1877;9000;900
t1878;9900;990
t1879;10350;1035
t1880;10800;1080
t1881;11700;1170
t1882;12600;1260
t1883;13050;1305
t1884;13500;1350
t1885;12600;1260
t1886;11700;1170
t1887;10800;1080
t1888;9450;945
t1889;9000;900
t1890;9900;990
t1891;10800;1080
t1892;12600;1260
t1893;11700;1170
t1894;9900;990
t1895;8100;810
t1896;7200;720
t1897;6300;630
t1898;6750;675
t1899;7650;765
t1900;8550;855
t1901;9000;900
t1902;9900;990
t1903;10350;1035
t1904;10800;1080
t1905;11700;1170
t1906;12600;1260
t1907;13050;1305
t1908;13500;1350
t1909;12600;1260
t1910;11700;1170
t1911;10800;1080
t1912;9450;945
t1913;9000;900
t1914;9900;990
t1915;10800;1080
t1916;12600;1260
t1917;11700;1170
t1918;9900;990
t1919;8100;810
t1920;7200;720
t1921;6300;630
t1922;6750;675
t1923;7650;765
t1924;8550;855
t1925;9000;900
t1926;9900;990
t1927;10350;1035
t1928;10800;1080
t1929;11700;1170
t1930;12600;1260
t1931;13050;1305
t1932;13500;1350
t1933;12600;1260
t1934;11700;1170
t1935;10800;1080
t1936;9450;945
t1937;9000;900
t1938;9900;990
t1939;10800;1080
t1940;12600;1260
t1941;11700;1170
t1942;9900;990
t1943;8100;810
t1944;7200;720
t1945;6300;630
t1946;6750;675
t1947;7650;765
t1948;8550;855
t1949;9000;900
t1950;9900;990
t1951;10350;1035
t1952;10800;1080
t1953;11700;1170
t1954;12600;1260
t1955;13050;1305
t1956;13500;1350
t1957;12600;1260
t1958;11700;1170
t1959;10800;1080
t1960;9450;945
t1961;9000;900
t1962;9900;990
t1963;10800;1080
t1964;12600;1260
t1965;11700;1170
t1966;9900;990
t1967;8100;810
t1968;7200;720
t1969;5040;504
t1970;5400;540
t1971;6120;612
t1972;6840;684
t1973;7200;720
t1974;7920;792
t1975;8280;828
t1976;8640;864
t1977;9360;936
t1978;10080;1008
t1979;10440;1044
t1980;10800;1080
t1981;10080;1008
t1982;9360;936
t1983;8640;864
t1984;7560;756
t1985;7200;720
t1986;7920;792
t1987;8640;864
t1988;10080;1008
t1989;9360;936
t1990;7920;792
t1991;6480;648
t1992;5760;576
t1993;5040;504
t1994;5400;540
t1995;6120;612
t1996;6840;684
t1997;7200;720
t1998;7920;792
t1999;8280;828
t2000;8640;864
t2001;9360;936
t2002;10080;1008
t2003;10440;1044
t2004;10800;1080
t2005;10080;1008
t2006;9360;936
t2007;8640;864
t2008;7560;756
t2009;7200;720
t2010;7920;792
t2011;8640;864
t2012;10080;1008
t2013;9360;936
t2014;7920;792
t2015;6480;648
t2016;5760;576
t2017;6300;630
t2018;6750;675
t2019;7650;765
t2020;8550;855
t2021;9000;900
t2022;9900;990
t2023;10350;1035
t2024;10800;1080
t2025;11700;1170
t2026;12600;1260
t2027;13050;1305
t2028;13500;1350
t2029;12600;1260
t2030;11700;1170
t2031;10800;1080
t2032;9450;945
t2033;9000;900
t2034;9900;990
t2035;10800;1080
t2036;12600;1260
t2037;11700;1170
t2038;9900;990
t2039;8100;810
t2040;7200;720
t2041;6300;630
t2042;6750;675
t2043;7650;765
t2044;8550;855
t2045;9000;900
t2046;9900;990
t2047;10350;1035
t2048;10800;1080
t2049;11700;1170
t2050;12600;1260
t2051;13050;1305
t2052;13500;1350
t2053;12600;1260
t2054;11700;1170
t2055;10800;1080
t2056;9450;945
t2057;9000;900
t2058;9900;990
t2059;10800;1080
t2060;12600;1260
t2061;11700;1170
t2062;9900;990
t2063;8100;810
t2064;7200;720
t2065;6300;630
t2066;6750;675
t2067;7650;765
t2068;8550;855
t2069;9000;900
t2070;9900;990
t2071;10350;1035
t2072;10800;1080
t2073;11700;1170
t2074;12600;1260
t2075;13050;1305
t2076;13500;1350
t2077;12600;1260
t2078;11700;1170
t2079;10800;1080
t2080;9450;945
t2081;9000;900
t2082;9900;990
t2083;10800;1080
t2084;12600;1260
t2085;11700;1170
t2086;9900;990
t2087;8100;810
t2088;7200;720
t2089;6300;630
t2090;6750;675
t2091;7650;765
t2092;8550;855
t2093;9000;900
t2094;9900;990
t2095;10350;1035
t2096;10800;1080
t2097;11700;1170
t2098;12600;1260
t2099;13050;1305
t2100;13500;1350
t2101;12600;1260
t2102;11700;1170
t2103;10800;1080
t2104;9450;945
t2105;9000;900
t2106;9900;990
t2107;10800;1080
t2108;12600;1260
t2109;11700;1170
t2110;9900;990
t2111;8100;810
t2112;7200;720
t2113;6300;630
t2114;6750;675
t2115;7650;765
t2116;8550;855
t2117;9000;900
t2118;9900;990
t2119;10350;1035
t2120;10800;1080
t2121;11700;1170
t2122;12600;1260
t2123;13050;1305
t2124;13500;1350
t2125;12600;1260
t2126;11700;1170
t2127;10800;1080
t2128;9450;945
t2129;9000;900
t2130;9900;990
t2131;10800;1080
t2132;12600;1260
t2133;11700;1170
t2134;9900;990
t2135;8100;810
t2136;7200;720
t2137;5040;504
t2138;5400;540
t2139;6120;612
t2140;6840;684
t2141;7200;720
t2142;7920;792
t2143;8280;828
t2144;8640;864
t2145;9360;936
t2146;10080;1008
t2147;10440;1044
t2148;10800;1080
t2149;10080;1008
t2150;9360;936
t2151;8640;864
t2152;7560;756
t2153;7200;720
t2154;7920;792
t2155;8640;864
t2156;10080;1008
t2157;9360;936
t2158;7920;792
t2159;6480;648
t2160;5760;576
t2161;5040;504
t2162;5400;540
t2163;6120;612
t2164;6840;684
t2165;7200;720
t2166;7920;792
t2167;8280;828
t2168;8640;864
t2169;9360;936
t2170;10080;1008
t2171;10440;1044
t2172;10800;1080
t2173;10080;1008
t2174;9360;936
t2175;8640;864
t2176;7560;756
t2177;7200;720
t2178;7920;792
t2179;8640;864
t2180;10080;1008
t2181;9360;936
t2182;7920;792
t2183;6480;648
t2184;5760;576
t2185;6300;630
t2186;6750;675
t2187;7650;765
t2188;8550;855
t2189;9000;900
t2190;9900;990
t2191;10350;1035
t2192;10800;1080
t2193;11700;1170
t2194;12600;1260
t2195;13050;1305
t2196;13500;1350
t2197;12600;1260
t2198;11700;1170
t2199;10800;1080
t2200;9450;945
t2201;9000;900
t2202;9900;990
t2203;10800;1080
t2204;12600;1260
t2205;11700;1170
t2206;9900;990
t2207;8100;810
t2208;7200;720
t2209;6300;630
t2210;6750;675
t2211;7650;765
t2212;8550;855
t2213;9000;900
t2214;9900;990
t2215;10350;1035
t2216;10800;1080
t2217;11700;1170
t2218;12600;1260
t2219;13050;1305
t2220;13500;1350
t2221;12600;1260
t2222;11700;1170
t2223;10800;1080
t2224;9450;945
t2225;9000;900
t2226;9900;990
t2227;10800;1080
t2228;12600;1260
t2229;11700;1170
t2230;9900;990
t2231;8100;810
t2232;7200;720
t2233;6300;630
t2234;6750;675
t2235;7650;765
t2236;8550;855
t2237;9000;900
t2238;9900;990
t2239;10350;1035
t2240;10800;1080
t2241;11700;1170
t2242;12600;1260
t2243;13050;1305
t2244;13500;1350
t2245;12600;1260
t2246;11700;1170
t2247;10800;1080
t2248;9450;945
t2249;9000;900
t2250;9900;990
t2251;10800;1080
t2252;12600;1260
t2253;11700;1170
t2254;9900;990
t2255;8100;810
t2256;7200;720
t2257;6300;630
t2258;6750;675
t2259;7650;765
t2260;8550;855
t2261;9000;900
t2262;9900;990
t2263;10350;1035
t2264;10800;1080
t2265;11700;1170
t2266;12600;1260
t2267;13050;1305
t2268;13500;1350
t2269;12600;1260
t2270;11700;1170
t2271;10800;1080
t2272;9450;945
t2273;9000;900
t2274;9900;990
t2275;10800;1080
t2276;12600;1260
t2277;11700;1170
t2278;9900;990
t2279;8100;810
t2280;7200;720
t2281;6300;630
t2282;6750;675
t2283;7650;765
t2284;8550;855
t2285;9000;900
t2286;9900;990
t2287;10350;1035
t2288;10800;1080
t2289;11700;1170
t2290;12600;1260
t2291;13050;1305
t2292;13500;1350
t2293;12600;1260
t2294;11700;1170
t2295;10800;1080
t2296;9450;945
t2297;9000;900
t2298;9900;990
t2299;10800;1080
t2300;12600;1260
t2301;11700;1170
t2302;9900;990
t2303;8100;810
t2304;7200;720
t2305;5040;504
t2306;5400;540
t2307;6120;612
t2308;6840;684
t2309;7200;720
t2310;7920;792
t2311;8280;828
t2312;8640;864
t2313;9360;936
t2314;10080;1008
t2315;10440;1044
t2316;10800;1080
t2317;10080;1008
t2318;9360;936
t2319;8640;864
t2320;7560;756
t2321;7200;720
t2322;7920;792
t2323;8640;864
t2324;10080;1008
t2325;9360;936
t2326;7920;792
t2327;6480;648
t2328;5760;576
t2329;5040;504
t2330;5400;540
t2331;6120;612
t2332;6840;684
t2333;7200;720
t2334;7920;792
t2335;8280;828
t2336;8640;864
t2337;9360;936
t2338;10080;1008
t2339;10440;1044
t2340;10800;1080
t2341;10080;1008
t2342;9360;936
t2343;8640;864
t2344;7560;756
t2345;7200;720
t2346;7920;792
t2347;8640;864
t2348;10080;1008
t2349;9360;936
t2350;7920;792
t2351;6480;648
t2352;5760;576
t2353;6300;630
t2354;6750;675
t2355;7650;765
t2356;8550;855
t2357;9000;900
t2358;9900;990
t2359;10350;1035
t2360;10800;1080
t2361;11700;1170
t2362;12600;1260
t2363;13050;1305
t2364;13500;1350
t2365;12600;1260
t2366;11700;1170
t2367;10800;1080
t2368;9450;945
t2369;9000;900
t2370;9900;990
t2371;10800;1080
t2372;12600;1260
t2373;11700;1170
t2374;9900;990
t2375;8100;810
t2376;7200;720
t2377;6300;630
t2378;6750;675
t2379;7650;765
t2380;8550;855
t2381;9000;900
t2382;9900;990
t2383;10350;1035
t2384;10800;1080
t2385;11700;1170
t2386;12600;1260
t2387;13050;1305
t2388;13500;1350
t2389;12600;1260
t2390;11700;1170
t2391;10800;1080
t2392;9450;945
t2393;9000;900
t2394;9900;990
t2395;10800;1080
t2396;12600;1260
t2397;11700;1170
t2398;9900;990
t2399;8100;810
t2400;7200;720
t2401;6300;630
t2402;6750;675
t2403;7650;765
t2404;8550;855
t2405;9000;900
t2406;9900;990
t2407;10350;1035
t2408;10800;1080
t2409;11700;1170
t2410;12600;1260
t2411;13050;1305
t2412;13500;1350
t2413;12600;1260
t2414;11700;1170
t2415;10800;1080
t2416;9450;945
t2417;9000;900
t2418;9900;990
t2419;10800;1080
t2420;12600;1260
t2421;11700;1170
t2422;9900;990
t2423;8100;810
t2424;7200;720
t2425;6300;630
t2426;6750;675
t2427;7650;765
t2428;8550;855
t2429;9000;900
t2430;9900;990
t2431;10350;1035
t2432;10800;1080
t2433;11700;1170
t2434;12600;1260
t2435;13050;1305
t2436;13500;1350
t2437;12600;1260
t2438;11700;1170
t2439;10800;1080
t2440;9450;945
t2441;9000;900
t2442;9900;990
t2443;10800;1080
t2444;12600;1260
t2445;11700;1170
t2446;9900;990
t2447;8100;810
t2448;7200;720
t2449;6300;630
t2450;6750;675
t2451;7650;765
t2452;8550;855
t2453;9000;900
t2454;9900;990
t2455;10350;1035
t2456;10800;1080
t2457;11700;1170
t2458;12600;1260
t2459;13050;1305
t2460;13500;1350
t2461;12600;1260
t2462;11700;1170
t2463;10800;1080
t2464;9450;945
t2465;9000;900
t2466;9900;990
t2467;10800;1080
t2468;12600;1260
t2469;11700;1170
t2470;9900;990
t2471;8100;810
t2472;7200;720
t2473;5040;504
t2474;5400;540
t2475;6120;612
t2476;6840;684
t2477;7200;720
t2478;7920;792
t2479;8280;828
t2480;8640;864
t2481;9360;936
t2482;10080;1008
t2483;10440;1044
t2484;10800;1080
t2485;10080;1008
t2486;9360;936
t2487;8640;864
t2488;7560;756
t2489;7200;720
t2490;7920;792
t2491;8640;864
t2492;10080;1008
t2493;9360;936
t2494;7920;792
t2495;6480;648
t2496;5760;576
t2497;5040;504
t2498;5400;540
t2499;6120;612
t2500;6840;684
t2501;7200;720
t2502;7920;792
t2503;8280;828
t2504;8640;864
t2505;9360;936
t2506;10080;1008
t2507;10440;1044
t2508;10800;1080
t2509;10080;1008
t2510;9360;936
t2511;8640;864
t2512;7560;756
t2513;7200;720
t2514;7920;792
t2515;8640;864
t2516;10080;1008
t2517;9360;936
t2518;7920;792
t2519;6480;648
t2520;5760;576
t2521;6300;630
t2522;6750;675
t2523;7650;765
t2524;8550;855
t2525;9000;900
t2526;9900;990
t2527;10350;1035
t2528;10800;1080
t2529;11700;1170
t2530;12600;1260
t2531;13050;1305
t2532;13500;1350
t2533;12600;1260
t2534;11700;1170
t2535;10800;1080
t2536;9450;945
t2537;9000;900
t2538;9900;990
t2539;10800;1080
t2540;12600;1260
t2541;11700;1170
t2542;9900;990
t2543;8100;810
t2544;7200;720
t2545;6300;630
t2546;6750;675
t2547;7650;765
t2548;8550;855
t2549;9000;900
t2550;9900;990
t2551;10350;1035
t2552;10800;1080
t2553;11700;1170
t2554;12600;1260
t2555;13050;1305
t2556;13500;1350
t2557;12600;1260
t2558;11700;1170
t2559;10800;1080
t2560;9450;945
t2561;9000;900
t2562;9900;990
t2563;10800;1080
t2564;12600;1260
t2565;11700;1170
t2566;9900;990
t2567;8100;810
t2568;7200;720
t2569;6300;630
t2570;6750;675
t2571;7650;765
t2572;8550;855
t2573;9000;900
t2574;9900;990
t2575;10350;1035
t2576;10800;1080
t2577;11700;1170
t2578;12600;1260
t2579;13050;1305
t2580;13500;1350
t2581;12600;1260
t2582;11700;1170
t2583;10800;1080
t2584;9450;945
t2585;9000;900
t2586;9900;990
t2587;10800;1080
t2588;12600;1260
t2589;11700;1170
t2590;9900;990
t2591;8100;810
t2592;7200;720
t2593;6300;630
t2594;6750;675
t2595;7650;765
t2596;8550;855
t2597;9000;900
t2598;9900;990
t2599;10350;1035
t2600;10800;1080
t2601;11700;1170
t2602;12600;1260
t2603;13050;1305
t2604;13500;1350
t2605;12600;1260
t2606;11700;1170
t2607;10800;1080
t2608;9450;945
t2609;9000;900
t2610;9900;990
t2611;10800;1080
t2612;12600;1260
t2613;11700;1170
t2614;9900;990
t2615;8100;810
t2616;7200;720
t2617;6300;630
t2618;6750;675
t2619;7650;765
t2620;8550;855
t2621;9000;900
t2622;9900;990
t2623;10350;1035
t2624;10800;1080
t2625;11700;1170
t2626;12600;1260
t2627;13050;1305
t2628;13500;1350
t2629;12600;1260
t2630;11700;1170
t2631;10800;1080
t2632;9450;945
t2633;9000;900
t2634;9900;990
t2635;10800;1080
t2636;12600;1260
t2637;11700;1170
t2638;9900;990
t2639;8100;810
t2640;7200;720
t2641;5040;504
t2642;5400;540
t2643;6120;612
t2644;6840;684
t2645;7200;720
t2646;7920;792
t2647;8280;828
t2648;8640;864
t2649;9360;936
t2650;10080;1008
t2651;10440;1044
t2652;10800;1080
t2653;10080;1008
t2654;9360;936
t2655;8640;864
t2656;7560;756
t2657;7200;720
t2658;7920;792
t2659;8640;864
t2660;10080;1008
t2661;9360;936
t2662;7920;792
t2663;6480;648
t2664;5760;576
t2665;5040;504
t2666;5400;540
t2667;6120;612
t2668;6840;684
t2669;7200;720
t2670;7920;792
t2671;8280;828
t2672;8640;864
t2673;9360;936
t2674;10080;1008
t2675;10440;1044
t2676;10800;1080
t2677;10080;1008
t2678;9360;936
t2679;8640;864
t2680;7560;756
t2681;7200;720
t2682;7920;792
t2683;8640;864
t2684;10080;1008
t2685;9360;936
t2686;7920;792
t2687;6480;648
t2688;5760;576
t2689;6300;630
t2690;6750;675
t2691;7650;765
t2692;8550;855
t2693;9000;900
t2694;9900;990
t2695;10350;1035
t2696;10800;1080
t2697;11700;1170
t2698;12600;1260
t2699;13050;1305
t2700;13500;1350
t2701;12600;1260
t2702;11700;1170
t2703;10800;1080
t2704;9450;945
t2705;9000;900
t2706;9900;990
t2707;10800;1080
t2708;12600;1260
t2709;11700;1170
t2710;9900;990
t2711;8100;810
t2712;7200;720
t2713;6300;630
t2714;6750;675
t2715;7650;765
t2716;8550;855
t2717;9000;900
t2718;9900;990
t2719;10350;1035
t2720;10800;1080
t2721;11700;1170
t2722;12600;1260
t2723;13050;1305
t2724;13500;1350
t2725;12600;1260
t2726;11700;1170
t2727;10800;1080
t2728;9450;945
t2729;9000;900
t2730;9900;990
t2731;10800;1080
t2732;12600;1260
t2733;11700;1170
t2734;9900;990
t2735;8100;810
t2736;7200;720
t2737;6300;630
t2738;6750;675
t2739;7650;765
t2740;8550;855
t2741;9000;900
t2742;9900;990
t2743;10350;1035
t2744;10800;1080
t2745;11700;1170
t2746;12600;1260
t2747;13050;1305
t2748;13500;1350
t2749;12600;1260
t2750;11700;1170
t2751;10800;1080
t2752;9450;945
t2753;9000;900
t2754;9900;990
t2755;10800;1080
t2756;12600;1260
t2757;11700;1170
t2758;9900;990
t2759;8100;810
t2760;7200;720
t2761;6300;630
t2762;6750;675
t2763;7650;765
t2764;8550;855
t2765;9000;900
t2766;9900;990
t2767;10350;1035
t2768;10800;1080
t2769;11700;1170
t2770;12600;1260
t2771;13050;1305
t2772;13500;1350
t2773;12600;1260
t2774;11700;1170
t2775;10800;1080
t2776;9450;945
t2777;9000;900
t2778;9900;990
t2779;10800;1080
t2780;12600;1260
t2781;11700;1170
t2782;9900;990
t2783;8100;810
t2784;7200;720
t2785;6300;630
t2786;6750;675
t2787;7650;765
t2788;8550;855
t2789;9000;900
t2790;9900;990
t2791;10350;1035
t2792;10800;1080
t2793;11700;1170
t2794;12600;1260
t2795;13050;1305
t2796;13500;1350
t2797;12600;1260
t2798;11700;1170
t2799;10800;1080
t2800;9450;945
t2801;9000;900
t2802;9900;990
t2803;10800;1080
t2804;12600;1260
t2805;11700;1170
t2806;9900;990
t2807;8100;810
t2808;7200;720
t2809;5040;504
t2810;5400;540
t2811;6120;612
t2812;6840;684
t2813;7200;720
t2814;7920;792
t2815;8280;828
t2816;8640;864
t2817;9360;936
t2818;10080;1008
t2819;10440;1044
t2820;10800;1080
t2821;10080;1008
t2822;9360;936
t2823;8640;864
t2824;7560;756
t2825;7200;720
t2826;7920;792
t2827;8640;864
t2828;10080;1008
t2829;9360;936
t2830;7920;792
t2831;6480;648
t2832;5760;576
t2833;5040;504
t2834;5400;540
t2835;6120;612
t2836;6840;684
t2837;7200;720
t2838;7920;792
t2839;8280;828
t2840;8640;864
t2841;9360;936
t2842;10080;1008
t2843;10440;1044
t2844;10800;1080
t2845;10080;1008
t2846;9360;936
t2847;8640;864
t2848;7560;756
t2849;7200;720
t2850;7920;792
t2851;8640;864
t2852;10080;1008
t2853;9360;936
t2854;7920;792
t2855;6480;648
t2856;5760;576
t2857;6300;630
t2858;6750;675
t2859;7650;765
t2860;8550;855
t2861;9000;900
t2862;9900;990
t2863;10350;1035
t2864;10800;1080
t2865;11700;1170
t2866;12600;1260
t2867;13050;1305
t2868;13500;1350
t2869;12600;1260
t2870;11700;1170
t2871;10800;1080
t2872;9450;945
t2873;9000;900
t2874;9900;990
t2875;10800;1080
t2876;12600;1260
t2877;11700;1170
t2878;9900;990
t2879;8100;810
t2880;7200;720
t2881;6300;630
t2882;6750;675
t2883;7650;765
t2884;8550;855
t2885;9000;900
t2886;9900;990
t2887;10350;1035
t2888;10800;1080
t2889;11700;1170
t2890;12600;1260
t2891;13050;1305
t2892;13500;1350
t2893;12600;1260
t2894;11700;1170
t2895;10800;1080
t2896;9450;945
t2897;9000;900
t2898;9900;990
t2899;10800;1080
t2900;12600;1260
t2901;11700;1170
t2902;9900;990
t2903;8100;810
t2904;7200;720
t2905;6300;630
t2906;6750;675
t2907;7650;765
t2908;8550;855
t2909;9000;900
t2910;9900;990
t2911;10350;1035
t2912;10800;1080
t2913;11700;1170
t2914;12600;1260
t2915;13050;1305
t2916;13500;1350
t2917;12600;1260
t2918;11700;1170
t2919;10800;1080
t2920;9450;945
t2921;9000;900
t2922;9900;990
t2923;10800;1080
t2924;12600;1260
t2925;11700;1170
t2926;9900;990
t2927;8100;810
t2928;7200;720
t2929;6300;630
t2930;6750;675
t2931;7650;765
t2932;8550;855
t2933;9000;900
t2934;9900;990
t2935;10350;1035
t2936;10800;1080
t2937;11700;1170
t2938;12600;1260
t2939;13050;1305
t2940;13500;1350
t2941;12600;1260
t2942;11700;1170
t2943;10800;1080
t2944;9450;945
t2945;9000;900
t2946;9900;990
t2947;10800;1080
t2948;12600;1260
t2949;11700;1170
t2950;9900;990
t2951;8100;810
t2952;7200;720
t2953;6300;630
t2954;6750;675
t2955;7650;765
t2956;8550;855
t2957;9000;900
t2958;9900;990
t2959;10350;1035
t2960;10800;1080
t2961;11700;1170
t2962;12600;1260
t2963;13050;1305
t2964;13500;1350
t2965;12600;1260
t2966;11700;1170
t2967;10800;1080
t2968;9450;945
t2969;9000;900
t2970;9900;990
t2971;10800;1080
t2972;12600;1260
t2973;11700;1170
t2974;9900;990
t2975;8100;810
t2976;7200;720
t2977;5040;504
t2978;5400;540
t2979;6120;612
t2980;6840;684
t2981;7200;720
t2982;7920;792
t2983;8280;828
t2984;8640;864
t2985;9360;936
t2986;10080;1008
t2987;10440;1044
t2988;10800;1080
t2989;10080;1008
t2990;9360;936
t2991;8640;864
t2992;7560;756
t2993;7200;720
t2994;7920;792
t2995;8640;864
t2996;10080;1008
t2997;9360;936
t2998;7920;792
t2999;6480;648
t3000;5760;576
t3001;5040;504
t3002;5400;540
t3003;6120;612
t3004;6840;684
t3005;7200;720
t3006;7920;792
t3007;8280;828
t3008;8640;864
t3009;9360;936
t3010;10080;1008
t3011;10440;1044
t3012;10800;1080
t3013;10080;1008
t3014;9360;936
t3015;8640;864
t3016;7560;756
t3017;7200;720
t3018;7920;792
t3019;8640;864
t3020;10080;1008
t3021;9360;936
t3022;7920;792
t3023;6480;648
t3024;5760;576
t3025;6300;630
t3026;6750;675
t3027;7650;765
t3028;8550;855
t3029;9000;900
t3030;9900;990
t3031;10350;1035
t3032;10800;1080
t3033;11700;1170
t3034;12600;1260
t3035;13050;1305
t3036;13500;1350
t3037;12600;1260
t3038;11700;1170
t3039;10800;1080
t3040;9450;945
t3041;9000;900
t3042;9900;990
t3043;10800;1080
t3044;12600;1260
t3045;11700;1170
t3046;9900;990
t3047;8100;810
t3048;7200;720
t3049;6300;630
t3050;6750;675
t3051;7650;765
t3052;8550;855
t3053;9000;900
t3054;9900;990
t3055;10350;1035
t3056;10800;1080
t3057;11700;1170
t3058;12600;1260
t3059;13050;1305
t3060;13500;1350
t3061;12600;1260
t3062;11700;1170
t3063;10800;1080
t3064;9450;945
t3065;9000;900
t3066;9900;990
t3067;10800;1080
t3068;12600;1260
t3069;11700;1170
t3070;9900;990
t3071;8100;810
t3072;7200;720
t3073;6300;630
t3074;6750;675
t3075;7650;765
t3076;8550;855
t3077;9000;900
t3078;9900;990
t3079;10350;1035
t3080;10800;1080
t3081;11700;1170
t3082;12600;1260
t3083;13050;1305
t3084;13500;1350
t3085;12600;1260
t3086;11700;1170
t3087;10800;1080
t3088;9450;945
t3089;9000;900
t3090;9900;990
t3091;10800;1080
t3092;12600;1260
t3093;11700;1170
t3094;9900;990
t3095;8100;810
t3096;7200;720
t3097;6300;630
t3098;6750;675
t3099;7650;765
t3100;8550;855
t3101;9000;900
t3102;9900;990
t3103;10350;1035
t3104;10800;1080
t3105;11700;1170
t3106;12600;1260
t3107;13050;1305
t3108;13500;1350
t3109;12600;1260
t3110;11700;1170
t3111;10800;1080
t3112;9450;945
t3113;9000;900
t3114;9900;990
t3115;10800;1080
t3116;12600;1260
t3117;11700;1170
t3118;9900;990
t3119;8100;810
t3120;7200;720
t3121;6300;630
t3122;6750;675
t3123;7650;765
t3124;8550;855
t3125;9000;900
t3126;9900;990
t3127;10350;1035
t3128;10800;1080
t3129;11700;1170
t3130;12600;1260
t3131;13050;1305
t3132;13500;1350
t3133;12600;1260
t3134;11700;1170
t3135;10800;1080
t3136;9450;945
t3137;9000;900
t3138;9900;990
t3139;10800;1080
t3140;12600;1260
t3141;11700;1170
t3142;9900;990
t3143;8100;810
t3144;7200;720
t3145;5040;504
t3146;5400;540
t3147;6120;612
t3148;6840;684
t3149;7200;720
t3150;7920;792
t3151;8280;828
t3152;8640;864
t3153;9360;936
t3154;10080;1008
t3155;10440;1044
t3156;10800;1080
t3157;10080;1008
t3158;9360;936
t3159;8640;864
t3160;7560;756
t3161;7200;720
t3162;7920;792
t3163;8640;864
t3164;10080;1008
t3165;9360;936
t3166;7920;792
t3167;6480;648
t3168;5760;576
t3169;5040;504
t3170;5400;540
t3171;6120;612
t3172;6840;684
t3173;7200;720
t3174;7920;792
t3175;8280;828
t3176;8640;864
t3177;9360;936
t3178;10080;1008
t3179;10440;1044
t3180;10800;1080
t3181;10080;1008
t3182;9360;936
t3183;8640;864
t3184;7560;756
t3185;7200;720
t3186;7920;792
t3187;8640;864
t3188;10080;1008
t3189;9360;936
t3190;7920;792
t3191;6480;648
t3192;5760;576
t3193;6300;630
t3194;6750;675
t3195;7650;765
t3196;8550;855
t3197;9000;900
t3198;9900;990
t3199;10350;1035
t3200;10800;1080
t3201;11700;1170
t3202;12600;1260
t3203;13050;1305
t3204;13500;1350
t3205;12600;1260
t3206;11700;1170
t3207;10800;1080
t3208;9450;945
t3209;9000;900
t3210;9900;990
t3211;10800;1080
t3212;12600;1260
t3213;11700;1170
t3214;9900;990
t3215;8100;810
t3216;7200;720
t3217;6300;630
t3218;6750;675
t3219;7650;765
t3220;8550;855
t3221;9000;900
t3222;9900;990
t3223;10350;1035
t3224;10800;1080
t3225;11700;1170
t3226;12600;1260
t3227;13050;1305
t3228;13500;1350
t3229;12600;1260
t3230;11700;1170
t3231;10800;1080
t3232;9450;945
t3233;9000;900
t3234;9900;990
t3235;10800;1080
t3236;12600;1260
t3237;11700;1170
t3238;9900;990
t3239;8100;810
t3240;7200;720
t3241;6300;630
t3242;6750;675
t3243;7650;765
t3244;8550;855
t3245;9000;900
t3246;9900;990
t3247;10350;1035
t3248;10800;1080
t3249;11700;1170
t3250;12600;1260
t3251;13050;1305
t3252;13500;1350
t3253;12600;1260
t3254;11700;1170
t3255;10800;1080
t3256;9450;945
t3257;9000;900
t3258;9900;990
t3259;10800;1080
t3260;12600;1260
t3261;11700;1170
t3262;9900;990
t3263;8100;810
t3264;7200;720
t3265;6300;630
t3266;6750;675
t3267;7650;765
t3268;8550;855
t3269;9000;900
t3270;9900;990
t3271;10350;1035
t3272;10800;1080
t3273;11700;1170
t3274;12600;1260
t3275;13050;1305
t3276;13500;1350
t3277;12600;1260
t3278;11700;1170
t3279;10800;1080
t3280;9450;945
t3281;9000;900
t3282;9900;990
t3283;10800;1080
t3284;12600;1260
t3285;11700;1170
t3286;9900;990
t3287;8100;810
t3288;7200;720
t3289;6300;630
t3290;6750;675
t3291;7650;765
t3292;8550;855
t3293;9000;900
t3294;9900;990
t3295;10350;1035
t3296;10800;1080
t3297;11700;1170
t3298;12600;1260
t3299;13050;1305
t3300;13500;1350
t3301;12600;1260
t3302;11700;1170
t3303;10800;1080
t3304;9450;945
t3305;9000;900
t3306;9900;990
t3307;10800;1080
t3308;12600;1260
t3309;11700;1170
t3310;9900;990
t3311;8100;810
t3312;7200;720
t3313;5040;504
t3314;5400;540
t3315;6120;612
t3316;6840;684
t3317;7200;720
t3318;7920;792
t3319;8280;828
t3320;8640;864
t3321;9360;936
t3322;10080;1008
t3323;10440;1044
t3324;10800;1080
t3325;10080;1008
t3326;9360;936
t3327;8640;864
t3328;7560;756
t3329;7200;720
t3330;7920;792
t3331;8640;864
t3332;10080;1008
t3333;9360;936
t3334;7920;792
t3335;6480;648
t3336;5760;576
t3337;5040;504
t3338;5400;540
t3339;6120;612
t3340;6840;684
t3341;7200;720
t3342;7920;792
t3343;8280;828
t3344;8640;864
t3345;9360;936
t3346;10080;1008
t3347;10440;1044
t3348;10800;1080
t3349;10080;1008
t3350;9360;936
t3351;8640;864
t3352;7560;756
t3353;7200;720
t3354;7920;792
t3355;8640;864
t3356;10080;1008
t3357;9360;936
t3358;7920;792
t3359;6480;648
t3360;5760;576
